{
    "type": "object",
    "properties": {
        "date": {
            "type": ["string"],
            "format": "date-time"
        },
        "package_name": {
            "type": ["null", "string"]
        },
        "country": {
            "type": ["null", "string"]
        },
        "store_listing_visitors": {
            "type": ["number"]
        },
        "installers": {
            "type": ["number"]
        },
        "visitor-to-installer_conversion_rate": {
            "type": ["number"]
        },
        "median_visitor-to-installer_conversion_rate_benchmark": {
            "type": ["null", "number"]
        },
        "buyers": {
            "type": ["number"]
        },
        "installer-to-buyer_conversion_rate": {
            "type": ["number"]
        },
        "repeat_buyers": {
            "type": ["number"]
        },
        "buyer-to-repeat_buyer_conversion_rate": {
            "type": ["null", "number"]
        },
        "report_updated": {
            "type": ["string"],
            "format": "date-time"
        }
    }
}
