{
    "type": "object",
    "properties": {
        "cancellation_date": {
            "type": ["string"],
            "format": "date-time"
        },
        "sku_id": {
            "type": ["string"]
        },
        "country": {
            "type": ["string"]
        },
        "response": {
            "type": ["string"]
        },
        "report_updated": {
            "type": ["string"],
            "format": "date-time"
        }
    }
}
