{
    "type": "object",
    "properties": {
        "date": {
            "type": ["string"],
            "format": "date-time"
        },
        "package_name": {
            "type": ["string"]
        },
        "country": {
            "type": ["null", "string"]
        },
        "current_device_installs": {
            "type": ["number"]
        },
        "daily_device_installs": {
            "type": ["number"]
        },
        "daily_device_uninstalls": {
            "type": ["number"]
        },
        "daily_device_upgrades": {
            "type": ["number"]
        },
        "current_user_installs": {
            "type": ["number"]
        },
        "total_user_installs": {
            "type": ["number"]
        },
        "daily_user_installs": {
            "type": ["number"]
        },
        "daily_user_uninstalls": {
            "type": ["number"]
        },
        "active_device_installs": {
            "type": ["number"]
        },
        "install_events": {
            "type": ["number"]
        },
        "update_events": {
            "type": ["number"]
        },
        "uninstall_events": {
            "type": ["number"]
        },
        "report_updated": {
            "type": ["string"],
            "format": "date-time"
        }
    }
}
