{
    "type": "object",
    "properties": {
        "order_number": {
            "type": ["number"]
        },
        "order_charged_date": {
            "type": ["string"],
            "format": "date-time"
        },
        "financial_status": {
            "type": ["string"]
        },
        "play_balance_funding_amount": {
            "type": ["string"]
        },
        "play_balance_currency": {
            "type": ["string"]
        },
        "order_charged_timestamp": {
            "type": ["number"]
        },
        "report_updated": {
            "type": ["string"],
            "format": "date-time"
        }
    }
}
