{
    "type": "object",
    "properties": {
        "date": {
            "type": ["string"],
            "format": "date-time"
        },
        "package_name": {
            "type": ["string"]
        },
        "device": {
            "type": ["null", "string"]
        },
        "daily_average_rating": {
            "type": ["string"]
        },
        "total_average_rating": {
            "type": ["number"]
        },
        "report_updated": {
            "type": ["string"],
            "format": "date-time"
        }
    }
}
