{
    "type": "object",
    "properties": {
        "package_name": {
            "type": ["string"]
        },
        "app_version_code": {
            "type": ["null", "number"]
        },
        "app_version_name": {
            "type": ["null", "string"]
        },
        "reviewer_language": {
            "type": ["null", "string"]
        },
        "device": {
            "type": ["null", "string"]
        },
        "review_submit_date_and_time": {
            "type": ["string"],
            "format": "date-time"
        },
        "review_submit_millis_since_epoch": {
            "type": ["number"]
        },
        "review_last_update_date_and_time": {
            "type": ["null", "string"],
            "format": "date-time"
        },
        "review_last_update_millis_since_epoch": {
            "type": ["null", "number"]
        },
        "star_rating": {
            "type": ["number"]
        },
        "review_title": {
            "type": ["null", "string"]
        },
        "review_text": {
            "type": ["null", "string"]
        },
        "developer_reply_date_and_time": {
            "type": ["null", "string"],
            "format": "date-time"
        },
        "developer_reply_millis_since_epoch": {
            "type": ["null", "number"]
        },
        "developer_reply_text": {
            "type": ["null", "string"]
        },
        "review_link": {
            "type": ["null", "string"]
        },
        "report_updated": {
            "type": ["string"],
            "format": "date-time"
        }
    }
}
