{
    "type": "object",
    "properties": {
        "date": {
            "type": ["string"],
            "format": "date-time"
        },
        "package_name": {
            "type": ["string"]
        },
        "product_id": {
            "type": ["string"]
        },
        "country": {
            "type": ["string"]
        },
        "new_subscriptions": {
            "type": ["number"]
        },
        "cancelled_subscriptions": {
            "type": ["number"]
        },
        "active_subscriptions": {
            "type": ["number"]
        },
        "report_updated": {
            "type": ["string"],
            "format": "date-time"
        }
    }
}
