{
  "name": "integration",
  "description": "Integration",
  "override_attributes": {
    "mongodb3": {
      "package": {
        "version": "3.4.3-1.amzn1",
        "repo": {
          "url": "https://repo.mongodb.org/yum/amazon/2013.03/mongodb-org/3.4/x86_64/"
        }
      },
      "version": "3.4.3"
    }
  },
  "default_attributes": {
    "airflow": {
      "config": {
        "webserver": {
          "base_url": "https://surflow-dev.surflineadmin.com:443"
        },
        "celery": {
          "broker_url": "redis://sle1squr1y8fhrgy.3wn8p9.ng.0001.usw1.cache.amazonaws.com:6379/15",
          "celery_result_backend": "redis://sle1squr1y8fhrgy.3wn8p9.ng.0001.usw1.cache.amazonaws.com:6379/15"
        }
      }
    },
    "mongodb3": {
      "config": {
        "mongod": {
          "replication": {
            "replSetName": "sl-mongo-integration-rs"
          }
        }
      },
      "version": "3.4.3"
    },
    "newrelic": {
      "license": "a26ab469b2d2b56766af51d1c8c436e736ba72bf"
    },
    "newrelic_meetme_plugin": {
      "license": "a26ab469b2d2b56766af51d1c8c436e736ba72bf",
      "prefix": "/usr/local/bin"
    },
    "sing": {
      "data_bag": "sturdy-sing-dev"
    },
    "surfline-airflow": {
      "artifactory": {
        "path": "/surfline/api/pypi/pypi-dev/simple"
      }
    },
    "surfline-coldfusion": {
      "coldfusion8": {
        "bucket": "sl-artifacts-dev",
        "location_flag": "development"
      }
    },
    "surfline-common": {
      "route53": {
        "domain_name": "aws.surfline.com",
        "zone_id": "ZWONYSN4O2R94"
      }
    },
    "surfline-nfs": {
      "client4": {
        "mounts": {
          "dev-nfs-primary-1.aws.surfline.com:/ocean_aws_dev": "/ocean2_fs"
        },
        "options": "rw"
      }
    },
    "surfline-nginx": {
      "upstream": {
        "3scale": "sl-app-coldfusion-dev.aws.surfline.com",
        "fishtrack": "sl-app-coldfusion-dev.aws.surfline.com",
        "oauth2": "sl-oauth2-staging.aws.surfline.com",
        "varnish": "internal-sl-cache-varnish-staging-1207571358.us-west-1.elb.amazonaws.com",
        "editorial": "int-edit-cms.integration.surfline.com",
        "homepage": "internal-homepage.integration.surfline.com",
        "kbyg": "internal-kbyg.integration.surfline.com",
        "travel": "internal-travel.integration.surfline.com",
        "onboarding": "internal-onboarding.integration.surfline.com",
        "subscription": "sl-subs-svc-sbox.us-west-1.elasticbeanstalk.com",
        "subscription-redesign": "sl-subs-svc-sbox.us-west-1.elasticbeanstalk.com",
        "www": "sl-app-coldfusion-dev.aws.surfline.com",
        "micro-services-proxy": {
          "auth_service": "sl-auth-service-sbox.us-west-1.elasticbeanstalk.com",
          "user_service": "sl-user-svc-sbox.us-west-1.elasticbeanstalk.com",
          "password_reset_service": "sl-pwd-reset-svc-sbox.us-west-1.elasticbeanstalk.com",
          "geo_target_service": "sl-geo-targt-svc-sbox.us-west-1.elasticbeanstalk.com",
          "entitlements_service": "sl-entitle-svc-sbox.us-west-1.elasticbeanstalk.com",
          "subscription_service_backend": "sl-subs-svc-bckd-sbox.us-west-1.elasticbeanstalk.com",
          "openresty": "services.sandbox.surfline.com"
        },
        "proto": {
          "editorial": "https"
        }
      },
      "downstream": {
        "mvp": "new.integration.surfline.com",
        "www": "sandbox.surfline.com"
      },
      "cdn": {
        "product-services": "product-cdn.integration.surfline.com"
      }
    },
    "surfline-science": {
      "bucket": "sl-artifacts-dev"
    },
    "tz": "UTC"
  },
  "override_attributes": {
    "mongodb3": {
      "package": {
        "version": "3.4.3-1.amzn1",
        "repo": {
          "url": "https://repo.mongodb.org/yum/amazon/2013.03/mongodb-org/3.4/x86_64/"
        }
      },
      "version": "3.4.3"
    }
  }
}
