{
  "name": "prod",
  "description": "Production",
  "cookbook_versions": {
    "bw-proxy": "~> 2.0.0",
    "bw-wordpress": "= 1.1.0",
    "surfline-airflow": "~> 1.8.0",
    "surfline-airflow-celery": "= 2.6.1",
    "surfline-base": "= 1.0.1",
    "surfline-coldfusion": "= 2.18.1",
    "surfline-common": "~> 1.7.0",
    "surfline-ecs": "~> 1.0.0",
    "surfline-nfs": "~> 1.3.0",
    "surfline-nginx": "~> 1.14.0",
    "surfline-science": "~> 1.21.0",
    "sturdy-sing": "= 1.1.1",
    "surfline-varnish": "= 1.10.0",
    "surfline-api": "~> 1.0.0"
  },
  "override_attributes": {
    "mongodb3": {
      "package": {
        "version": "3.4.3-1.amzn1",
        "repo": {
          "url": "https://repo.mongodb.org/yum/amazon/2013.03/mongodb-org/3.4/x86_64/"
        }
      },
      "version": "3.4.3"
    }
  },
  "default_attributes": {
    "airflow": {
      "config": {
        "webserver": {
          "base_url": "https://surflow.surflineadmin.com:443"
        },
        "celery": {
          "broker_url": "redis://sl-bestmodels-redis-prod.aws.surfline.com:6379/15",
          "celery_result_backend": "redis://sl-bestmodels-redis-prod.aws.surfline.com:6379/15"
        }
      }
    },
    "bw-proxy": {
      "bucket": "bw-artifacts-prod"
    },
    "bw-wordpress": {
      "bucket": "bw-artifacts-prod"
    },
    "sing": {
      "strongswan_version": "5.3.2-1.el6"
    },
    "mongodb3": {
      "config": {
        "mongod": {
          "replication": {
            "replSetName": "sl-mongo-prod-rs"
          }
        }
      },
      "version": "3.4.3"
    },
    "newrelic": {
      "enabled": "true",
      "license": "a26ab469b2d2b56766af51d1c8c436e736ba72bf"
    },
    "newrelic_meetme_plugin": {
      "license": "a26ab469b2d2b56766af51d1c8c436e736ba72bf",
      "prefix": "/usr/local/bin"
    },
    "surfline-coldfusion": {
      "coldfusion8": {
        "bucket": "sl-artifacts-prod",
        "location_flag": "production"
      },
      "subs": {
        "fishtrack_url": "http://ft-subs-service-fe-prod.us-west-1.elasticbeanstalk.com"
      }
    },
    "surfline-common": {
      "route53": {
        "domain_name": "aws.surfline.com",
        "zone_id": "ZWONYSN4O2R94"
      }
    },
    "surfline-nfs": {
      "client4": {
        "mounts": {
          "prod-nfs-primary-1.aws.surfline.com:/ocean_aws_prod": "/ocean2_fs"
        },
        "options": "rw"
      }
    },
    "surfline-nginx": {
      "upstream": {
        "3scale": "internal-sl-api-3scale-prod-1843986919.us-west-1.elb.amazonaws.com",
        "fishtrack": "sl-fishtrack-coldfusion-prod.aws.surfline.com",
        "oauth2": "sl-oauth2-prod.aws.surfline.com",
        "varnish": "internal-sl-cache-varnish-prod-1584820028.us-west-1.elb.amazonaws.com",
        "editorial": "int-edit-cms.surfline.com",
        "homepage": "internal-homepage.surfline.com",
        "kbyg": "internal-kbyg.surfline.com",
        "travel": "internal-travel.surfline.com",
        "onboarding": "internal-onboarding.surfline.com",
        "subscription": "subscription-svc-prod.us-west-1.elasticbeanstalk.com",
        "subscription-redesign": "subscript-svc-new-prod.us-west-1.elasticbeanstalk.com",
        "www": "sl-app-coldfusion-prod.aws.surfline.com",
        "micro-services-proxy": {
          "auth_service": "auth-service-prod.us-west-1.elasticbeanstalk.com",
          "user_service": "user-service-prod.us-west-1.elasticbeanstalk.com",
          "password_reset_service": "password-reset-svc-prod.us-west-1.elasticbeanstalk.com",
          "geo_target_service": "geo-target-svc-prod.us-west-1.elasticbeanstalk.com",
          "entitlements_service": "entitlements-svc-prod.us-west-1.elasticbeanstalk.com",
          "subscription_service_backend": "subscr-backend-svc-prod.us-west-1.elasticbeanstalk.com",
          "openresty": "services.surfline.com"
        },
        "proto": {
          "editorial": "https"
        }
      },
      "downstream": {
        "mvp": "new.surfline.com",
        "www": "www.surfline.com"
      },
      "cdn": {
        "product-services": "wa.cdn-surfline.com"
      }
    },
    "surfline-science": {
      "bucket": "sl-artifacts-prod",
      "artifactory": {
        "package_directory": "/pypi/simple"
      }
    },
    "surfline-varnish": {
      "backend": {
        "api": "sl-api-coldfusion-prod.aws.surfline.com",
        "api_int": "sl-api-int-coldfusion-prod.aws.surfline.com",
        "fishtrack": "sl-fishtrack-coldfusion-prod.aws.surfline.com",
        "marineapi": "sl-marineapi-coldfusion-prod.aws.surfline.com",
        "www": "sl-app-coldfusion-prod.aws.surfline.com"
      }
    },
    "tz": "UTC"
  }
}
