
{
  "clipId": "507f191e810c19729de860ea",
  "cameraId": "583499c4e411dc743a5d5296",
  "startTimestampInMs": 1534305591000,
  "endTimestampInMs": 1534305611000,
  "status": "CLIP_AVAILABLE",
  "bucket": "sl-cam-clip-archive-prod",
  "clip": {
    "url": "https://clips.cdn-surfline.com/583499c4e411dc743a5d5296/507f191e810c19729de860ea.mp4",
    "key": "/583499c4e411dc743a5d5296/507f191e810c19729de860ea.mp4"
  },
  "thumbnail": {
    "url": "https://clips.cdn-surfline.com/583499c4e411dc743a5d5296/507f191e810c19729de860ea_{size}.png",
    "key": "/583499c4e411dc743a5d5296/507f191e810c19729de860ea_{size}.png",
    "sizes": [300, 640, 1500, 3000]
  }
}

