aws-cfn-bootstrap==1.4
awscli==1.11.115
Babel==0.9.4
backports.functools-lru-cache==1.6.1
backports.ssl-match-hostname==3.4.0.2
boto==2.48.0
botocore==1.5.78
chardet==2.0.1
cloud-init==0.7.6
colorama==0.3.7
configobj==4.7.2
cycler==0.10.0
docutils==0.15.2
ecdsa==0.11
enum34==1.1.6
folium==0.2.1
futures==3.3.0
hibagent==1.0.0
iniparse==0.3.1
Jinja2==2.7.2
jmespath==0.9.4
jsonpatch==1.2
jsonpointer==1.0
kitchen==1.1.1
kiwisolver==1.1.0
lockfile==0.8
MarkupSafe==0.11
matplotlib==2.2.4
numpy==1.16.5
paramiko==1.15.1
PIL==1.1.6
ply==3.4
pyarrow==0.15.1
pyasn1==0.4.7
pycrypto==2.6.1
pycurl==7.19.0
pygpgme==0.3
pyliblzma==0.5.3
pyparsing==2.4.2
pystache==0.5.3
python-daemon==1.5.2
python-dateutil==2.8.1
pytz==2019.3
pyxattr==0.5.0
PyYAML==3.12
redis==3.3.11
requests==1.2.3
rsa==3.4.2
s3transfer==0.1.13
simplejson==3.6.5
six==1.12.0
subprocess32==3.5.4
surfline-data-extraction==4.0.1
urlgrabber==3.10
urllib3==1.8.2
virtualenv==15.1.0
yum-metadata-parser==1.1.4
