{
  "__v": 0,
  "alias": "cam01",
  "title": "Test title",
  "_id": "57c9e77174d8f8d01e3ccd83",
  "modifiedDate": "2016-09-02T20:56:17.462Z",
  "message": "",
  "isDown": {
    "id": 0,
    "title": "No",
    "message": "",
    "status": false
  },
  "streamUrl": "http://livestream.cdn-surfline.com/cdn-live/_definst_/surfline/secure/live/wc-cam01.smil/playlist.m3u8",
  "stillUrl": "http://camstills.cdn-surfline.com/cam01/latest_small.jpg",
  "rewindBaseUrl": "http://live-cam-archive.cdn-surfline.com/cam01/cam01"
}