{
  "id": "prod",
  "route53": {
    "encrypted_data": "VPniCkI+2FJh3OVjFAlmtXScLQX1LYgF4ZAcBrO/8bLTutuZzL2/od/VFdqr\nj98Xt2XCeWlC1khH4FEtSq/mKBRsUYCYHihbIEpAMIrDAikCjQb3eYxAbN9j\nkJJix6Ux3ZYOhAN1pNsgHbDApql+grpjySOg6E2okJUlPhu2YTJ2diu30Kci\ns3F/liRjm1ww\n",
    "iv": "kPVLzBmGiwYjjR3ABCsP2A==\n",
    "version": 1,
    "cipher": "aes-256-cbc"
  }
}