{
  "id": "staging",
  "route53": {
    "encrypted_data": "czQgLPyqjm5vNoPLU1k3/7UyDbeDYI72HsmMOaUoJ4kbkh30hJsYEEq01JPi\ncV7qdLaZn8D1AXdaJOFfLY3tnjr3ZgP/C05By5baPS3otk8L9aj0AyGaPMgg\nJI6leR53ycnvaeGnGcq0C8pHYQZqdYpDlxuvkwSo53EVXQCLHotdyHuncJpp\nZyD+QlC/drmK\n",
    "iv": "eRRQxAiyRq5GDci5mx2DGg==\n",
    "version": 1,
    "cipher": "aes-256-cbc"
  }
}