[
  {
    "name": "python",
    "find": "environment*.y*ml",
    "steps": [
      "[ -f ${APP_PATH}/ci.json ] && (jq -er '.language.version // empty' < ${APP_PATH}/ci.json) || true",
      "[ -f ${APP_PATH}/environment.yml ] && (grep 'python=' ${APP_PATH}/environment.yml | cut -d '=' -f 2) || true",
      "[ -f ${APP_PATH}/environment.devenv.yml ] && (grep 'python=' ${APP_PATH}/environment.devenv.yml | cut -d '=' -f 2) || true",
      "[ -f ${APP_PATH}/Dockerfile ] && (egrep -i 'FROM.*python:' ${APP_PATH}/Dockerfile | head -1 | cut -d ':' -f 2 | cut -d ' ' -f 1) || true",
      "echo 3.8"
    ]
  },
  {
    "name": "nodejs",
    "find": "package.json",
    "steps": [
      "[ -f ${APP_PATH}/ci.json ] && (jq -er '.language.version // empty' < ${APP_PATH}/ci.json) || true",
      "[ -f ${APP_PATH}/.nvmrc ] && cat ${APP_PATH}/.nvmrc || true",
      "[ -f ${APP_PATH}/.node-version ] && cat ${APP_PATH}/.node-version || true",
      "[ -f ${APP_PATH}/package.json ] && (jq -er '.engines.node // empty' < ${APP_PATH}/package.json) || true",
      "[ -f ${APP_PATH}/Dockerfile ] && (egrep -i 'FROM.*node:' ${APP_PATH}/Dockerfile | head -1 | cut -d ':' -f 2 | cut -d ' ' -f 1) || true",
      "echo 14.x"
    ]
  },
  {
    "name": "other",
    "find": "Dockerfile",
    "steps": [
      "[ -f ${APP_PATH}/Dockerfile ] && (egrep -i ' AS test' ${APP_PATH}/Dockerfile | head -1 | cut -d ':' -f 1 | cut -d ' ' -f 2) || true"
    ]
  }
]
