{
  "Version": "2012-10-17",
  "Statement": {
    "Action": [
      "es:ESHttp*",
      "es:Describe*",
      "es:List*"
    ],
    "Resource": "${elasticsearch_arn}/*",
    "Effect": "Allow",
    "Sid": "AllowAccessToElasticSearch"
  }
}
