{
	"info": {
		"_postman_id": "435ecf60-5e7d-4ace-b423-6bde5bd6c75f",
		"name": "Metering Service",
		"description": "Surfline Metering Service API's",
		"schema": "https://schema.getpostman.com/json/collection/v2.1.0/collection.json"
	},
	"item": [
		{
			"name": "GET /meter",
			"request": {
				"method": "GET",
				"header": [],
				"url": {
					"raw": "http://services{{ENVIRONMENT}}.surfline.com/meter?accesstoken={{ACCESS_TOKEN}}",
					"protocol": "http",
					"host": [
						"services{{ENVIRONMENT}}",
						"surfline",
						"com"
					],
					"path": [
						"meter"
					],
					"query": [
						{
							"key": "accesstoken",
							"value": "{{ACCESS_TOKEN}}"
						}
					]
				}
			},
			"response": []
		},
		{
			"name": "POST /meter/anonymous",
			"request": {
				"method": "POST",
				"header": [],
				"body": {
					"mode": "raw",
					"raw": "{\n    \"anonymousId\": {{ANONYMOUS_ID}}\n}",
					"options": {
						"raw": {
							"language": "json"
						}
					}
				},
				"url": {
					"raw": "http://services{{ENVIRONMENT}}.surfline.com/meter/anonymous",
					"protocol": "http",
					"host": [
						"services{{ENVIRONMENT}}",
						"surfline",
						"com"
					],
					"path": [
						"meter",
						"anonymous"
					]
				},
				"description": "Create an anonymous meter"
			},
			"response": []
		},
		{
			"name": "POST /meter",
			"request": {
				"method": "POST",
				"header": [],
				"body": {
					"mode": "raw",
					"raw": "{\n    \"anonymousId\": \"0c228920-febf-11ea-b1f7-7f531d3dbbeb\",\n    \"countryCode\": \"US\"\n}",
					"options": {
						"raw": {
							"language": "json"
						}
					}
				},
				"url": {
					"raw": "https://services{{ENVIRONMENT}}.surfline.com/meter?accesstoken={{ACCESS_TOKEN}}",
					"protocol": "https",
					"host": [
						"services{{ENVIRONMENT}}",
						"surfline",
						"com"
					],
					"path": [
						"meter"
					],
					"query": [
						{
							"key": "accesstoken",
							"value": "{{ACCESS_TOKEN}}"
						}
					]
				},
				"description": "Create a new meter for a logged in user"
			},
			"response": []
		},
		{
			"name": "GET /meter/anonymous",
			"protocolProfileBehavior": {
				"disableBodyPruning": true
			},
			"request": {
				"method": "GET",
				"header": [],
				"body": {
					"mode": "raw",
					"raw": "",
					"options": {
						"raw": {
							"language": "json"
						}
					}
				},
				"url": {
					"raw": "http://services{{ENVIRONMENT}}.surfline.com/meter/anonymous/{{ANONYMOUS_ID}}",
					"protocol": "http",
					"host": [
						"services{{ENVIRONMENT}}",
						"surfline",
						"com"
					],
					"path": [
						"meter",
						"anonymous",
						"{{ANONYMOUS_ID}}"
					]
				},
				"description": "Get an anonymous ID's associated meter"
			},
			"response": []
		},
		{
			"name": "PATCH /surf-check",
			"request": {
				"method": "PATCH",
				"header": [
					{
						"key": "Content-Type",
						"value": "application/json",
						"disabled": true
					}
				],
				"url": {
					"raw": "https://services{{ENVIRONMENT}}.surfline.com/meter/surf-check?accesstoken={{ACCESS_TOKEN}}",
					"protocol": "https",
					"host": [
						"services{{ENVIRONMENT}}",
						"surfline",
						"com"
					],
					"path": [
						"meter",
						"surf-check"
					],
					"query": [
						{
							"key": "accesstoken",
							"value": "{{ACCESS_TOKEN}}"
						}
					]
				},
				"description": "Consume or extend a surf check"
			},
			"response": []
		},
		{
			"name": "GET /surf-check",
			"request": {
				"method": "GET",
				"header": [],
				"url": {
					"raw": "https://services{{ENVIRONMENT}}.surfline.com/meter/surf-check?accesstoken={{ACCESS_TOKEN}}",
					"protocol": "https",
					"host": [
						"services{{ENVIRONMENT}}",
						"surfline",
						"com"
					],
					"path": [
						"meter",
						"surf-check"
					],
					"query": [
						{
							"key": "accesstoken",
							"value": "{{ACCESS_TOKEN}}"
						}
					]
				}
			},
			"response": []
		},
		{
			"name": "PATCH /meter/anonymous",
			"request": {
				"method": "PATCH",
				"header": [],
				"body": {
					"mode": "raw",
					"raw": "",
					"options": {
						"raw": {
							"language": "json"
						}
					}
				},
				"url": {
					"raw": "http://services{{ENVIRONMENT}}.surfline.com/meter/anonymous/{{ANONYMOUS_ID}}",
					"protocol": "http",
					"host": [
						"services{{ENVIRONMENT}}",
						"surfline",
						"com"
					],
					"path": [
						"meter",
						"anonymous",
						"{{ANONYMOUS_ID}}"
					]
				},
				"description": "consume a surf check for an anonymous ID"
			},
			"response": []
		}
	],
	"event": [
		{
			"listen": "prerequest",
			"script": {
				"id": "ed447588-1bcb-468f-9917-cec135ed3c24",
				"type": "text/javascript",
				"exec": [
					""
				]
			}
		},
		{
			"listen": "test",
			"script": {
				"id": "341b31f5-7270-45d0-9d88-cb8cd0a29c6d",
				"type": "text/javascript",
				"exec": [
					""
				]
			}
		}
	],
	"variable": [
		{
			"id": "b340e5e0-043d-4968-8baa-7a1a4611488b",
			"key": "USER_ID",
			"value": "1"
		},
		{
			"id": "ac321f0d-81e2-4c93-8ed1-aa34756cc1ba",
			"key": "ANONYMOUS_ID",
			"value": "1"
		},
		{
			"id": "49c6f336-43f7-4ba1-901d-8faff05a39be",
			"key": "ACCESS_TOKEN",
			"value": "1"
		},
		{
			"id": "8b4803d9-1a02-41f4-b6aa-2d1cd4daf5cd",
			"key": "ENVIRONMENT",
			"value": ".sandbox"
		}
	],
	"protocolProfileBehavior": {}
}