<?xml version="1.0" encoding="UTF-8" standalone="no"?>
<svg width="14px" height="24px" viewBox="0 0 14 24" version="1.1" xmlns="http://www.w3.org/2000/svg" xmlns:xlink="http://www.w3.org/1999/xlink">
    <!-- Generator: Sketch 40.3 (33839) - http://www.bohemiancoding.com/sketch -->
    <title>arrow</title>
    <desc>Created with Sketch.</desc>
    <defs>
        <polygon id="path-1" points="2.14285714 11.4285714 11.4285714 20.7142857 2.14285714 20.7142857"></polygon>
        <mask id="mask-2" maskContentUnits="userSpaceOnUse" maskUnits="objectBoundingBox" x="0" y="0" width="9.28571429" height="9.28571429" fill="white">
            <use xlink:href="#path-1"></use>
        </mask>
    </defs>
    <g id="mobile" stroke="none" stroke-width="1" fill="none" fill-rule="evenodd">
        <g id="landing-mobile" transform="translate(-153.000000, -564.000000)">
            <g id="Group-22" transform="translate(140.000000, 557.000000)">
                <g id="arrow" transform="translate(13.571429, 7.857143)">
                    <rect id="Rectangle-8" fill="#FFFFFF" x="5.71428571" y="0" width="1.42857143" height="16.4285714"></rect>
                    <use id="Rectangle-9" stroke="#FFFFFF" mask="url(#mask-2)" stroke-width="2.88" transform="translate(6.785714, 16.071429) rotate(-45.000000) translate(-6.785714, -16.071429) " xlink:href="#path-1"></use>
                </g>
            </g>
        </g>
    </g>
</svg>