{
  "imageName": "surfparks/sessions",
  "module": "surpark-sessions",
  "bucket": "s3://sl-product-cdn-{environment}",
  "destinationPath": "surfparks",
  "appType": "surfparks",
  "secrets": {
    "common": {
      "prefix": "/{env}/common/",
      "secrets": [
        "NEW_RELIC_ENABLED",
        "NEW_RELIC_LICENSE_KEY",
        "NEW_RELIC_APPLICATION_ID"
      ]
    }
  },
  "service": {
    "prefix": "/{env}/services/surfpark-sessions-next/",
    "secrets": []
  },
  "newRelic": {
    "applicationId": {}
  },
  "requireEnvironmentContainers": true,
  "noCacheFiles": ["**/index.html"]
}
