{
  "Version": "2012-10-17",
  "Statement": [
    {
      "Effect": "Allow",
      "Action": [
        "sns:Publish",
        "sns:Subscribe",
        "sns:GetTopicAttributes",
        "sns:DeleteTopic",
        "sns:GetEndpointAttributes",
        "sns:GetPlatformApplicationAttributes",
        "sns:SetEndpointAttributes",
        "sns:SetPlatformApplicationAttributes",
        "sns:DeleteEndpoint",
        "sns:CreatePlatformEndpoint"
      ],
      "Resource": "${apns_application_arn}"
    }
  ]
}
