{
  "Version": "2012-10-17",
  "Statement": [
    {
      "Sid": "AllowPublicReadAccess",
      "Effect": "Allow",
      "Principal": "*",
      "Action": "s3:GetObject",
      "Resource": "${s3_bucket}/*"
    }
  ]
}
