{
  "Version": "2012-10-17",
  "Statement": [
    {
      "Action": ["secretsmanager:GetSecretValue"],
      "Effect": "Allow",
      "Resource": "arn:aws:secretsmanager:*:*:secret:dev/function/${company}-${application}/*"
    }
  ]
}
