{
  "_source": {
    "includes": [
      "timezone",
      "name",
      "location"
    ]
  },
  "suggest": {
    "spot-suggest": {
      "prefix": "Humtimg",
      "completion": {
        "field": "name",
        "fuzzy": {
          "fuzziness": 2
        },
        "contexts": {
          "status": [
            {
              "context": "PUBLISHED",
              "boost": 2
            }
          ],
          "location": [
            {
              "lon": -117.98196315765381,
              "lat": 33.6420625047537,
              "boost": 3
            }
          ]
        }
      }
    }
  }
}