{
  "imageName": "services/spot-recommender-svc",
  "compose": "spot-recommender-svc",
  "serviceName": "sl-spot-recommender-svc",
  "cluster": "sl-core-svc",
  "taskRoleArn": {
    "sandbox": "arn:aws:iam::665294954271:role/spot_recommender_svc_task_role_sandbox",
    "staging": "arn:aws:iam::665294954271:role/spot_recommender_svc_task_role_staging",
    "prod": "arn:aws:iam::833713747344:role/spot_recommender_svc_task_role_prod"
  }
}
