{
  "stationsRadius": [
    {
      "station": {
        "id": "d0e556b8-cecb-11eb-95a6-024238d3b313",
        "name": "San Pedro South, CA (213)",
        "sourceId": "46042",
        "latitude": 33.576,
        "longitude": -118.181,
        "status": "ONLINE"
      },
      "latestData": {
        "timestamp": 1626296160,
        "height": 0.9,
        "period": 15,
        "direction": 177,
        "swells": [
          {
            "height": 0.58201,
            "period": 15.38462,
            "direction": 180
          },
          {
            "height": 0.48919,
            "period": 9.90099,
            "direction": 185
          },
          {
            "height": 0.24289,
            "period": 7.69231,
            "direction": 250
          },
          {
            "height": 0.19824,
            "period": 5.88235,
            "direction": 295
          },
          {
            "height": null,
            "period": null,
            "direction": null
          },
          {
            "height": null,
            "period": null,
            "direction": null
          }
        ]
      }
    }
  ]
}
