{
  "variables": {
    "aws_access_key": "",
    "aws_secret_key": "",
    "aws_region": "us-west-1",
    "aws_source_ami": "ami-0184f498956de7db5"
  },
  "builders": [
    {
      "type": "amazon-ebs",
      "access_key": "{{user `aws_access_key`}}",
      "secret_key": "{{user `aws_secret_key`}}",
      "region": "{{user `aws_region`}}",
      "source_ami": "{{user `aws_source_ami`}}",
      "instance_type": "t3.large",
      "ssh_username": "ec2-user",
      "ami_name": "surfline-science-models-db-{{timestamp}}",
      "ami_users": ["665294954271", "833713747344", "094422976157"]
    }
  ],
  "provisioners": [
    {
      "type": "shell",
      "inline": [
        "sudo yum update -y",
        "sudo yum install -y wget amazon-efs-utils"
      ]
    }
  ]
}
