{
  "serviceName": "wt-garmin-parser-lambda",
  "secrets": {
    "common": {
      "prefix": "/{env}/common/",
      "secrets": [
        "AWS_DEFAULT_REGION",
        "USER_SERVICE",
        "SESSIONS_API",
        "NEW_RELIC_ATTRIBUTES_EXCLUDE",
        "NEW_RELIC_ENABLED",
        "NEW_RELIC_IGNORING_RULES",
        "NEW_RELIC_LICENSE_KEY",
        "NODE_ENV",
        "SEGMENT_WRITE_KEY",
        "GARMIN_CONSUMER_KEY",
        "GARMIN_CONSUMER_SECRET"
      ]
    },
    "service": {
      "prefix": "/{env}/functions/sessions-api-garmin-parser/",
      "secrets": [
        "CONSOLE_LOG_LEVEL",
        "LOGSENE_KEY",
        "LOGSENE_LEVEL",
        "NEW_RELIC_LOG_LEVEL"
      ]
    }
  }
}
