{
  "id": "prod",
  "credentials": {
    "encrypted_data": "rM6KnQgwhGX/CNeLGz3Hnx8jVuFn/zDq3ClpkTXnB8vhEMZFJoxS5RyZFucQ\nSriMojVWXNv3lUY3IWNLGDSCZxf3s+xulWEO2ZSU1BBhgvlI4PX9PAXU+2yj\n+uZzz+fArOaya/JgaXgf13v4R8Gh/2Th3opM7lJ1zJxtDx0ePHghWe09z8qo\nRLikGmiZMVV367qbijDd5/AN61+oRZP4aHsXczYvZKcOrJfbs7OXrDpivr3D\nDQYFq5N2BF3GKgyXLUEq1vH/AC68Nw4VND75UHv3hCmVsZlMXbr5aRbrOLIo\nULWfwnjVbp0jzcDqjYK7KQFqa3tfZqTa/CFCJo3Z/u571xw9B12LWzLomQx2\nRODH4oZLkxAYTDDJU5RqDz6+jGAw8KXOjzy7nvcNO04zrf5G5gN+X4rYMCdz\nH9oH6Dul9vOkdWqmf+neMewkkXS2/s3eCrdclBjIltRHpy1xLp0aWNURgK/v\nNo7XAR3aGY5SxqpPrAkuuRED/Wt4SfTnz4bxrWg3EY7s2lr8HPFSzLD2W3gl\nAnjNPnX1CdQbC9WgncI94JQSNJtGGvMIXjm2mUowjjhzNDkvznBV07QLSFlc\nxzz8ovljU+SxIi0n+7FnpsnHytJabGKBx1VX+F0QYzf6RGMSAEuwgl2tFoJp\nkWy7bYkHm+6iP4Euy9nZVb+QtC9AbrtlzeCJj41ai75RJhpxkPEn3jgDvQ91\nSfh76qylClZZmoveQ2w+BOk0coaUPYTOZRPRgIYEosXdrc9jabPg1pryWHxE\nPA4GSF3dq5eEY23mM7qgWn4YhB70SQx2uF3L4GHw1Kr7lkE5xcGYFSi7Yq7h\nNTOqPIyoJJuuzNSO83YIMvuDdXEEPqo4By/xoTvkTnj6lJAm8eCoN0Z3PngW\n9CKH2J1QgoTrvbZBwJmqhC+k3Z/MuXWUHWl29st9zZZE/ytLhZKtsydR4dXR\niHUYuTq0rrn126iaONvQ/oLuHr9nDyKjFkDtXK9IqXghCm0dJMjXIC7P0/iz\n3o5BvWXvKTsijFvLRey5ncyyCwo0bsoX+qYtW4XsTCDSfRdP3HgMmpB+I7kj\nwaGl0nlIFbrv3UxnJF3Mx6RBiXBvaJ+GomhwKmPQ1pOUQ+ZS4KAvUGzDvnRu\n6NnkzwZ8Y23u6pft5GMlIImuFEJt/bWBCOhsJbkPz3ItVEEcp9mS4z1VTDgI\ng5LwsxNwIprOQ2r+hH2kNebLmz74mrQfVxdSYWLANGCEAfWAGZ0C5lGUK+SN\nAyfyARKDIVht4jB5gjFrhM/ul6d0NUFEWckIpjetlzluHncloTeaszpI2qvs\nFqp/z14eJBozDmj7gu2QOMO8szALvUjHneHAj6VGAhpDfMTD7TrPDyo6I0Qj\nmOuErqcSEcs00c9hnVNlnCfNT3ea4JtZpsnUL//1qQH7HubzO2m5Ki3GHl7L\niQ2ijZxqWEDidI+SUGBvd16PawDOu1CDUAnmGSHyaoCmGkwso1GbhJ3cBsxK\nU9NMYblk+OLOeNKOeYAAfhqFXNqtO3mnluhNUrF0k5U3w8S7yxhTj/UxSTJb\nRhMHGmTkY4GTnrE8++/umB1R3pwZb9Boh0RCa5ErYxzZ2H0ZATDi4ZmZlec/\nFh4dM1b/UpjBjEsCPi6BWPRTHSu67VrjAPXsqGKSzxwjF9r32zTQ24vpJe+Z\nGDIecgPE3GVr8+byWtiZFeeYJFsCG4Z3KlQCoo5o7HvZb1jr0Cs9t8c6C6RL\nUIKb78nBGAPWNXl+9lGFN6pFS93vwWvjl8umI3U2EHq4p5XYVB9+XxGpEafV\n9Y15Os3K1zpEEsHIrqo12QZzB7bcVDJ5OVn+GOHeSsUWhfoUwiORR3P0jByU\nELqIAh2fO/+bubUWcP6sEwxLDH3Te1rCsHNoXJtd2rCYevLxrJz2dpeELp3J\nQjKDxiTuE2bYItyrF8Ror2EMHacmAz0YwUHU/7S47VvUL1DuTkvXwp4sjyPS\n4UsA4MWPs748x0qb8RdbD+f4Eg0HEeGmpX+kLEGdkH+2j1zL0IEBapojMske\nhsElt4GXSND7O4gl3r3OrZ4ASsWM/UYdtUhQ+LKtvuxBSTubIgtU67C37Cha\nyJohYMOAUTBAArHqa5C3afS37vc6SWnWE6dTOH21RvEa+W3rUFkoSNqW+gAr\nH4pSDYXdMFvNU/VrC+2Jzde4Hbq4uAkoo0EgRgrWZAR+ZrdLfPRjuTaHZtBZ\nMUmcMaejtw1mBFThMi1cdgNOFJzhUVJ2fHdTx5Ep1h13D2HaLv5fD3ig1ljG\nprDj8xRzEkdMipRaW/c91xOr7bmhJ5q4OSfdtHiMvTImuMtJG2JIqMr6SmWd\nnlTeLEyF+pGJ+tplUdEdCUiyyGv7d80XUH9vx1Tnop/BPbhTgzB5jmfxESR7\nINt8RfU0cSCpjk/gg6lAwHToYTh5IelWbt+9dSHnk2nep/0LFxHCxrc+tnD2\n3r2zTdn0s/bAndHvryrYhsAdWXj65+uefWwkHBhZRVGx/D7XyEM2edkHmpps\nCVTTovTrzIVew2NKDWN+bjgDnXD08BFwBxeMLdk9n0WGJnTGtPBpFjKsQwn5\ndHv6wK0IOkF9Mn92OInpAtweAihIbbcUZRC42QKZZ9T1d4CkjZi9/WiWGbRw\nDHm38iWipNyb1bwS2wyL1UyY6+CxZeX4ybrDcE6mqT/ghq1U64NdzG57JF/7\niYh7mFFYZ3imPsPM4ASYsPrQcCr29PcrYWQhbGna6oPgiAK0grDTa2v/WToJ\nh/CkjuYEAtrqmaNF0PTDrB53+Hp2c00SWdBD6TbFnk04ccxi2L6VeQdjcQ+w\nkiWWoS0MO9BwDgddwv4lGniocM/ptlU1wPeVWOFVQ38cKoxX72S7i8omgICa\nL05epVFLr2E7nllmwUduSHCWYXCMSA/Yk4CFHJjh6YedWDXqDbOuKnKNKRjJ\nUAjrvaTNXOO0Vw3N0ABjmG4i/2VE8o17XzC8S1sPvMOS3VvfuZbXdwD5QN9K\nvMCaFxSQGi2h1KUXQql8Ww7UM/6ZYFIIgAk3fuTXFWUYnoy01tu2ynLqYTQj\nfLmEkA30TRUwC6ZUBZZKkjWVo08vNcAqvsqJL+2rzfclUSvlPl9grQ1Dnu83\nSfwqxx9pVepX2QqY\n",
    "iv": "CAAMhmDnGGhW8MLBfp8ckA==\n",
    "version": 1,
    "cipher": "aes-256-cbc"
  }
}