{
  "imageName": "services/spots-api",
  "compose": "spots-api",
  "serviceName": "sl-spots-api",
  "cluster": "sl-core-svc",
  "secrets": {
    "common": {
      "prefix": "/{env}/common/",
      "secrets": [
        "CAMERA_DETAILS_UPDATED_SNS_TOPIC",
        "CAMERAS_API",
        "CONSOLE_LOG_LEVEL",
        "EXPRESS_PORT",
        "LOGSENE_KEY",
        "LOGSENE_LEVEL",
        "NEW_RELIC_ATTRIBUTES_EXCLUDE",
        "NEW_RELIC_ENABLED",
        "NEW_RELIC_IGNORING_RULES",
        "NEW_RELIC_LICENSE_KEY",
        "NEW_RELIC_LOG_LEVEL",
        "NODE_ENV",
        "SPOTS_API_HOST",
        "SPOTS_API",
        "WWW_HOST"
      ]
    },
    "service": {
      "prefix": "/{env}/services/spots-api/",
      "secrets": [
        "GEONAME_USERNAME",
        "IMAGE_SERVICE",
        "MONGO_CONNECTION_STRING_KBYG",
        "SPOT_THUMBNAIL_BUCKET",
        "SPOT_THUMBNAIL_CDN",
        "MSW_API_USER",
        "MSW_API"
      ]
    }
  },
  "taskRoleArn": {
    "sandbox": "arn:aws:iam::665294954271:role/spots_api_task_role_sandbox",
    "staging": "arn:aws:iam::665294954271:role/spots_api_task_role_staging",
    "prod": "arn:aws:iam::833713747344:role/spots_api_task_role_prod"
  },
  "test": {
    "command": "cp .npmrc integration-tests/ && ../../scripts/integration-tests.sh"
  },
  "newRelic": {
    "applicationId": {
      "development": 374513104,
      "sandbox": 374587482,
      "prod": 25654547
    }
  }
}
