@startuml
title Wave Buoys Architecture
!includeurl https://raw.githubusercontent.com/RicardoNiepel/C4-PlantUML/master/C4_Component.puml

LAYOUT_WITH_LEGEND()

System(kbygAPI, "KBYG Product API", "Aggregates data to be displayed on the Surfline Product.")
System(mswAPI, "Magicseaweed API", "Aggregates data to be displayed on the Magicseaweed Product.")
Container_Boundary(etl, "Airflow") {
    Component(turnOff, "Update Station Status and Type", "Airflow DAG", "Updates station status, reportsWind, and reportsWave fields. A single DAG for all sources.")
    Component(insert, "Insert Station Data from Source", "Airflow DAG", "Gets data from source and inserts into Postgres. A single DAG for each source.")
}
Container_Boundary(sds, "Science Data Service") {
    Component(stationQuery, "Station Query", "GraphQL Query", "Allows user to query current and historical data for a single station.")
    Component(stationsQuery, "Stations Query", "GraphQL Query", "Allows user to query data for a bounding box of stations.")
}
Container_Boundary(database, "Science Platform Database") {
   Component(stationsTable, "Station Table", "Postgres Table", "Overview of all stations containing ID, source, and status.")
   Component(stationSourceTable, "Station Source Table", "Postgres Table", "Contains information about station sources including name, copyright info, and last download time.")
   Component(stationDataTable, "Station Data Table", "Postgres Table", "Contains all data (current and historical) for a single station.")
}
insert -down-> stationsTable
insert -down-> stationDataTable
insert -down-> stationSourceTable
turnOff -down-> stationsTable
stationQuery -up-> stationDataTable
stationsQuery -up-> stationDataTable
kbygAPI -up-> sds
mswAPI -up-> sds
@enduml
