{
  "properties": {
    "breadCrumbs": {
      "type": "keyword"
    },
    "href": {
      "type": "keyword"
    },
    "location": {
      "type": "geo_point"
    },
    "name": {
      "type": "completion",
      "analyzer": "simple",
      "preserve_separators": true,
      "preserve_position_increments": true,
      "max_input_length": 50,
      "contexts": [
        {
          "name": "location",
          "type": "GEO",
          "precision": 3,
          "path": "location"
        },
        {
          "name": "type",
          "type": "CATEGORY",
          "path": "_type"
        }
      ]
    },
    "name_standard": {
      "type": "text",
      "analyzer": "standard"
    }
  }
}
