{
  "name": "jenkins-master",
  "description": "Jenkins - Master",
  "default_attributes": {
    "authorization": {
      "sudo": {
        "groups": [
          "sl.sudoers.all",
          "sl.sudoers.jenkins-admins"
        ]
      }
    }
  },
  "run_list": [
    "recipe[newrelic]",
    "recipe[newrelic_meetme_plugin]",
    "recipe[surfline-users]",
    "recipe[surfline-users::jenkins]",
    "recipe[surfline-common::golang]",
    "recipe[surfline-common::route53]"
  ]
}
