{
  "name": "sl-airflow-celery",
  "description": "Surfline - Airflow - Celery",
  "default_attributes": {
    "authorization": {
      "sudo": {
        "groups": [
          "sl.sudoers.all",
          "sl.sudoers.science",
          "airflow"
        ],
        "passwordless": "true"
      }
    }
  },
  "run_list": [
    "recipe[newrelic]",
    "recipe[surfline-nfs::client4]",
    "recipe[surfline-users]",
    "recipe[surfline-users::science]",
    "recipe[surfline-airflow-celery]",
    "recipe[surfline-airflow-celery::worker]",
    "recipe[surfline-science::all-tools]",
    "recipe[surfline-common::route53]"
  ]
}
