{
  "name": "sl-bestwinds-emr-core",
  "description": "Surfline - BestWinds - EMR Core",
  "default_attributes": {
    "authorization": {
      "sudo": {
        "groups": [
          "sl.sudoers.all",
          "sl.sudoers.science"
        ]
      }
    }
  },
  "run_list": [
    "recipe[newrelic]",
    "recipe[newrelic_meetme_plugin]",
    "recipe[surfline-users]",
    "recipe[surfline-users::science]",
    "recipe[surfline-emr::core]",
    "recipe[surfline-emr::bestwinds]",
    "recipe[surfline-common::route53]"
  ]
}
