{
  "name": "sl-coldfusion-api",
  "description": "Surfline - ColdFusion - API",
  "default_attributes": {
    "authorization": {
      "sudo": {
        "groups": [
          "sl.sudoers.cfdevs"
        ]
      }
    },
    "newrelic_meetme_plugin": {
      "services": {
        "apache_httpd": {
          "scheme": "http",
          "host": "localhost",
          "port": 80,
          "path":"/server-status"
        }
      }
    },
    "surfline-coldfusion": {
      "apache": {
        "config": {
          "api": true,
          "api_mod_rewrite": true,
          "domain_mod_rewrite": true,
          "mod_rewrite": true,
          "sl_regional_mod_rewrite": true
        },
        "sites": {
          "api": true
        }
      },
      "coldfusion8": {
        "missing_template": "/404.html",
        "sitewide_error_template": "/error.cfm",
        "request_timeout": "60.0",
        "queue_timeout": "60.0",
        "post_size_limit": "400000.0",
        "request_limit": "30.0",
        "post_parameters_limit": "10000.0",
        "session_timeout_days": "0",
        "session_timeout_hours": "0",
        "session_timeout_minutes": "3",
        "session_timeout_seconds": "0"
      },
      "healthcheck_type": "apisettings",
      "server_type": "api",
      "service": "api"
    }
  },
  "run_list": [
    "recipe[newrelic]",
    "recipe[newrelic_meetme_plugin]",
    "recipe[surfline-coldfusion]",
    "recipe[surfline-users]",
    "recipe[surfline-users::cfdevs]",
    "recipe[surfline-common::route53]"
  ]
}
