{
  "name": "sl-coldfusion-sciencejobs",
  "description": "Surfline - ColdFusion - Science Jobs",
  "default_attributes": {
    "authorization": {
      "sudo": {
        "groups": [
          "sl.sudoers.all",
          "sl.sudoers.science",
          "sl.sudoers.cfdevs"
        ]
      }
    },
    "newrelic_meetme_plugin": {
      "services": {
        "apache_httpd": {
          "scheme": "http",
          "host": "localhost",
          "port": 80,
          "path":"/server-status"
        }
      }
    },
    "surfline-coldfusion": {
      "apache": {
        "config": {
          "app": true,
          "bl_mod_rewrite": true,
          "domain_mod_rewrite": true,
          "ft_mod_rewrite": true,
          "mod_rewrite": true,
          "sl_regional_mod_rewrite": true,
          "sladmin": true
        },
        "sites": {
          "backup-admin": true,
          "brasil": true,
          "cfide": true,
          "fishtrack": true,
          "mobile": true,
          "my.buoyweather": true,
          "sladmin": true,
          "www": true
        }
      },
      "coldfusion8": {
        "missing_template": "",
        "sitewide_error_template": "",
        "request_timeout": "90.0",
        "queue_timeout": "60.0",
        "post_size_limit": "40000.0",
        "request_limit": "40.0",
        "post_parameters_limit": "10000.0",
        "session_timeout_days": "0",
        "session_timeout_hours": "0",
        "session_timeout_minutes": "3",
        "session_timeout_seconds": "0"
      },
      "healthcheck_type": "jrun",
      "server_type": "app",
      "service": "sciencejobs"
    },
    "surfline-nfs": {
      "client4": {
        "mounts": {
          "prod-nfs-primary-1.aws.surfline.com:/ocean_aws_prod": "/ocean2_fs",
          "prod-nfs-primary-1.aws.surfline.com:/sciencedata_aws_prod": "/sciencedata2"
        }
      }
    }
  },
  "run_list": [
    "recipe[newrelic]",
    "recipe[newrelic_meetme_plugin]",
    "recipe[surfline-nfs::client4]",
    "recipe[surfline-coldfusion]",
    "recipe[surfline-coldfusion::sciencejobs]",
    "recipe[surfline-users]",
    "recipe[surfline-users::cfdevs]",
    "recipe[surfline-users::science]",
    "recipe[surfline-common::route53]",
    "recipe[surfline-science]"
  ]
}
