{
  "name": "sl-f5-proxy-varnish",
  "description": "Surfline - F5 Proxy to Varnish",
  "run_list": [
    "recipe[newrelic]",
    "recipe[newrelic_meetme_plugin]",
    "recipe[surfline-users]",
    "recipe[surfline-nginx]",
    "recipe[surfline-common::route53]",
    "recipe[surfline-nginx::f5proxy-varnish]"
  ]
}
