{
  "name": "sl-science-lolabw5",
  "description": "Surfline - Snowflake - lolabw5",
  "default_attributes": {
    "authorization": {
      "sudo": {
        "groups": [
          "sl.sudoers.all",
          "sl.sudoers.science"
        ]
      }
    },
    "java": {
      "install_flavor": "oracle",
      "jdk_version": "6",
      "jre": {
        "6": {
          "x86_64": {
            "url": "https://s3-us-west-1.amazonaws.com/sl-artifacts-prod/coldfusion/jre-6u45-linux-x64-rpm.bin"
          }
        }
      },
      "oracle": {
        "accept_oracle_download_terms": true,
        "jce": {
          "6": {
            "checksum": "d0c2258c3364120b4dbf7dd1655c967eee7057ac6ae6334b5ea8ceb8bafb9262",
            "url": "https://s3-us-west-1.amazonaws.com/sl-artifacts-prod/coldfusion/jce_policy-6.zip"
          },
          "enabled": true
        },
        "set_etc_environment": true
      }
    },
    "newrelic_meetme_plugin": {
      "services": {
        "apache_httpd": {
          "scheme": "http",
          "host": "localhost",
          "port": 80,
          "path":"/server-status"
        }
      }
    },
    "surfline-nfs": {
      "client4": {
        "mounts": {
          "prod-nfs-primary-1.aws.surfline.com:/ocean_aws_prod": "/ocean2_fs",
          "prod-nfs-primary-1.aws.surfline.com:/sciencedata_aws_prod": "/sciencedata2"
        },
        "options": "rw"
      }
    }
  },
  "run_list": [
    "recipe[newrelic]",
    "recipe[newrelic_meetme_plugin]",
    "recipe[surfline-nfs::client4]",
    "recipe[surfline-users]",
    "recipe[surfline-users::science]",
    "recipe[surfline-common::route53]",
    "recipe[surfline-common::hostfile]",
    "recipe[surfline-common::resolver]",
    "recipe[surfline-science::lolabw5]",
    "recipe[surfline-science::backup]",
    "recipe[surfline-common::ses]"
  ]
}
