{
  "name": "sl-varnish-cache",
  "description": "Surfline - Varnish",
  "default_attributes": {
    "authorization": {
      "sudo": {
        "groups": [
          "sl.sudoers.all",
          "sl.sudoers.varnish"
        ]
      }
    }
  },
  "run_list": [
    "recipe[newrelic]",
    "recipe[newrelic_meetme_plugin]",
    "recipe[surfline-users]",
    "recipe[surfline-users::varnish]",
    "recipe[surfline-varnish]",
    "recipe[surfline-common::route53]"
  ]
}
