[
  {
      "_id": "5842041f4e65fad6a77088ea",
      "updatedAt": "2017-08-03T00:37:08.914Z",
      "createdAt": "2017-08-02T21:45:19.224Z",
      "thumbnail": "https://spot-thumbnails.staging.surfline.com/spots/5842041f4e65fad6a77088ea/5842041f4e65fad6a77088ea_1500.jpg",
      "rank": 6,
      "subregionId": "58581a836630e24c44878fd6",
      "location": {
          "type": "Point",
          "coordinates": [
              -118.0192012569068,
              33.66704400178788
          ]
      },
      "lat": 33.66704400178788,
      "lon": -118.0192012569068,
      "name": "Goldenwest",
      "tide": {
          "previous": {
              "type": "LOW",
              "height": 2.46,
              "timestamp": 1501701781,
              "utcOffset": -7
          },
          "current": {
              "type": "NORMAL",
              "height": 4.974688888888889,
              "timestamp": 1501720628,
              "utcOffset": -7
          },
          "next": {
              "type": "HIGH",
              "height": 5.28,
              "timestamp": 1501724898,
              "utcOffset": -7
          }
      },
      "waterTemp": {
          "min": 63,
          "max": 65
      },
      "cameras": [
          {
              "_id": "58235706302ec90c4108c3e4",
              "title": "Goldenwest",
              "streamUrl": "https://cams.cdn-surfline.com/wsc-west/wc-goldenwestcam.stream/playlist.m3u8",
              "stillUrl": "https://camstills.cdn-surfline.com/goldenwestcam/latest_small.jpg",
              "pixelatedStillUrl": "https://camstills.cdn-surfline.com/goldenwestcam/latest_small_pixelated.png",
              "rewindBaseUrl": "http://live-cam-archive.cdn-surfline.com/goldenwestcam/goldenwestcam",
              "status": {
                  "isDown": false,
                  "message": ""
              }
          }
      ],
      "conditions": {
          "human": true,
          "value": "VERY_GOOD"
      },
      "wind": {
          "speed": 7.81,
          "direction": 104.29
      },
      "weather": {
          "temperature": 80.1,
          "condition": "OVERCAST_NO_RAIN"
      },
      "waveHeight": {
          "human": false,
          "min": 4.59,
          "max": 5.58,
          "occasional": null,
          "humanRelation": null,
          "plus": false
      },
      "legacyId": 4870,
      "legacyRegionId": 2143,
      "__v": 3
  },
  {
      "_id": "584204204e65fad6a77091aa",
      "updatedAt": "2017-08-03T00:36:03.367Z",
      "createdAt": "2017-08-02T21:45:26.955Z",
      "thumbnail": "https://spot-thumbnails.staging.surfline.com/spots/584204204e65fad6a77091aa/584204204e65fad6a77091aa_1500.jpg",
      "rank": 10,
      "subregionId": "58581a836630e24c44878fd6",
      "location": {
          "coordinates": [
              -118.00669312477112,
              33.65516462595945
          ],
          "type": "Point"
      },
      "lat": 33.65516462595945,
      "lon": -118.00669312477112,
      "name": "HB Pier, Northside Overview",
      "tide": {
          "previous": {
              "type": "LOW",
              "height": 2.46,
              "timestamp": 1501701781,
              "utcOffset": -7
          },
          "current": {
              "type": "NORMAL",
              "height": 4.966255555555556,
              "timestamp": 1501720562,
              "utcOffset": -7
          },
          "next": {
              "type": "HIGH",
              "height": 5.28,
              "timestamp": 1501724898,
              "utcOffset": -7
          }
      },
      "waterTemp": {
          "min": 63,
          "max": 65
      },
      "cameras": [
          {
              "_id": "58349a5c3421b20545c4b542",
              "title": "Huntington Beach Overview",
              "streamUrl": "https://cams.cdn-surfline.com/wsc-west/wc-hbpiernsovcam.stream/playlist.m3u8",
              "stillUrl": "https://camstills.cdn-surfline.com/hbpiernsovcam/latest_small.jpg",
              "pixelatedStillUrl": "https://camstills.cdn-surfline.com/hbpiernsovcam/latest_small_pixelated.png",
              "rewindBaseUrl": "http://live-cam-archive.cdn-surfline.com/hbpiernsovcam/hbpiernsovcam",
              "status": {
                  "isDown": false,
                  "message": ""
              }
          }
      ],
      "conditions": {
          "human": true,
          "value": "FLAT"
      },
      "wind": {
          "speed": 7.87,
          "direction": 104.33
      },
      "weather": {
          "temperature": 79.9,
          "condition": "OVERCAST_NO_RAIN"
      },
      "waveHeight": {
          "human": true,
          "min": 2,
          "max": 3,
          "occasional": null,
          "humanRelation": "knee to waist high",
          "plus": false
      },
      "legacyId": 58218,
      "legacyRegionId": 2143,
      "__v": 3
  }
]
