{
    "type": "object",
    "properties": {
        "id": {
            "type": ["string"]
        },
        "event_date": {
            "type": ["null", "string"],
            "format": "date-time"
        },
        "event": {
            "type": ["null", "string"]
        },
        "app_name": {
            "type": ["null", "string"]
        },
        "app_apple_id": {
            "type": ["null", "number"]
        },
        "subscription_name": {
            "type": ["null", "string"]
        },
        "subscription_apple_id": {
            "type": ["null", "number"]
        },
        "subscription_group_id": {
            "type": ["null", "number"]
        },
        "standard_subscription_duration": {
            "type": ["null", "string"]
        },
        "subscription_offer_type": {
            "type": ["null", "string"]
        },
        "subscription_offer_duration": {
            "type": ["null", "string"]
        },
        "marketing_opt_in": {
            "type": ["null", "string"]
        },
        "marketing_opt_in_duration": {
            "type": ["null", "string"]
        },
        "preserved_pricing": {
            "type": ["null", "string"]
        },
        "proceeds_reason": {
            "type": ["null", "string"]
        },
        "promotional_offer_name": {
            "type": ["null", "string"]
        },
        "promotional_offer_id": {
            "type": ["null", "string"]
        },
        "consecutive_paid_periods": {
            "type": ["null", "number"]
        },
        "original_start_date": {
            "type": ["null", "string"],
            "format": "date-time"
        },
        "device": {
            "type": ["null", "string"]
        },
        "client": {
            "type": ["null", "string"]
        },
        "state": {
            "type": ["null", "string"]
        },
        "country": {
            "type": ["null", "string"]
        },
        "previous_subscription_name": {
            "type": ["null", "string"]
        },
        "previous_subscription_apple_id": {
            "type": ["null", "string"]
        },
        "days_before_canceling": {
            "type": ["null", "number"]
        },
        "cancellation_reason": {
            "type": ["null", "string"]
        },
        "days_canceled": {
            "type": ["null", "number"]
        },
        "quantity": {
            "type": ["null", "number"]
        },
        "apple_report_datetime": {
            "type": ["null", "string"],
            "format": "date-time"
        }
    }
}
