@startuml Buoyweather System Container
!includeurl https://raw.githubusercontent.com/plantuml-stdlib/C4-PlantUML/master/C4_Container.puml

LAYOUT_WITH_LEGEND()

AddTagSupport("vComingSoon", $bgColor="#f2f7f9", $fontColor="#60737c", $borderColor="#f2f7f9")

title Container diagram for Buoyweather System

Person(personAlias, "BW User", "Frothing user.")

System_Boundary(bw, "Buoyweather System") {
  Container(webApp, "iOS/Android/New Web App", "Native apps developed in 2017 and 'new' BW developers in 2016.")
  Container(legacyBw, "Legacy BW", "Inc BW charts system Dan/Graeme wrote.")
  Container(bwApi, "BW API", "Node API for forecast, favorites and regions.")
  Rel(webApp, bwApi, "HTTP API", "API for forecast, favorites and regions.")
}

Rel(personAlias, webApp, "Opens App")
Rel(personAlias, legacyBw, "Opens legacy website")

System_Ext(subSystem, "WT Subscription System", "User/auth/funnel/account/promotions/perks web UIs and APIs.")
Rel(webApp, subSystem, "HTTP API", "Auth/entitlements APIs.")
Rel(legacyBw, subSystem, "HTTP API", "Auth/entitlements APIs.")

System_Ext(marineApiSystem, "Marine API", "2015 marine API that Graeme wrote.")
Rel(bwApi, marineApiSystem, "HTTP API", "New BW API calls 2015 marine API for text forecast and NCEP forecasts (default).")

System_Ext(cfApiSystem, "CF System", "CF APIs in use broad cmsarticles API amongst others.")
Rel(legacyBw, cfApiSystem, "HTTP API", "Legacy is calling SL CF API. However, not entirely sure exactly what for.")

System_Ext(bestSystem, "Best Weather System", "TBD")
Rel(bwApi, bestSystem, "HTTP API", "BW API requests LOLA 16-day wind forecasts from Weather API /wind endpoint.")
Rel(bwApi, bestSystem, "HTTP API", "BW API requests LOLA 16-day weather forecasts from Weather API /weather endpoint.")
Rel(bwApi, bestSystem, "HTTP API", "BW API requests LOLA 16-day swells forecasts from Wave API /wave endpoint.")

System_Ext(forecastPlatform, "Forecast Platform", "Wind, weather, and swells data by lat/lon.", $tags="vComingSoon")
Rel(bwApi, forecastPlatform, "HTTP API", "BW API requests LOTUS 16-day wind and weather forecasts from /weather endpoint.")
Rel(bwApi, forecastPlatform, "HTTP API", "BW API requests LOTUS 16-day swells forecasts from /swells endpoint.")

System_Ext(oceanSystem, "Data Downloads", "Airflow jobs download data onto ocean drive. BW Legacy uses ocean drive for chart data.")
Rel(oceanSystem, legacyBw, "NFS Mount", "Mount of ocean.")

@enduml
