{
  "days": [
    {
      "_id": "614258f12da72359075f64e0",
      "forecast": {
        "am": {
          "rating": "POOR",
          "occasionalHeight": null,
          "condition": 2,
          "minHeight": 1,
          "maxHeight": 2,
          "humanRelation": "Knee to thigh high"
        },
        "pm": {
          "rating": "POOR_TO_FAIR",
          "occasionalHeight": null,
          "condition": 3,
          "minHeight": 2,
          "maxHeight": 3,
          "humanRelation": "Thigh to waist high"
        },
        "observation": "Description."
      },
      "forecastDate": 1631664000,
      "subregionId": "58581a836630e24c44878fd6",
      "updatedAt": 1631738097,
      "createdAt": 1631738097,
      "__v": 0,
      "forecastDay": "2021-09-15"
    },
    {
      "_id": "614258f12da723e8be5f64de",
      "forecast": {
        "am": {
          "rating": "GOOD",
          "occasionalHeight": null,
          "condition": 4,
          "minHeight": 2,
          "maxHeight": 3,
          "humanRelation": "Waist to stomach high"
        },
        "pm": {
          "rating": "FAIR_TO_GOOD",
          "occasionalHeight": null,
          "condition": 6,
          "minHeight": 3,
          "maxHeight": 4,
          "humanRelation": "Waist to shoulder high"
        },
        "observation": ""
      },
      "forecastDate": 1631750400,
      "subregionId": "58581a836630e24c44878fd6",
      "updatedAt": 1631738097,
      "createdAt": 1631738097,
      "__v": 0,
      "forecastDay": "2021-09-16"
    },
    {
      "_id": "614258f12da7237e6d5f64df",
      "forecast": {
        "am": {
          "rating": "GOOD",
          "occasionalHeight": null,
          "condition": 8,
          "minHeight": 4,
          "maxHeight": 5,
          "humanRelation": "Chest to head high"
        },
        "pm": {
          "rating": "VERY_GOOD",
          "occasionalHeight": null,
          "condition": 12,
          "minHeight": 5,
          "maxHeight": 7,
          "humanRelation": "Head high to 2 ft overhead"
        },
        "observation": ""
      },
      "forecastDate": 1631836800,
      "subregionId": "58581a836630e24c44878fd6",
      "updatedAt": 1631738097,
      "createdAt": 1631738097,
      "__v": 0,
      "forecastDay": "2021-09-17"
    }
  ],
  "summary": {
    "subregionId": "58581a836630e24c44878fd6",
    "subregionName": "North Orange County",
    "subregionTimezoneOffset": -7,
    "timezone": "America/Los_Angeles",
    "nextForecast": {
      "day": "Friday 9/17",
      "time": "10 AM",
      "timestamp": 1631898000,
      "utcOffset": -7
    },
    "nextForecastTimestamp": 1631898000,
    "forecaster": {
      "email": "test@surfline.com",
      "name": "Forecaster Name",
      "title": "Forecaster Title"
    },
    "forecastStatus": {
      "status": "active",
      "inactiveMessage": ""
    },
    "highlights": [
      "Shadowed SW swell builds through mid week",
      "Light AM wind",
      "More SW/SSW and NW swell long range"
    ],
    "bestBets": [
      "Bet one",
      "Bet two"
    ],
    "bets": {
      "best": "",
      "worst": ""
    },
    "forecastDate": 1631664000,
    "currentDate": 1631664000,
    "updatedAt": 1631738097,
    "createdAt": 1631738097
  }
}