{
  "Version": "2012-10-17",
  "Statement": [
    {
      "Action": [
        "s3:Put*"
      ],
      "Effect": "Allow",
      "Resource": [
        "arn:aws:s3:::${s3_bucket}/nasa/mur-sst/*"
      ]
    }
  ]
}
