{
    "bookmarks": {
        "buyers_7d_channel": {
            "last_report_updated": "YYYY-mm-ddTHH:MM:SS.ffffffZ"
        },
        "buyers_7d_country": {
            "last_report_updated": "YYYY-mm-ddTHH:MM:SS.ffffffZ"
        },
        "buyers_7d_play_country": {
            "last_report_updated": "YYYY-mm-ddTHH:MM:SS.ffffffZ"
        },
        "buyers_7d_play_search": {
            "last_report_updated": "YYYY-mm-ddTHH:MM:SS.ffffffZ"
        },
        "buyers_7d_utm_tagged": {
            "last_report_updated": "YYYY-mm-ddTHH:MM:SS.ffffffZ"
        },
        "cancellation_survey_reponses": {
            "last_report_updated": "YYYY-mm-ddTHH:MM:SS.ffffffZ"
        },
        "crashes_app_version": {
            "last_report_updated": "YYYY-mm-ddTHH:MM:SS.ffffffZ"
        },
        "crashes_device": {
            "last_report_updated": "YYYY-mm-ddTHH:MM:SS.ffffffZ"
        },
        "crashes_os_version": {
            "last_report_updated": "YYYY-mm-ddTHH:MM:SS.ffffffZ"
        },
        "crashes_overview": {
            "last_report_updated": "YYYY-mm-ddTHH:MM:SS.ffffffZ"
        },
        "earnings": {
            "last_report_updated": "YYYY-mm-ddTHH:MM:SS.ffffffZ"
        },
        "installs_app_version": {
            "last_report_updated": "YYYY-mm-ddTHH:MM:SS.ffffffZ"
        },
        "installs_carrier": {
            "last_report_updated": "YYYY-mm-ddTHH:MM:SS.ffffffZ"
        },
        "installs_country": {
            "last_report_updated": "YYYY-mm-ddTHH:MM:SS.ffffffZ"
        },
        "installs_device": {
            "last_report_updated": "YYYY-mm-ddTHH:MM:SS.ffffffZ"
        },
        "installs_language": {
            "last_report_updated": "YYYY-mm-ddTHH:MM:SS.ffffffZ"
        },
        "installs_os_version": {
            "last_report_updated": "YYYY-mm-ddTHH:MM:SS.ffffffZ"
        },
        "installs_overview": {
            "last_report_updated": "YYYY-mm-ddTHH:MM:SS.ffffffZ"
        },
        "korean_play_balance": {
            "last_report_updated": "YYYY-mm-ddTHH:MM:SS.ffffffZ"
        },
        "ratings_app_version": {
            "last_report_updated": "YYYY-mm-ddTHH:MM:SS.ffffffZ"
        },
        "ratings_carrier": {
            "last_report_updated": "YYYY-mm-ddTHH:MM:SS.ffffffZ"
        },
        "ratings_country": {
            "last_report_updated": "YYYY-mm-ddTHH:MM:SS.ffffffZ"
        },
        "ratings_device": {
            "last_report_updated": "YYYY-mm-ddTHH:MM:SS.ffffffZ"
        },
        "ratings_language": {
            "last_report_updated": "YYYY-mm-ddTHH:MM:SS.ffffffZ"
        },
        "ratings_os_version": {
            "last_report_updated": "YYYY-mm-ddTHH:MM:SS.ffffffZ"
        },
        "ratings_overview": {
            "last_report_updated": "YYYY-mm-ddTHH:MM:SS.ffffffZ"
        },
        "retained_installers_channel": {
            "last_report_updated": "YYYY-mm-ddTHH:MM:SS.ffffffZ"
        },
        "retained_installers_country": {
            "last_report_updated": "YYYY-mm-ddTHH:MM:SS.ffffffZ"
        },
        "retained_installers_play_country": {
            "last_report_updated": "YYYY-mm-ddTHH:MM:SS.ffffffZ"
        },
        "retained_installers_play_search": {
            "last_report_updated": "YYYY-mm-ddTHH:MM:SS.ffffffZ"
        },
        "retained_installers_utm_tagged": {
            "last_report_updated": "YYYY-mm-ddTHH:MM:SS.ffffffZ"
        },
        "reviews": {
            "last_report_updated": "YYYY-mm-ddTHH:MM:SS.ffffffZ"
        },
        "rewarded_products": {
            "last_report_updated": "YYYY-mm-ddTHH:MM:SS.ffffffZ"
        },
        "sales": {
            "last_report_updated": "YYYY-mm-ddTHH:MM:SS.ffffffZ"
        },
        "subscriptions_country": {
            "last_report_updated": "YYYY-mm-ddTHH:MM:SS.ffffffZ"
        },
        "subscriptions_device": {
            "last_report_updated": "YYYY-mm-ddTHH:MM:SS.ffffffZ"
        }
    }
}
