@startuml Editorial System Context
!include https://raw.githubusercontent.com/plantuml-stdlib/C4-PlantUML/master/C4_Container.puml

LAYOUT_WITH_LEGEND()

title Editorial System Context

Person(customerSl, "SL Customer", "Surfline customer")
Person(wtEmployee, "Wavetrak Employee", "Internal Wavetrak employee who is publishing data and working with customers")

System_Boundary(slSystem, 'Surfline Systems') {
  System(slNew, "SL iOS/Android/New Web", "Non-legacy product UI")
  System(wpAdmin, "WP CMS", "Surfline , WordPress CMS Admin")
}

' Surfline
Rel_D(customerSl, slNew, "Uses", "HTTPS")
Rel_D(wtEmployee, wpAdmin, "Uses", "HTTPS")

@enduml
