{
    "Version": "2012-10-17",
    "Statement": [
    {
        "Action": "sts:AssumeRole",
        "Effect": "Allow",
        "Principal": {
        "Service": "batch.amazonaws.com"
        }
    }
    ]
}
