#POINT_OUTPUT,LONGITUDE,LATITUDE,BOUNDARY,SPOT_IDS
1,201.9000,21.6500,0,549,10291
2,201.9500,21.7000,0,616,657
3,203.6500,20.9500,0,617,1244
4,202.1500,21.2500,0,661
5,202.1000,21.2500,0,662
6,202.3000,21.4000,0,671
7,200.5000,22.2500,0,3051
8,203.6000,21.0000,0,10292
9,202.2500,21.5000,0,10293
10,200.4500,22.3000,0,10294
11,202.0500,21.3000,0,10296
12,201.8500,21.3000,0,10297
