{
  "Version": "2012-10-17",
  "Statement": [
    {
      "Action": [
        "s3:List*"
      ],
      "Effect": "Allow",
      "Resource": [
        "arn:aws:s3:::${s3_bucket_name}",
        "arn:aws:s3:::${chef_bucket_name}"
      ]
    },
    {
      "Action": [
        "s3:List*",
        "s3:PutObject*",
        "s3:DeleteObject*",
        "s3:Get*"
      ],
      "Effect": "Allow",
      "Resource": [
        "arn:aws:s3:::${s3_bucket_name}/*"
      ]
    },
    {
      "Action": [
        "s3:List*",
        "s3:Get*"
      ],
      "Effect": "Allow",
      "Resource": [
        "arn:aws:s3:::${chef_bucket_name}/*"
      ]
    },
    {
      "Action": [
        "ec2:DescribeAddresses",
        "ec2:AssociateAddress",
        "ec2:DescribeInstances",
        "ec2:DescribeTags"
      ],
      "Effect": "Allow",
      "Resource": "*"
    },
    {
      "Action": [
        "ssm:DescribeParameters"
      ],
      "Effect": "Allow",
      "Resource": "*"
    },
    {
      "Action": [
        "ssm:GetParameters"
      ],
      "Effect": "Allow",
      "Resource": [
        "arn:aws:ssm:${region_name}:${caller_account_id}:parameter/${environment}.${company_full_name}.${application}.*"
      ]
    },
    {
      "Action": [
        "route53:ChangeResourceRecordSets",
        "route53:ListResourceRecordSets"
      ],
      "Effect": "Allow",
      "Resource": [
        "arn:aws:route53:::hostedzone/${route53_zone_id}"
      ]
    }
  ]
}
