[
  {
    "_id": "5842041f4e65fad6a7708827",
    "thumbnail": "https://s3-us-west-1.amazonaws.com/sl-spot-thumbnails-sandbox/spots/5842041f4e65fad6a7708827/5842041f4e65fad6a7708827_1500.jpg",
    "rank": 14,
    "subregionId": "58581a836630e24c44878fd6",
    "lat": 33.65574085629463,
    "lon": -118.00397,
    "name": "HB Pier, Northside",
    "tide": {
      "previous": {
        "type": "LOW",
        "height": 0.1,
        "timestamp": 1644258294,
        "utcOffset": -8
      },
      "current": {
        "type": "NORMAL",
        "height": 0.3,
        "timestamp": 1644266189,
        "utcOffset": -8
      },
      "next": {
        "type": "HIGH",
        "height": 0.5,
        "timestamp": 1644273327,
        "utcOffset": -8
      }
    },
    "waterTemp": {
      "min": 14,
      "max": 15
    },
    "cameras": [
      {
        "title": "OC - HB Pier, Northside",
        "isPremium": false,
        "isPrerecorded": false,
        "lastPrerecordedClipStartTimeUTC": "2022-02-06T20:36:29.874Z",
        "lastPrerecordedClipEndTimeUTC": "2022-02-06T20:36:29.874Z",
        "status": {
          "isDown": false,
          "message": "",
          "subMessage": "",
          "altMessage": ""
        },
        "supportsHighlights": true,
        "supportsCrowds": true,
        "streamUrl": "https://cams.cdn-surfline.com/cdn-wc/wc-hbpierns/playlist.m3u8",
        "stillUrl": "https://camstills.cdn-surfline.com/wc-hbpierns/latest_small.jpg",
        "rewindBaseUrl": "https://camrewinds.cdn-surfline.com/wc-hbpierns/wc-hbpierns",
        "alias": "wc-hbpierns",
        "_id": "583499c4e411dc743a5d5296",
        "control": "https://camstills.cdn-surfline.com/wc-hbpierns/latest_small.jpg",
        "nighttime": false,
        "rewindClip": "https://camrewinds.cdn-surfline.com/wc-hbpierns/wc-hbpierns.1300.2022-02-08.mp4"
      },
      {
        "title": "OC - HB Pier, Northside Overview",
        "isPremium": false,
        "isPrerecorded": false,
        "lastPrerecordedClipStartTimeUTC": "2022-02-06T20:36:29.872Z",
        "lastPrerecordedClipEndTimeUTC": "2022-02-06T20:36:29.872Z",
        "status": {
          "isDown": false,
          "message": "",
          "subMessage": "",
          "altMessage": ""
        },
        "supportsHighlights": false,
        "supportsCrowds": false,
        "streamUrl": "https://cams.cdn-surfline.com/cdn-wc/wc-hbpiernsov/playlist.m3u8",
        "stillUrl": "https://camstills.cdn-surfline.com/wc-hbpiernsov/latest_small.jpg",
        "rewindBaseUrl": "https://camrewinds.cdn-surfline.com/wc-hbpiernsov/wc-hbpiernsov",
        "alias": "wc-hbpiernsov",
        "_id": "58349a5c3421b20545c4b542",
        "control": "https://camstills.cdn-surfline.com/wc-hbpiernsov/latest_small.jpg",
        "nighttime": false,
        "rewindClip": "https://camrewinds.cdn-surfline.com/wc-hbpiernsov/wc-hbpiernsov.1300.2022-02-08.mp4"
      },
      {
        "title": "OC - 9th St. Overview",
        "isPremium": true,
        "isPrerecorded": false,
        "lastPrerecordedClipStartTimeUTC": "2022-02-06T20:36:29.873Z",
        "lastPrerecordedClipEndTimeUTC": "2022-02-06T20:36:29.873Z",
        "status": {
          "isDown": false,
          "message": "",
          "subMessage": "",
          "altMessage": ""
        },
        "supportsHighlights": false,
        "supportsCrowds": false,
        "streamUrl": "https://cams.cdn-surfline.com/cdn-wc/wc-9thstov/playlist.m3u8",
        "stillUrl": "https://camstills.cdn-surfline.com/wc-9thstov/latest_small.jpg",
        "rewindBaseUrl": "https://camrewinds.cdn-surfline.com/wc-9thstov/wc-9thstov",
        "alias": "wc-9thstov",
        "_id": "5ecaa71c663fd3b578308d94",
        "control": "https://camstills.cdn-surfline.com/wc-9thstov/latest_small.jpg",
        "nighttime": false,
        "rewindClip": "https://camrewinds.cdn-surfline.com/wc-9thstov/wc-9thstov.1300.2022-02-08.mp4"
      }
    ],
    "conditions": {
      "human": true,
      "value": "GOOD",
      "sortableCondition": 3,
      "expired": false
    },
    "wind": {
      "speed": 4,
      "direction": 185.09067,
      "directionType": "Onshore"
    },
    "weather": {
      "temperature": 23,
      "condition": "CLEAR"
    },
    "waveHeight": {
      "human": false,
      "min": 0.3,
      "max": 0.6,
      "occasional": null,
      "humanRelation": "Knee to thigh high",
      "plus": false
    },
    "legacyId": 4223,
    "legacyRegionId": 2143,
    "timezone": "America/Los_Angeles",
    "saveFailures": 0,
    "swells": [
      {
        "height": 0.4,
        "direction": 248.43475,
        "directionMin": 240.48873,
        "period": 13
      },
      {
        "height": 0.2,
        "direction": 177.14813,
        "directionMin": 172.27292500000001,
        "period": 11
      },
      {
        "height": 0.1,
        "direction": 271.27954,
        "directionMin": 266.269315,
        "period": 4
      },
      {
        "height": 0.1,
        "direction": 191.4303,
        "directionMin": 187.968435,
        "period": 16
      },
      {
        "height": 0.1,
        "direction": 172.60944,
        "directionMin": 168.525225,
        "period": 8
      },
      {
        "height": 0,
        "direction": 0,
        "directionMin": 0,
        "period": 0
      }
    ],
    "offshoreDirection": 217,
    "parentTaxonomy": [
      "58f7ed51dadb30820bb38782",
      "58f7ed51dadb30820bb38791",
      "58f7ed51dadb30820bb3879c",
      "5908c46bdadb30820b23c1f3",
      "58f7ed51dadb30820bb387a6",
      "58f7ed5ddadb30820bb39651",
      "58f7ed5fdadb30820bb3987c",
      "58f7ed5ddadb30820bb39689"
    ],
    "abilityLevels": [
      "BEGINNER",
      "INTERMEDIATE",
      "ADVANCED"
    ],
    "boardTypes": [
      "SHORTBOARD",
      "FUNBOARD",
      "LONGBOARD",
      "FISH"
    ],
    "relivableRating": 5,
    "note": null,
    "slug": "DEPRECATED"
  },
  {
    "_id": "5842041f4e65fad6a77088ee",
    "thumbnail": "https://s3-us-west-1.amazonaws.com/sl-spot-thumbnails-sandbox/spots/5842041f4e65fad6a77088ee/5842041f4e65fad6a77088ee_1500.jpg",
    "rank": 24,
    "subregionId": "58581a836630e24c44878fd6",
    "lat": 33.62778647706099,
    "lon": -117.9593911234855,
    "name": "River Jetties",
    "tide": {
      "previous": {
        "type": "LOW",
        "height": 0.5,
        "timestamp": 1644251874,
        "utcOffset": -8
      },
      "current": {
        "type": "NORMAL",
        "height": 0.8,
        "timestamp": 1644266189,
        "utcOffset": -8
      },
      "next": {
        "type": "HIGH",
        "height": 0.9,
        "timestamp": 1644271407,
        "utcOffset": -8
      }
    },
    "waterTemp": {
      "min": 14,
      "max": 15
    },
    "cameras": [
      {
        "title": "OC - River Jetties",
        "isPremium": true,
        "isPrerecorded": false,
        "lastPrerecordedClipStartTimeUTC": "2022-02-06T20:36:29.807Z",
        "lastPrerecordedClipEndTimeUTC": "2022-02-06T20:36:29.807Z",
        "status": {
          "isDown": false,
          "message": "",
          "subMessage": "",
          "altMessage": ""
        },
        "supportsHighlights": false,
        "supportsCrowds": false,
        "streamUrl": "https://cams.cdn-surfline.com/cdn-wc/wc-riverjetties/playlist.m3u8",
        "stillUrl": "https://camstills.cdn-surfline.com/wc-riverjetties/latest_small.jpg",
        "rewindBaseUrl": "https://camrewinds.cdn-surfline.com/wc-riverjetties/wc-riverjetties",
        "alias": "wc-riverjetties",
        "_id": "5834a0223421b20545c4b581",
        "control": "https://camstills.cdn-surfline.com/wc-riverjetties/latest_small.jpg",
        "nighttime": false,
        "rewindClip": "https://camrewinds.cdn-surfline.com/wc-riverjetties/wc-riverjetties.1300.2022-02-08.mp4"
      },
      {
        "title": "OC - River Jetties Overview",
        "isPremium": true,
        "isPrerecorded": false,
        "lastPrerecordedClipStartTimeUTC": "2022-02-06T20:36:29.804Z",
        "lastPrerecordedClipEndTimeUTC": "2022-02-06T20:36:29.804Z",
        "status": {
          "isDown": false,
          "message": "",
          "subMessage": "",
          "altMessage": ""
        },
        "supportsHighlights": false,
        "supportsCrowds": false,
        "streamUrl": "https://cams.cdn-surfline.com/cdn-wc/wc-riverjettiesov/playlist.m3u8",
        "stillUrl": "https://camstills.cdn-surfline.com/wc-riverjettiesov/latest_small.jpg",
        "rewindBaseUrl": "https://camrewinds.cdn-surfline.com/wc-riverjettiesov/wc-riverjettiesov",
        "alias": "wc-riverjettiesov",
        "_id": "5a2036a6096c27001ac4f18b",
        "control": "https://camstills.cdn-surfline.com/wc-riverjettiesov/latest_small.jpg",
        "nighttime": false,
        "rewindClip": "https://camrewinds.cdn-surfline.com/wc-riverjettiesov/wc-riverjettiesov.1300.2022-02-08.mp4"
      },
      {
        "title": "OC - River Jetties South",
        "isPremium": true,
        "isPrerecorded": false,
        "lastPrerecordedClipStartTimeUTC": "2022-02-06T20:36:29.806Z",
        "lastPrerecordedClipEndTimeUTC": "2022-02-06T20:36:29.806Z",
        "status": {
          "isDown": false,
          "message": "",
          "subMessage": "",
          "altMessage": ""
        },
        "supportsHighlights": false,
        "supportsCrowds": false,
        "streamUrl": "https://cams.cdn-surfline.com/cdn-wc/wc-riverjettiessouth/playlist.m3u8",
        "stillUrl": "https://camstills.cdn-surfline.com/wc-riverjettiessouth/latest_small.jpg",
        "rewindBaseUrl": "https://camrewinds.cdn-surfline.com/wc-riverjettiessouth/wc-riverjettiessouth",
        "alias": "wc-riverjettiessouth",
        "_id": "5c7184f33ad66f7a3686e7e6",
        "control": "https://camstills.cdn-surfline.com/wc-riverjettiessouth/latest_small.jpg",
        "nighttime": false,
        "rewindClip": "https://camrewinds.cdn-surfline.com/wc-riverjettiessouth/wc-riverjettiessouth.1300.2022-02-08.mp4"
      }
    ],
    "conditions": {
      "human": true,
      "value": "GOOD_TO_EPIC",
      "sortableCondition": 3,
      "expired": false
    },
    "wind": {
      "speed": 6,
      "direction": 238.6365,
      "directionType": "Onshore"
    },
    "weather": {
      "temperature": 20,
      "condition": "CLEAR"
    },
    "waveHeight": {
      "human": false,
      "min": 0.3,
      "max": 0.6,
      "occasional": null,
      "humanRelation": "Knee to thigh high",
      "plus": false
    },
    "legacyId": 4875,
    "legacyRegionId": 2143,
    "timezone": "America/Los_Angeles",
    "saveFailures": 0,
    "swells": [
      {
        "height": 0.4,
        "direction": 277.70734,
        "directionMin": 274.659995,
        "period": 14
      },
      {
        "height": 0.3,
        "direction": 176.21051,
        "directionMin": 171.45083,
        "period": 11
      },
      {
        "height": 0.2,
        "direction": 196.11353,
        "directionMin": 192.986685,
        "period": 16
      },
      {
        "height": 0.1,
        "direction": 273.14301,
        "directionMin": 267.964285,
        "period": 4
      },
      {
        "height": 0.1,
        "direction": 204.51312,
        "directionMin": 201.486245,
        "period": 13
      },
      {
        "height": 0,
        "direction": 0,
        "directionMin": 0,
        "period": 0
      }
    ],
    "offshoreDirection": 211,
    "parentTaxonomy": [
      "58f7ed51dadb30820bb38782",
      "58f7ed51dadb30820bb38791",
      "58f7ed51dadb30820bb3879c",
      "5908c46bdadb30820b23c1f3",
      "58f7ed51dadb30820bb387a6",
      "58f7ed5ddadb30820bb39651",
      "58f7ed60dadb30820bb39a11",
      "58f7ed5ddadb30820bb39689"
    ],
    "abilityLevels": [],
    "boardTypes": [],
    "relivableRating": 5,
    "slug": "DEPRECATED"
  },
  {
    "_id": "584204204e65fad6a77091aa",
    "thumbnail": "https://s3-us-west-1.amazonaws.com/sl-spot-thumbnails-sandbox/spots/584204204e65fad6a77091aa/584204204e65fad6a77091aa_1500.jpg",
    "rank": 13,
    "subregionId": "58581a836630e24c44878fd6",
    "lat": 33.6564111491717,
    "lon": -118.00502892969689,
    "name": "HB Pier, Northside Overview",
    "tide": {
      "previous": {
        "type": "LOW",
        "height": 0.1,
        "timestamp": 1644258294,
        "utcOffset": -8
      },
      "current": {
        "type": "NORMAL",
        "height": 0.3,
        "timestamp": 1644266189,
        "utcOffset": -8
      },
      "next": {
        "type": "HIGH",
        "height": 0.5,
        "timestamp": 1644273327,
        "utcOffset": -8
      }
    },
    "waterTemp": {
      "min": 14,
      "max": 15
    },
    "cameras": [
      {
        "title": "OC - HB Pier, Northside Overview",
        "isPremium": false,
        "isPrerecorded": false,
        "lastPrerecordedClipStartTimeUTC": "2022-02-06T20:36:29.862Z",
        "lastPrerecordedClipEndTimeUTC": "2022-02-06T20:36:29.862Z",
        "status": {
          "isDown": false,
          "message": "",
          "subMessage": "",
          "altMessage": ""
        },
        "supportsHighlights": false,
        "supportsCrowds": false,
        "streamUrl": "https://cams.cdn-surfline.com/cdn-wc/wc-hbpiernsov/playlist.m3u8",
        "stillUrl": "https://camstills.cdn-surfline.com/wc-hbpiernsov/latest_small.jpg",
        "rewindBaseUrl": "https://camrewinds.cdn-surfline.com/wc-hbpiernsov/wc-hbpiernsov",
        "alias": "wc-hbpiernsov",
        "_id": "58349a5c3421b20545c4b542",
        "control": "https://camstills.cdn-surfline.com/wc-hbpiernsov/latest_small.jpg",
        "nighttime": false,
        "rewindClip": "https://camrewinds.cdn-surfline.com/wc-hbpiernsov/wc-hbpiernsov.1300.2022-02-08.mp4"
      },
      {
        "title": "OC - 9th St. Overview",
        "isPremium": true,
        "isPrerecorded": false,
        "lastPrerecordedClipStartTimeUTC": "2022-02-06T20:36:29.861Z",
        "lastPrerecordedClipEndTimeUTC": "2022-02-06T20:36:29.861Z",
        "status": {
          "isDown": false,
          "message": "",
          "subMessage": "",
          "altMessage": ""
        },
        "supportsHighlights": false,
        "supportsCrowds": false,
        "streamUrl": "https://cams.cdn-surfline.com/cdn-wc/wc-9thstov/playlist.m3u8",
        "stillUrl": "https://camstills.cdn-surfline.com/wc-9thstov/latest_small.jpg",
        "rewindBaseUrl": "https://camrewinds.cdn-surfline.com/wc-9thstov/wc-9thstov",
        "alias": "wc-9thstov",
        "_id": "5ecaa71c663fd3b578308d94",
        "control": "https://camstills.cdn-surfline.com/wc-9thstov/latest_small.jpg",
        "nighttime": false,
        "rewindClip": "https://camrewinds.cdn-surfline.com/wc-9thstov/wc-9thstov.1300.2022-02-08.mp4"
      }
    ],
    "conditions": {
      "human": true,
      "value": "FLAT",
      "sortableCondition": 3,
      "expired": false
    },
    "wind": {
      "speed": 4,
      "direction": 185.09067,
      "directionType": "Onshore"
    },
    "weather": {
      "temperature": 23,
      "condition": "CLEAR"
    },
    "waveHeight": {
      "human": false,
      "min": 0.3,
      "max": 0.6,
      "occasional": null,
      "humanRelation": "Knee to thigh high",
      "plus": false
    },
    "legacyId": 58218,
    "legacyRegionId": 2143,
    "timezone": "America/Los_Angeles",
    "saveFailures": 0,
    "swells": [
      {
        "height": 0.4,
        "direction": 248.43475,
        "directionMin": 240.48873,
        "period": 13
      },
      {
        "height": 0.2,
        "direction": 177.14813,
        "directionMin": 172.27292500000001,
        "period": 11
      },
      {
        "height": 0.1,
        "direction": 271.27954,
        "directionMin": 266.269315,
        "period": 4
      },
      {
        "height": 0.1,
        "direction": 191.4303,
        "directionMin": 187.968435,
        "period": 16
      },
      {
        "height": 0.1,
        "direction": 172.60944,
        "directionMin": 168.525225,
        "period": 8
      },
      {
        "height": 0,
        "direction": 0,
        "directionMin": 0,
        "period": 0
      }
    ],
    "offshoreDirection": 213,
    "parentTaxonomy": [
      "58f7ed51dadb30820bb38782",
      "58f7ed51dadb30820bb38791",
      "58f7ed51dadb30820bb3879c",
      "5908c46bdadb30820b23c1f3",
      "58f7ed5ddadb30820bb39651",
      "58f7ed51dadb30820bb387a6",
      "58f7ed5fdadb30820bb3987c",
      "58f7ed5ddadb30820bb39689"
    ],
    "abilityLevels": [
      "BEGINNER",
      "INTERMEDIATE"
    ],
    "boardTypes": [
      "SHORTBOARD",
      "FUNBOARD",
      "LONGBOARD",
      "FISH",
      "BODYBOARD"
    ],
    "relivableRating": 5,
    "note": null,
    "slug": "DEPRECATED"
  },
  {
    "_id": "590927576a2e4300134fbed8",
    "thumbnail": "https://s3-us-west-1.amazonaws.com/sl-spot-thumbnails-sandbox/spots/default/default_1500.jpg",
    "rank": 5,
    "subregionId": "58581a836630e24c4487900b",
    "lat": 33.98480211231971,
    "lon": -118.47442,
    "name": "Venice Breakwater",
    "tide": {
      "previous": {
        "type": "HIGH",
        "height": 1.4,
        "timestamp": 1644316424,
        "utcOffset": -8
      },
      "current": {
        "type": "NORMAL",
        "height": 0.9,
        "timestamp": 1644329513,
        "utcOffset": -8
      },
      "next": {
        "type": "LOW",
        "height": 0.4,
        "timestamp": 1644344571,
        "utcOffset": -8
      }
    },
    "waterTemp": {
      "min": 0,
      "max": 0
    },
    "cameras": [
      {
        "title": "LA - Venice Breakwater",
        "isPremium": false,
        "isPrerecorded": false,
        "lastPrerecordedClipStartTimeUTC": "2022-02-07T14:11:53.625Z",
        "lastPrerecordedClipEndTimeUTC": "2022-02-07T14:11:53.625Z",
        "status": {
          "isDown": false,
          "message": "",
          "subMessage": "",
          "altMessage": ""
        },
        "supportsHighlights": false,
        "supportsCrowds": false,
        "streamUrl": "https://cams.cdn-surfline.com/cdn-wc/wc-venicebreakwater/playlist.m3u8",
        "stillUrl": "https://camstills.cdn-surfline.com/wc-venicebreakwater/latest_small.jpg",
        "rewindBaseUrl": "https://camrewinds.cdn-surfline.com/wc-venicebreakwater/wc-venicebreakwater",
        "alias": "wc-venicebreakwater",
        "_id": "5834a1b6e411dc743a5d52f3",
        "control": "https://camstills.cdn-surfline.com/wc-venicebreakwater/latest_small.jpg",
        "nighttime": false,
        "rewindClip": "https://camrewinds.cdn-surfline.com/wc-venicebreakwater/wc-venicebreakwater.1300.2022-02-08.mp4"
      },
      {
        "title": "LA - Venice Breakwater Close-Up",
        "isPremium": false,
        "isPrerecorded": false,
        "lastPrerecordedClipStartTimeUTC": "2022-02-07T14:11:53.641Z",
        "lastPrerecordedClipEndTimeUTC": "2022-02-07T14:11:53.641Z",
        "status": {
          "isDown": false,
          "message": "",
          "subMessage": "",
          "altMessage": ""
        },
        "supportsHighlights": false,
        "supportsCrowds": false,
        "streamUrl": "https://cams.cdn-surfline.com/cdn-wc/wc-venicebeachclose/playlist.m3u8",
        "stillUrl": "https://camstills.cdn-surfline.com/wc-venicebeachclose/latest_small.jpg",
        "rewindBaseUrl": "https://camrewinds.cdn-surfline.com/wc-venicebeachclose/wc-venicebeachclose",
        "alias": "wc-venicebeachclose",
        "_id": "5a2038ae096c27001ac4f18e",
        "control": "https://camstills.cdn-surfline.com/wc-venicebeachclose/latest_small.jpg",
        "nighttime": false,
        "rewindClip": "https://camrewinds.cdn-surfline.com/wc-venicebeachclose/wc-venicebeachclose.1300.2022-02-08.mp4"
      }
    ],
    "conditions": {
      "human": true,
      "value": "VERY_GOOD",
      "sortableCondition": 3,
      "expired": false
    },
    "wind": {
      "speed": 7,
      "direction": 36.90845,
      "directionType": "Offshore"
    },
    "weather": {
      "temperature": 14,
      "condition": "NIGHT_CLEAR"
    },
    "waveHeight": {
      "human": true,
      "min": 0.6,
      "max": 0.9,
      "occasional": null,
      "humanRelation": "Thigh to waist high",
      "plus": false
    },
    "legacyId": 146850,
    "legacyRegionId": 2951,
    "timezone": "America/Los_Angeles",
    "saveFailures": 0,
    "swells": [
      {
        "height": 0.4,
        "direction": 203.94513,
        "directionMin": 197.685475,
        "period": 14
      },
      {
        "height": 0.2,
        "direction": 276.36621,
        "directionMin": 270.54677000000004,
        "period": 14
      },
      {
        "height": 0.2,
        "direction": 208.29547,
        "directionMin": 201.14329999999998,
        "period": 19
      },
      {
        "height": 0.1,
        "direction": 264.203,
        "directionMin": 261.11208999999997,
        "period": 17
      },
      {
        "height": 0,
        "direction": 0,
        "directionMin": 0,
        "period": 0
      },
      {
        "height": 0,
        "direction": 0,
        "directionMin": 0,
        "period": 0
      }
    ],
    "offshoreDirection": 215,
    "parentTaxonomy": [
      "58f7ed51dadb30820bb38782",
      "58f7ed51dadb30820bb38791",
      "58f7ed51dadb30820bb3879c",
      "58f7ed51dadb30820bb387a6",
      "5908c46bdadb30820b23c1f3",
      "58f7ed5bdadb30820bb393cd",
      "5a05f5aa9e1888001aa344cb",
      "58f7ed5cdadb30820bb394fe"
    ],
    "abilityLevels": [],
    "boardTypes": [],
    "relivableRating": 5,
    "slug": "DEPRECATED"
  }
]
