{
  "AWSTemplateFormatVersion": "2010-09-09",
  "Description": "ELB Logging S3 Bucket (1.1.1)",
  "Parameters": {
    "EnvironmentName" : {
      "Description" : "Name of Environment",
      "Type" : "String",
      "Default" : "prod",
      "AllowedValues" : [
        "common",
        "dev",
        "prod",
        "qa",
        "sbox",
        "staging",
        "testing"
      ]
    },
    "ApplicationName": {
      "Description": "Name of application bucket will be used for",
      "Type": "String"
    },
    "CompanyName": {
      "Description": "Company for the bucket (Surfline, Buoy Weather)",
      "Type": "String",
      "Default": "sl",
      "AllowedValues": [
        "bw",
        "ft",
        "sl"
      ]
    }
  },
  "Mappings": {
    "CompanyNames" : {
      "bw" : {
        "CompanyFullName" : "buoyweather"
      },
      "ft" : {
        "CompanyFullName" : "fishtrack"
      },
      "sl" : {
        "CompanyFullName" : "surfline"
      }
    }
  },
  "Resources": {
    "Bucket" : {
      "Type" : "AWS::S3::Bucket",
      "Properties" : {
        "BucketName" : {
          "Fn::Join" : [ "-", [ { "Ref" : "CompanyName" }, { "Ref" : "ApplicationName" }, { "Ref" : "EnvironmentName" } ] ]
        },
        "VersioningConfiguration" : {
          "Status" : "Enabled"
        },
        "LifecycleConfiguration" : {
          "Rules" : [
            {
              "Id" : { "Fn::Join" : [ "-", [ { "Ref" : "CompanyName" }, { "Ref" : "ApplicationName" }, { "Ref" : "EnvironmentName" }, "archive-rule" ] ] },
              "NoncurrentVersionExpirationInDays" : "90",
              "NoncurrentVersionTransition" : {
                "StorageClass" : "Glacier",
                "TransitionInDays" : "2"
              },
              "Status" : "Enabled"
            }
          ]
        }
      }
    },
    "BucketPolicy": {
     "Type": "AWS::S3::BucketPolicy",
     "Properties": {
       "Bucket": { "Ref": "Bucket" },
       "PolicyDocument": {
         "Statement": [
           {
             "Sid": "AwsElbPutLogging",
             "Effect": "Allow",
             "Principal": { "AWS": "arn:aws:iam::027434742980:root" },
             "Action": "s3:PutObject",
             "Resource": { "Fn::Join": [ "", [ "arn:aws:s3:::", { "Ref": "Bucket" }, "/*" ] ] }
           }
         ]
       }
     }
   }
  },
  "Outputs" : {
    "BucketName" : {
      "Description" : "Name of the bucket",
      "Value" : { "Ref" : "Bucket" }
    }
  }
}
