{
  "AWSTemplateFormatVersion": "2010-09-09",
  "Description": "ElastiCache Subnet Group (1.1.1)",
  "Metadata": {
    "AWS::CloudFormation::Interface": {
      "ParameterGroups": [
        {
          "Label": {
            "default": "Application"
          },
          "Parameters": [
            "ApplicationName",
            "CompanyName",
            "EnvironmentName"
          ]
        },
        {
          "Label": {
            "default": "Networking"
          },
          "Parameters": [
            "CacheSubnets",
            "VpcId"
          ]
        }
      ]
    }
  },
  "Parameters": {
    "ApplicationName": {
      "Description": "Name of application cache will be used for",
      "Type": "String"
    },
    "CompanyName": {
      "Description": "Company for the bucket (Surfline, Buoy Weather)",
      "Type": "String",
      "Default": "sl",
      "AllowedValues": [
        "bw",
        "ft",
        "sl"
      ]
    },
    "EnvironmentName": {
      "Description": "Name of environment",
      "Type": "String",
      "Default": "prod",
      "AllowedValues": [
        "common",
        "dev",
        "prod",
        "qa",
        "sbox",
        "staging",
        "testing"
      ]
    },
    "CacheSubnets": {
      "Description": "ID of the subnets associated with the VPC",
      "Type": "List<AWS::EC2::Subnet::Id>"
    },
    "VpcId": {
      "Description": "ID of the VPC associated with the environment",
      "Type": "AWS::EC2::VPC::Id"
    }
  },
  "Resources": {
    "CacheSubnetGroup": {
      "Type": "AWS::ElastiCache::SubnetGroup",
      "Properties": {
        "Description": { "Fn::Join": [ "-", [ "rds-dbsubnet-group", { "Ref": "CompanyName" }, { "Ref": "ApplicationName" }, { "Ref": "EnvironmentName" } ] ] },
        "SubnetIds": {"Ref": "CacheSubnets"}
      }
    }
  },
  "Outputs": {
    "CacheSubnetGroup": {
      "Description": "Physical ID of the ElastiCache Subnet Group",
      "Value": { "Ref": "CacheSubnetGroup" }
    }
  }
}
