{
  "AWSTemplateFormatVersion": "2010-09-09",
  "Description": "RDS Subnet Group (1.2.1)",
  "Metadata": {
    "AWS::CloudFormation::Interface": {
      "ParameterGroups": [
        {
          "Label": {
            "default": "Application"
          },
          "Parameters": [
            "ApplicationName",
            "CompanyName",
            "EnvironmentName"
          ]
        },
        {
          "Label": {
            "default": "Networking"
          },
          "Parameters": [
            "PriSubnets",
            "VpcId"
          ]
        }
      ]
    }
  },
  "Parameters": {
    "ApplicationName": {
      "Description": "Name of application database will be used for",
      "Type": "String"
    },
    "CompanyName": {
      "Description": "Company for the bucket (Surfline, Buoy Weather)",
      "Type": "String",
      "Default": "sl",
      "AllowedValues": [
        "bw",
        "ft",
        "sl"
      ]
    },
    "EnvironmentName": {
      "Description": "Name of environment",
      "Type": "String",
      "Default": "prod",
      "AllowedValues": [
        "common",
        "dev",
        "prod",
        "qa",
        "sbox",
        "staging",
        "testing"
      ]
    },
    "PriSubnets": {
      "Description": "ID of the Private Subnet associated with the VPC",
      "Type": "List<AWS::EC2::Subnet::Id>"
    },
    "VpcId": {
      "Description": "ID of the VPC associated with the environment",
      "Type": "AWS::EC2::VPC::Id"
    }
  },
  "Resources": {
    "DBSubnetGroup": {
      "Type": "AWS::RDS::DBSubnetGroup",
      "Properties": {
        "DBSubnetGroupDescription": "RDS SubnetGroup",
        "SubnetIds": {"Ref": "PriSubnets"},
        "Tags": [
          {
            "Key": "Application",
            "Value": { "Ref": "ApplicationName" }
          },
          {
            "Key": "Company",
            "Value": { "Ref": "CompanyName" }
          },
          {
            "Key": "Environment",
            "Value": { "Ref": "EnvironmentName" }
          },
          {
            "Key": "Name",
            "Value": { "Fn::Join": [ "-", [ "rds-dbsubnet-group", { "Ref": "CompanyName" }, { "Ref": "ApplicationName" }, { "Ref": "EnvironmentName" } ] ] }
          }
        ]
      }
    }
  },
  "Outputs": {
    "DBSubnetGroup": {
      "Description": "Physical ID of the DB Subnet Group",
      "Value": { "Ref": "DBSubnetGroup" }
    }
  }
}
