{
  "AWSTemplateFormatVersion" : "2010-09-09",
  "Description" : "BW WordPress Snowflake Server Stack (2.11.0)",
  "Parameters" : {
    "AlertSubscriptionEmail": {
      "Description": "Email to receive instance events",
      "Type": "String"
    },
    "AllServerSecurityGroupId" : {
      "Description" : "The security group used for all servers",
      "Type" : "AWS::EC2::SecurityGroup::Id"
    },
    "AMI" : {
      "Description" : "Snowflake AMI",
      "Type" : "String"
    },
    "ApplicationName" : {
      "Description" : "Name of application",
      "Type" : "String",
      "Default": "wordpress"
    },
    "ArtifactBucketName" : {
      "Description" : "Name of bucket storing deployment artifact",
      "Type" : "String"
    },
    "ArtifactName" : {
      "Description" : "Name of artifact to deploy",
      "Type" : "String",
      "Default": "wp-content.tar.gz"
    },
    "BackupBucketName" : {
      "Description" : "Name of bucket storing backup data",
      "Type" : "String"
    },
    "ChefBucketName" : {
      "Description" : "Name of bucket storing Chef configuration",
      "Type" : "String"
    },
    "CompanyName" : {
      "Description" : "Company (Surfline, Buoy Weather)",
      "Type" : "String",
      "Default" : "sl",
      "AllowedValues" : [
        "bw",
        "ft",
        "sl"
      ]
    },
    "DeregTopic": {
      "Description": "The ARN of the DeregTopic",
      "Type": "String",
      "Default": "arn:aws:sns:us-west-1:833713747344:Sturdy-SAND"
    },
    "EnvironmentName" : {
      "Description" : "Name of Environment",
      "Type" : "String",
      "Default" : "prod",
      "AllowedValues" : [
        "common",
        "prod",
        "qa",
        "staging",
        "testing"
      ]
    },
    "IamCertificateArn": {
      "Description": "Name of ACM certificate to use for load balancer",
      "Type": "String"
    },
    "IamCertificateName": {
      "Description": "Name of IAM certificate to use for load balancer",
      "Type": "String"
    },
    "InternalServerSecurityGroupId" : {
      "Description" : "The security group used for internal servers",
      "Type" : "AWS::EC2::SecurityGroup::Id"
    },
    "MongoClientSecurityGroup" : {
      "Description" : "The security group used for MongoDB clients",
      "Type" : "AWS::EC2::SecurityGroup::Id"
    },
    "RdsClientSecurityGroup" : {
      "Description" : "The security group used for database clients",
      "Type" : "AWS::EC2::SecurityGroup::Id"
    },
    "InstanceType" : {
      "Description" : "Type of instance(s).",
      "Type" : "String",
      "Default" : "t2.micro",
      "AllowedValues" : [
        "c3.2xlarge",
        "c3.4xlarge",
        "c3.8xlarge",
        "c3.large",
        "c3.xlarge",
        "c4.2xlarge",
        "c4.4xlarge",
        "c4.8xlarge",
        "c4.large",
        "c4.xlarge",
        "d2.2xlarge",
        "d2.4xlarge",
        "d2.8xlarge",
        "d2.xlarge",
        "g2.2xlarge",
        "g2.2xlarge ",
        "g2.8xlarge",
        "g2.8xlarge ",
        "i2.2xlarge",
        "i2.4xlarge",
        "i2.8xlarge",
        "i2.xlarge",
        "m3.2xlarge",
        "m3.large",
        "m3.medium",
        "m3.xlarge",
        "m4.10xlarge",
        "m4.2xlarge",
        "m4.4xlarge",
        "m4.large",
        "m4.xlarge",
        "r3.2xlarge",
        "r3.4xlarge",
        "r3.8xlarge",
        "r3.large",
        "r3.xlarge",
        "t2.large",
        "t2.large ",
        "t2.medium",
        "t2.micro",
        "t2.small"
      ]
    },
    "KeyName" : {
      "Description" : "Name of an existing EC2-VPC KeyPair",
      "Type" : "AWS::EC2::KeyPair::KeyName"
    },
    "MongoDBName" : {
      "Description" : "Name of the Mongo database to connect to",
      "Type" : "String"
    },
    "MongoConnectionStr" : {
      "Description" : "Connection String of the Mongo database to connect to",
      "Type" : "String"
    },
    "MongoHost" : {
      "Description" : "Name of MongoDB host to connect to",
      "Type" : "String"
    },
    "MongoPort" : {
      "Description" : "Value for MongoDB port to connect to",
      "Type" : "Number",
      "Default" : "27017",
      "MaxValue" : "65535",
      "MinValue" : "1024"
    },
    "MySqlHost" : {
      "Description" : "Name of MySQL host to connect to",
      "Type" : "String"
    },
    "MySqlPassword" : {
      "Description" : "Password for MySQL connection",
      "Type" : "String",
      "NoEcho" : "true"
    },
    "PriSubnet1" : {
      "Description" : "Private subnet 1",
      "Type" : "AWS::EC2::Subnet::Id"
    },
    "PriSubnet2" : {
      "Description" : "Private subnet 2",
      "Type" : "AWS::EC2::Subnet::Id"
    },
    "ServiceName" : {
      "Description" : "Service name",
      "Type" : "String",
      "Default" : "wordpress"
    },
    "MaxServerCount" : {
      "Description" : "Max number of instances to start",
      "Type" : "Number",
      "Default" : "1",
      "MinValue" : "0",
      "MaxValue" : "10"
    },
    "MinServerCount" : {
      "Description" : "Min number of instances to start",
      "Type" : "Number",
      "Default" : "1",
      "MinValue" : "0",
      "MaxValue" : "10"
    },
    "StaticContentBucket" : {
      "Description" : "S3 bucket containing static content",
      "Type" : "String"
    },
    "VpcId" : {
      "Description" : "VPC ID",
      "Type" : "AWS::EC2::VPC::Id"
    },
    "WordPressVersion" : {
      "Description" : "Version of WordPress to deploy",
      "Type" : "String",
      "ConstraintDescription" : "Please enter a valid Semantic Versioning number",
      "AllowedPattern" : "[0-9].[0-9].[0-9]",
      "Default": "4.5.3"
    }
  },
  "Mappings" : {
    "CompanyNames" : {
      "bw" : {
        "CompanyFullName" : "buoyweather"
      },
      "ft" : {
        "CompanyFullName" : "fishtrack"
      },
      "sl" : {
        "CompanyFullName" : "surfline"
      }
    }
  },
  "Conditions" : {
    "UseCertARN" : {"Fn::Equals" : [{"Ref" : "IamCertificateName"}, ""]}
  },
  "Resources" : {
    "ElbSecurityGroup" : {
      "Type" : "AWS::EC2::SecurityGroup",
      "Properties" : {
        "GroupDescription" : { "Fn::Join" : [ "-", [ { "Ref" : "CompanyName" }, { "Ref" : "ServiceName" }, { "Ref" : "ApplicationName" }, "ElbSecurityGroup", { "Ref" : "EnvironmentName" } ] ] },
        "Tags" : [
          {
            "Key" : "Name",
            "Value" : { "Fn::Join" : [ "-", [ "elb", { "Ref" : "CompanyName" }, { "Ref" : "ApplicationName" }, { "Ref" : "EnvironmentName" } ] ] }
          },
          {
            "Key" : "Environment",
            "Value" : { "Ref" : "EnvironmentName" }
          },
          {
            "Key" : "Company",
            "Value" : { "Fn::FindInMap" : [ "CompanyNames", { "Ref" : "CompanyName" }, "CompanyFullName" ] }
          },
          {
            "Key" : "Application",
            "Value" : { "Ref" : "ApplicationName" }
          },
          {
            "Key" : "Service",
            "Value" : { "Ref" : "ServiceName" }
          }
        ],
        "VpcId" : { "Ref" : "VpcId" },
        "SecurityGroupIngress" : [
          { "IpProtocol": "tcp", "FromPort": "80",  "ToPort": "80",  "CidrIp": "0.0.0.0/0" },
          { "IpProtocol": "tcp", "FromPort": "443",  "ToPort": "443",  "CidrIp": "0.0.0.0/0" }
        ],
        "SecurityGroupEgress" : [
          { "IpProtocol" : "-1", "FromPort" : "0", "ToPort" : "65535", "CidrIp" : "0.0.0.0/0" }
        ]
      }
    },
    "ServerSecurityGroup" : {
      "Type" : "AWS::EC2::SecurityGroup",
      "Properties" : {
        "GroupDescription" : { "Fn::Join" : [ "-", [ { "Ref" : "CompanyName" }, { "Ref" : "ServiceName" }, { "Ref" : "ApplicationName" }, "ServerSecurityGroup", { "Ref" : "EnvironmentName" } ] ] },
        "Tags" : [
          {
            "Key" : "Name",
            "Value" : { "Fn::Join" : [ "-", [ "servers", { "Ref" : "CompanyName" }, { "Ref" : "ApplicationName" }, { "Ref" : "EnvironmentName" } ] ] }
          },
          {
            "Key" : "Environment",
            "Value" : { "Ref" : "EnvironmentName" }
          },
          {
            "Key" : "Company",
            "Value" : { "Fn::FindInMap" : [ "CompanyNames", { "Ref" : "CompanyName" }, "CompanyFullName" ] }
          },
          {
            "Key" : "Application",
            "Value" : { "Ref" : "ApplicationName" }
          },
          {
            "Key" : "Service",
            "Value" : { "Ref" : "ServiceName" }
          }
        ],
        "VpcId" : { "Ref" : "VpcId" },
        "SecurityGroupIngress" : [
           { "IpProtocol" : "tcp", "FromPort" : "80",  "ToPort" : "80",  "SourceSecurityGroupId" : { "Ref" : "ElbSecurityGroup" } }
         ],
        "SecurityGroupEgress" : [
          { "IpProtocol" : "-1", "FromPort" : "0", "ToPort" : "65535", "CidrIp" : "0.0.0.0/0" }
        ]
      },
      "DependsOn" : [ "ElbSecurityGroup" ]
    },
    "LoadBalancer": {
      "Type": "AWS::ElasticLoadBalancing::LoadBalancer",
      "Properties": {
        "LoadBalancerName": { "Fn::Join" : [ "-", [ { "Ref" : "CompanyName" }, { "Ref" : "ServiceName" }, { "Ref" : "ApplicationName" }, { "Ref" : "EnvironmentName" } ] ] },
        "Scheme": "internal",
        "SecurityGroups" : [
          { "Ref": "ElbSecurityGroup" }
        ],
        "Instances" : [ ],
        "Subnets" : [
          { "Ref": "PriSubnet1" },
          { "Ref": "PriSubnet2" }
        ],
        "Listeners" : [
          { "LoadBalancerPort": "80", "InstancePort": "80", "Protocol": "HTTP", "InstanceProtocol": "HTTP" },
          { "LoadBalancerPort": "443", "InstancePort": "80", "Protocol": "HTTPS", "InstanceProtocol": "HTTP", "SSLCertificateId": { "Fn::If" : [ "UseCertARN", { "Ref": "IamCertificateArn" }, { "Fn::Join" : [ "", [ "arn:aws:iam::", { "Ref" : "AWS::AccountId" }, ":server-certificate/", { "Ref": "IamCertificateName" } ] ] } ] } }
        ],
        "HealthCheck": {
          "Target": "HTTP:80/news/",
          "HealthyThreshold": "2",
          "UnhealthyThreshold": "10",
          "Interval": "10",
          "Timeout": "5"
        },
        "Tags" : [
          {
            "Key" : "Name",
            "Value" : { "Fn::Join" : [ "-", [ "servers", { "Ref" : "CompanyName" }, { "Ref" : "ApplicationName" }, { "Ref" : "EnvironmentName" } ] ] }
          },
          {
            "Key" : "Environment",
            "Value" : { "Ref" : "EnvironmentName" }
          },
          {
            "Key" : "Company",
            "Value" : { "Fn::FindInMap" : [ "CompanyNames", { "Ref" : "CompanyName" }, "CompanyFullName" ] }
          },
          {
            "Key" : "Application",
            "Value" : { "Ref" : "ApplicationName" }
          },
          {
            "Key" : "Service",
            "Value" : { "Ref" : "ServiceName" }
          }
        ]
      }
    },
    "InstanceRole" : {
      "Type" : "AWS::IAM::Role",
      "Properties" : {
        "AssumeRolePolicyDocument" : {
          "Version" : "2012-10-17",
            "Statement" : [
              {
                "Effect" : "Allow",
                "Principal" : { "Service" : [ "ec2.amazonaws.com" ]},
                "Action" : [ "sts:AssumeRole" ]
              }
            ]
        },
        "Path" : "/",
        "Policies" : [
          {
            "PolicyName" : { "Fn::Join" : [ "-", [ { "Ref" : "CompanyName" }, { "Ref" : "ServiceName" }, { "Ref" : "ApplicationName" }, "server-role", { "Ref" : "EnvironmentName" } ] ]
            },
            "PolicyDocument" : {
              "Version" : "2012-10-17",
              "Statement" : [
                {
                  "Effect" : "Allow",
                  "Action" : [ "s3:List*" ],
                  "Resource" : [ { "Fn::Join" : [ "", [ "arn:aws:s3:::", { "Ref" : "ArtifactBucketName" }, "/wordpress" ] ] } ]
                },
                {
                  "Effect" : "Allow",
                  "Action" : [ "s3:Get*", "s3:List*" ],
                  "Resource": [ { "Fn::Join" : [ "", [ "arn:aws:s3:::", { "Ref" : "ArtifactBucketName" }, "/wordpress/*" ] ] } ]
                },
                {
                  "Effect" : "Allow",
                  "Action" : [ "s3:List*" ],
                  "Resource" : [ { "Fn::Join" : [ "", [ "arn:aws:s3:::", { "Ref" : "ChefBucketName" } ] ] } ]
                },
                {
                  "Effect" : "Allow",
                  "Action" : [ "s3:Get*", "s3:List*" ],
                  "Resource": [ { "Fn::Join" : [ "", [ "arn:aws:s3:::", { "Ref" : "ChefBucketName" }, "/*" ] ] } ]
                },
                {
                  "Effect" : "Allow",
                  "Action" : [ "s3:ListBucket" ],
                  "Resource" : [ { "Fn::Join" : [ "", [ "arn:aws:s3:::", { "Ref" : "StaticContentBucket" } ] ] } ]
                },
                {
                  "Effect" : "Allow",
                  "Action" : [ "s3:DeleteObject", "s3:Get*", "s3:Put*" ],
                  "Resource" : [ { "Fn::Join" : [ "", [ "arn:aws:s3:::", { "Ref" : "StaticContentBucket" }, "/*" ] ] } ]
                },
                {
                  "Effect" : "Allow",
                  "Action" : [ "s3:ListBucket" ],
                  "Resource" : [ { "Fn::Join" : [ "", [ "arn:aws:s3:::", { "Ref" : "BackupBucketName" } ] ] } ]
                },
                {
                  "Effect" : "Allow",
                  "Action" : [ "s3:DeleteObject", "s3:Get*", "s3:Put*" ],
                  "Resource" : [ { "Fn::Join" : [ "", [ "arn:aws:s3:::", { "Ref" : "BackupBucketName" }, "/*" ] ] } ]
                },
                {
                  "Effect" : "Allow",
                  "Action" : [ "ec2:CreateTags", "ec2:DescribeInstances", "ec2:DescribeTags" ],
                  "Resource" : [ "*" ]
                }
              ]
            }
          }
        ]
      }
    },
    "InstanceProfile" : {
      "Type" : "AWS::IAM::InstanceProfile",
      "Properties" : {
        "Path" : "/",
        "Roles" : [
          { "Ref" : "InstanceRole" }
        ]
      }
    },
    "LaunchServer" : {
      "Type" : "AWS::AutoScaling::LaunchConfiguration",
      "Properties" : {
        "InstanceType" : { "Ref" : "InstanceType" },
        "KeyName" : { "Ref" : "KeyName" },
        "ImageId" : { "Ref" : "AMI" },
        "IamInstanceProfile" : { "Ref" : "InstanceProfile" },
        "SecurityGroups" : [
          { "Ref" : "AllServerSecurityGroupId" },
          { "Ref" : "InternalServerSecurityGroupId" },
          { "Ref" : "ServerSecurityGroup" },
          { "Ref" : "RdsClientSecurityGroup" },
          { "Ref" : "MongoClientSecurityGroup" }
        ],
        "UserData" : {
          "Fn::Base64" : {
            "Fn::Join" : [
              "",
              [
                "#cloud-config\n",
                "repo_update: true\n",
                "repo_upgrade: all\n",
                "runcmd:\n",
                "- python /etc/chef/rename_instance\n"
              ]
            ]
          }
        }
      }
    },
    "ServerAutoScalingGroup" : {
      "Type" : "AWS::AutoScaling::AutoScalingGroup",
      "Properties" : {
        "LaunchConfigurationName" : { "Ref" : "LaunchServer" },
        "MinSize" : "0",
        "MaxSize" : { "Ref" : "MaxServerCount" },
        "DesiredCapacity" : { "Ref" : "MinServerCount" },
        "HealthCheckGracePeriod": "300",
        "HealthCheckType" : "ELB",
        "NotificationConfigurations" : [
          {
            "TopicARN" : { "Ref" : "AutoScalingNotification" },
            "NotificationTypes" : [
              "autoscaling:EC2_INSTANCE_LAUNCH",
              "autoscaling:EC2_INSTANCE_LAUNCH_ERROR",
              "autoscaling:EC2_INSTANCE_TERMINATE",
              "autoscaling:EC2_INSTANCE_TERMINATE_ERROR"
            ]
          },
          {
            "TopicARN" : { "Ref" : "DeregTopic" },
            "NotificationTypes" : [
              "autoscaling:EC2_INSTANCE_TERMINATE"
            ]
          }
        ],
        "Tags" : [
          {
            "Key" : "Name",
            "Value" : { "Fn::Join" : [ "-", [ { "Ref" : "CompanyName" }, { "Ref" : "ServiceName" }, { "Ref" : "ApplicationName" }, { "Ref" : "EnvironmentName" } ] ] },
            "PropagateAtLaunch" : "true"
          },
          {
            "Key" : "Environment",
            "Value" : { "Ref" : "EnvironmentName" },
            "PropagateAtLaunch" : "true"
          },
          {
            "Key" : "Company",
            "Value" : { "Fn::FindInMap" : [ "CompanyNames", { "Ref" : "CompanyName" }, "CompanyFullName" ] },
            "PropagateAtLaunch" : "true"
          },
          {
            "Key" : "Application",
            "Value" : { "Ref" : "ApplicationName" },
            "PropagateAtLaunch" : "true"
          },
          {
            "Key" : "Service",
            "Value" : { "Ref" : "ServiceName" },
            "PropagateAtLaunch" : "true"
          },
          {
            "Key": "recipes",
            "Value": { "Fn::Join": [ "", [ "role[base],", "role[", { "Fn::Join" : [ "-", [ { "Ref" : "CompanyName" }, { "Ref" : "ServiceName" }] ] }, "]" ] ] },
            "PropagateAtLaunch": "true"
          },
          {
            "Key": "type",
            "Value": { "Fn::Join" : [ "-", [ { "Ref" : "ApplicationName" }, { "Ref" : "ServiceName" }] ] },
            "PropagateAtLaunch": "true"
          }
        ],
        "LoadBalancerNames" : [
          { "Ref": "LoadBalancer" }
        ],
        "VPCZoneIdentifier" : [
          { "Ref" : "PriSubnet1" },
          { "Ref" : "PriSubnet2" }
        ],
        "MetricsCollection" : [
          {
            "Granularity" : "1Minute",
            "Metrics" : [
              "GroupMinSize",
              "GroupMaxSize"
            ]
          }
        ]
      }
    },
    "AutoScalingNotification": {
      "Type": "AWS::SNS::Topic",
      "Properties": {
        "DisplayName": { "Fn::Join" : [ "-", [ { "Ref" : "CompanyName" }, { "Ref" : "ServiceName" }, { "Ref" : "ApplicationName" }, { "Ref" : "EnvironmentName" }, "topic" ] ] },
        "Subscription": [
          {
            "Endpoint": { "Ref": "AlertSubscriptionEmail" },
            "Protocol": "email"
          }
        ],
        "TopicName": { "Fn::Join" : [ "-", [ { "Ref" : "CompanyName" }, { "Ref" : "ServiceName" }, { "Ref" : "ApplicationName" }, { "Ref" : "EnvironmentName" }, "topic" ] ] }
      }
    }
  },
  "Outputs" : {
    "LoadBalancerCname" : {
      "Description" : "CNAME of the load balancer",
      "Value" : { "Fn::GetAtt" : [ "LoadBalancer", "DNSName" ] }
    }
  }
}
