{
  "AWSTemplateFormatVersion": "2010-09-09",
  "Description": "Create VPN for Core VPC - 8.3.13",
  "Parameters": {
    "ApplicationName" : {
      "Description" : "Name of application",
      "Type" : "String",
      "Default" : "surfline_vpn"
    },
    "BucketKey": {
      "Default": "vpnservers",
      "Description": "S3 prefix for chef cookbook archives and artifacts. The environment name will be prepended to this. E.g. if \"ChefBucketName\" is \"foo\", \"BucketKey\" is \"bar\", \"EnvironmentName\" is \"dev\", and \"ChefDataBucketName\" is \"citadel\", instances will pull configuration tarballs from s3://foo/dev/bar/ and be able to access files (e.g. secrets/artifacts) in s3://citadel/dev/bar/",
      "Type": "String"
    },
    "ChefBucketName": {
      "Default": "common",
      "Description": "Name of bucket storing core Chef configuration",
      "Type": "String"
    },
    "ChefClientVersion": {
      "Default": "12.19.36",
      "Description": "Version of chef-client to install.",
      "Type": "String"
    },
    "ChefDataBucketName": {
      "Default": "citadel",
      "Description": "Name of bucket storing extra Chef data",
      "Type": "String"
    },
    "ChefRunList": {
      "Default": "",
      "Description": "Optional override for the Chef recipe name; leave blank to default to \"recipe[CUSTOMERNAME_vpn]\".",
      "Type": "String"
    },
    "CustomerName": {
      "AllowedPattern": "[-_ a-z]*",
      "Default": "",
      "Description": "The nickname for the new customer. Must be all lowercase letters, should not contain spaces or special characters, nor should it include any part of EnvironmentName.",
      "Type": "String"
    },
    "EnvironmentName": {
      "Default": "common",
      "Description": "Name of Environment",
      "Type": "String"
    },
    "ExecutionEnvironment": {
      "AllowedValues": [
        "dev",
        "legacy",
        "prod"
      ],
      "Default": "dev",
      "Description": "Execution environment of template.",
      "Type": "String"
    },
    "KeyName": {
      "Default": "",
      "Description": "Name of an existing EC2-VPC KeyPair",
      "Type": "String"
    },
    "ManagementInstanceType": {
      "AllowedValues": [
        "m3.medium",
        "m3.large",
        "m4.large",
        "t2.large",
        "t2.medium",
        "t2.small",
        "t2.micro"
      ],
      "Default": "m3.medium",
      "Description": "Type of the management instances. T2 not allowed in dedicated tenancy.",
      "Type": "String"
    },
    "PrivateRouteTable1": {
      "Description": "Private Route Tabe ID 1",
      "Type": "String"
    },
    "PrivateRouteTable2": {
      "Description": "Private Route Tabe ID 2",
      "Type": "String"
    },
    "PrivateSubnetCount": {
      "Default": "0",
      "Description": "Optional number of private subnets to reference in VPC stack. Leave at 0 to look this up dynamically via Lambda.",
      "Type": "String"
    },
    "PublicRouteTableId": {
      "Description": "Private Route Tabe ID 1",
      "Type": "String"
    },
    "PublicSubnet1": {
      "Description": "Public Subnet 1 CIDR",
      "Type": "String"
    },
    "PublicSubnet2": {
      "Description": "Public Subnet 2 CIDR",
      "Type": "String"
    },
    "VPNAMI": {
      "Default": "",
      "Description": "AMI ID for VPN instance (leave blank to  use the \"VPNOS\" parameter)",
      "Type": "String"
    },
    "VPNManagedPolicies": {
      "Description": "Managed policy ARNs to apply to the VPN instances.",
      "Type": "CommaDelimitedList"
    },
    "VPNOS": {
      "AllowedValues": [
        "centos-7",
        "ubuntu-16.04",
        ""
      ],
      "Default": "ubuntu-16.04",
      "Description": "OS to deploy on the VPN server (can be overridden with the \"VPNAMI\" parameter). Also used to determine instance userdata configuration (i.e. yum vs apt package management).",
      "Type": "String"
    },
    "VPNSecurityGroups": {
      "Description": "Security groups to apply to the VPN instances.",
      "Type": "List<AWS::EC2::SecurityGroup::Id>"
    },
    "VPNSubnet": {
      "Default": "10.12.14.0/24",
      "Description": "Address range for a VPN subnet.",
      "Type": "String"
    },
    "VpcCidr": {
      "Default": "10.12.0.0/21",
      "Description": "VPC CIDR block (required for creating NAT security group rules for NATing traffic).",
      "Type": "String"
    },
    "VpcId": {
      "Description": "VPC id.",
      "Type": "AWS::EC2::VPC::Id"
    },
    "VpcInstanceTenancy": {
      "AllowedValues": [
        "dedicated",
        "default"
      ],
      "Default": "dedicated",
      "Description": "Tenancy of the VPC",
      "Type": "String"
    },
    "VpnEipPublicIp": {
      "Description": "Elastic IP for the VPN Instance",
      "Type": "String"
    }
  },
  "Conditions": {
    "1PrivateSubnetsCreated": {
      "Fn::Equals": [
        {
          "Ref": "PrivateSubnetCount"
        },
        "1"
      ]
    },
    "2PrivateSubnetsCreated": {
      "Fn::Equals": [
        {
          "Ref": "PrivateSubnetCount"
        },
        "2"
      ]
    },
    "3PrivateSubnetsCreated": {
      "Fn::Equals": [
        {
          "Ref": "PrivateSubnetCount"
        },
        "3"
      ]
    },
    "ChefRunListSpecified": {
      "Fn::And": [
        {
          "Fn::Not": [
            {
              "Fn::Equals": [
                {
                  "Ref": "ChefRunList"
                },
                ""
              ]
            }
          ]
        },
        {
          "Fn::Not": [
            {
              "Fn::Equals": [
                {
                  "Ref": "ChefRunList"
                },
                "undefined"
              ]
            }
          ]
        }
      ]
    },
    "MissingVPNAMI": {
      "Fn::Or": [
        {
          "Fn::Equals": [
            {
              "Ref": "VPNAMI"
            },
            ""
          ]
        },
        {
          "Fn::Equals": [
            {
              "Ref": "VPNAMI"
            },
            "undefined"
          ]
        }
      ]
    },
    "PrivateSubnetCountOmitted": {
      "Fn::Equals": [
        {
          "Ref": "PrivateSubnetCount"
        },
        "0"
      ]
    },
    "RHELUserData": {
      "Fn::Not": [
        {
          "Fn::Equals": [
            {
              "Ref": "VPNOS"
            },
            "ubuntu-16.04"
          ]
        }
      ]
    },
    "SSHKeySpecified": {
      "Fn::And": [
        {
          "Fn::Not": [
            {
              "Fn::Equals": [
                {
                  "Ref": "KeyName"
                },
                ""
              ]
            }
          ]
        },
        {
          "Fn::Not": [
            {
              "Fn::Equals": [
                {
                  "Ref": "KeyName"
                },
                "undefined"
              ]
            }
          ]
        }
      ]
    }
  },
  "Resources": {
    "AMILookup": {
      "Condition": "MissingVPNAMI",
      "Properties": {
        "Platform": {
          "Ref": "VPNOS"
        },
        "Region": {
          "Ref": "AWS::Region"
        },
        "ServiceToken": {
          "Fn::GetAtt": [
            "CFNCustomResourceAMILookup",
            "Arn"
          ]
        }
      },
      "Type": "Custom::AMILookup"
    },
    "AmiLookupLambdaRole": {
      "Condition": "MissingVPNAMI",
      "Properties": {
        "AssumeRolePolicyDocument": {
          "Statement": [
            {
              "Action": [
                "sts:AssumeRole"
              ],
              "Effect": "Allow",
              "Principal": {
                "Service": [
                  "lambda.amazonaws.com"
                ]
              }
            }
          ],
          "Version": "2012-10-17"
        },
        "ManagedPolicyArns": [
          "arn:aws:iam::aws:policy/service-role/AWSLambdaBasicExecutionRole"
        ],
        "Policies": [
          {
            "PolicyDocument": {
              "Statement": [
                {
                  "Action": [
                    "ec2:DescribeImages"
                  ],
                  "Effect": "Allow",
                  "Resource": [
                    "*"
                  ],
                  "Sid": "AMIAccess"
                }
              ],
              "Version": "2012-10-17"
            },
            "PolicyName": {
              "Fn::Join": [
                "-",
                [
                  "amilookup-lambda-role",
                  {
                    "Ref": "EnvironmentName"
                  },
                  {
                    "Ref": "CustomerName"
                  }
                ]
              ]
            }
          }
        ]
      },
      "Type": "AWS::IAM::Role"
    },
    "CFNCustomResourceAMILookup": {
      "Condition": "MissingVPNAMI",
      "Properties": {
        "Code": {
          "ZipFile": {
            "Fn::Join": [
              "",
              [
                "\"\"\"Finds the latest AMI for a given platform - v1.1.0\"\"\"\n\nimport boto3\nimport cfnresponse  # pylint: disable=E0401\n\n\ndef handler(event, context):\n    \"\"\" Lambda entry point \"\"\"\n\n    region = event['ResourceProperties']['Region']\n    platform = event['ResourceProperties']['Platform']\n\n    ami_filters = [\n        {\n            'Name': 'architecture',\n            'Values': ['x86_64']\n        },\n        {\n            'Name': 'is-public',\n            'Values': ['true']\n        },\n        {\n            'Name': 'root-device-type',\n            'Values': ['ebs']\n        },\n        {\n            'Name': 'state',\n            'Values': ['available']\n        },\n        {\n            'Name': 'virtualization-type',\n            'Values': ['hvm']\n        }\n    ]\n    ami_owners = []\n\n    # Using naming conventions from\n    # https://github.com/test-kitchen/kitchen-ec2/tree/master/lib/kitchen/driver/aws/standard_platform\n    if platform == 'centos-7':\n        ami_filters.extend([\n            {\n                'Name': 'owner-id',\n                'Values': ['679593333241']\n            },\n            {\n                'Name': 'product-code',\n                'Values': ['aw0evgkw8e5c1q413zgy5pjce']  # CentOS 7\n            }\n        ])\n        ami_owners = ['aws-marketplace']\n    elif platform == 'ubuntu-16.04':\n        ami_filters.extend([\n            {\n                'Name': 'name',\n                'Values': ['ubuntu/images/*/ubuntu-*-16.04*']\n            },\n            {\n                'Name': 'owner-id',\n                'Values': ['099720109477']\n            }\n        ])\n    # https://docs.aws.amazon.com/AWSCloudFormation/latest/UserGuide/walkthrough-custom-resources-lambda-lookup-amiids.html\n    elif platform == 'amazon-hvm64':\n        ami_filters.extend([\n            {\n                'Name': 'name',\n                'Values': ['amzn-ami-hvm*x86_64-gp2']\n            }\n        ])\n        ami_owners = ['amazon']\n    elif platform == 'windows-2012r2':\n        ami_filters.extend([\n            {\n                'Name': 'owner-alias',\n                'Values': ['amazon']\n            },\n            {\n                'Name': 'name',\n                'Values': ['Windows_Server-2012-R2_RTM-English-*-Base-*',\n                           'Windows_Server-2012-R2_SP*-English-*-Base-*']\n            }\n        ])\n\n    client = boto3.client('ec2', region_name=region)\n\n    describe_response = client.describe_images(\n        ExecutableUsers=['all'],  # public images\n        Owners=ami_owners,\n        Filters=ami_filters\n    )\n\n    response_data = {}\n    if 'Images' in describe_response and describe_response['Images'] != []:\n        response_code = cfnresponse.SUCCESS\n        # Get ami from last dict in the list of matching Images\n        sorted_images = sorted(describe_response['Images'],\n                               key=lambda k: k['Name'])\n        latest_ami = sorted_images[-1]\n        if platform.startswith('amazon-'):\n            # Ensure rc images aren't included\n            for i in reversed(sorted_images):\n                if '.rc-' in latest_ami['Name']:\n                    latest_ami = i\n        response_data['ImageId'] = latest_ami['ImageId']\n        response_data['Name'] = latest_ami['Name']\n    else:\n        response_code = cfnresponse.FAILED\n        response_data['Data'] = describe_response['ResponseMetadata']\n\n    cfnresponse.send(event,\n                     context,\n                     response_code,\n                     response_data,\n                     False)  # physicalResourceId\n"
              ]
            ]
          }
        },
        "Description": "Find latest AMI for given platform",
        "Handler": "index.handler",
        "Role": {
          "Fn::GetAtt": [
            "AmiLookupLambdaRole",
            "Arn"
          ]
        },
        "Runtime": "python2.7",
        "Timeout": 60
      },
      "Type": "AWS::Lambda::Function"
    },
    "VPNInstanceProfile": {
      "Properties": {
        "Path": "/",
        "Roles": [
          {
            "Ref": "VPNRole"
          }
        ]
      },
      "Type": "AWS::IAM::InstanceProfile"
    },
    "VPNRole": {
      "Properties": {
        "AssumeRolePolicyDocument": {
          "Statement": [
            {
              "Action": [
                "sts:AssumeRole"
              ],
              "Effect": "Allow",
              "Principal": {
                "Service": [
                  "ec2.amazonaws.com"
                ]
              }
            }
          ],
          "Version": "2012-10-17"
        },
        "ManagedPolicyArns": {
          "Ref": "VPNManagedPolicies"
        },
        "Path": "/",
        "Policies": [
          {
            "PolicyDocument": {
              "Statement": [
                {
                  "Action": [
                    "ec2:DescribeRouteTables",
                    "ec2:DescribeAddresses",
                    "ec2:AssociateAddress",
                    "ec2:CreateRoute",
                    "ec2:ReplaceRoute",
                    "ec2:ModifyInstanceAttribute"
                  ],
                  "Effect": "Allow",
                  "Resource": [
                    "*"
                  ]
                },
                {
                  "Action": [
                    "s3:Get*",
                    "s3:List*",
                    "s3:Put*"
                  ],
                  "Effect": "Allow",
                  "Resource": [
                    {
                      "Fn::Join": [
                        "",
                        [
                          "arn:aws:s3:::",
                          {
                            "Ref": "ChefDataBucketName"
                          },
                          "/",
                          {
                            "Ref": "EnvironmentName"
                          },
                          "/",
                          {
                            "Ref": "BucketKey"
                          },
                          "/*"
                        ]
                      ]
                    }
                  ]
                },
                {
                  "Action": [
                    "s3:ListBucket"
                  ],
                  "Condition": {
                    "StringLike": {
                      "s3:prefix": [
                        {
                          "Fn::Join": [
                            "",
                            [
                              {
                                "Ref": "EnvironmentName"
                              },
                              "/",
                              {
                                "Ref": "BucketKey"
                              },
                              "/*"
                            ]
                          ]
                        }
                      ]
                    }
                  },
                  "Effect": "Allow",
                  "Resource": [
                    {
                      "Fn::Join": [
                        "",
                        [
                          "arn:aws:s3:::",
                          {
                            "Ref": "ChefDataBucketName"
                          }
                        ]
                      ]
                    }
                  ]
                },
                {
                  "Action":[
                    "ssm:*"
                   ],
                   "Effect":"Allow",
                   "Resource":[
                      {
                         "Fn::Join":[
                            "",
                            [
                               "arn:aws:ssm:",
                               {
                                  "Ref":"AWS::Region"
                               },
                               ":",
                               {
                                  "Ref":"AWS::AccountId"
                               },
                               ":parameter/",
                               {
                                  "Ref":"ExecutionEnvironment"
                               },
                               "/",
                               {
                                  "Ref":"ApplicationName"
                               },
                               "/*"
                            ]
                         ]
                      }
                   ]
                },
                {
                  "Action":[
                    "ssm:GetParameter"
                   ],
                   "Effect":"Allow",
                   "Resource" :[
                     {
                       "Fn::Join":[
                         "",
                         [
                           "arn:aws:ssm:",
                           {
                             "Ref":"AWS::Region"
                           },
                           ":",
                           {
                             "Ref":"AWS::AccountId"
                           },
                           ":parameter/",
                           {
                             "Ref" : "EnvironmentName"
                           },
                           "/surfline_vpn/*"
                         ]
                       ]
                     }
                   ]
                }
              ],
              "Version": "2012-10-17"
            },
            "PolicyName": {
              "Fn::Join": [
                "-",
                [
                  "customer-vpn-server-role",
                  {
                    "Ref": "EnvironmentName"
                  },
                  {
                    "Ref": "CustomerName"
                  }
                ]
              ]
            }
          }
        ]
      },
      "Type": "AWS::IAM::Role"
    },
    "VPNServerASG": {
      "Properties": {
        "LaunchConfigurationName": {
          "Ref": "VpnServerLaunchConfig"
        },
        "MaxSize": 1,
        "MinSize": 1,
        "Tags": [
          {
            "Key": "Name",
            "PropagateAtLaunch": true,
            "Value": {
              "Fn::Join": [
                "-",
                [
                  {
                    "Ref": "CustomerName"
                  },
                  "vpn",
                  {
                    "Ref": "EnvironmentName"
                  }
                ]
              ]
            }
          },
          {
            "Key": "environment",
            "PropagateAtLaunch": true,
            "Value": {
              "Ref": "EnvironmentName"
            }
          },
          {
            "Key": "customer",
            "PropagateAtLaunch": true,
            "Value": {
              "Ref": "CustomerName"
            }
          }
        ],
        "VPCZoneIdentifier": [
          {
            "Ref": "PublicSubnet1"
          },
          {
            "Ref": "PublicSubnet2"
          }
        ]
      },
      "Type": "AWS::AutoScaling::AutoScalingGroup"
    },
    "VpnServerLaunchConfig": {
      "Properties": {
        "AssociatePublicIpAddress": "true",
        "BlockDeviceMappings": [
          {
            "DeviceName": "/dev/sda1",
            "Ebs": {
              "DeleteOnTermination": "true"
            }
          }
        ],
        "IamInstanceProfile": {
          "Ref": "VPNInstanceProfile"
        },
        "ImageId": {
          "Fn::If": [
            "MissingVPNAMI",
            {
              "Fn::GetAtt": [
                "AMILookup",
                "ImageId"
              ]
            },
            {
              "Ref": "VPNAMI"
            }
          ]
        },
        "InstanceMonitoring": "false",
        "InstanceType": {
          "Ref": "ManagementInstanceType"
        },
        "KeyName": {
          "Fn::If": [
            "SSHKeySpecified",
            {
              "Ref": "KeyName"
            },
            {
              "Ref": "AWS::NoValue"
            }
          ]
        },
        "PlacementTenancy": {
          "Ref": "VpcInstanceTenancy"
        },
        "SecurityGroups": {
          "Ref": "VPNSecurityGroups"
        },
        "UserData": {
          "Fn::If": [
            "RHELUserData",
            {
              "Fn::Base64": {
                "Fn::Join": [
                  "",
                  [
                    "#cloud-config\n",
                    "package_update: true\n",
                    "package_upgrade: false\n",
                    "write_files:\n",
                    "  - path: /usr/local/bin/update_vpn_routes.sh\n",
                    "    permissions: '0755'\n",
                    "    content: |\n",
                    "      #!/bin/bash\n",
                    "      \n",
                    "      export AWS_DEFAULT_REGION=\"",
                    {
                      "Ref": "AWS::Region"
                    },
                    "\"\n",
                    "      my_instance_id=$(curl -s http://169.254.169.254/latest/meta-data/instance-id)\n",
                    "      \n",
                    "      publicroutetableid=",
                    {
                      "Ref": "PublicRouteTableId"
                    },
                    "\n",
                    "      private_route_tables=(",
                    {
                      "Fn::Join": [
                        " ",
                        [
                          {
                            "Ref": "PrivateRouteTable1"
                          },
                          {
                            "Ref": "PrivateRouteTable2"
                          }
                        ]
                      ]
                    },
                    ")\n",
                    "\n",
                    "      openvpnroutepubdest=",
                    {
                      "Ref": "VPNSubnet"
                    },
                    "\n",
                    "      \n",
                    "      # Disabling sourceDestCheck\n",
                    "      aws ec2 modify-instance-attribute --instance-id ${my_instance_id} --source-dest-check \"{\\\"Value\\\": false}\"\n",
                    "      \n",
                    "      if aws ec2 describe-route-tables | grep ${openvpnroutepubdest}; then\n",
                    "          # Update 'OpenVPNRoutePub' to point to this instance\n",
                    "          aws ec2 replace-route --route-table-id ${publicroutetableid} --destination-cidr-block ${openvpnroutepubdest} --instance-id ${my_instance_id}\n",
                    "          # Update private routes\n",
                    "          for i in \"${private_route_tables[@]}\"\n",
                    "          do\n",
                    "              aws ec2 replace-route --route-table-id $i --destination-cidr-block ${openvpnroutepubdest} --instance-id ${my_instance_id}\n",
                    "          done\n",
                    "      else\n",
                    "          # Create 'OpenVPNRoutePub'\n",
                    "          aws ec2 create-route --route-table-id ${publicroutetableid} --destination-cidr-block ${openvpnroutepubdest} --instance-id ${my_instance_id}\n",
                    "          # Create private routes\n",
                    "          for i in \"${private_route_tables[@]}\"\n",
                    "          do\n",
                    "              aws ec2 create-route --route-table-id $i --destination-cidr-block ${openvpnroutepubdest} --instance-id ${my_instance_id}\n",
                    "          done\n",
                    "      fi\n",
                    "      \n",
                    "\n",
                    "  - path: /etc/chef/sync_cookbooks.sh\n",
                    "    permissions: '0755'\n",
                    "    owner: 'root'\n",
                    "    group: 'root'\n",
                    "    content: |\n",
                    "      #!/bin/bash\n",
                    "      set -e -o pipefail\n",
                    "      \n",
                    "      aws --region ",
                    {
                      "Ref": "AWS::Region"
                    },
                    " s3 sync s3://",
                    {
                      "Ref": "ChefBucketName"
                    },
                    "/",
                    {
                      "Ref": "EnvironmentName"
                    },
                    "/",
                    {
                      "Ref": "BucketKey"
                    },
                    "/ /etc/chef/\n",
                    "      if compgen -G \"/etc/chef/cookbooks-*.tar.gz\" > /dev/null; then\n",
                    "          echo \"Cookbook archive found.\"\n",
                    "          if [ -d \"/etc/chef/cookbooks\" ]; then\n",
                    "              echo \"Removing previously extracted cookbooks.\"\n",
                    "              rm -r /etc/chef/cookbooks\n",
                    "          fi\n",
                    "          echo \"Extracting highest numbered cookbook archive.\"\n",
                    "          cbarchives=(/etc/chef/cookbooks-*.tar.gz)\n",
                    "          tar -zxf \"${cbarchives[@]: -1}\" -C /etc/chef\n",
                    "          chown -R root:root /etc/chef\n",
                    "      fi\n",
                    "      \n",
                    "\n",
                    "  - path: /etc/chef/perform_chef_run.sh\n",
                    "    permissions: '0755'\n",
                    "    owner: 'root'\n",
                    "    group: 'root'\n",
                    "    content: |\n",
                    "      #!/bin/bash\n",
                    "      set -e -o pipefail\n",
                    "      \n",
                    "      chef-client -z -r '",
                    {
                      "Fn::If": [
                        "ChefRunListSpecified",
                        {
                          "Ref": "ChefRunList"
                        },
                        {
                          "Fn::Join": [
                            "",
                            [
                              "recipe[",
                              {
                                "Ref": "CustomerName"
                              },
                              "_vpn]"
                            ]
                          ]
                        }
                      ]
                    },
                    "' -c /etc/chef/client.rb -E ",
                    {
                      "Ref": "EnvironmentName"
                    },
                    " --force-formatter --no-color -F min\n",
                    "\n",
                    "  - path: /etc/chef/client.rb\n",
                    "    permissions: '0644'\n",
                    "    owner: 'root'\n",
                    "    group: 'root'\n",
                    "    content: |\n",
                    "      log_level :info\n",
                    "      log_location '/var/log/chef/client.log'\n",
                    "      ssl_verify_mode :verify_none\n",
                    "      cookbook_path '/etc/chef/cookbooks'\n",
                    "      node_path '/etc/chef/nodes'\n",
                    "      role_path '/etc/chef/roles'\n",
                    "      data_bag_path '/etc/chef/data_bags'\n",
                    "      environment_path '/etc/chef/environments'\n",
                    "      local_mode 'true'\n",
                    "      # Ensuring a chef-requested reboot exits code 0\n",
                    "      # This can be dropped when sturdy_openvpn doesn't require a node reboot\n",
                    "      exit_status :disabled\n",
                    "\n",
                    "  - path: /etc/chef/environments/",
                    {
                      "Ref": "EnvironmentName"
                    },
                    ".json\n",
                    "    permissions: '0644'\n",
                    "    owner: 'root'\n",
                    "    group: 'root'\n",
                    "    content: |\n",
                    "      {\n",
                    "        \"name\": \"",
                    {
                      "Ref": "EnvironmentName"
                    },
                    "\",\n",
                    "        \"default_attributes\": {\n",
                    "          \"sturdy\": {\n",
                    "            \"openvpn\": {\n",
                    "              \"core_vpc_cidr\": \"",
                    {
                      "Ref": "VpcCidr"
                    },
                    "\",\n",
                    "              \"vpn_elastic_ip\": \"",
                    {
                      "Ref": "VpnEipPublicIp"
                    },
                    "\",\n",
                    "              \"vpn_subnet_cidr\": \"",
                    {
                      "Ref": "VPNSubnet"
                    },
                    "\",\n",
                    "              \"chef_data_bucket_name\": \"",
                    {
                      "Ref": "ChefDataBucketName"
                    },
                    "\",\n",
                    "              \"chef_data_bucket_folder\": \"",
                    {
                      "Ref": "EnvironmentName"
                    },
                    "/",
                    {
                      "Ref": "BucketKey"
                    },
                    "\",\n",
                    "              \"chef_data_bucket_region\": \"",
                    {
                      "Ref": "AWS::Region"
                    },
                    "\"\n",
                    "            }\n",
                    "          }\n",
                    "        },\n",
                    "        \"json_class\": \"Chef::Environment\",\n",
                    "        \"description\": \"",
                    {
                      "Ref": "EnvironmentName"
                    },
                    " environment\",\n",
                    "        \"chef_type\": \"environment\"\n",
                    "      }\n",
                    "\n",
                    "runcmd:\n",
                    "  - set -euf\n",
                    "  - echo 'Attaching EIP'\n",
                    "  - pip install aws-ec2-assign-elastic-ip\n",
                    "  - aws-ec2-assign-elastic-ip --region ",
                    {
                      "Ref": "AWS::Region"
                    },
                    " --valid-ips ",
                    {
                      "Ref": "VpnEipPublicIp"
                    },
                    " || true\n",
                    "  - echo 'Updating Routes'\n",
                    "  - /usr/local/bin/update_vpn_routes.sh\n",
                    "  - echo 'Installing Chef'\n",
                    "  - curl --max-time 10 --retry-delay 5 --retry 5 -L https://www.chef.io/chef/install.sh | bash -s -- -v ",
                    {
                      "Ref": "ChefClientVersion"
                    },
                    "\n",
                    "  - echo 'Configuring Chef'\n",
                    "  - mkdir -p /var/log/chef /etc/chef/data_bags /etc/chef/nodes /etc/chef/roles\n",
                    "  - chmod 0755 /etc/chef\n",
                    "  - /etc/chef/sync_cookbooks.sh\n",
                    "  - /etc/chef/perform_chef_run.sh\n",
                    "yum_repos:\n",
                    "  epel:\n",
                    "    name: Extra Packages for $releasever - $basearch\n",
                    "    baseurl: http://download.fedoraproject.org/pub/epel/7/$basearch\n",
                    "    enabled: true\n",
                    "    failovermethod: priority\n",
                    "    gpgcheck: true\n",
                    "    gpgkey: https://dl.fedoraproject.org/pub/epel/RPM-GPG-KEY-EPEL-7\n",
                    "packages:\n",
                    "  - awscli\n",
                    "  - python-pip\n",
                    "  - python2-boto\n",
                    "  - python2-boto3\n"
                  ]
                ]
              }
            },
            {
              "Fn::Base64": {
                "Fn::Join": [
                  "",
                  [
                    "#cloud-config\n",
                    "package_update: true\n",
                    "package_upgrade: false\n",
                    "write_files:\n",
                    "  - path: /opt/scripts/install_awscli.sh\n",
                    "    permissions: '0755'\n",
                    "    owner: 'root'\n",
                    "    group: 'root'\n",
                    "    content: |\n",
                    "      #!/bin/bash\n",
                    "      # Install AWS CLI v2\n",
                    "      #\n",
                    "      curl \"https://awscli.amazonaws.com/awscli-exe-linux-x86_64.zip\" -o \"awscliv2.zip\"\n",
                    "      unzip awscliv2.zip\n",
                    "      ./aws/install\n",
                    "  - path: /usr/local/bin/update_vpn_routes.sh\n",
                    "    permissions: '0755'\n",
                    "    content: |\n",
                    "      #!/bin/bash\n",
                    "      \n",
                    "      export AWS_DEFAULT_REGION=\"",
                    {
                      "Ref": "AWS::Region"
                    },
                    "\"\n",
                    "      my_instance_id=$(curl -s http://169.254.169.254/latest/meta-data/instance-id)\n",
                    "      \n",
                    "      publicroutetableid=",
                    {
                      "Ref": "PublicRouteTableId"
                    },
                    "\n",
                    "      private_route_tables=(",
                    {
                      "Fn::Join": [
                        " ",
                        [
                          {
                            "Ref": "PrivateRouteTable1"
                          },
                          {
                            "Ref": "PrivateRouteTable2"
                          }
                        ]
                      ]
                    },
                    ")\n",
                    "\n",
                    "      openvpnroutepubdest=",
                    {
                      "Ref": "VPNSubnet"
                    },
                    "\n",
                    "      \n",
                    "      # Disabling sourceDestCheck\n",
                    "      aws ec2 modify-instance-attribute --instance-id ${my_instance_id} --source-dest-check \"{\\\"Value\\\": false}\"\n",
                    "      \n",
                    "      if aws ec2 describe-route-tables | grep ${openvpnroutepubdest}; then\n",
                    "          # Update 'OpenVPNRoutePub' to point to this instance\n",
                    "          aws ec2 replace-route --route-table-id ${publicroutetableid} --destination-cidr-block ${openvpnroutepubdest} --instance-id ${my_instance_id}\n",
                    "          # Update private routes\n",
                    "          for i in \"${private_route_tables[@]}\"\n",
                    "          do\n",
                    "              aws ec2 replace-route --route-table-id $i --destination-cidr-block ${openvpnroutepubdest} --instance-id ${my_instance_id}\n",
                    "          done\n",
                    "      else\n",
                    "          # Create 'OpenVPNRoutePub'\n",
                    "          aws ec2 create-route --route-table-id ${publicroutetableid} --destination-cidr-block ${openvpnroutepubdest} --instance-id ${my_instance_id}\n",
                    "          # Create private routes\n",
                    "          for i in \"${private_route_tables[@]}\"\n",
                    "          do\n",
                    "              aws ec2 create-route --route-table-id $i --destination-cidr-block ${openvpnroutepubdest} --instance-id ${my_instance_id}\n",
                    "          done\n",
                    "      fi\n",
                    "      \n",
                    "\n",
                    "  - path: /etc/chef/sync_cookbooks.sh\n",
                    "    permissions: '0755'\n",
                    "    owner: 'root'\n",
                    "    group: 'root'\n",
                    "    content: |\n",
                    "      #!/bin/bash\n",
                    "      set -e -o pipefail\n",
                    "      \n",
                    "      aws --region ",
                    {
                      "Ref": "AWS::Region"
                    },
                    " s3 sync s3://",
                    {
                      "Ref": "ChefBucketName"
                    },
                    "/",
                    {
                      "Ref": "EnvironmentName"
                    },
                    "/",
                    {
                      "Ref": "BucketKey"
                    },
                    "/ /etc/chef/\n",
                    "      if compgen -G \"/etc/chef/cookbooks-*.tar.gz\" > /dev/null; then\n",
                    "          echo \"Cookbook archive found.\"\n",
                    "          if [ -d \"/etc/chef/cookbooks\" ]; then\n",
                    "              echo \"Removing previously extracted cookbooks.\"\n",
                    "              rm -r /etc/chef/cookbooks\n",
                    "          fi\n",
                    "          echo \"Extracting highest numbered cookbook archive.\"\n",
                    "          cbarchives=(/etc/chef/cookbooks-*.tar.gz)\n",
                    "          tar -zxf \"${cbarchives[@]: -1}\" -C /etc/chef\n",
                    "          chown -R root:root /etc/chef\n",
                    "      fi\n",
                    "      \n",
                    "\n",
                    "  - path: /etc/chef/perform_chef_run.sh\n",
                    "    permissions: '0755'\n",
                    "    owner: 'root'\n",
                    "    group: 'root'\n",
                    "    content: |\n",
                    "      #!/bin/bash\n",
                    "      set -e -o pipefail\n",
                    "      \n",
                    "      chef-client -z -r '",
                    {
                      "Fn::If": [
                        "ChefRunListSpecified",
                        {
                          "Ref": "ChefRunList"
                        },
                        {
                          "Fn::Join": [
                            "",
                            [
                              "recipe[",
                              {
                                "Ref": "CustomerName"
                              },
                              "_vpn]"
                            ]
                          ]
                        }
                      ]
                    },
                    "' -c /etc/chef/client.rb -E ",
                    {
                      "Ref": "EnvironmentName"
                    },
                    " --force-formatter --no-color -F min\n",
                    "\n",
                    "  - path: /etc/chef/client.rb\n",
                    "    permissions: '0644'\n",
                    "    owner: 'root'\n",
                    "    group: 'root'\n",
                    "    content: |\n",
                    "      log_level :info\n",
                    "      log_location '/var/log/chef/client.log'\n",
                    "      ssl_verify_mode :verify_none\n",
                    "      cookbook_path '/etc/chef/cookbooks'\n",
                    "      node_path '/etc/chef/nodes'\n",
                    "      role_path '/etc/chef/roles'\n",
                    "      data_bag_path '/etc/chef/data_bags'\n",
                    "      environment_path '/etc/chef/environments'\n",
                    "      local_mode 'true'\n",
                    "      # Ensuring a chef-requested reboot exits code 0\n",
                    "      # This can be dropped when sturdy_openvpn doesn't require a node reboot\n",
                    "      exit_status :disabled\n",
                    "      chef_license 'accept'\n",
                    "\n",
                    "  - path: /etc/chef/environments/",
                    {
                      "Ref": "EnvironmentName"
                    },
                    ".json\n",
                    "    permissions: '0644'\n",
                    "    owner: 'root'\n",
                    "    group: 'root'\n",
                    "    content: |\n",
                    "      {\n",
                    "        \"name\": \"",
                    {
                      "Ref": "EnvironmentName"
                    },
                    "\",\n",
                    "        \"default_attributes\": {\n",
                    "          \"sturdy\": {\n",
                    "            \"openvpn\": {\n",
                    "              \"core_vpc_cidr\": \"",
                    {
                      "Ref": "VpcCidr"
                    },
                    "\",\n",
                    "              \"vpn_elastic_ip\": \"",
                    {
                      "Ref": "VpnEipPublicIp"
                    },
                    "\",\n",
                    "              \"vpn_subnet_cidr\": \"",
                    {
                      "Ref": "VPNSubnet"
                    },
                    "\",\n",
                    "              \"chef_data_bucket_name\": \"",
                    {
                      "Ref": "ChefDataBucketName"
                    },
                    "\",\n",
                    "              \"chef_data_bucket_folder\": \"",
                    {
                      "Ref": "EnvironmentName"
                    },
                    "/",
                    {
                      "Ref": "BucketKey"
                    },
                    "\",\n",
                    "              \"chef_data_bucket_region\": \"",
                    {
                      "Ref": "AWS::Region"
                    },
                    "\"\n",
                    "            }\n",
                    "          }\n",
                    "        },\n",
                    "        \"json_class\": \"Chef::Environment\",\n",
                    "        \"description\": \"",
                    {
                      "Ref": "EnvironmentName"
                    },
                    " environment\",\n",
                    "        \"chef_type\": \"environment\"\n",
                    "      }\n",
                    "\n",
                    "  - path: /opt/scripts/update_server_conf.sh\n",
                    "    permissions: '0755'\n",
                    "    owner: 'root'\n",
                    "    group: 'root'\n",
                    "    content: |\n",
                    "      #!/bin/bash\n",
                    "      #\n",
                    "      # Update server.conf with additional routes\n",
                    "      #\n",
                    "      set -x\n",
                    "\n",
                    "      # Append VPC CIDR route\n",
                    "      vpc_cidr='", { "Ref": "VpcCidr" }, "'\n",
                    "      vpc_ip=${vpc_cidr%%/[0-9]*}\n",
                    "      vpc_subnet_mask=$(ipcalc $vpc_cidr | grep -i Netmask | awk '{print $2}')\n",
                    "      echo \"# Additional route to push to client\" >> /etc/openvpn/server.conf\n",
                    "      echo \"push \\\"route ${vpc_ip} ${vpc_subnet_mask}\\\"\" >> /etc/openvpn/server.conf\n",
                    "      printf \\\\n >> /etc/openvpn/server.conf\n",
                    "\n",
                    "      # Append additional Mongo peered connection route\n",
                    "      mongo_route=$(aws ssm get-parameter --name ", { "Fn::Join" : [ "", [ "/", { "Ref": "EnvironmentName" }, "/surfline_vpn/mongo_peer_network | jq '.Parameter.Value' -r)\n", ] ] },
                    "      echo \"# Mongo peered connection route\" >> /etc/openvpn/server.conf\n",
                    "      echo \"push \\\"route ${mongo_route}\\\"\" >> /etc/openvpn/server.conf\n",
                    "\n",
                    "      # Append additional DNS route\n",
                    "      internal_dns_nameserver=$(grep nameserver /etc/resolv.conf | awk '{print $2}' | head -n 1)\n",
                    "      printf \\\\n >> /etc/openvpn/server.conf\n",
                    "      echo \"# Internal DNS route\" >> /etc/openvpn/server.conf\n",
                    "      echo \"push \\\"dhcp-option DNS ${internal_dns_nameserver}\\\"\" >> /etc/openvpn/server.conf\n",
                    "\n",
                    "      # Update instance iptables\n",
                    "      private_ip=$(curl -s http://169.254.169.254/latest/meta-data/local-ipv4)\n",
                    "      iptables -t nat -A POSTROUTING -o eth0 -j SNAT --to \"${private_ip}\"\n",
                    "\n",
                    "      # Restart openvpn\n",
                    "      service openvpn restart\n",
                    "  - path: /opt/scripts/install_newrelic_infra.sh\n",
                    "    permissions: '0755'\n",
                    "    owner: 'root'\n",
                    "    group: 'root'\n",
                    "    content: |\n",
                    "      #!/bin/bash\n",
                    "\n",
                    "      [[ ",
                    {
                      "Ref": "EnvironmentName"
                    },
                    "      == \"prod\" ]] && LICENSE_KEY=\"a26ab469b2d2b56766af51d1c8c436e736ba72bf\" || LICENSE_KEY=\"d88d91400d512eba67a0faeb922435db811b5728\"\n",
                    "\n",
                    "      # Add the New Relic Infrastructure Agent gpg key\n",
                    "      curl -s https://download.newrelic.com/infrastructure_agent/gpg/newrelic-infra.gpg | apt-key add -\n",
                    "\n",
                    "      # Create a configuration file and add your license key\n",
                    "      echo \"license_key: ${LICENSE_KEY}\" >> /etc/newrelic-infra.yml\n",
                    "\n",
                    "      # Create the agent’s yum repository\n",
                    "      echo \"deb [arch=amd64] https://download.newrelic.com/infrastructure_agent/linux/apt focal main\" >> /etc/apt/sources.list.d/newrelic-infra.list\n",
                    "\n",
                    "      # Update your apt cache\n",
                    "      apt-get update\n",
                    "\n",
                    "      # Run the installation script\n",
                    "      apt-get install newrelic-infra -y\n",
                    "  - path: /opt/scripts/rename_instance.py\n",
                    "    permissions: '0644'\n",
                    "    owner: 'root'\n",
                    "    group: 'root'\n",
                    "    content: |\n",
                    "      #!/usr/bin/env python\n",
                    "\n",
                    "      import json\n",
                    "      import subprocess\n",
                    "\n",
                    "      import boto3\n",
                    "      import requests\n",
                    "\n",
                    "      print \"[INFO] Getting instance identity\"\n",
                    "      metadata_url = ('http://169.254.169.254'\n",
                    "                      '/latest/dynamic/instance-identity/document')\n",
                    "      inst_data = requests.get(metadata_url).json()\n",
                    "\n",
                    "      print \"[INFO] Getting tags for current instance\"\n",
                    "      ec2 = boto3.resource('ec2', region_name=inst_data['region'])\n",
                    "      inst = ec2.Instance(inst_data['instanceId'])\n",
                    "\n",
                    "      tags = {tag['Key']: tag['Value'] for tag in inst.tags}\n",
                    "\n",
                    "      name = tags.get('Name', 'surfline-vpn-dev')\n",
                    "\n",
                    "      print \"[INFO] Renaming instance to {}\".format(name)\n",
                    "      poutput = subprocess.check_output('hostname ' + name, shell=True)\n",
                    "      sed_cmd = (\"echo {} > /etc/hostname\").format(name)\n",
                    "      poutput = subprocess.check_output(sed_cmd, shell=True)\n",
                    "\n",
                    "runcmd:\n",
                    "  - set -euf\n",
                    "  - /opt/scripts/install_awscli.sh\n",
                    "  - echo 'Attaching EIP'\n",
                    "  - pip install aws-ec2-assign-elastic-ip\n",
                    "  - aws-ec2-assign-elastic-ip --region ",
                    {
                      "Ref": "AWS::Region"
                    },
                    " --valid-ips ",
                    {
                      "Ref": "VpnEipPublicIp"
                    },
                    " || true\n",
                    "  - echo 'Updating Routes'\n",
                    "  - /usr/local/bin/update_vpn_routes.sh\n",
                    "  - echo 'Installing Chef'\n",
                    "  - curl --max-time 10 --retry-delay 5 --retry 5 -L https://www.chef.io/chef/install.sh | bash -s -- -v ",
                    {
                      "Ref": "ChefClientVersion"
                    },
                    "\n",
                    "  - echo 'Configuring Chef'\n",
                    "  - mkdir -p /var/log/chef /etc/chef/data_bags /etc/chef/nodes /etc/chef/roles\n",
                    "  - chmod 0755 /etc/chef\n",
                    "  - /etc/chef/sync_cookbooks.sh\n",
                    "  - /etc/chef/perform_chef_run.sh\n",
                    "  - /opt/scripts/update_server_conf.sh\n",
                    "  - python /opt/scripts/rename_instance.py\n",
                    "  - /opt/scripts/install_newrelic_infra.sh\n",
                    "packages:\n",
                    "  - ipcalc\n",
                    "  - jq\n",
                    "  - python-pip\n",
                    "  - python-boto\n",
                    "  - python-boto3\n",
                    "  - unzip\n"
                  ]
                ]
              }
            }
          ]
        }
      },
      "Type": "AWS::AutoScaling::LaunchConfiguration"
    }
  }
}
