This file contains any messages produced by compilers while
running configure, to aid debugging if configure makes a mistake.

It was created by configure, which was
generated by GNU Autoconf 2.59.  Invocation command line was

  $ ./configure 

## --------- ##
## Platform. ##
## --------- ##

hostname = tidore.metcentral.com
uname -m = x86_64
uname -r = 2.6.32-431.11.2.el6.x86_64
uname -s = Linux
uname -v = #1 SMP Tue Mar 25 19:59:55 UTC 2014

/usr/bin/uname -p = unknown
/bin/uname -X     = unknown

/bin/arch              = x86_64
/usr/bin/arch -k       = unknown
/usr/convex/getsysinfo = unknown
hostinfo               = unknown
/bin/machine           = unknown
/usr/bin/oslevel       = unknown
/bin/universe          = unknown

PATH: /usr/local/sbin
PATH: /usr/local/bin
PATH: /sbin
PATH: /bin
PATH: /usr/sbin
PATH: /usr/bin
PATH: /root/bin


## ----------- ##
## Core tests. ##
## ----------- ##

configure:1322: checking for g++
configure:1338: found /usr/bin/g++
configure:1348: result: g++
configure:1364: checking for C++ compiler version
configure:1367: g++ --version </dev/null >&5
g++ (GCC) 4.4.7 20120313 (Red Hat 4.4.7-4)
Copyright (C) 2010 Free Software Foundation, Inc.
This is free software; see the source for copying conditions.  There is NO
warranty; not even for MERCHANTABILITY or FITNESS FOR A PARTICULAR PURPOSE.

configure:1370: $? = 0
configure:1372: g++ -v </dev/null >&5
Using built-in specs.
Target: x86_64-redhat-linux
Configured with: ../configure --prefix=/usr --mandir=/usr/share/man --infodir=/usr/share/info --with-bugurl=http://bugzilla.redhat.com/bugzilla --enable-bootstrap --enable-shared --enable-threads=posix --enable-checking=release --with-system-zlib --enable-__cxa_atexit --disable-libunwind-exceptions --enable-gnu-unique-object --enable-languages=c,c++,objc,obj-c++,java,fortran,ada --enable-java-awt=gtk --disable-dssi --with-java-home=/usr/lib/jvm/java-1.5.0-gcj-1.5.0.0/jre --enable-libgcj-multifile --enable-java-maintainer-mode --with-ecj-jar=/usr/share/java/eclipse-ecj.jar --disable-libjava-multilib --with-ppl --with-cloog --with-tune=generic --with-arch_32=i686 --build=x86_64-redhat-linux
Thread model: posix
gcc version 4.4.7 20120313 (Red Hat 4.4.7-4) (GCC) 
configure:1375: $? = 0
configure:1377: g++ -V </dev/null >&5
g++: '-V' option must have argument
configure:1380: $? = 1
configure:1403: checking for C++ compiler default output file name
configure:1406: g++    conftest.cc  >&5
configure:1409: $? = 0
configure:1455: result: a.out
configure:1460: checking whether the C++ compiler works
configure:1466: ./a.out
configure:1469: $? = 0
configure:1486: result: yes
configure:1493: checking whether we are cross compiling
configure:1495: result: no
configure:1498: checking for suffix of executables
configure:1500: g++ -o conftest    conftest.cc  >&5
configure:1503: $? = 0
configure:1528: result: 
configure:1534: checking for suffix of object files
configure:1555: g++ -c   conftest.cc >&5
configure:1558: $? = 0
configure:1580: result: o
configure:1584: checking whether we are using the GNU C++ compiler
configure:1608: g++ -c   conftest.cc >&5
configure:1614: $? = 0
configure:1618: test -z 
			 || test ! -s conftest.err
configure:1621: $? = 0
configure:1624: test -s conftest.o
configure:1627: $? = 0
configure:1640: result: yes
configure:1646: checking whether g++ accepts -g
configure:1667: g++ -c -g  conftest.cc >&5
configure:1673: $? = 0
configure:1677: test -z 
			 || test ! -s conftest.err
configure:1680: $? = 0
configure:1683: test -s conftest.o
configure:1686: $? = 0
configure:1697: result: yes
configure:1739: g++ -c -g -O2  conftest.cc >&5
configure:1745: $? = 0
configure:1749: test -z 
			 || test ! -s conftest.err
configure:1752: $? = 0
configure:1755: test -s conftest.o
configure:1758: $? = 0
configure:1784: g++ -c -g -O2  conftest.cc >&5
conftest.cc: In function 'int main()':
conftest.cc:13: error: 'exit' was not declared in this scope
configure:1790: $? = 1
configure: failed program was:
| /* confdefs.h.  */
| 
| #define PACKAGE_NAME ""
| #define PACKAGE_TARNAME ""
| #define PACKAGE_VERSION ""
| #define PACKAGE_STRING ""
| #define PACKAGE_BUGREPORT ""
| /* end confdefs.h.  */
| 
| int
| main ()
| {
| exit (42);
|   ;
|   return 0;
| }
configure:1739: g++ -c -g -O2  conftest.cc >&5
conftest.cc:9: error: 'void std::exit(int)' should have been declared inside 'std'
configure:1745: $? = 1
configure: failed program was:
| /* confdefs.h.  */
| 
| #define PACKAGE_NAME ""
| #define PACKAGE_TARNAME ""
| #define PACKAGE_VERSION ""
| #define PACKAGE_STRING ""
| #define PACKAGE_BUGREPORT ""
| /* end confdefs.h.  */
| extern "C" void std::exit (int) throw (); using std::exit;
| #include <stdlib.h>
| int
| main ()
| {
| exit (42);
|   ;
|   return 0;
| }
configure:1739: g++ -c -g -O2  conftest.cc >&5
conftest.cc:9: error: 'void std::exit(int)' should have been declared inside 'std'
In file included from conftest.cc:10:
/usr/include/stdlib.h:544: error: declaration of 'void std::exit(int) throw ()' throws different exceptions
conftest.cc:9: error: from previous declaration 'void std::exit(int)'
configure:1745: $? = 1
configure: failed program was:
| /* confdefs.h.  */
| 
| #define PACKAGE_NAME ""
| #define PACKAGE_TARNAME ""
| #define PACKAGE_VERSION ""
| #define PACKAGE_STRING ""
| #define PACKAGE_BUGREPORT ""
| /* end confdefs.h.  */
| extern "C" void std::exit (int); using std::exit;
| #include <stdlib.h>
| int
| main ()
| {
| exit (42);
|   ;
|   return 0;
| }
configure:1739: g++ -c -g -O2  conftest.cc >&5
configure:1745: $? = 0
configure:1749: test -z 
			 || test ! -s conftest.err
configure:1752: $? = 0
configure:1755: test -s conftest.o
configure:1758: $? = 0
configure:1784: g++ -c -g -O2  conftest.cc >&5
configure:1790: $? = 0
configure:1794: test -z 
			 || test ! -s conftest.err
configure:1797: $? = 0
configure:1800: test -s conftest.o
configure:1803: $? = 0
configure:1872: checking for gcc
configure:1888: found /usr/bin/gcc
configure:1898: result: gcc
configure:2142: checking for C compiler version
configure:2145: gcc --version </dev/null >&5
gcc (GCC) 4.4.7 20120313 (Red Hat 4.4.7-4)
Copyright (C) 2010 Free Software Foundation, Inc.
This is free software; see the source for copying conditions.  There is NO
warranty; not even for MERCHANTABILITY or FITNESS FOR A PARTICULAR PURPOSE.

configure:2148: $? = 0
configure:2150: gcc -v </dev/null >&5
Using built-in specs.
Target: x86_64-redhat-linux
Configured with: ../configure --prefix=/usr --mandir=/usr/share/man --infodir=/usr/share/info --with-bugurl=http://bugzilla.redhat.com/bugzilla --enable-bootstrap --enable-shared --enable-threads=posix --enable-checking=release --with-system-zlib --enable-__cxa_atexit --disable-libunwind-exceptions --enable-gnu-unique-object --enable-languages=c,c++,objc,obj-c++,java,fortran,ada --enable-java-awt=gtk --disable-dssi --with-java-home=/usr/lib/jvm/java-1.5.0-gcj-1.5.0.0/jre --enable-libgcj-multifile --enable-java-maintainer-mode --with-ecj-jar=/usr/share/java/eclipse-ecj.jar --disable-libjava-multilib --with-ppl --with-cloog --with-tune=generic --with-arch_32=i686 --build=x86_64-redhat-linux
Thread model: posix
gcc version 4.4.7 20120313 (Red Hat 4.4.7-4) (GCC) 
configure:2153: $? = 0
configure:2155: gcc -V </dev/null >&5
gcc: '-V' option must have argument
configure:2158: $? = 1
configure:2161: checking whether we are using the GNU C compiler
configure:2185: gcc -c   conftest.c >&5
configure:2191: $? = 0
configure:2195: test -z 
			 || test ! -s conftest.err
configure:2198: $? = 0
configure:2201: test -s conftest.o
configure:2204: $? = 0
configure:2217: result: yes
configure:2223: checking whether gcc accepts -g
configure:2244: gcc -c -g  conftest.c >&5
configure:2250: $? = 0
configure:2254: test -z 
			 || test ! -s conftest.err
configure:2257: $? = 0
configure:2260: test -s conftest.o
configure:2263: $? = 0
configure:2274: result: yes
configure:2291: checking for gcc option to accept ANSI C
configure:2361: gcc  -c -g -O2  conftest.c >&5
configure:2367: $? = 0
configure:2371: test -z 
			 || test ! -s conftest.err
configure:2374: $? = 0
configure:2377: test -s conftest.o
configure:2380: $? = 0
configure:2398: result: none needed
configure:2416: gcc -c -g -O2  conftest.c >&5
conftest.c:2: error: expected '=', ',', ';', 'asm' or '__attribute__' before 'me'
configure:2422: $? = 1
configure: failed program was:
| #ifndef __cplusplus
|   choke me
| #endif
configure:2572: checking for Fedora build environment
configure:2575: result: no
configure:2585: checking for HP aCC extra switches and libs
configure:2593: result: no
configure:2597: checking location of X11
configure:2613: result: NOT FOUND
configure:2616: WARNING: Type 'make tide' or 'make xttpd' to compile without X11.
configure:2621: checking for extra Solaris libs
configure:2628: result: no
configure:2632: checking type of third argument to accept()
configure:2655: g++ -c -g -O2  conftest.cc >&5
configure:2661: $? = 0
configure:2665: test -z 
			 || test ! -s conftest.err
configure:2668: $? = 0
configure:2671: test -s conftest.o
configure:2674: $? = 0
configure:2680: result: socklen_t
configure:2881: creating ./config.status

## ---------------------- ##
## Running config.status. ##
## ---------------------- ##

This file was extended by config.status, which was
generated by GNU Autoconf 2.59.  Invocation command line was

  CONFIG_FILES    = 
  CONFIG_HEADERS  = 
  CONFIG_LINKS    = 
  CONFIG_COMMANDS = 
  $ ./config.status 

on tidore.metcentral.com

config.status:643: creating Makefile

## ---------------- ##
## Cache variables. ##
## ---------------- ##

ac_cv_c_compiler_gnu=yes
ac_cv_cxx_compiler_gnu=yes
ac_cv_env_CC_set=
ac_cv_env_CC_value=
ac_cv_env_CFLAGS_set=
ac_cv_env_CFLAGS_value=
ac_cv_env_CPPFLAGS_set=
ac_cv_env_CPPFLAGS_value=
ac_cv_env_CXXFLAGS_set=
ac_cv_env_CXXFLAGS_value=
ac_cv_env_CXX_set=
ac_cv_env_CXX_value=
ac_cv_env_LDFLAGS_set=
ac_cv_env_LDFLAGS_value=
ac_cv_env_build_alias_set=
ac_cv_env_build_alias_value=
ac_cv_env_host_alias_set=
ac_cv_env_host_alias_value=
ac_cv_env_target_alias_set=
ac_cv_env_target_alias_value=
ac_cv_exeext=
ac_cv_objext=o
ac_cv_prog_ac_ct_CC=gcc
ac_cv_prog_ac_ct_CXX=g++
ac_cv_prog_cc_g=yes
ac_cv_prog_cc_stdc=
ac_cv_prog_cxx_g=yes

## ----------------- ##
## Output variables. ##
## ----------------- ##

CC='gcc'
CFLAGS='-g -O2'
CPPFLAGS=''
CXX='g++'
CXXFLAGS='-g -O2'
DEFS='-DPACKAGE_NAME=\"\" -DPACKAGE_TARNAME=\"\" -DPACKAGE_VERSION=\"\" -DPACKAGE_STRING=\"\" -DPACKAGE_BUGREPORT=\"\" -Dacceptarg3_t=socklen_t '
ECHO_C=''
ECHO_N='-n'
ECHO_T=''
EXEEXT=''
LDFLAGS=''
LIBOBJS=''
LIBS=''
LTLIBOBJS=''
OBJEXT='o'
PACKAGE_BUGREPORT=''
PACKAGE_NAME=''
PACKAGE_STRING=''
PACKAGE_TARNAME=''
PACKAGE_VERSION=''
PATH_SEPARATOR=':'
SHELL='/bin/sh'
ac_ct_CC='gcc'
ac_ct_CXX='g++'
acceptarg3_t=''
bindir='${exec_prefix}/bin'
build_alias=''
datadir='${prefix}/share'
exec_prefix='${prefix}'
extracxxflags=''
extraldflags=''
extralibs=''
extraswitches=''
host_alias=''
includedir='${prefix}/include'
infodir='${prefix}/info'
libdir='${exec_prefix}/lib'
libexecdir='${exec_prefix}/libexec'
localstatedir='${prefix}/var'
mandir='${prefix}/man'
normalcxxflags='-O -I/usr/local/include -I/usr/contrib/include'
normalldflags='-L/usr/local/lib -L/usr/contrib/lib'
oldincludedir='/usr/include'
prefix='/usr/local'
program_transform_name='s,x,x,'
sbindir='${exec_prefix}/sbin'
sharedstatedir='${prefix}/com'
sysconfdir='${prefix}/etc'
target_alias=''
xlibdir=''
xroot='/usr'

## ----------- ##
## confdefs.h. ##
## ----------- ##

#define PACKAGE_BUGREPORT ""
#define PACKAGE_NAME ""
#define PACKAGE_STRING ""
#define PACKAGE_TARNAME ""
#define PACKAGE_VERSION ""
#define acceptarg3_t socklen_t
#endif
#ifdef __cplusplus
extern "C" void exit (int) throw ();

configure: exit 0
