[
  {
    "bucket": "sl-cam-clip-archive-prod",
    "cameraId": "583499c4e411dc743a5d5296",
    "clip": {
      "key": "/583499c4e411dc743a5d5296/5bb7b646b8d13155cf43d91e.mp4",
      "url": "https://camclips.cdn-surfline.com/583499c4e411dc743a5d5296/5bb7b646b8d13155cf43d91e.mp4"
    },
    "clipId": "5bb7b646b8d13155cf43d91e",
    "endTimestampInMs": 1486083520,
    "startTimestampInMs": 1483405120,
    "status": "CLIP_AVAILABLE",
    "thumbnail": {
      "key": "/583499c4e411dc743a5d5296/5bb7b646b8d13155cf43d91e_{size}.png",
      "sizes": [
        300,
        640,
        1500,
        3000
      ],
      "url": "https://camclips.cdn-surfline.com/583499c4e411dc743a5d5296/5bb7b646b8d13155cf43d91e_{size}.png"
    }
  },
  {
    "bucket": "sl-cam-clip-archive-prod",
    "cameraId": "583499c4e411dc743a5d5296",
    "clip": {
      "key": "/583499c4e411dc743a5d5296/5bb7b662b8d13155cf43d923.mp4",
      "url": "https://camclips.cdn-surfline.com/583499c4e411dc743a5d5296/5bb7b662b8d13155cf43d923.mp4"
    },
    "clipId": "5bb7b662b8d13155cf43d923",
    "endTimestampInMs": 1486093520,
    "startTimestampInMs": 1483415120,
    "status": "CLIP_AVAILABLE",
    "thumbnail": {
      "key": "/583499c4e411dc743a5d5296/5bb7b662b8d13155cf43d923_{size}.png",
      "sizes": [
        300,
        640,
        1500,
        3000
      ],
      "url": "https://camclips.cdn-surfline.com/583499c4e411dc743a5d5296/5bb7b662b8d13155cf43d923_{size}.png"
    }
  }
]
