{
  "bucket": "sl-cam-clip-archive-prod",
  "cameraId": "583499c4e411dc743a5d5296",
  "clip": {
    "key": "/583499c4e411dc743a5d5296/507f191e810c19729de860ea.mp4",
    "url": "https://camclips.cdn-surfline.com/583499c4e411dc743a5d5296/507f191e810c19729de860ea.mp4"
  },
  "endTimestampInMs": 1486146412000,
  "startTimestampInMs": 1483468012000,
  "status": "CLIP_AVAILABLE",
  "thumbnail": {
    "key": "/583499c4e411dc743a5d5296/507f191e810c19729de860ea_{size}.png",
    "sizes": [
      300,
      640,
      1500,
      3000
    ],
    "url": "https://camclips.cdn-surfline.com/583499c4e411dc743a5d5296/507f191e810c19729de860ea_{size}.png"
  }
}
