<?xml version="1.0" encoding="UTF-8" standalone="no"?>
<svg width="45px" height="22px" viewBox="0 0 45 22" version="1.1" xmlns="http://www.w3.org/2000/svg" xmlns:xlink="http://www.w3.org/1999/xlink">
    <!-- Generator: Sketch 39.1 (31720) - http://www.bohemiancoding.com/sketch -->
    <title>fishtrack-icon-white</title>
    <desc>Created with Sketch.</desc>
    <defs></defs>
    <g id="-Cancel-Subscription" stroke="none" stroke-width="1" fill="none" fill-rule="evenodd">
        <g id="fishtrack-cancel-1" transform="translate(-7.000000, -18.000000)" fill="#FFFFFF">
            <g id="Group-2">
                <path d="M23.7088629,29.8116973 C25.0006992,30.0790669 25.2777463,30.187095 26.2835332,30.8195097 C27.7173815,31.7213194 28.5062118,32.065434 29.167434,33.3347645 C30.0321091,32.4313793 30.3384138,31.3033856 31.1814833,30.5012768 C32.1811936,29.5567059 33.5529257,29.038621 35.0455143,28.4561694 C36.7584353,27.7926966 38.2913093,27.0054417 39.8192321,26.3971083 C41.4486563,24.5106672 43.9225004,23.5935534 45.6750316,21.8473238 C45.9340741,21.8815327 45.9680579,21.6510727 46.2644601,21.7242168 C47.4516442,20.6630655 48.8062718,19.7896131 50.178004,18.9411422 C50.2158138,19.0615485 50.0526463,19.3579507 50.232018,19.3563753 C50.5153668,19.0041586 50.7183697,18.5529161 51.2065217,18.4311594 C50.0326161,22.155429 47.6753524,23.7826026 45.3133625,25.873622 C44.3800445,26.6986868 43.6317247,27.8829451 42.5761999,28.3258605 C41.4349278,28.804335 40.1982308,29.0620271 39.10062,29.5708846 C36.7080221,30.6768225 34.2983198,32.0397774 34.3858676,35.5187331 C34.9671939,35.7406409 35.6905322,36.2398208 35.620539,36.7646575 C35.6171631,36.7124439 35.6151376,36.6663068 35.5451444,36.6766595 C35.5255643,37.3871695 36.569161,37.846289 37.6958043,37.8199572 C37.87135,37.9709715 38.075028,38.6704536 37.7081825,38.8124656 C37.5904769,37.9079551 36.2862623,38.0411898 35.466824,37.7445626 C35.0515909,38.848475 34.31835,40.0230558 32.9324392,39.7163009 C32.716833,39.4653606 32.9565204,39.1705338 32.8248612,38.967756 C31.422296,39.082761 30.4246113,38.7044375 29.3947432,38.3126105 C28.6975116,38.0452408 28.099756,37.511852 27.4785943,37.3500349 C27.0561593,37.2447074 26.6139192,37.4832695 26.25225,37.1830414 C26.3967376,37.1729137 26.6557801,37.2921948 26.5911883,37.0417046 C25.3751967,36.5893368 24.1326482,36.5290211 22.8138048,36.6933139 C20.6469407,36.9606835 18.2226094,37.2840933 16.1255134,37.7445632 C17.7747428,36.7945909 20.6692215,36.9840896 22.5900966,36.3464986 C19.561033,36.4700558 16.5040609,36.2897441 13.9548222,36.0678363 C17.0718837,35.5974639 21.2784551,36.6766595 23.9573276,35.7010305 C24.239326,35.2675677 23.5506467,33.693958 23.3708249,33.4268135 C22.7660924,32.5083493 21.9374267,31.3691027 20.8965307,31.0193617 C20.6662957,30.9453174 20.3759702,31.0236378 20.1554127,30.9673732 C19.8855675,30.8978301 19.6346272,30.6504907 19.3557796,30.5822979 C18.5752764,30.3876222 17.7790191,30.4015759 17.0779615,30.0912201 C16.7869608,30.0473336 17.3826909,29.8900177 17.0934906,29.8438807 C16.6753317,29.8218249 16.2486206,29.8051706 16.0375157,29.6050935 C16.1255136,29.6156713 16.2486206,29.5803371 16.1255136,29.5296989 C15.2534115,29.4376499 14.8370531,28.9465721 13.9381691,28.8783793 C13.6876789,28.6918057 14.1794319,28.7316411 13.9548235,28.6326153 C12.4444552,28.3215843 11.9130919,27.5113734 10.4133014,27.3088207 C10.3790925,27.0425764 10.7144298,27.2183471 10.5170534,26.9854115 C10.0788644,27.0047665 9.81194488,26.8755829 9.45275136,26.8274203 C9.14644662,26.2953818 7.742081,26.3093355 7.70652174,25.7982274 C9.88531398,26.7425733 12.7795675,27.2496303 15.6634683,27.8442351 C18.4841276,28.4260115 21.2566244,29.3057656 23.7088629,29.8116973" id="fishtrack-icon-white"></path>
            </g>
        </g>
    </g>
</svg>