<?xml version="1.0" encoding="UTF-8" standalone="no"?>
<svg width="144px" height="23px" viewBox="0 0 144 23" version="1.1" xmlns="http://www.w3.org/2000/svg" xmlns:xlink="http://www.w3.org/1999/xlink">
    <!-- Generator: Sketch 39.1 (31720) - http://www.bohemiancoding.com/sketch -->
    <title>fishtrack-logo-aqua</title>
    <desc>Created with Sketch.</desc>
    <defs></defs>
    <g id="web-color" stroke="none" stroke-width="1" fill="none" fill-rule="evenodd">
        <g id="sign-in-desktop" transform="translate(-114.000000, -18.000000)" fill="#67D3DF">
            <g id="fishtrack-logo-aqua" transform="translate(114.000000, 18.000000)">
                <path d="M20.5144472,8.38512339 C19.5514767,8.58211998 19.3449581,8.66171457 18.5952167,9.12767452 C17.5263866,9.79212345 16.9383706,10.0456654 16.4454773,10.9809017 C15.8009246,10.315292 15.5725966,9.48419191 14.9441492,8.89320214 C14.1989376,8.19724702 13.1764105,7.81552467 12.0637937,7.38637721 C10.7869351,6.89753382 9.64428835,6.3174883 8.50533245,5.86927131 C7.29071459,4.47935093 5.44664282,3.80362609 4.14025756,2.51701283 C3.94716016,2.54221779 3.92182766,2.37241601 3.70088129,2.42630818 C2.81592145,1.64445723 1.80614453,1.00090187 0.783617476,0.375752756 C0.755432973,0.464467551 0.877062524,0.682855185 0.743353901,0.681694431 C0.532137894,0.422182929 0.380813955,0.0897097268 0.0169318908,1.77635684e-15 C0.8919936,2.74402322 2.64916315,3.94291661 4.40985575,5.48356924 C5.10557679,6.09147286 5.66339507,6.96402846 6.45021245,7.29036625 C7.30094825,7.64290392 8.22281636,7.83277016 9.04100577,8.2076938 C10.8245144,9.02254334 12.6207732,10.0267616 12.5555126,12.5900388 C12.1221759,12.7535394 11.5829795,13.1213327 11.6351544,13.5080297 C11.6376709,13.469559 11.6391808,13.4355654 11.6913556,13.4431933 C11.7059512,13.9666935 10.9280253,14.3049704 10.0881943,14.2855693 C9.95733765,14.3968358 9.80551041,14.9122108 10.0789672,15.0168445 C10.1667082,14.3504057 11.1389058,14.4485723 11.7497378,14.2300189 C12.0592641,15.043376 12.6058421,15.9088013 13.6389383,15.6827858 C13.7996571,15.4978942 13.6209875,15.2806673 13.71913,15.1312617 C14.7646408,15.2159968 15.5083426,14.9372499 16.2760348,14.6485537 C16.7957704,14.4515571 17.241354,14.0585589 17.7043851,13.9393328 C18.0192798,13.8617281 18.3489379,14.0374995 18.6185361,13.8162929 C18.510831,13.8088309 18.3177336,13.8967166 18.3658821,13.7121566 C19.2723159,13.3788543 20.1985459,13.334414 21.1816482,13.4554641 C22.7968886,13.6524607 24.6040522,13.8907474 26.1672855,14.2300193 C24.9379043,13.5300845 22.7802799,13.6697062 21.3484065,13.1999323 C23.6063542,13.2909686 25.8851058,13.1581159 27.7853788,12.9946154 C25.461835,12.6480473 22.3261403,13.4431933 20.3292347,12.7243547 C20.1190253,12.4049814 20.6323859,11.2455537 20.76643,11.0487229 C21.2172143,10.3720031 21.8349247,9.53261195 22.6108373,9.27492449 C22.7824608,9.22036904 22.9988775,9.27807511 23.1632871,9.2366196 C23.3644373,9.18538059 23.5514951,9.00314216 23.7593558,8.95289808 C24.3411645,8.80946201 24.9347167,8.81974298 25.4573044,8.59107437 C25.6742244,8.55873908 25.2301507,8.44282947 25.4457286,8.40883595 C25.7574358,8.39258539 26.075518,8.38031455 26.2328815,8.23289876 C26.1672854,8.24069239 26.075518,8.21465833 26.1672854,8.17734837 C26.8173744,8.10952715 27.1277395,7.74770345 27.7977925,7.69745937 C27.9845148,7.55999289 27.6179485,7.5893434 27.7853779,7.5163817 C28.9112481,7.28721563 29.307341,6.69025626 30.4253263,6.54101642 C30.4508266,6.34484894 30.2008569,6.47435596 30.3479867,6.30273014 C30.6746249,6.31699084 30.8735941,6.22180898 31.1413469,6.18632307 C31.3696749,5.79431975 32.4165279,5.80460072 32.4430347,5.42801885 C30.8189028,6.12380815 28.6614462,6.49740522 26.5117068,6.93550707 C24.4091093,7.36415706 22.3424135,8.01235543 20.5144472,8.38512339 Z" id="Fill-1" transform="translate(16.229983, 7.859637) scale(-1, 1) translate(-16.229983, -7.859637) "></path>
                <g id="Group-Copy-7" transform="translate(30.057517, 3.558589)">
                    <g id="Group-3-Copy-4" transform="translate(0.000000, 1.000000)">
                        <path d="M13.8542057,10.5622247 L4.10539363,10.5622244 L4.10539367,17.9853205 L0,17.9853205 L0,9.41768549 C0,7.24420685 0.132556493,5.6526586 0.397673457,4.642993 C0.631600189,3.64874213 1.0916492,2.79323678 1.77783428,2.07645127 C2.15211705,1.72961957 2.54588781,1.4425243 2.95915837,1.21515686 C3.37242893,0.987789412 3.85781962,0.785473957 4.415345,0.608204423 C4.97287038,0.430934888 5.5791214,0.303765173 6.23411625,0.226691463 C6.87351598,0.149617752 7.62596902,0.111081475 8.49149793,0.111081475 L13.8542057,0.111081475 L13.8542057,3.61406401 L8.19909098,3.6140641 C6.79553058,3.6140641 5.7662684,3.90308618 5.11127355,4.48113901 C4.44068358,5.0437771 4.10539363,5.91084334 4.10539363,7.08236374 L13.8542057,7.08236345 L13.8542057,10.5622247 Z M19.5561771,17.9788044 L15.5560499,17.9788044 L15.5560499,5.15765677 L19.5561771,5.15765677 L19.5561771,17.9788044 Z M32.843149,16.7880215 C32.1569639,17.5741734 31.2758531,17.9672434 30.1997902,17.9672434 L21.3691001,17.9672431 L21.3691002,14.8457739 L28.6675777,14.8457737 C29.1666214,14.8457737 29.5525947,14.7494331 29.8255093,14.5567488 C30.0204482,14.4334308 30.1179162,14.2214813 30.1179162,13.9208938 C30.1179162,13.6048916 30.0204482,13.3775276 29.8255093,13.2387949 C29.6149752,13.1077696 29.2290019,13.0422579 28.6675777,13.0422579 L25.8721672,13.0422579 C24.148907,13.0422579 22.9675947,12.7628699 22.328195,12.2040855 C21.6887952,11.6453011 21.3691002,10.6722601 21.3691002,9.28493333 C21.3691002,7.84365495 21.7511748,6.79932183 22.5153354,6.15190266 C23.2327107,5.49677612 24.3828332,5.16921777 25.9657375,5.16921777 L33.2291262,5.16921777 L33.2291262,8.29068744 L27.2172392,8.29068744 C26.3205201,8.29068744 25.7630031,8.36005274 25.5446715,8.49878542 C25.3809227,8.57585913 25.2990496,8.77239414 25.2990496,9.08839635 C25.2990496,9.37356908 25.3692266,9.58166498 25.5095826,9.71269029 C25.7357118,9.85142297 26.0710018,9.92078827 26.5154625,9.92078827 L29.4395321,9.92078827 C30.8586876,9.92078827 31.9425319,10.2599075 32.6910974,10.9381562 C33.4786507,11.5855753 33.8724215,12.5489823 33.8724215,13.8284059 C33.8724215,15.0307557 33.5293341,16.0172844 32.843149,16.7880215 Z M47.3582302,17.9788044 L43.4984584,17.9788044 L43.4984584,10.2791792 C43.4984584,9.51614949 43.3736994,9.01903152 43.1241775,8.78781039 C42.9604288,8.65678508 42.7771889,8.56044438 42.5744524,8.49878542 C42.3483233,8.43712645 42.0364256,8.40629743 41.6387502,8.40629743 L39.3579759,8.42941942 L39.3579759,17.9788044 L35.5449893,17.9788044 L35.5449893,0.0337234112 L39.3579761,0.0337234112 L39.3579759,5.16921777 L41.9194609,5.16921777 C43.8376601,5.16921777 45.2197564,5.53916603 46.0657915,6.27907365 C46.9118265,7.01898127 47.3348376,8.232874 47.3348376,9.92078827 L47.3582302,17.9788044 Z" id="Fish-Copy-11"></path>
                        <polygon id="T-Copy-11" points="61.9974117 3.55297822 56.5481179 3.55297822 56.5481181 17.9182864 52.317591 17.9182864 52.3175909 3.55297822 46.9151728 3.55297822 46.9151728 0.0337234112 61.9974117 0.0337234112"></polygon>
                        <path d="M71.5085411,10.7679212 L67.8244423,10.7679212 L67.8244423,8.87427555 C67.8244423,8.49708408 67.7757114,8.26422957 67.6782479,8.17570504 C67.5807845,8.08718051 67.4618809,8.03522125 67.3215336,8.01982567 C67.1811863,8.0044301 66.974567,7.99673244 66.7016694,7.99673244 L65.8595897,7.99673244 L65.8595897,17.8690924 L62.0234488,17.8690924 L62.0234488,5.06389099 L67.754269,5.06389099 C69.1265539,5.06389099 70.0777826,5.31791408 70.6079836,5.8259679 C70.8730841,6.06459924 71.0855512,6.4032967 71.2453912,6.84207045 C71.4052312,7.2808442 71.48515,7.80813456 71.48515,8.42395737 L71.5085411,10.7679212 Z M85.4847252,17.8575458 L76.4791505,17.8575458 C75.2316188,17.8575458 74.2414053,17.526546 73.5084804,16.8645365 C72.7677584,16.2179226 72.397403,15.274958 72.397403,14.0356146 C72.397403,12.5499421 72.804794,11.4838149 73.6195881,10.8372009 C74.4343823,10.190587 75.7540172,9.86728485 77.5785324,9.86728485 L81.5550199,9.86728485 C81.5550199,9.25146205 81.3717914,8.80884605 81.005329,8.53942357 C80.6310695,8.29309445 79.9254449,8.16993173 78.8884341,8.16993173 L73.2160916,8.16993173 L73.2160916,5.07543761 L80.1164671,5.07543761 C81.8708086,5.07543761 83.2040881,5.47571643 84.1163457,6.27628607 C85.0286033,7.07685572 85.4847252,8.28923868 85.4847252,9.91347133 L85.4847252,17.8575458 Z M81.8566647,14.8092382 L81.8566647,12.8924993 L78.3363036,12.8924993 C77.634567,12.8924993 77.1784451,12.9598539 76.9679241,13.0945651 C76.7574031,13.2292763 76.6521442,13.5083169 76.6521442,13.931695 C76.6521442,14.2473042 76.7262153,14.4782343 76.8743597,14.6244922 C76.9523304,14.6860745 77.0946249,14.7322605 77.3012473,14.7630517 C77.5078698,14.7938428 77.7710171,14.8092382 78.0906971,14.8092382 L81.8566647,14.8092382 Z" id="ra-copy-11"></path>
                        <polygon id="k-copy-4" points="113.385517 5.38583154 108.005415 11.289475 113.385517 18.0303754 108.222318 18.0303754 104.153084 12.6776743 104.153084 17.9374689 100.191725 17.9374689 100.191725 0.190916148 104.153084 0.190916148 104.153084 9.97265109 108.222318 5.38583154"></polygon>
                        <path d="M98.4871103,17.9294219 L93.7593213,17.9294219 C93.1776785,17.9294219 92.6510639,17.8984303 92.1794616,17.8364461 C91.7157194,17.7744619 91.2834238,17.6853609 90.8825619,17.5691406 C90.1594384,17.3212038 89.4913453,16.9183125 88.8782623,16.3604547 C88.603161,16.0892739 88.3516436,15.7638617 88.1237025,15.3842085 C87.8879014,15.0200513 87.6717536,14.624908 87.4752526,14.1987666 C87.3180519,13.7881213 87.1962231,13.3658603 87.1097627,12.9319709 C87.0311623,12.5058295 86.9918627,12.037081 86.9918627,11.5257114 C86.9918627,10.5649563 87.1529911,9.66232496 87.4752526,8.81779026 C87.7975142,7.9887516 88.2651794,7.24107842 88.8782623,6.57474828 C89.436325,6.07112666 90.1044182,5.69535309 90.8825619,5.4474163 C91.6528456,5.19173148 92.6117558,5.06389099 93.7593213,5.06389099 L98.4871103,5.06389099 L98.4871103,8.29480119 L94.7143111,8.29480119 C93.9283073,8.29480119 93.2995138,8.34128865 92.8279115,8.43426494 C92.3641693,8.55048532 92.002613,8.74030908 91.7432317,9.00374192 C91.2087492,9.48411946 90.9415119,10.3247675 90.9415119,11.5257114 C90.9415119,12.1920415 91.0594107,12.7576389 91.2952118,13.2225204 C91.4995728,13.6796538 91.8218295,14.0593013 92.2619916,14.3614743 L93.0283415,14.6287798 C93.2405625,14.6597719 93.4567103,14.6830157 93.6767913,14.6985117 C93.9047324,14.7140078 94.2505689,14.7217557 94.7143111,14.7217557 L98.4871103,14.7217557 L98.4871103,17.9294219 Z" id="Type-something-Copy-11"></path>
                    </g>
                    <path d="M16.172399,4.76944167 C16.1287937,4.7710309 16.0846027,4.77183703 16.0398181,4.77183703 L15.7696727,4.77183703 L15.7696727,4.63351197 L15.7696727,0.817840966 L19.4014091,0.817840966 C19.4014091,0.817840966 19.1826985,4.65972865 16.172399,4.76944167 Z" id="Path-Copy-9" transform="translate(17.585541, 2.794839) scale(-1, 1) rotate(-90.000000) translate(-17.585541, -2.794839) "></path>
                </g>
            </g>
        </g>
    </g>
</svg>