{
  "imageName": "services/session-analyzer",
  "compose": "session-analyzer",
  "cluster": "sl-core-svc",
  "serviceName": "sl-session-analyzer",
  "secrets": {
    "common": {
      "prefix": "/{env}/common/",
      "secrets": [
        "APP_ENV",
        "EXPRESS_PORT",
        "NEW_RELIC_LICENSE_KEY",
        "SPOTS_API"
      ]
    },
    "service": {
      "prefix": "/{env}/services/session-analyzer/",
      "secrets": [
        "SESSION_ANALYZER_LOG_LEVEL"
      ]
    }
  },
  "taskRoleArn": {
    "sandbox": "arn:aws:iam::665294954271:role/session_analyzer_task_role_sandbox",
    "staging": "arn:aws:iam::665294954271:role/session_analyzer_task_role_staging",
    "prod": "arn:aws:iam::833713747344:role/session_analyzer_task_role_prod"
  },
  "newRelic": {
    "applicationId": {
      "sandbox": 410150558,
      "staging": 411257765,
      "prod": 225000114
    }
  }
}
