{
  "data": [
    {
      "timestamp": 1615708800,
      "rating": {
        "key": "VERY_POOR",
        "value": 1.1
      }
    },
    {
      "timestamp": 1615748400,
      "rating": {
        "key": "POOR",
        "value": 1.9
      }
    },
    {
      "timestamp": 1615791600,
      "rating": {
        "key": "POOR_TO_FAIR",
        "value": 3.2
      }
    },
    {
      "timestamp": 1615834800,
      "rating": {
        "key": "FAIR",
        "value": 4.4
      }
    }
  ]
}
