{
  "associated": {
    "tideLocation": {
      "name": "Huntington Cliffs near Newport Bay",
      "min": -1.08,
      "max": 2.76,
      "mean": 0.84,
      "lon": -117.998,
      "lat": 33.6603
    }
  },
  "tides": [
    {
      "timestamp": 1615708800,
      "type": "NORMAL",
      "height": 0.8
    },
    {
      "timestamp": 1615748400,
      "type": "NORMAL",
      "height": 0.8
    },
    {
      "timestamp": 1615791600,
      "type": "NORMAL",
      "height": 0.8
    },
    {
      "timestamp": 1615834800,
      "type": "NORMAL",
      "height": 0.8
    }
  ]
}
