{
  "agent": {
    "run_as_user": "root"
  },
  "logs": {
    "logs_collected": {
      "files": {
        "collect_list": [
          {
            "file_path": "/home/ubuntu/actions-runner/_diag/Runner_*",
            "log_group_name": "wt-github-actions-runners",
            "log_stream_name": "{hostname}-runner"
          },
          {
            "file_path": "/home/ubuntu/actions-runner/_diag/SelfUpdate-*",
            "log_group_name": "wt-github-actions-runners",
            "log_stream_name": "{hostname}-self-update"
          },
          {
            "file_path": "/home/ubuntu/actions-runner/_diag/Worker_*",
            "log_group_name": "wt-github-actions-runners",
            "log_stream_name": "{hostname}-worker"
          }
        ]
      }
    }
  }
}
