{
    "alias": "a-test",
    "resolution": "1280x720",
    "thumbLargeUrl": "http://stills.cdn-surfline.com/a-test/large.jpg",
    "thumbSmallUrl": "http://stills.cdn-surfline.com/a-test/small.jpg",
    "recordingUrl": "http://stills.cdn-surfline.com/a-test/a-test.20180227T201716.mp4",
    "endDate": 1519860967455,
    "startDate": 1519860367460
}
