[
  {
    "_id": "58349c1fe411dc743a5d52ad",
    "title": "A Test",
    "alias": "a-test",
    "streamUrl": "https://cams.cdn-surfline.com/test/a-test.stream/playlist.m3u8",
    "status": "active",
    "modifiedDate": "2020-01-14T20:18:06.848Z",
    "message": "",
    "isDown": 0,
    "__v": 0,
    "cotm": false,
    "isPremium": true,
    "playlistUrl": "https://cams.cdn-surfline.com/cdn-wc/a-test/playlist.m3u8",
    "isPrerecorded": false
  }
]
