[
  {
    "cameraId": "58349c1fe411dc743a5d52ad",
    "alias": "a-test",
    "startDate": "2018-02-28T23:26:07.455Z",
    "endDate": "2018-02-28T23:36:07.455Z",
    "recordingUrl": "http://stills.cdn-surfline.com/a-test/a-test.20180227T201716.mp4",
    "thumbLargeUrl": "http://stills.cdn-surfline.com/a-test/large.jpg",
    "thumbSmallUrl": "https://camstills.cdn-surfline.com/58349c1fe411dc743a5d52ad/2021/04/08/58349c1fe411dc743a5d52ad.20210408T110228165_small.jpg",
    "resolution": "1280x720",
    "highlights": {
      "url": "http://test.com/file.mp4",
      "thumbUrl": "http://test.com/file.jpg",
      "gifUrl": "http://test.com/file.gif"
    }
  }
]
