alembic==0.8.10
amqp==2.5.2
Babel==1.3
backports-abc==0.5
backports.ssl-match-hostname==3.7.0.1
billiard==3.6.1.0
boto3==1.12.39
celery==4.3.0
certifi==2019.9.11
chardet==3.0.4
chartkick==0.4.2
configparser==4.0.2
contextlib2==0.6.0.post1
croniter==0.3.30
Cython==0.29.14
dill==0.2.9
docker==3.5.0
docker-pycreds==0.4.0
Flask==0.10.1
Flask-Admin==1.4.0
Flask-Cache==0.13.1
Flask-Login==0.2.11
Flask-WTF==0.12
flower==0.9.3
funcsigs==0.4
future==0.15.2
gunicorn==19.3.0
idna==2.8
importlib-metadata==0.23
ipaddress==1.0.23
itsdangerous==1.1.0
Jinja2==2.10.3
kombu==4.6.3
lockfile==0.12.2
Mako==1.1.0
Markdown==2.6.11
MarkupSafe==1.1.1
more-itertools==5.0.0
mysqlclient==1.4.5
newrelic==5.2.2.130
pandas==0.24.2
pathlib2==2.3.5
Pygments==2.4.2
pypd==1.1.0
python-daemon==2.1.2
python-editor==1.0.4
redis==3.3.11
requests==2.22.0
scandir==1.10.0
setproctitle==1.1.10
singledispatch==3.4.0.3
SQLAlchemy==1.3.11
thrift==0.9.3
tornado==5.1.1
urllib3==1.25.7
vine==1.3.0
websocket-client==0.56.0
Werkzeug==0.16.0
WTForms==2.2.1
zipp==0.6.0
