{
  "positions": [
      {
          "timestamp": 1409404954,
          "latitude": 50.317242,
          "longitude": -4.083272
      },
      {
          "timestamp": 1409404955,
          "latitude": 50.317243,
          "longitude": -4.083271
      },
      {
          "timestamp": 1409404956,
          "latitude": 50.317242,
          "longitude": -4.08327
      },
      {
          "timestamp": 1409404957,
          "latitude": 50.317241,
          "longitude": -4.083269
      },
      {
          "timestamp": 1409404958,
          "latitude": 50.317242,
          "longitude": -4.083266
      },
      {
          "timestamp": 1409404959,
          "latitude": 50.317243,
          "longitude": -4.083263
      },
      {
          "timestamp": 1409404960,
          "latitude": 50.317241,
          "longitude": -4.083262
      },
      {
          "timestamp": 1409404961,
          "latitude": 50.317239,
          "longitude": -4.083261
      },
      {
          "timestamp": 1409404962,
          "latitude": 50.317239,
          "longitude": -4.08326
      },
      {
          "timestamp": 1409404963,
          "latitude": 50.317239,
          "longitude": -4.083261
      },
      {
          "timestamp": 1409404964,
          "latitude": 50.317238,
          "longitude": -4.083261
      },
      {
          "timestamp": 1409404965,
          "latitude": 50.317237,
          "longitude": -4.083264
      },
      {
          "timestamp": 1409404966,
          "latitude": 50.317237,
          "longitude": -4.083264
      },
      {
          "timestamp": 1409404967,
          "latitude": 50.317236,
          "longitude": -4.083265
      },
      {
          "timestamp": 1409404968,
          "latitude": 50.317235,
          "longitude": -4.083265
      },
      {
          "timestamp": 1409404969,
          "latitude": 50.317233,
          "longitude": -4.083265
      },
      {
          "timestamp": 1409404970,
          "latitude": 50.31723,
          "longitude": -4.083266
      },
      {
          "timestamp": 1409404971,
          "latitude": 50.317258,
          "longitude": -4.083246
      },
      {
          "timestamp": 1409404972,
          "latitude": 50.317272,
          "longitude": -4.083236
      },
      {
          "timestamp": 1409404973,
          "latitude": 50.317276,
          "longitude": -4.083233
      },
      {
          "timestamp": 1409404974,
          "latitude": 50.317278,
          "longitude": -4.083234
      },
      {
          "timestamp": 1409404975,
          "latitude": 50.317279,
          "longitude": -4.083229
      },
      {
          "timestamp": 1409404976,
          "latitude": 50.317281,
          "longitude": -4.083225
      },
      {
          "timestamp": 1409404977,
          "latitude": 50.317291,
          "longitude": -4.08323
      },
      {
          "timestamp": 1409404978,
          "latitude": 50.317299,
          "longitude": -4.083232
      },
      {
          "timestamp": 1409404979,
          "latitude": 50.317303,
          "longitude": -4.083231
      },
      {
          "timestamp": 1409404980,
          "latitude": 50.317307,
          "longitude": -4.083232
      },
      {
          "timestamp": 1409404981,
          "latitude": 50.317314,
          "longitude": -4.083239
      },
      {
          "timestamp": 1409404982,
          "latitude": 50.317318,
          "longitude": -4.083249
      },
      {
          "timestamp": 1409404983,
          "latitude": 50.317318,
          "longitude": -4.08326
      },
      {
          "timestamp": 1409404985,
          "latitude": 50.317316,
          "longitude": -4.083262
      },
      {
          "timestamp": 1409404986,
          "latitude": 50.317316,
          "longitude": -4.08326
      },
      {
          "timestamp": 1409404987,
          "latitude": 50.317317,
          "longitude": -4.083259
      },
      {
          "timestamp": 1409404988,
          "latitude": 50.317317,
          "longitude": -4.083259
      },
      {
          "timestamp": 1409404989,
          "latitude": 50.317317,
          "longitude": -4.083258
      },
      {
          "timestamp": 1409404990,
          "latitude": 50.317318,
          "longitude": -4.083258
      },
      {
          "timestamp": 1409404991,
          "latitude": 50.317318,
          "longitude": -4.083258
      },
      {
          "timestamp": 1409404992,
          "latitude": 50.317318,
          "longitude": -4.083257
      },
      {
          "timestamp": 1409404993,
          "latitude": 50.317318,
          "longitude": -4.083257
      },
      {
          "timestamp": 1409404994,
          "latitude": 50.317319,
          "longitude": -4.083257
      },
      {
          "timestamp": 1409404995,
          "latitude": 50.317319,
          "longitude": -4.083257
      },
      {
          "timestamp": 1409404996,
          "latitude": 50.31732,
          "longitude": -4.083258
      },
      {
          "timestamp": 1409404997,
          "latitude": 50.317321,
          "longitude": -4.083259
      },
      {
          "timestamp": 1409404998,
          "latitude": 50.317322,
          "longitude": -4.08326
      },
      {
          "timestamp": 1409404999,
          "latitude": 50.317322,
          "longitude": -4.08326
      },
      {
          "timestamp": 1409405000,
          "latitude": 50.317325,
          "longitude": -4.083257
      },
      {
          "timestamp": 1409405001,
          "latitude": 50.317325,
          "longitude": -4.083257
      },
      {
          "timestamp": 1409405002,
          "latitude": 50.317326,
          "longitude": -4.083256
      },
      {
          "timestamp": 1409405003,
          "latitude": 50.317326,
          "longitude": -4.083256
      },
      {
          "timestamp": 1409405004,
          "latitude": 50.317327,
          "longitude": -4.083259
      },
      {
          "timestamp": 1409405005,
          "latitude": 50.317331,
          "longitude": -4.083255
      },
      {
          "timestamp": 1409405006,
          "latitude": 50.317333,
          "longitude": -4.083251
      },
      {
          "timestamp": 1409405007,
          "latitude": 50.317334,
          "longitude": -4.083252
      },
      {
          "timestamp": 1409405008,
          "latitude": 50.317328,
          "longitude": -4.083246
      },
      {
          "timestamp": 1409405009,
          "latitude": 50.317325,
          "longitude": -4.083242
      },
      {
          "timestamp": 1409405010,
          "latitude": 50.317325,
          "longitude": -4.083241
      },
      {
          "timestamp": 1409405011,
          "latitude": 50.317334,
          "longitude": -4.083243
      },
      {
          "timestamp": 1409405012,
          "latitude": 50.31735,
          "longitude": -4.083251
      },
      {
          "timestamp": 1409405013,
          "latitude": 50.31737,
          "longitude": -4.083267
      },
      {
          "timestamp": 1409405014,
          "latitude": 50.317392,
          "longitude": -4.083282
      },
      {
          "timestamp": 1409405015,
          "latitude": 50.317411,
          "longitude": -4.083295
      },
      {
          "timestamp": 1409405016,
          "latitude": 50.317426,
          "longitude": -4.083306
      },
      {
          "timestamp": 1409405017,
          "latitude": 50.317442,
          "longitude": -4.083316
      },
      {
          "timestamp": 1409405018,
          "latitude": 50.317456,
          "longitude": -4.083328
      },
      {
          "timestamp": 1409405019,
          "latitude": 50.317469,
          "longitude": -4.083344
      },
      {
          "timestamp": 1409405020,
          "latitude": 50.31748,
          "longitude": -4.08336
      },
      {
          "timestamp": 1409405021,
          "latitude": 50.317491,
          "longitude": -4.083378
      },
      {
          "timestamp": 1409405022,
          "latitude": 50.317508,
          "longitude": -4.083396
      },
      {
          "timestamp": 1409405023,
          "latitude": 50.317527,
          "longitude": -4.083409
      },
      {
          "timestamp": 1409405024,
          "latitude": 50.31755,
          "longitude": -4.083415
      },
      {
          "timestamp": 1409405025,
          "latitude": 50.317572,
          "longitude": -4.083414
      },
      {
          "timestamp": 1409405026,
          "latitude": 50.317592,
          "longitude": -4.083416
      },
      {
          "timestamp": 1409405027,
          "latitude": 50.317611,
          "longitude": -4.083431
      },
      {
          "timestamp": 1409405028,
          "latitude": 50.317628,
          "longitude": -4.083456
      },
      {
          "timestamp": 1409405029,
          "latitude": 50.317638,
          "longitude": -4.083477
      },
      {
          "timestamp": 1409405030,
          "latitude": 50.317643,
          "longitude": -4.083493
      },
      {
          "timestamp": 1409405031,
          "latitude": 50.317647,
          "longitude": -4.083508
      },
      {
          "timestamp": 1409405032,
          "latitude": 50.31765,
          "longitude": -4.083522
      },
      {
          "timestamp": 1409405033,
          "latitude": 50.31765,
          "longitude": -4.083538
      },
      {
          "timestamp": 1409405034,
          "latitude": 50.31765,
          "longitude": -4.083557
      },
      {
          "timestamp": 1409405035,
          "latitude": 50.317649,
          "longitude": -4.08358
      },
      {
          "timestamp": 1409405036,
          "latitude": 50.317649,
          "longitude": -4.083605
      },
      {
          "timestamp": 1409405037,
          "latitude": 50.317649,
          "longitude": -4.08363
      },
      {
          "timestamp": 1409405038,
          "latitude": 50.317646,
          "longitude": -4.083653
      },
      {
          "timestamp": 1409405039,
          "latitude": 50.317643,
          "longitude": -4.083679
      },
      {
          "timestamp": 1409405040,
          "latitude": 50.317639,
          "longitude": -4.083702
      },
      {
          "timestamp": 1409405041,
          "latitude": 50.317636,
          "longitude": -4.083723
      },
      {
          "timestamp": 1409405042,
          "latitude": 50.317636,
          "longitude": -4.083745
      },
      {
          "timestamp": 1409405043,
          "latitude": 50.317635,
          "longitude": -4.083768
      },
      {
          "timestamp": 1409405044,
          "latitude": 50.317635,
          "longitude": -4.083789
      },
      {
          "timestamp": 1409405045,
          "latitude": 50.317636,
          "longitude": -4.083808
      },
      {
          "timestamp": 1409405046,
          "latitude": 50.317635,
          "longitude": -4.083825
      },
      {
          "timestamp": 1409405047,
          "latitude": 50.317633,
          "longitude": -4.083835
      },
      {
          "timestamp": 1409405048,
          "latitude": 50.317628,
          "longitude": -4.083841
      },
      {
          "timestamp": 1409405049,
          "latitude": 50.317622,
          "longitude": -4.083846
      },
      {
          "timestamp": 1409405050,
          "latitude": 50.317616,
          "longitude": -4.083849
      },
      {
          "timestamp": 1409405051,
          "latitude": 50.317608,
          "longitude": -4.083854
      },
      {
          "timestamp": 1409405052,
          "latitude": 50.317601,
          "longitude": -4.083856
      },
      {
          "timestamp": 1409405053,
          "latitude": 50.317594,
          "longitude": -4.083863
      },
      {
          "timestamp": 1409405054,
          "latitude": 50.317592,
          "longitude": -4.08388
      },
      {
          "timestamp": 1409405055,
          "latitude": 50.317588,
          "longitude": -4.083898
      },
      {
          "timestamp": 1409405056,
          "latitude": 50.317583,
          "longitude": -4.083912
      },
      {
          "timestamp": 1409405057,
          "latitude": 50.31758,
          "longitude": -4.083926
      },
      {
          "timestamp": 1409405058,
          "latitude": 50.317577,
          "longitude": -4.083936
      },
      {
          "timestamp": 1409405059,
          "latitude": 50.317574,
          "longitude": -4.083946
      },
      {
          "timestamp": 1409405060,
          "latitude": 50.31757,
          "longitude": -4.083957
      },
      {
          "timestamp": 1409405061,
          "latitude": 50.317568,
          "longitude": -4.083971
      },
      {
          "timestamp": 1409405062,
          "latitude": 50.317568,
          "longitude": -4.083988
      },
      {
          "timestamp": 1409405063,
          "latitude": 50.317568,
          "longitude": -4.084003
      },
      {
          "timestamp": 1409405064,
          "latitude": 50.317568,
          "longitude": -4.084018
      },
      {
          "timestamp": 1409405065,
          "latitude": 50.317566,
          "longitude": -4.084033
      },
      {
          "timestamp": 1409405066,
          "latitude": 50.317568,
          "longitude": -4.08405
      },
      {
          "timestamp": 1409405067,
          "latitude": 50.317571,
          "longitude": -4.084065
      },
      {
          "timestamp": 1409405068,
          "latitude": 50.317575,
          "longitude": -4.08408
      },
      {
          "timestamp": 1409405069,
          "latitude": 50.317578,
          "longitude": -4.084098
      },
      {
          "timestamp": 1409405070,
          "latitude": 50.317576,
          "longitude": -4.084115
      },
      {
          "timestamp": 1409405071,
          "latitude": 50.317575,
          "longitude": -4.084137
      },
      {
          "timestamp": 1409405072,
          "latitude": 50.317574,
          "longitude": -4.084162
      },
      {
          "timestamp": 1409405073,
          "latitude": 50.317573,
          "longitude": -4.084189
      },
      {
          "timestamp": 1409405074,
          "latitude": 50.317573,
          "longitude": -4.084219
      },
      {
          "timestamp": 1409405075,
          "latitude": 50.317574,
          "longitude": -4.084238
      },
      {
          "timestamp": 1409405076,
          "latitude": 50.317574,
          "longitude": -4.084257
      },
      {
          "timestamp": 1409405077,
          "latitude": 50.317571,
          "longitude": -4.084277
      },
      {
          "timestamp": 1409405078,
          "latitude": 50.31757,
          "longitude": -4.084294
      },
      {
          "timestamp": 1409405079,
          "latitude": 50.31757,
          "longitude": -4.084316
      },
      {
          "timestamp": 1409405080,
          "latitude": 50.317571,
          "longitude": -4.084333
      },
      {
          "timestamp": 1409405081,
          "latitude": 50.317572,
          "longitude": -4.084349
      },
      {
          "timestamp": 1409405082,
          "latitude": 50.317572,
          "longitude": -4.084359
      },
      {
          "timestamp": 1409405083,
          "latitude": 50.317572,
          "longitude": -4.084372
      },
      {
          "timestamp": 1409405084,
          "latitude": 50.317568,
          "longitude": -4.084381
      },
      {
          "timestamp": 1409405085,
          "latitude": 50.317562,
          "longitude": -4.084384
      },
      {
          "timestamp": 1409405086,
          "latitude": 50.317557,
          "longitude": -4.084391
      },
      {
          "timestamp": 1409405087,
          "latitude": 50.317551,
          "longitude": -4.084395
      },
      {
          "timestamp": 1409405088,
          "latitude": 50.317546,
          "longitude": -4.084395
      },
      {
          "timestamp": 1409405089,
          "latitude": 50.317539,
          "longitude": -4.084394
      },
      {
          "timestamp": 1409405090,
          "latitude": 50.317534,
          "longitude": -4.084397
      },
      {
          "timestamp": 1409405092,
          "latitude": 50.317526,
          "longitude": -4.084399
      },
      {
          "timestamp": 1409405093,
          "latitude": 50.31752,
          "longitude": -4.084402
      },
      {
          "timestamp": 1409405095,
          "latitude": 50.317521,
          "longitude": -4.084437
      },
      {
          "timestamp": 1409405096,
          "latitude": 50.317525,
          "longitude": -4.084458
      },
      {
          "timestamp": 1409405097,
          "latitude": 50.31753,
          "longitude": -4.084484
      },
      {
          "timestamp": 1409405098,
          "latitude": 50.317534,
          "longitude": -4.084503
      },
      {
          "timestamp": 1409405100,
          "latitude": 50.317536,
          "longitude": -4.084523
      },
      {
          "timestamp": 1409405101,
          "latitude": 50.317547,
          "longitude": -4.084573
      },
      {
          "timestamp": 1409405103,
          "latitude": 50.317555,
          "longitude": -4.084624
      },
      {
          "timestamp": 1409405104,
          "latitude": 50.317554,
          "longitude": -4.084634
      },
      {
          "timestamp": 1409405105,
          "latitude": 50.317554,
          "longitude": -4.08464
      },
      {
          "timestamp": 1409405107,
          "latitude": 50.317555,
          "longitude": -4.084647
      },
      {
          "timestamp": 1409405109,
          "latitude": 50.317561,
          "longitude": -4.084664
      },
      {
          "timestamp": 1409405110,
          "latitude": 50.317561,
          "longitude": -4.084664
      },
      {
          "timestamp": 1409405111,
          "latitude": 50.317559,
          "longitude": -4.084671
      },
      {
          "timestamp": 1409405112,
          "latitude": 50.317558,
          "longitude": -4.08468
      },
      {
          "timestamp": 1409405114,
          "latitude": 50.317556,
          "longitude": -4.084689
      },
      {
          "timestamp": 1409405115,
          "latitude": 50.317555,
          "longitude": -4.08469
      },
      {
          "timestamp": 1409405116,
          "latitude": 50.31755,
          "longitude": -4.084711
      },
      {
          "timestamp": 1409405117,
          "latitude": 50.317544,
          "longitude": -4.084738
      },
      {
          "timestamp": 1409405118,
          "latitude": 50.317534,
          "longitude": -4.084753
      },
      {
          "timestamp": 1409405119,
          "latitude": 50.317525,
          "longitude": -4.084779
      },
      {
          "timestamp": 1409405120,
          "latitude": 50.317518,
          "longitude": -4.084807
      },
      {
          "timestamp": 1409405121,
          "latitude": 50.317511,
          "longitude": -4.084826
      },
      {
          "timestamp": 1409405122,
          "latitude": 50.317501,
          "longitude": -4.084842
      },
      {
          "timestamp": 1409405123,
          "latitude": 50.31749,
          "longitude": -4.084854
      },
      {
          "timestamp": 1409405124,
          "latitude": 50.317478,
          "longitude": -4.084862
      },
      {
          "timestamp": 1409405125,
          "latitude": 50.317469,
          "longitude": -4.084868
      },
      {
          "timestamp": 1409405126,
          "latitude": 50.317459,
          "longitude": -4.084874
      },
      {
          "timestamp": 1409405127,
          "latitude": 50.317446,
          "longitude": -4.084882
      },
      {
          "timestamp": 1409405128,
          "latitude": 50.317433,
          "longitude": -4.084891
      },
      {
          "timestamp": 1409405129,
          "latitude": 50.317426,
          "longitude": -4.084895
      },
      {
          "timestamp": 1409405130,
          "latitude": 50.317425,
          "longitude": -4.084896
      },
      {
          "timestamp": 1409405131,
          "latitude": 50.317413,
          "longitude": -4.084902
      },
      {
          "timestamp": 1409405132,
          "latitude": 50.3174,
          "longitude": -4.08491
      },
      {
          "timestamp": 1409405133,
          "latitude": 50.317387,
          "longitude": -4.084916
      },
      {
          "timestamp": 1409405134,
          "latitude": 50.317373,
          "longitude": -4.084922
      },
      {
          "timestamp": 1409405135,
          "latitude": 50.317356,
          "longitude": -4.08493
      },
      {
          "timestamp": 1409405136,
          "latitude": 50.317344,
          "longitude": -4.084935
      },
      {
          "timestamp": 1409405137,
          "latitude": 50.317334,
          "longitude": -4.084932
      },
      {
          "timestamp": 1409405138,
          "latitude": 50.31732,
          "longitude": -4.084929
      },
      {
          "timestamp": 1409405139,
          "latitude": 50.317305,
          "longitude": -4.084931
      },
      {
          "timestamp": 1409405140,
          "latitude": 50.317299,
          "longitude": -4.084928
      },
      {
          "timestamp": 1409405141,
          "latitude": 50.317298,
          "longitude": -4.084921
      },
      {
          "timestamp": 1409405142,
          "latitude": 50.317292,
          "longitude": -4.084918
      },
      {
          "timestamp": 1409405143,
          "latitude": 50.317281,
          "longitude": -4.084918
      },
      {
          "timestamp": 1409405144,
          "latitude": 50.317265,
          "longitude": -4.084919
      },
      {
          "timestamp": 1409405145,
          "latitude": 50.317249,
          "longitude": -4.084918
      },
      {
          "timestamp": 1409405146,
          "latitude": 50.317235,
          "longitude": -4.084912
      },
      {
          "timestamp": 1409405147,
          "latitude": 50.317222,
          "longitude": -4.084905
      },
      {
          "timestamp": 1409405148,
          "latitude": 50.317211,
          "longitude": -4.084901
      },
      {
          "timestamp": 1409405149,
          "latitude": 50.317201,
          "longitude": -4.084897
      },
      {
          "timestamp": 1409405150,
          "latitude": 50.317189,
          "longitude": -4.084898
      },
      {
          "timestamp": 1409405151,
          "latitude": 50.317174,
          "longitude": -4.0849
      },
      {
          "timestamp": 1409405152,
          "latitude": 50.31716,
          "longitude": -4.084901
      },
      {
          "timestamp": 1409405153,
          "latitude": 50.317153,
          "longitude": -4.084893
      },
      {
          "timestamp": 1409405154,
          "latitude": 50.317145,
          "longitude": -4.084885
      },
      {
          "timestamp": 1409405155,
          "latitude": 50.317134,
          "longitude": -4.084884
      },
      {
          "timestamp": 1409405156,
          "latitude": 50.317125,
          "longitude": -4.084883
      },
      {
          "timestamp": 1409405157,
          "latitude": 50.317117,
          "longitude": -4.084884
      },
      {
          "timestamp": 1409405158,
          "latitude": 50.317109,
          "longitude": -4.084883
      },
      {
          "timestamp": 1409405159,
          "latitude": 50.317105,
          "longitude": -4.084886
      },
      {
          "timestamp": 1409405160,
          "latitude": 50.317098,
          "longitude": -4.084895
      },
      {
          "timestamp": 1409405161,
          "latitude": 50.3171,
          "longitude": -4.084893
      },
      {
          "timestamp": 1409405162,
          "latitude": 50.317105,
          "longitude": -4.084885
      },
      {
          "timestamp": 1409405163,
          "latitude": 50.317103,
          "longitude": -4.084881
      },
      {
          "timestamp": 1409405164,
          "latitude": 50.317103,
          "longitude": -4.084882
      },
      {
          "timestamp": 1409405165,
          "latitude": 50.317104,
          "longitude": -4.084882
      },
      {
          "timestamp": 1409405166,
          "latitude": 50.317113,
          "longitude": -4.084886
      },
      {
          "timestamp": 1409405167,
          "latitude": 50.317126,
          "longitude": -4.084885
      },
      {
          "timestamp": 1409405168,
          "latitude": 50.317145,
          "longitude": -4.084878
      },
      {
          "timestamp": 1409405169,
          "latitude": 50.317166,
          "longitude": -4.08486
      },
      {
          "timestamp": 1409405170,
          "latitude": 50.317179,
          "longitude": -4.084847
      },
      {
          "timestamp": 1409405171,
          "latitude": 50.317184,
          "longitude": -4.084845
      },
      {
          "timestamp": 1409405172,
          "latitude": 50.317188,
          "longitude": -4.084849
      },
      {
          "timestamp": 1409405173,
          "latitude": 50.317191,
          "longitude": -4.084859
      },
      {
          "timestamp": 1409405174,
          "latitude": 50.317191,
          "longitude": -4.084875
      },
      {
          "timestamp": 1409405175,
          "latitude": 50.317189,
          "longitude": -4.08489
      },
      {
          "timestamp": 1409405176,
          "latitude": 50.317186,
          "longitude": -4.0849
      },
      {
          "timestamp": 1409405177,
          "latitude": 50.317178,
          "longitude": -4.084913
      },
      {
          "timestamp": 1409405178,
          "latitude": 50.317166,
          "longitude": -4.084926
      },
      {
          "timestamp": 1409405179,
          "latitude": 50.317155,
          "longitude": -4.084939
      },
      {
          "timestamp": 1409405180,
          "latitude": 50.317144,
          "longitude": -4.084951
      },
      {
          "timestamp": 1409405181,
          "latitude": 50.317141,
          "longitude": -4.084953
      },
      {
          "timestamp": 1409405182,
          "latitude": 50.317142,
          "longitude": -4.084952
      },
      {
          "timestamp": 1409405183,
          "latitude": 50.317137,
          "longitude": -4.084958
      },
      {
          "timestamp": 1409405184,
          "latitude": 50.317125,
          "longitude": -4.084966
      },
      {
          "timestamp": 1409405185,
          "latitude": 50.31711,
          "longitude": -4.084979
      },
      {
          "timestamp": 1409405186,
          "latitude": 50.3171,
          "longitude": -4.084991
      },
      {
          "timestamp": 1409405187,
          "latitude": 50.31709,
          "longitude": -4.084999
      },
      {
          "timestamp": 1409405188,
          "latitude": 50.317079,
          "longitude": -4.085006
      },
      {
          "timestamp": 1409405189,
          "latitude": 50.31707,
          "longitude": -4.085013
      },
      {
          "timestamp": 1409405190,
          "latitude": 50.31706,
          "longitude": -4.085018
      },
      {
          "timestamp": 1409405191,
          "latitude": 50.317047,
          "longitude": -4.085027
      },
      {
          "timestamp": 1409405192,
          "latitude": 50.317033,
          "longitude": -4.085039
      },
      {
          "timestamp": 1409405193,
          "latitude": 50.31702,
          "longitude": -4.085049
      },
      {
          "timestamp": 1409405194,
          "latitude": 50.317015,
          "longitude": -4.085048
      },
      {
          "timestamp": 1409405195,
          "latitude": 50.317017,
          "longitude": -4.085045
      },
      {
          "timestamp": 1409405196,
          "latitude": 50.317016,
          "longitude": -4.085045
      },
      {
          "timestamp": 1409405198,
          "latitude": 50.317015,
          "longitude": -4.085046
      },
      {
          "timestamp": 1409405200,
          "latitude": 50.317016,
          "longitude": -4.085044
      },
      {
          "timestamp": 1409405202,
          "latitude": 50.317016,
          "longitude": -4.085045
      },
      {
          "timestamp": 1409405204,
          "latitude": 50.317017,
          "longitude": -4.085042
      },
      {
          "timestamp": 1409405205,
          "latitude": 50.317017,
          "longitude": -4.085042
      },
      {
          "timestamp": 1409405206,
          "latitude": 50.317015,
          "longitude": -4.085045
      },
      {
          "timestamp": 1409405207,
          "latitude": 50.317012,
          "longitude": -4.085047
      },
      {
          "timestamp": 1409405208,
          "latitude": 50.317013,
          "longitude": -4.085046
      },
      {
          "timestamp": 1409405210,
          "latitude": 50.31701,
          "longitude": -4.085045
      },
      {
          "timestamp": 1409405211,
          "latitude": 50.317018,
          "longitude": -4.085038
      },
      {
          "timestamp": 1409405212,
          "latitude": 50.317021,
          "longitude": -4.085034
      },
      {
          "timestamp": 1409405213,
          "latitude": 50.317025,
          "longitude": -4.08503
      },
      {
          "timestamp": 1409405214,
          "latitude": 50.317031,
          "longitude": -4.085025
      },
      {
          "timestamp": 1409405215,
          "latitude": 50.317033,
          "longitude": -4.085017
      },
      {
          "timestamp": 1409405216,
          "latitude": 50.31703,
          "longitude": -4.085014
      },
      {
          "timestamp": 1409405217,
          "latitude": 50.317026,
          "longitude": -4.085016
      },
      {
          "timestamp": 1409405218,
          "latitude": 50.317022,
          "longitude": -4.08502
      },
      {
          "timestamp": 1409405219,
          "latitude": 50.317018,
          "longitude": -4.085024
      },
      {
          "timestamp": 1409405220,
          "latitude": 50.317019,
          "longitude": -4.085022
      },
      {
          "timestamp": 1409405221,
          "latitude": 50.317019,
          "longitude": -4.085022
      },
      {
          "timestamp": 1409405222,
          "latitude": 50.317019,
          "longitude": -4.085022
      },
      {
          "timestamp": 1409405223,
          "latitude": 50.31702,
          "longitude": -4.085022
      },
      {
          "timestamp": 1409405224,
          "latitude": 50.317018,
          "longitude": -4.085024
      },
      {
          "timestamp": 1409405225,
          "latitude": 50.317026,
          "longitude": -4.08502
      },
      {
          "timestamp": 1409405226,
          "latitude": 50.317035,
          "longitude": -4.08502
      },
      {
          "timestamp": 1409405227,
          "latitude": 50.317038,
          "longitude": -4.085027
      },
      {
          "timestamp": 1409405228,
          "latitude": 50.317043,
          "longitude": -4.085042
      },
      {
          "timestamp": 1409405229,
          "latitude": 50.31705,
          "longitude": -4.085055
      },
      {
          "timestamp": 1409405230,
          "latitude": 50.31706,
          "longitude": -4.085064
      },
      {
          "timestamp": 1409405231,
          "latitude": 50.317071,
          "longitude": -4.085069
      },
      {
          "timestamp": 1409405232,
          "latitude": 50.317081,
          "longitude": -4.085072
      },
      {
          "timestamp": 1409405233,
          "latitude": 50.317099,
          "longitude": -4.085065
      },
      {
          "timestamp": 1409405234,
          "latitude": 50.317127,
          "longitude": -4.085049
      },
      {
          "timestamp": 1409405235,
          "latitude": 50.317162,
          "longitude": -4.085025
      },
      {
          "timestamp": 1409405236,
          "latitude": 50.317197,
          "longitude": -4.084992
      },
      {
          "timestamp": 1409405237,
          "latitude": 50.31723,
          "longitude": -4.084959
      },
      {
          "timestamp": 1409405238,
          "latitude": 50.317262,
          "longitude": -4.08493
      },
      {
          "timestamp": 1409405239,
          "latitude": 50.317292,
          "longitude": -4.084907
      },
      {
          "timestamp": 1409405240,
          "latitude": 50.317321,
          "longitude": -4.084886
      },
      {
          "timestamp": 1409405241,
          "latitude": 50.317351,
          "longitude": -4.084865
      },
      {
          "timestamp": 1409405242,
          "latitude": 50.317377,
          "longitude": -4.084845
      },
      {
          "timestamp": 1409405243,
          "latitude": 50.317392,
          "longitude": -4.08483
      },
      {
          "timestamp": 1409405244,
          "latitude": 50.317396,
          "longitude": -4.084819
      },
      {
          "timestamp": 1409405245,
          "latitude": 50.3174,
          "longitude": -4.084821
      },
      {
          "timestamp": 1409405246,
          "latitude": 50.317403,
          "longitude": -4.084837
      },
      {
          "timestamp": 1409405247,
          "latitude": 50.317399,
          "longitude": -4.084856
      },
      {
          "timestamp": 1409405248,
          "latitude": 50.317392,
          "longitude": -4.084874
      },
      {
          "timestamp": 1409405249,
          "latitude": 50.317384,
          "longitude": -4.084888
      },
      {
          "timestamp": 1409405250,
          "latitude": 50.317376,
          "longitude": -4.084901
      },
      {
          "timestamp": 1409405251,
          "latitude": 50.317364,
          "longitude": -4.084912
      },
      {
          "timestamp": 1409405252,
          "latitude": 50.317353,
          "longitude": -4.08492
      },
      {
          "timestamp": 1409405253,
          "latitude": 50.317344,
          "longitude": -4.084925
      },
      {
          "timestamp": 1409405254,
          "latitude": 50.317332,
          "longitude": -4.084931
      },
      {
          "timestamp": 1409405255,
          "latitude": 50.317321,
          "longitude": -4.084937
      },
      {
          "timestamp": 1409405256,
          "latitude": 50.317311,
          "longitude": -4.084942
      },
      {
          "timestamp": 1409405257,
          "latitude": 50.317297,
          "longitude": -4.084951
      },
      {
          "timestamp": 1409405258,
          "latitude": 50.317282,
          "longitude": -4.084961
      },
      {
          "timestamp": 1409405259,
          "latitude": 50.317268,
          "longitude": -4.084966
      },
      {
          "timestamp": 1409405260,
          "latitude": 50.317256,
          "longitude": -4.084971
      },
      {
          "timestamp": 1409405261,
          "latitude": 50.317245,
          "longitude": -4.084975
      },
      {
          "timestamp": 1409405262,
          "latitude": 50.317234,
          "longitude": -4.084978
      },
      {
          "timestamp": 1409405263,
          "latitude": 50.317225,
          "longitude": -4.084978
      },
      {
          "timestamp": 1409405264,
          "latitude": 50.317215,
          "longitude": -4.084981
      },
      {
          "timestamp": 1409405265,
          "latitude": 50.317204,
          "longitude": -4.084985
      },
      {
          "timestamp": 1409405266,
          "latitude": 50.317195,
          "longitude": -4.084984
      }
  ]
}
