{
  "startTimestamp": 1537738482000,
  "endTimestamp": 1537738925000,
  "visibility": "public",
  "waveCount": 4,
  "speedMax": 17.5,
  "distancePaddled": 1026.83,
  "distanceWaves": 839.19,
  "distanceLongestWave": 544.63,
  "deviceType": "iOS",
  "surfline_id": 12314124,
  "events": [
    {
      "startTimestamp": 1537738582000,
      "endTimestamp": 1537738915000,
      "type": "WAVE",
      "distance": 75.7,
      "speedMax": 25.31,
      "speedAverage": 19.47,
      "positions": [
        {
          "timestamp": 1537738582000,
          "latitude": 33.798788,
          "longitude": -118.177443
        }
      ]
    },
    {
      "startTimestamp": 1537738682000,
      "endTimestamp": 1537738905000,
      "type": "PADDLE",
      "distance": 73.9,
      "speedMax": 23.69,
      "speedAverage": 17.74,
      "positions": [
        {
          "timestamp": 1537738682000,
          "latitude": 33.798799,
          "longitude": -118.178355
        }
      ]
    }
  ]
}
