{
  "imageName": "services/science-models-db",
  "compose": "science-models-db",
  "serviceName": "wt-science-models-db",
  "cluster": "wt-science-models-db",
  "secrets": {
    "common": {
      "prefix": "/{env}/common/",
      "secrets": [
        "APP_ENV",
        "AWS_REGION",
        "EXPRESS_PORT",
        "NEW_RELIC_ATTRIBUTES_EXCLUDE",
        "NEW_RELIC_IGNORING_RULES",
        "NEW_RELIC_LICENSE_KEY",
        "NEW_RELIC_LOG_LEVEL"
      ]
    },
    "service": {
      "prefix": "/{env}/services/science-models-db/",
      "secrets": [
        "SCIENCE_BUCKET",
        "SCIENCE_DATA_SERVICE",
        "SMDB_BACKUP_PREFIX",
        "SMDB_CHECKPOINT_TABLE",
        "SMDB_INVENTORY_TABLE",
        "SMDB_STREAM_NAME"
      ]
    }
  },
  "projectBase": "wt",
  "taskRoleArn": {
    "sandbox": "arn:aws:iam::665294954271:role/science_models_db_task_role_sandbox",
    "prod": "arn:aws:iam::833713747344:role/science_models_db_task_role_prod"
  },
  "newRelic": {
    "applicationId": {
      "sandbox": 375422381,
      "prod": 173533526
    }
  }
}
