[{
  "city": {
    "name": "A Smaller Entity with 2 spots",
    "taxonomyId": "someCityTaxonomyId",
    "type": "geoname"
  },
  "spots": [
    {
      "name": "a spot",
      "_id": "sampleTaxonomyObjectId1",
      "associated": { "links": [{ "key": "www", "href": "http://some.taxonomy.url" }] }
    },
    {
      "name": "another spot",
      "_id": "sampleTaxonomyObjectId2",
      "associated": { "links": [{ "key": "www", "href": "http://some.other.url" }] }
    }
  ]
}]
