[{
  "city": null,
  "subregions": [
    {
      "name": "a subregion",
      "_id": "sampleTaxonomyObjectId1",
      "associated": { "links": [{ "key": "www", "href": "http://some.taxonomy.url" }] }
    },
    {
      "name": "another subregion",
      "_id": "sampleTaxonomyObjectId2",
      "associated": { "links": [{ "key": "www", "href": "http://some.other.url" }] }
    },
    {
      "name": "a third subregion",
      "_id": "sampleTaxonomyObjectId3",
      "associated": { "links": [{ "key": "www", "href": "http://a.third.url" }] }
    }
  ]
}]