{
  "imageName": "admin-tools/search",
  "compose": "search",
  "serviceName": "sl-admin-search-service",
  "cluster": "sl-core-svc",
  "repository": "833713747344.dkr.ecr.us-west-1.amazonaws.com/admin-tools/search",
  "requireEnvironmentContainers": true,
  "secrets": {
    "common": {
      "prefix": "/{env}/common/",
      "secrets": [
        "NODE_ENV",
        "PORT"
      ]
    },
    "service": {
      "prefix": "/{env}/services/admin-search-service/",
      "secrets": []
    }
  },
  "taskRoleArn": {
    "sandbox": "arn:aws:iam::665294954271:role/admin_search_service_task_role_sandbox",
    "staging": "arn:aws:iam::665294954271:role/admin_search_service_task_role_staging",
    "prod": "arn:aws:iam::833713747344:role/admin_search_service_task_role_prod"
  },
  "newRelic": {
    "applicationId": {
      "prod": 25513579
    }
  }
}
