﻿App Name,App Apple ID,Subscription Name,Subscription Apple ID,Subscription Group ID,Standard Subscription Duration,Promotional Offer Name,Promotional Offer ID,Customer Price,Customer Currency,Developer Proceeds,Proceeds Currency,Preserved Pricing,Proceeds Reason,Client,Device,State,Country,Active Standard Price Subscriptions,Active Free Trial Introductory Offer Subscriptions,Active Pay Up Front Introductory Offer Subscriptions,Active Pay As You Go Introductory Offer Subscriptions,Free Trial Promotional Offer Subscriptions,Pay Up Front Promotional Offer Subscriptions,Pay As You Go Promotional Offer Subscriptions,Marketing Opt-Ins,Billing Retry,Grace Period
Buoyweather - Marine Forecasts,686664992,Buoyweather Premium Annual,1177263087,20360380,1 Year, , ,79.99,USD,67.99,USD,Yes,Rate After One Year,,iPhone,TN,US,7,0,0,0,0,0,0,0,0,0
Buoyweather - Marine Forecasts,686664992,Buoyweather Premium Annual,1177263087,20360380,1 Year, , ,79.99,USD,67.99,USD      ,Yes,Rate After One Year,,iPhone,TN,US,4,0,0,0,0,0,0,0,0,0
Buoyweather - Marine Forecasts,686664992,Buoyweather Premium Annual,1177263087,20360380,1 Year, , ,79.99,USD,67.99,USD,Yes,Rate After One Year,,iPad,TN,US,4,0,0,0,0,0,0,0,0,0
Buoyweather - Marine Forecasts,686664992,Buoyweather Premium Annual,1177263087,20360380,1 Year, , ,79.99,USD,67.99,USD      ,Yes,Rate After One Year,,iPad,TN,US,1,0,0,0,0,0,0,0,0,0
