<?xml version="1.0" encoding="UTF-8" standalone="no"?>
<svg width="145px" height="31px" viewBox="0 0 145 31" version="1.1" xmlns="http://www.w3.org/2000/svg" xmlns:xlink="http://www.w3.org/1999/xlink">
    <!-- Generator: Sketch 39.1 (31720) - http://www.bohemiancoding.com/sketch -->
    <title>Group</title>
    <desc>Created with Sketch.</desc>
    <defs>
        <polygon id="path-1" points="29.9985076 6.47464768e-15 0 6.47464768e-15 0 30.2128212 29.9985076 30.2128212 29.9985076 0"></polygon>
    </defs>
    <g id="Page-1" stroke="none" stroke-width="1" fill="none" fill-rule="evenodd">
        <g id="Navigation" transform="translate(-363.000000, -721.000000)">
            <g id="Group" transform="translate(363.000000, 721.000000)">
                <path d="M75.0209434,16.0628265 C73.8924427,16.2992384 73.6504245,16.3947583 72.7718061,16.953948 C71.519249,17.7513404 70.8301558,18.0556112 70.2525364,19.1779705 C69.4971881,18.379185 69.2296115,17.3817977 68.493137,16.6725621 C67.6198269,15.8373597 66.4215322,15.379262 65.1176617,14.8642503 C63.6213169,14.2775987 62.2822545,13.5814971 60.9475174,13.0436005 C59.5241123,11.3755835 57.3630531,10.5646591 55.8321063,9.02061906 C55.6058163,9.05086704 55.5761293,8.84709117 55.3172033,8.91176613 C54.2801229,7.97348173 53.09677,7.20116323 51.8984753,6.45093371 C51.865446,6.55739864 52.0079831,6.81948147 51.8512906,6.81808847 C51.6037675,6.50665367 51.4264317,6.10765893 51,6 C52.0254808,9.29304988 54.0846996,10.731819 56.1480472,12.5807268 C56.9633594,13.3102603 57.6170641,14.3573976 58.5391317,14.7490294 C59.5361051,15.1721031 60.6164381,15.399958 61.5752705,15.8498967 C63.665356,16.827782 65.7703833,18.0329253 65.6939048,21.1090653 C65.1860795,21.3052792 64.5541977,21.7466609 64.6153412,22.2107286 C64.6182903,22.1645606 64.6200597,22.1237656 64.6812032,22.1329196 C64.6983077,22.7611622 63.78666,23.167122 62.8024658,23.143839 C62.6491155,23.2773679 62.4711899,23.8958595 62.7916527,24.0214284 C62.894476,23.2216479 64.0337898,23.3394558 64.749621,23.077174 C65.1123534,24.0532684 65.7528857,25.0918487 66.9635664,24.8206119 C67.151912,24.598727 66.9425299,24.3380372 67.0575426,24.1587383 C68.2827719,24.2604273 69.1543126,23.9259085 70.0539675,23.5794497 C70.6630433,23.3430378 71.1852206,22.8714081 71.7278447,22.7283272 C72.0968683,22.6351953 72.483193,22.8461352 72.7991339,22.5806693 C72.6729148,22.5717143 72.4466249,22.6771843 72.5030499,22.4556974 C73.5652954,22.0557077 74.6507401,22.0023757 75.8028332,22.1476456 C77.695726,22.3840575 79.8135326,22.6700208 81.6454785,23.0771746 C80.2047724,22.2371961 77.6762623,22.4047534 75.9982564,21.8409868 C78.644335,21.9502377 81.3147934,21.7908037 83.5417146,21.5945898 C80.8187643,21.1786801 77.1440582,22.1329196 74.8038938,21.2702552 C74.5575503,20.8869814 75.1591552,19.4955743 75.316241,19.2593615 C75.844513,18.447243 76.5684049,17.4399056 77.4776933,17.1306598 C77.6788181,17.0651889 77.9324359,17.1344408 78.1251067,17.0846909 C78.3608336,17.0231999 78.5800458,16.804499 78.8236368,16.7442021 C79.5054557,16.5720672 80.2010368,16.5844052 80.8134549,16.3099844 C81.0676624,16.2711794 80.5472545,16.1320785 80.7998893,16.0912835 C81.1651775,16.0717815 81.5379366,16.0570555 81.7223501,15.8801446 C81.6454784,15.8894976 81.5379366,15.8582547 81.6454784,15.8134797 C82.4073147,15.7320887 82.77103,15.297871 83.5562621,15.2375741 C83.7750811,15.0726032 83.3455037,15.1078261 83.5417134,15.0202662 C84.8611156,14.7452484 85.325295,14.0288488 86.6354568,13.8497489 C86.6653405,13.6143321 86.3724021,13.769751 86.5448229,13.5637861 C86.9276087,13.5809001 87.1607798,13.4666742 87.474558,13.4240882 C87.7421346,12.9536525 88.9689367,12.9659905 89,12.5140618 C87.0966872,13.3490653 84.5683738,13.797412 82.0491042,14.3231696 C79.5850799,14.8375843 77.1631287,15.6154748 75.0209434,16.0628265 Z" id="Fill-1" fill="#FFFFFF" transform="translate(70.000000, 15.432200) scale(-1, 1) translate(-70.000000, -15.432200) "></path>
                <path d="M11.3087745,25.6690598 C10.6693891,25.6604971 10.0509815,25.5744427 9.46272939,25.4186028 C12.665338,24.6539597 15.0607388,21.8458443 15.1070648,18.4725953 C15.1197389,17.4707673 15.9588503,16.669733 16.9819544,16.6842895 C18.0024362,16.6979897 18.8192587,17.5195743 18.8057106,18.5188335 C18.7497698,22.5231486 15.3941982,25.7221481 11.3087745,25.6690598 L11.3087745,25.6690598 Z M5.83575769,20.1620027 C4.81309065,20.147018 3.99583109,19.3275741 4.00981628,18.3266024 C4.06488297,14.3227154 7.42045456,11.1224315 11.5067524,11.1768042 C12.1448267,11.1836543 12.7641084,11.2722776 13.3536715,11.4285456 C10.1497519,12.191048 7.75522506,14.9965946 7.70846208,18.374125 C7.69535096,19.3750967 6.85623954,20.1757029 5.83575769,20.1620027 L5.83575769,20.1620027 Z M21.7434746,13.6984995 C20.4642667,10.4870842 11.4066708,0 11.4066708,0 C11.4066708,0 2.34776382,10.4870842 1.06986706,13.6984995 C0.384155696,15.1335967 0,16.7343809 0,18.4212195 C0,24.5935931 5.10677964,29.5945986 11.4066708,29.5945986 C17.706125,29.5945986 22.8124676,24.5935931 22.8124676,18.4212195 C22.8124676,16.7343809 22.4283119,15.1335967 21.7434746,13.6984995 L21.7434746,13.6984995 Z" id="Fill-1" fill="#FFFFFF"></path>
                <g id="Group-2" transform="translate(115.000000, 0.000000)">
                    <g id="Page-1">
                        <g id="Group-3">
                            <mask id="mask-2" fill="white">
                                <use xlink:href="#path-1"></use>
                            </mask>
                            <g id="Clip-2"></g>
                            <path d="M15.0011244,28.7038031 C15.1666448,28.6966557 15.3519641,28.6863332 15.5374264,28.6810509 C16.3726706,28.6573875 17.1970582,28.5451786 18.0087035,28.3533941 C20.7774802,27.6990344 23.1202495,26.3165343 25.0119983,24.2009246 C27.1288645,21.8335746 28.2694936,19.0496236 28.4754548,15.8872577 C28.530752,15.0383513 28.4999107,14.1893453 28.3915589,13.3448527 C28.2503802,12.2446189 27.986979,11.173943 27.5813992,10.1402002 C26.5479363,7.50606042 24.866977,5.37871871 22.5252505,3.78089876 C20.516736,2.41041538 18.2879611,1.65687448 15.8607817,1.48896692 C15.2238991,1.44492909 14.5866593,1.45246094 13.9493053,1.50190917 C13.2743674,1.55426193 12.6067434,1.6512078 11.9485333,1.80585988 C9.59902149,2.35783482 7.5313814,3.44701999 5.78489677,5.10674633 C3.00700626,7.74665247 1.5852055,10.9985321 1.46938268,14.8178774 C1.45618334,15.2530589 1.48631042,15.6901909 1.51019494,16.1256713 C1.54766451,16.8088628 1.65443063,17.4836538 1.81130855,18.1489767 C2.50071714,21.0726727 3.97407249,23.5314158 6.26694424,25.4815099 C8.77226258,27.6122687 11.6914461,28.6617586 15.0011244,28.7038031 M14.4849929,-4.2713707e-06 L15.5706533,-4.2713707e-06 C15.6167367,0.00781233617 15.6625773,0.0205837332 15.7089178,0.0227051804 C16.3561142,0.052191873 16.9990109,0.122598293 17.6364506,0.236387596 C18.9879263,0.477648825 20.2819763,0.896997718 21.5170863,1.49543093 C25.4060644,3.3797032 28.3395758,6.9098768 29.4725195,11.0751604 C29.7507485,12.0981394 29.9401677,13.136538 29.9753231,14.199084 C29.9766944,14.2407014 29.990508,14.2819201 29.9985076,14.3233239 L29.9985076,15.9179688 C29.9911651,15.9398098 29.9784086,15.9614087 29.9774087,15.9835344 C29.9711518,16.1209443 29.9738374,16.2590093 29.9620094,16.395864 C29.8904844,17.2238549 29.7585053,18.0420501 29.5522727,18.8477586 C28.8723493,21.5040668 27.5718425,23.8143371 25.6450669,25.7695711 C24.0526603,27.3854874 22.1840817,28.5796059 20.0455309,29.3489081 C18.7219252,29.8250093 17.3568502,30.1057949 15.9514343,30.1889443 C15.9098936,30.1914074 15.8689956,30.2046202 15.8277833,30.2128212 L14.2278629,30.2128212 C14.1862364,30.204905 14.1448956,30.1921051 14.1029548,30.1897701 C13.2025281,30.1395245 12.3152436,30.0026271 11.4405014,29.7856842 C9.20935515,29.2323282 7.21319721,28.2159557 5.45177047,26.745451 C3.78185347,25.3513612 2.47603265,23.6719296 1.52777978,21.7173364 C0.92363838,20.4720184 0.503044998,19.166773 0.25944282,17.8053307 C0.153276668,17.2120089 0.0807802709,16.6143873 0.0493532614,16.0119532 C0.0432392795,15.8946614 0.0169691566,15.7784089 -1.42850104e-06,15.6616866 L-1.42850104e-06,14.5796062 C0.0172120017,14.453914 0.0431535695,14.3287059 0.0501389366,14.2024584 C0.0856371723,13.5621515 0.166004607,12.927668 0.283227352,12.2973988 C0.527386646,10.9844508 0.937694824,9.72496607 1.52129439,8.523572 C2.68477942,6.12847233 4.35698203,4.16116462 6.55320144,2.64616655 C8.89264232,1.03240015 11.4896561,0.16405906 14.331372,0.0226339909 C14.3828266,0.0200711688 14.4337955,0.00775538457 14.4849929,-4.2713707e-06" id="Fill-1" fill="#FFFFFF" mask="url(#mask-2)"></path>
                        </g>
                        <path d="M25.3103078,8.64794718 C25.2341258,8.65950836 25.1637579,8.66842128 25.0940757,8.68109302 C24.8637443,8.72299516 24.6938098,8.8495701 24.5813154,9.05260256 C24.5315465,9.14244372 24.4812918,9.22824131 24.4904342,9.34277098 C24.5010623,9.47546822 24.4253518,9.57931946 24.3167572,9.65137748 C24.2339184,9.70635002 24.1408945,9.7459029 24.0570129,9.79952284 C23.9615034,9.86054648 23.8648082,9.92239592 23.7800553,9.99683167 C23.6600469,10.1022491 23.6418764,10.2307461 23.7007735,10.3840171 C23.7581706,10.5333158 23.7914547,10.6919829 23.8322384,10.8473611 C23.8402808,10.8779726 23.8414522,10.9141227 23.8334669,10.9445063 C23.8071825,11.0445846 23.7393287,11.0727329 23.6524187,11.0151121 C23.6020641,10.9817385 23.557752,10.9365189 23.5182111,10.8902742 C23.4317869,10.7892563 23.3519622,10.6826429 23.2660808,10.5811409 C23.1675571,10.4647176 23.0409777,10.3925314 22.8910709,10.3629735 C22.7710197,10.3393101 22.6504971,10.3181099 22.5372885,10.2971232 C22.5225606,10.3193486 22.5142182,10.3263679 22.5131611,10.3343269 C22.4959048,10.4669102 22.4551068,10.4949731 22.2929863,10.4751397 C22.1146523,10.4533415 21.9334185,10.4510634 21.7533417,10.4488281 C21.652461,10.4475751 21.5728364,10.5052386 21.5084967,10.5791191 C21.2812937,10.8400144 21.1427578,11.3794885 21.4360575,11.7995065 C21.5087539,11.9035998 21.6084918,11.9606511 21.7371996,11.9626586 C21.9077055,11.9653069 22.0644977,11.9418143 22.1892629,11.8019554 C22.2675019,11.71425 22.3680969,11.6459792 22.4607637,11.5716147 C22.4976047,11.5420568 22.5380027,11.5151756 22.5805006,11.4947727 C22.6561111,11.4584519 22.7307931,11.4738715 22.796047,11.5207996 C22.8524156,11.5613349 22.8392449,11.6262028 22.8255027,11.6786552 C22.7894902,11.816051 22.744921,11.9512398 22.7023945,12.0868701 C22.6813527,12.1539875 22.6572682,12.2201795 22.6274983,12.3074721 C22.7094513,12.3035709 22.7739195,12.3015349 22.8382449,12.297292 C23.2162261,12.2722618 23.3778895,12.4475731 23.3297062,12.8196236 C23.3171783,12.9164129 23.3213495,13.0183278 23.3366202,13.1149462 C23.3538622,13.2239516 23.4314726,13.2893462 23.5427099,13.3015766 C23.6080924,13.3087525 23.6767747,13.3127818 23.7407001,13.3007935 C23.88555,13.2736418 24.0240146,13.2891469 24.1618791,13.3346655 C24.2018914,13.3478782 24.2440179,13.3547409 24.2964867,13.3672133 C24.4036671,13.1910762 24.5448887,13.0553606 24.7386076,12.9801417 C24.9316123,12.9052219 25.2406255,12.860401 25.5042838,12.8758491 C25.5176975,12.9059908 25.5339967,12.9392078 25.5474531,12.9735638 C25.6011647,13.1107033 25.6009219,13.1135082 25.7548143,13.1096212 C26.0260579,13.1027728 26.2972159,13.0922225 26.5684024,13.0836086 C26.5867158,13.0830248 26.6051291,13.0857015 26.6286851,13.0871823 C26.6823253,13.2922935 26.7988195,13.4572111 26.9461408,13.6025943 C27.0652777,13.7201709 27.1984139,13.8012984 27.3768908,13.78679 C27.4353736,13.7820203 27.4958706,13.8019676 27.5570818,13.8108663 C27.569924,13.9466389 27.584209,14.0688286 27.5925943,14.1914169 C27.6331066,14.7840126 27.634778,15.3770496 27.5919229,15.9692893 C27.4678863,17.6832478 27.0262368,19.3113518 26.2515324,20.8480912 C26.2323762,20.8860779 26.2110487,20.9234239 26.1868214,20.9583922 C26.0599705,21.1415058 25.931734,21.3236513 25.8043118,21.5063805 C25.7798987,21.5413915 25.7510144,21.5746797 25.7960979,21.6184185 C25.8057831,21.6278156 25.7999692,21.6643073 25.7896554,21.6812646 C25.5500673,22.0743588 25.2967227,22.458113 25.0145939,22.8183176 C24.5553882,22.7143952 24.2656311,22.1245332 24.5112618,21.7174716 C24.4893771,21.6970829 24.4664211,21.6757261 24.4372369,21.6485602 C24.5140045,21.3249612 24.5934291,20.9984291 24.6686682,20.670929 C24.7758486,20.2044668 24.8991711,19.740596 24.9800813,19.2695493 C25.06502,18.7749531 25.1143175,18.2738787 25.166872,17.7743419 C25.1947849,17.5089332 25.0915615,17.3562033 24.852002,17.2466853 C24.7115947,17.1824724 24.586558,17.0952795 24.4897486,16.9752682 C24.415438,16.8831632 24.3410559,16.7881253 24.2859015,16.6842598 C24.1029106,16.3396314 23.8950924,16.0109637 23.6676608,15.694384 C23.6141206,15.6198628 23.6011499,15.5522612 23.6255772,15.4583053 C23.6598184,15.3267044 23.6728463,15.1873296 23.6771032,15.0507312 C23.6847171,14.8059959 23.7595991,14.6025505 23.9516467,14.4357678 C24.1618791,14.2531524 24.2021914,14.00248 24.0882542,13.7485185 C24.0669981,13.701149 24.0404852,13.6555878 24.0118295,13.6121906 C23.9861307,13.5732927 23.954118,13.5385237 23.9161485,13.4909834 C23.8876785,13.5270622 23.8660653,13.5550255 23.8438235,13.5825046 C23.7516281,13.6964221 23.661404,13.727062 23.530382,13.6609839 C23.4299584,13.6103112 23.3360773,13.5416418 23.2508244,13.4677614 C23.1724569,13.3998039 23.1075458,13.315843 23.0401635,13.2360111 C22.9219122,13.0959101 22.7816049,12.9841284 22.6174988,12.9028584 C22.4556497,12.822699 22.2906579,12.7486904 22.1303515,12.6656407 C22.055341,12.6267713 21.982616,12.5793591 21.9185192,12.5245859 C21.792954,12.4173033 21.6623177,12.3754866 21.497283,12.4297187 C21.4304435,12.451702 21.3437335,12.4475019 21.2755083,12.4257891 C20.92614,12.3145911 20.5863568,12.1786476 20.26353,12.0030658 C20.0984954,11.9133101 20.0037715,11.7895258 20.0256847,11.5892127 C20.0315844,11.5351372 20.0082999,11.4610289 19.971116,11.421832 C19.7062863,11.142641 19.4344427,10.8700421 19.1643132,10.5958629 C19.1589992,10.5904809 19.1473998,10.5912213 19.1159014,10.5835328 C19.1535281,10.6523019 19.1807124,10.7102644 19.2152821,10.7634287 C19.2773933,10.8589366 19.3495897,10.9482936 19.4068012,11.046464 C19.4516561,11.1234056 19.484283,11.2083774 19.513453,11.2928366 C19.5214383,11.3159305 19.5055534,11.3621609 19.4856401,11.3755161 C19.4668839,11.3880597 19.4171721,11.3824072 19.4001872,11.3655923 C19.1504139,11.1182087 18.9003692,10.8708964 18.6591241,10.615383 C18.602984,10.5559256 18.576971,10.4670811 18.5413585,10.3897977 C18.4997034,10.2994013 18.4674622,10.2045057 18.4227358,10.1157751 C18.332426,9.93661958 18.1918759,9.81387464 17.9907001,9.77588792 C17.9173181,9.76203445 17.8731203,9.72417587 17.8346079,9.66594285 C17.7587974,9.55129928 17.680587,9.43815068 17.6007195,9.32625502 C17.4331421,9.09144355 17.3026629,8.84266471 17.2694931,8.54973414 C17.2531082,8.4048635 17.2715644,8.26534631 17.307377,8.12758038 C17.3344899,8.02325928 17.3368041,7.9218 17.3079484,7.81921593 C17.27485,7.70159663 17.2254667,7.60401006 17.0948589,7.55599986 C16.9569944,7.50531293 16.8669131,7.38856214 16.7814174,7.27309277 C16.7023213,7.1662658 16.6267394,7.05661972 16.5434721,6.95313866 C16.4787039,6.87263757 16.3996935,6.80670185 16.2713427,6.76240774 C16.3116264,6.89157398 16.3443962,6.99666392 16.3847514,7.12601525 C16.2090173,7.02724693 16.0790237,6.93323407 15.9922709,6.77191866 C15.792038,6.39962603 15.5018238,6.12089064 15.0832446,5.9990854 C14.866384,5.93598303 14.6452521,5.91546621 14.4195062,5.93659526 C14.3397387,5.94408439 14.2575857,5.94461119 14.1782468,5.93464466 C13.9729284,5.90884559 13.7703527,5.91661948 13.5680628,5.95880638 C13.4187702,5.98991619 13.3035045,6.05711909 13.25105,6.2113725 C13.2369221,6.25290446 13.2023953,6.29564664 13.1653828,6.31972293 C13.0747445,6.37862512 12.9771922,6.42697704 12.8696689,6.48664808 C12.8500128,6.38753805 12.8337707,6.30557046 12.8168573,6.22034238 C12.8034294,6.22192279 12.7856303,6.21850569 12.7778878,6.22575278 C12.4973589,6.48775863 12.1543188,6.61766524 11.7868085,6.70061525 C11.4537393,6.77576289 11.1223844,6.85847086 10.7783443,6.94070897 C10.7742159,6.9300875 10.7650164,6.90633868 10.752917,6.87502954 C10.8118141,6.85021287 10.8632972,6.82733257 10.9156803,6.80667337 C11.3712863,6.62696259 11.827335,6.44834812 12.2823124,6.26707117 C12.3256246,6.24981484 12.4035492,6.25364483 12.3904785,6.17999217 C12.3774934,6.10678088 12.3059684,6.1355984 12.2588422,6.1345875 C12.1025071,6.13125584 11.9460577,6.13333457 11.7870085,6.13333457 C11.7632382,6.07038881 11.7435106,6.01812148 11.716112,5.94553666 C11.4607818,5.93108519 11.1982234,5.91622082 10.9003382,5.89933467 C11.1311839,5.68773099 11.3357737,5.50017512 11.5570627,5.29734199 C11.4552107,5.26751358 11.3745147,5.24319525 11.293433,5.22031494 C11.1835956,5.18930479 11.0725868,5.1621104 10.9640208,5.12727026 C10.933308,5.11740339 10.8935243,5.09117718 10.8856247,5.06433874 C10.8690827,5.00822717 10.9233514,4.99803283 10.963178,4.98426478 C11.0755153,4.94540955 11.1882239,4.90765064 11.3004469,4.86846794 C11.3439591,4.85329033 11.3865427,4.83549296 11.4615246,4.80654731 C11.3151462,4.75022217 11.1987377,4.70544397 11.0809721,4.66015321 C11.0991427,4.56813366 11.155597,4.52591828 11.2354359,4.50595674 C11.6505295,4.40213397 12.0646518,4.29432459 12.4811454,4.19651021 C12.5714552,4.17529574 12.6709645,4.18020781 12.7648027,4.18882174 C13.2192516,4.2304676 13.6735718,4.27420643 14.1272064,4.3237828 C14.4153493,4.35527704 14.7033064,4.39176878 14.9894207,4.43779991 C15.3291038,4.49245921 15.6624301,4.45042893 15.9973706,4.40078137 C16.2560006,4.36245294 16.5157449,4.3312577 16.775432,4.3007174 C16.8212725,4.29532124 16.8714986,4.30152896 16.9160535,4.31467055 C17.2302094,4.40725962 17.5512934,4.42985516 17.8767058,4.41913403 C18.0029567,4.41497656 18.1294504,4.41846484 18.292228,4.41846484 C18.1841619,4.29587652 18.1010661,4.20163585 18.0102849,4.09865312 C17.710914,4.40441204 17.4066006,4.25256482 17.087145,4.12913646 C17.1568559,3.98130434 17.2208384,3.84561714 17.2866066,3.70619962 L18.1358358,3.70619962 C18.1377214,3.69677413 18.1395785,3.68737711 18.1414641,3.67796586 L17.4806826,3.50333801 C17.479797,3.49264534 17.4789113,3.48196692 17.4780399,3.47128849 C17.6996003,3.40864173 17.9183609,3.33234082 18.1433783,3.28650902 C18.4878183,3.21634464 18.8365295,3.16688217 19.1835266,3.10924715 C19.3149058,3.08742045 19.4198862,3.16009069 19.5386661,3.22797701 C19.3618177,3.28435909 19.1849836,3.34074118 19.0045355,3.39827654 C19.1511139,3.52653155 19.2381381,3.53856257 19.3730171,3.43835623 C19.464584,3.37032754 19.5614935,3.34395895 19.6675025,3.37962489 C19.7700403,3.41412332 19.8708638,3.4563387 19.9671305,3.50544522 C20.0095427,3.52708683 20.0388412,3.57421428 20.0858246,3.62156954 C19.5005822,3.82258022 18.9253394,3.77747455 18.3431398,3.72459499 C18.3689242,3.7384627 18.3934373,3.75580446 18.4206788,3.76565709 C18.8635282,3.92574805 19.3139058,3.99431778 19.7784827,3.86940867 C19.8564217,3.84845048 19.931418,3.81674268 20.0091427,3.79483055 C20.1327365,3.75999041 20.1841054,3.78813874 20.227189,3.908449 C20.2367742,3.93521625 20.243331,3.96306559 20.2531591,3.98973317 C20.3308981,4.20053953 20.4344644,4.27259755 20.6603532,4.2735942 C20.7217787,4.27386472 20.7832185,4.27363692 20.83893,4.27363692 C20.8721712,4.20723135 20.8579148,4.17360143 20.8001319,4.15258628 C20.706308,4.11848651 20.6137412,4.08088422 20.5210744,4.04368058 C20.4828334,4.02831789 20.4456924,4.01016456 20.3802385,3.98079177 C20.5324595,3.91351769 20.6580533,3.85155435 20.7890182,3.80444113 C20.8238308,3.79192602 20.8805422,3.81608774 20.9180404,3.83856938 C21.3052783,4.07081802 21.6999586,4.29241671 22.0737543,4.54469807 C22.4160373,4.77572225 22.7354357,5.04046178 23.064148,5.29134783 C23.1041031,5.32184541 23.1392442,5.35860767 23.1810707,5.39649473 C23.0288069,5.47087352 22.974381,5.46523531 22.8729861,5.37046784 C22.8249742,5.32558998 22.7789764,5.27854796 22.7379642,5.2382547 C22.5307745,5.32766871 22.3334843,5.40952241 22.1390797,5.49765501 C21.9441465,5.58602966 21.7811689,5.71169337 21.6840451,5.91874093 C21.8379375,6.06927825 21.9900299,6.21172845 22.2109904,6.2636256 C22.5534448,6.34408398 22.8926994,6.43794022 23.233911,6.52378052 C23.3285634,6.54758629 23.4077309,6.58759479 23.4769703,6.66070641 C23.5479239,6.73562625 23.6359338,6.79448573 23.7223153,6.86514843 C23.894121,6.6531888 23.7893405,6.40298617 23.8437235,6.15722577 C23.9522467,6.27551425 23.9827166,6.41443344 24.0712836,6.52894888 C24.1311664,6.49546134 24.187535,6.46395286 24.2534317,6.42711941 C24.7671491,6.98634144 25.2291689,7.58417666 25.6433055,8.24189649 C25.5577955,8.25761513 25.4938272,8.26835051 25.4302732,8.28126429 C25.2790522,8.31204663 25.2399541,8.3743232 25.277338,8.52325165 C25.2875232,8.56378695 25.2986941,8.60408021 25.3103078,8.64794718" id="Fill-4" fill="#FFFFFF"></path>
                        <path d="M22.2914007,25.4336178 C20.6586104,26.6303561 18.8454862,27.3740017 16.8535424,27.6716877 C14.9322807,27.9588092 13.0425889,27.8089553 11.1897096,27.2273655 C11.1900667,27.2175841 11.1904381,27.2077884 11.190781,27.198007 C11.5370495,27.2081871 11.8835751,27.2131561 12.229515,27.2300138 C12.5747407,27.2468714 12.9195522,27.2598279 13.2324509,27.255343 C13.1479123,27.1539834 13.0568454,27.0411338 12.9617644,26.931744 C12.8568553,26.8110778 12.7247619,26.7616296 12.5649984,26.7942059 C12.5427138,26.7987335 12.5198149,26.8003139 12.4786884,26.8057101 C12.4934876,26.7481463 12.5045871,26.7051336 12.5196149,26.6466727 L13.9667716,26.6466727 C13.9767996,26.572536 13.9338589,26.5728207 13.8975179,26.5665276 C13.6258456,26.5195568 13.3541591,26.4726998 13.0824584,26.4259568 C12.8389562,26.3840547 12.5954111,26.3423376 12.3370668,26.298015 C12.3335813,26.2494638 12.3300529,26.2003288 12.3266102,26.152105 C12.4370762,26.1010479 12.5401282,26.0631751 12.6522655,26.0757472 C12.9695497,26.1113134 13.2809914,26.0704079 13.5849048,25.9884546 C14.0243116,25.8699525 14.4717036,25.8261283 14.923724,25.8016391 C15.2560361,25.7836424 15.587191,25.7440753 15.9195174,25.7265199 C16.1136791,25.7162686 16.3093694,25.7258507 16.5039169,25.7354471 C16.6100545,25.7406724 16.690679,25.7227469 16.766361,25.6354258 C16.9011257,25.479948 17.0864022,25.462236 17.2784641,25.4970477 C17.4046578,25.5199137 17.5288088,25.5620864 17.6556454,25.5712983 C17.8059807,25.582233 17.9585017,25.5712414 18.1095942,25.5620437 C18.3297547,25.5486316 18.5453869,25.5692338 18.7617618,25.6115916 C18.8719563,25.6331762 18.9887648,25.6300581 19.1020163,25.6251888 C19.2691223,25.6179844 19.4221147,25.6345858 19.5521797,25.7582847 C19.5873636,25.7917295 19.6579744,25.805284 19.7101432,25.8010269 C19.9749158,25.7794992 20.2389455,25.7491297 20.5032467,25.7218499 C20.5071893,25.7118691 20.5111177,25.7019168 20.5150461,25.6919361 C20.4459638,25.6269116 20.3768958,25.5618728 20.3013853,25.4907972 C20.446021,25.3516929 20.6128127,25.2708217 20.8006462,25.2598727 C20.964938,25.2503049 21.1365866,25.2520276 21.2954502,25.2892313 C21.6027063,25.3612039 21.9125338,25.4001303 22.2256468,25.4241069 C22.2476743,25.4258012 22.2694875,25.4303858 22.2914007,25.4336178" id="Fill-6" fill="#FFFFFF"></path>
                        <path d="M4.59179178,15.6627132 C4.56385032,15.7305141 4.54249423,15.7823258 4.51588127,15.8468804 C4.6717021,15.9847033 4.88530577,16.0470368 5.01255659,16.2209528 C4.90611902,16.3231382 4.79773869,16.3441391 4.66395963,16.2691196 C4.49422521,16.173925 4.31639119,16.0931107 4.14189986,16.0063734 C4.09554502,15.9833222 4.04869021,15.9612677 3.98979313,15.9328204 C3.89569781,16.0337386 3.80315955,16.1329768 3.70466445,16.238622 C3.76521858,16.3275804 3.81891591,16.4106443 3.87678446,16.4907325 C4.01939166,16.688141 4.1432855,16.8925688 4.19802564,17.1352823 C4.23743797,17.3101095 4.34174707,17.4546811 4.46419813,17.5833633 C4.54596549,17.669289 4.63834661,17.7451485 4.72004255,17.831117 C4.87672048,17.9960061 5.04246939,18.1547445 5.18027682,18.3344695 C5.38550948,18.6021278 5.41867926,18.9061497 5.30328499,19.2239539 C5.28227175,19.2818167 5.26198705,19.340847 5.23267422,19.3946663 C5.10335207,19.6320121 4.97611554,19.8707959 4.83786527,20.1029734 C4.71908546,20.3024464 4.54745113,20.4402835 4.31146286,20.4834243 C4.27972158,20.4892049 4.2402664,20.5004956 4.21526764,20.4878381 C4.07953153,20.4192399 3.9353387,20.4431453 3.79398858,20.4426755 C3.51430248,20.4417073 3.5147596,20.4434301 3.4054936,20.1927434 C2.96355842,19.1787913 2.66221626,18.1242896 2.49179616,17.0325131 C2.45979775,16.8275016 2.43949876,16.6206819 2.41085732,16.3912096 C2.57409207,16.4039098 2.71837061,16.4151293 2.8576494,16.4259358 C2.96644399,16.6482037 2.94940198,16.7425298 2.76032567,16.9384718 C2.98151467,17.0435902 3.1974468,17.146217 3.43103519,17.2572299 C3.50321732,16.8769356 3.57269958,16.5108934 3.64482456,16.1308838 C3.41362177,16.0747295 3.19383269,16.0213659 2.96150138,15.9649696 C3.0080705,15.8616309 3.05019697,15.7681591 3.09378052,15.6714268 C2.88053398,15.4836573 2.61479004,15.4218648 2.35367445,15.3432574 L2.35367445,14.7762899 C2.43072776,14.7933042 2.50249562,14.7969207 2.56324975,14.8245849 C2.9540589,15.002402 3.36732407,15.1152801 3.77323247,15.2496432 C3.94006703,15.304872 4.10414459,15.3683873 4.26913639,15.429055 C4.44298489,15.4929689 4.61933327,15.5193517 4.79979573,15.460834 C4.90169067,15.427802 4.9844437,15.3699392 5.03576972,15.2584137 C4.95410235,15.2146037 4.88022031,15.1750081 4.79991001,15.1319527 C4.81242368,15.1035054 4.82330885,15.0787599 4.84223648,15.0357899 C5.0306414,15.1341738 5.21357517,15.2297101 5.39788029,15.3259441 C5.32216977,15.4210818 5.00545694,15.6496001 4.9089046,15.6878431 C4.80389553,15.729432 4.70412906,15.7060391 4.59179178,15.6627132" id="Fill-8" fill="#FFFFFF"></path>
                        <path d="M5.37667135,7.49249312 C5.4646384,7.39326919 5.54889136,7.29038612 5.64188674,7.19610274 C5.70314084,7.13401126 5.71489739,7.07392732 5.68762732,6.99284247 C5.65447183,6.8943162 5.6327729,6.79191721 5.60717418,6.69092778 C5.58601809,6.60750792 5.59253205,6.53099344 5.6676426,6.47377132 C5.67138527,6.47093798 5.67435655,6.46706527 5.67748497,6.46350579 C5.88157482,6.23047407 6.09322145,6.00659732 6.40539165,5.89087166 C6.37940722,5.84904071 6.36377943,5.82389658 6.34125198,5.78764688 C6.46516011,5.6752956 6.58905395,5.559214 6.71696188,5.44770276 C7.15434014,5.0663833 7.61646003,4.71742659 8.10056454,4.39690297 C8.17308951,4.34887853 8.24164324,4.33670512 8.32721042,4.34380983 C8.65625121,4.37110389 8.97110699,4.44028585 9.28063446,4.56327284 C9.51255151,4.65543477 9.76608176,4.69360658 10.0100696,4.75555569 C10.2124881,4.80695451 10.4150209,4.85796891 10.6312388,4.91262821 C10.6122683,4.94543233 10.6010117,4.97486207 10.5814984,4.99710168 C10.3704374,5.23780763 10.11805,5.32883053 9.80193712,5.22391144 C9.64473065,5.17172953 9.48043882,5.14076209 9.34290279,5.10613552 C9.23255114,5.16106534 9.14259846,5.20584354 9.04313198,5.25536296 C9.09000108,5.33861196 9.137513,5.42297153 9.19186744,5.51947602 C9.10521461,5.53132195 9.03560378,5.54355231 8.96545013,5.54991665 C8.76557434,5.5680415 8.56848414,5.60228365 8.38307907,5.67919679 C8.09029362,5.80064608 7.78470881,5.86129954 7.4714958,5.89625359 C7.30133283,5.91524695 7.13378402,5.94936096 6.97857745,6.02855216 C6.88106801,6.07828515 6.8122,6.14192857 6.78591559,6.25717014 C6.7412321,6.45305517 6.62356652,6.60887476 6.47201691,6.73769929 C6.38530693,6.8114089 6.29119732,6.87639068 6.20183034,6.94708186 C6.07530805,7.0471743 5.94774296,7.14615619 5.82497764,7.25070509 C5.69455555,7.36176072 5.55719095,7.45854997 5.37667135,7.49249312" id="Fill-10" fill="#FFFFFF"></path>
                        <path d="M8.35456477,20.6295778 C8.3203379,20.5984538 8.28609675,20.5673724 8.25465545,20.5387827 C8.25715533,20.5233773 8.2553697,20.5115029 8.26045516,20.5062491 C8.39233432,20.369907 8.42353277,20.2706546 8.28085415,20.0647888 C8.23767058,20.002498 8.19412989,19.9400648 8.15670318,19.8743284 C8.13224725,19.8313441 8.11851936,19.7823088 8.09996314,19.7359787 C8.10811988,19.7297852 8.11626233,19.7235775 8.12441907,19.7174125 C8.17041678,19.7543598 8.21668591,19.7910366 8.26236935,19.8283969 C8.40566223,19.9455463 8.55109786,20.0602896 8.69086234,20.1814968 C8.75613053,20.238121 8.81929882,20.2753816 8.90765157,20.245126 C8.92407932,20.2395163 8.9441069,20.2443145 8.96472016,20.2443145 C8.99698999,20.3106773 8.97566247,20.3695937 8.94356407,20.421377 C8.88630977,20.5137525 8.82861264,20.6072528 8.75934465,20.6905872 C8.49412926,21.0097155 8.18788734,21.2854182 7.84704714,21.5226501 C7.80037803,21.5551268 7.7494377,21.58141 7.70208292,21.6129612 C7.63682902,21.6564579 7.57650344,21.6620534 7.50517842,21.6180298 C7.40878321,21.5585154 7.30538835,21.5103201 7.19249396,21.4506491 C7.22104968,21.4222302 7.23992017,21.3971715 7.26440467,21.3801288 C7.41621141,21.274569 7.57063231,21.1726256 7.72128196,21.0654142 C7.77472216,21.0273705 7.82274835,20.9805705 7.86830323,20.9330444 C7.9108154,20.8886649 7.94642791,20.8377786 7.98564025,20.7902241 C8.08076409,20.6748543 8.20208664,20.6248224 8.35456477,20.6295778" id="Fill-12" fill="#FFFFFF"></path>
                        <path d="M24.5825111,12.6340311 C24.6166522,12.4232748 24.6407653,12.2298234 24.6802205,12.0420517 C24.7281896,11.8137244 24.9996046,11.6729668 25.1663964,11.7842811 C25.2121941,11.8148451 25.2544063,11.8600927 25.2913473,11.9080376 C25.4123556,12.0651504 25.533421,12.3889877 25.5651623,12.6340311 L24.5825111,12.6340311 Z" id="Fill-14" fill="#FFFFFF"></path>
                        <path d="M24.6592373,12.1232426 C24.5695989,12.1354303 24.4898314,12.1532187 24.4097497,12.155712 C24.2467006,12.1607918 24.1087789,12.0784181 24.0177406,11.9031763 C23.9086889,11.6932508 23.7607676,11.6218367 23.5759768,11.6458026 C23.5004377,11.65559 23.42517,11.6709781 23.3494738,11.676002 C23.271392,11.6811562 23.189596,11.7135884 23.1075001,11.6374294 C23.2117521,11.4285274 23.3613446,11.3212387 23.5398643,11.2827406 C23.7232409,11.2431633 23.9019892,11.2782005 24.0619384,11.4060872 C24.219702,11.5322062 24.3716087,11.6708292 24.5259868,11.8041492 C24.6061828,11.8734049 24.6490806,11.970627 24.6592373,12.1232426" id="Fill-16" fill="#FFFFFF"></path>
                        <path d="M12.3043643,26.7854036 L12.3043643,27.1892295 C12.0033913,27.10365 11.7168236,27.0221511 11.4220552,26.9383311 C11.466506,26.7331612 11.5326436,26.5623205 11.6313977,26.4162626 C11.7262452,26.2759886 11.830859,26.2642148 11.9494328,26.3760934 C12.0033913,26.4269881 12.050413,26.4903678 12.1004219,26.5483193 C12.1681825,26.6268794 12.2357851,26.7056268 12.3043643,26.7854036" id="Fill-18" fill="#FFFFFF"></path>
                        <path d="M9.37384983,7.3763907 C9.68907702,7.23534825 9.9928762,7.09941958 10.3085605,6.95817033 L10.3085605,7.44461824 C10.0113181,7.57580914 9.71154733,7.70814689 9.39753436,7.84678285 C9.38944905,7.68624414 9.38230655,7.54422406 9.37384983,7.3763907" id="Fill-20" fill="#FFFFFF"></path>
                        <path d="M3.97071551,20.8339131 C4.24103403,20.7641692 4.49425701,20.6989026 4.75625571,20.6313504 C4.85328241,20.8293797 4.87647536,21.0224259 4.82974755,21.2198182 C4.79211836,21.3787137 4.68082637,21.4746841 4.51815278,21.5082354 C4.337035,21.5455895 4.22678775,21.4959838 4.15354284,21.3266165 C4.08721214,21.1731911 4.03649536,21.0132278 3.97071551,20.8339131" id="Fill-22" fill="#FFFFFF"></path>
                        <path d="M6.07677655,15.8051619 C6.36430512,15.9404362 6.61440697,16.088966 6.65459069,16.4479462 C6.52573995,16.388204 6.40650302,16.337873 6.29209442,16.2783159 C6.2025703,16.2317295 6.15175854,16.1514135 6.14073052,16.0503528 C6.13515936,15.9994808 6.12730261,15.9556566 6.05632043,15.9594723 L6.05632043,16.0854777 C5.98316692,16.1192643 5.93476932,16.0774618 5.89232858,16.0348193 C5.72527974,15.8669402 5.56077363,15.6965552 5.39009639,15.5217565 C5.41979492,15.4876995 5.44043675,15.4640361 5.47274943,15.4270033 C5.64756931,15.5911236 5.8187608,15.7518125 5.99866615,15.9206883 C6.02735044,15.8782593 6.05003502,15.8447148 6.07677655,15.8051619" id="Fill-24" fill="#FFFFFF"></path>
                        <path d="M9.03341098,17.9887626 C8.93112035,17.8513699 8.8425869,17.7324734 8.75802186,17.6188562 C8.88349937,17.4776256 8.99735509,17.3475153 9.11344068,17.2194081 C9.19889389,17.1251296 9.30229945,17.0695098 9.43142412,17.1180531 C9.51746314,17.1504029 9.61667352,17.1833142 9.63335976,17.2907722 C9.65074519,17.4027982 9.64227924,17.5046399 9.52963294,17.5852521 C9.36286502,17.7045979 9.21019442,17.8433386 9.03341098,17.9887626" id="Fill-26" fill="#FFFFFF"></path>
                        <path d="M26.9601429,12.9384897 C26.7367234,12.6420339 26.5135782,12.3459467 26.2904133,12.0498772 C26.5938172,12.1282707 26.8697368,12.2376179 27.073077,12.4494122 C27.2372379,12.6203681 27.1978628,12.7846873 26.9601429,12.9384897" id="Fill-28" fill="#FFFFFF"></path>
                        <path d="M7.98881732,17.5602803 C7.92846338,17.6180329 7.88037236,17.6640142 7.81417893,17.7273535 C7.58745607,17.5033554 7.36257923,17.2811735 7.10650823,17.0281612 C7.32249397,16.9596489 7.50434695,16.9019424 7.7035112,16.838741 C7.79730092,17.0759588 7.88856648,17.3067391 7.98881732,17.5602803" id="Fill-30" fill="#FFFFFF"></path>
                        <path d="M25.1864097,11.7550598 C24.8890562,11.9020796 24.7234593,11.8665113 24.5730204,11.6339153 C24.4459293,11.4374083 24.3665149,11.2196925 24.3041006,10.954312 C24.4378397,11.0243071 24.5117475,11.1158114 24.5983105,11.1890108 C24.6844329,11.2618498 24.7665505,11.3394152 24.8549756,11.4190033 C24.8308269,11.4795255 24.8094615,11.5330783 24.7842716,11.596164 C24.915007,11.6478342 25.0376529,11.69628 25.1864097,11.7550598" id="Fill-32" fill="#FFFFFF"></path>
                        <path d="M7.68958933,18.3499331 C7.65195272,18.411914 7.62341052,18.4589729 7.58021202,18.5301063 C7.32062645,18.2932144 7.07036078,18.0648171 6.80728024,17.8247303 C6.84410889,17.7654368 6.87819418,17.7105598 6.9211484,17.6414938 C7.18229355,17.8822384 7.42893273,18.1096208 7.68958933,18.3499331" id="Fill-34" fill="#FFFFFF"></path>
                        <path d="M7.93407251,25.9985132 C7.68066251,25.6988041 7.45822358,25.4356443 7.23578466,25.1725437 C7.24238506,25.1516626 7.24896665,25.1307816 7.25554824,25.1099006 C7.534476,25.2179191 7.82730032,25.2371119 8.11809375,25.4672768 C8.05620801,25.6459352 8.00176886,25.8030907 7.93407251,25.9985132" id="Fill-36" fill="#FFFFFF"></path>
                        <path d="M20.9903526,4.34795814 C20.7053081,4.28937437 20.4036674,4.5831611 20.1253812,4.10568793 C20.1941899,3.90476731 20.2553565,3.72622632 20.3342598,3.49585884 C20.5559136,3.72269269 20.7818162,3.95386609 21.0076903,4.18503948 C21.0019016,4.2393457 20.9961128,4.29365192 20.9903526,4.34795814" id="Fill-38" fill="#FFFFFF"></path>
                        <path d="M5.21762648,7.94034772 C4.91259297,8.24758967 4.63025081,8.53191299 4.33531739,8.82896023 C4.44262745,8.2926098 4.55944188,8.11206235 5.21762648,7.94034772" id="Fill-40" fill="#FFFFFF"></path>
                        <path d="M23.5675953,5.46930735 C23.7379353,5.7028173 23.878319,5.895186 24.0647141,6.15085682 C23.7591462,6.4414105 23.5232808,6.26945853 23.182405,6.15988532 C23.3459575,5.86656153 23.4465299,5.68629924 23.5675953,5.46930735" id="Fill-42" fill="#FFFFFF"></path>
                    </g>
                    <path d="M15.013446,11.2396895 C14.1474992,11.2396895 13.4420177,11.9506842 13.4420177,12.8194296 C13.4420177,13.6889871 14.1474992,14.4000833 15.013446,14.4000833 C15.87808,14.4000833 16.5838646,13.6889871 16.5838646,12.8194296 C16.5838646,11.9506842 15.87808,11.2396895 15.013446,11.2396895 L15.013446,11.2396895 Z M17.952313,13.9236843 L15.7198365,18.6997537 C15.5896667,18.970488 15.3072116,19.6748844 15.013446,19.6748844 C14.7183677,19.6748844 14.4352056,18.970488 14.3124078,18.6997537 L12.0722564,13.9236843 C11.913104,13.5848351 11.8700844,13.1965491 11.8700844,12.8194296 C11.8700844,11.0725996 13.2755943,9.66116755 15.013446,9.66116755 C16.7492781,9.66116755 18.1552929,11.0725996 18.1552929,12.8194296 C18.1552929,13.1965491 18.1124753,13.5848351 17.952313,13.9236843 L17.952313,13.9236843 Z" id="Fill-55" fill="#FFFFFF"></path>
                </g>
            </g>
        </g>
    </g>
</svg>
