<?xml version="1.0" encoding="UTF-8" standalone="no"?>
<svg width="112px" height="19px" viewBox="0 0 112 19" version="1.1" xmlns="http://www.w3.org/2000/svg" xmlns:xlink="http://www.w3.org/1999/xlink">
    <!-- Generator: Sketch 40.3 (33839) - http://www.bohemiancoding.com/sketch -->
    <title>Group 4</title>
    <desc>Created with Sketch.</desc>
    <defs>
        <polygon id="path-1" points="17.9991046 3.96833245e-15 0 3.96833245e-15 0 18.5175356 17.9991046 18.5175356 17.9991046 0"></polygon>
    </defs>
    <g id="-Account" stroke="none" stroke-width="1" fill="none" fill-rule="evenodd">
        <g id="Overview-SL-BW-Premium" transform="translate(-464.000000, -510.000000)">
            <g id="Group-4" transform="translate(464.000000, 510.000000)">
                <g id="Group-13" transform="translate(22.000000, 3.000000)" fill="#FFFFFF">
                    <g id="Imported-Layers" transform="translate(0.017529, 0.085714)">
                        <path d="M0.356280474,0.082368 L4.97609008,0.082368 C7.16289465,0.082368 8.18143069,1.21824 8.18143069,2.930112 C8.18143069,4.146624 7.63931622,5.235264 6.34025369,5.490432 L6.34025369,5.522112 C7.88551668,5.667264 8.51107891,6.947136 8.51107891,8.131392 C8.51107891,10.115712 7.52509341,11.507328 4.97609008,11.507328 L0.356280474,11.507328 L0.356280474,0.082368 L0.356280474,0.082368 Z M3.41425591,4.563648 L4.15404095,4.563648 C4.77841952,4.563648 5.12404709,4.018752 5.12404709,3.40992 C5.12404709,2.77056 4.77841952,2.227392 4.15404095,2.227392 L3.41425591,2.227392 L3.41425591,4.563648 L3.41425591,4.563648 Z M3.41425591,9.36288 L4.26885558,9.36288 C4.82813307,9.36288 5.35426819,8.883648 5.35426819,7.95456 C5.35426819,7.075008 4.82813307,6.579648 4.26885558,6.579648 L3.41425591,6.579648 L3.41425591,9.36288 L3.41425591,9.36288 Z" id="Fill-1"></path>
                        <path d="M9.56275732,2.850048 L12.5218975,2.850048 L12.5218975,8.562816 C12.5218975,9.28224 12.719568,9.586944 13.2457031,9.586944 C13.7712464,9.586944 13.968917,9.28224 13.968917,8.562816 L13.968917,2.850048 L16.9292408,2.850048 L16.9292408,11.507328 L14.0671605,11.507328 L14.0671605,10.45152 L14.0352017,10.45152 C13.6570236,11.299968 12.9000756,11.731392 11.8803559,11.731392 C10.582477,11.731392 9.56275732,11.23488 9.56275732,9.379008 L9.56275732,2.850048" id="Fill-2"></path>
                        <path d="M21.6307227,11.731392 C18.1608349,11.731392 17.8483497,9.667008 17.8483497,7.170624 C17.8483497,4.899456 18.2934044,2.62656 21.6307227,2.62656 C25.0994268,2.62656 25.4130956,4.690944 25.4130956,7.187328 C25.4130956,9.459648 24.9692246,11.731392 21.6307227,11.731392 L21.6307227,11.731392 Z M21.6307227,9.87552 C22.304223,9.87552 22.4515882,9.36288 22.4515882,7.187328 C22.4515882,4.994496 22.304223,4.483008 21.6307227,4.483008 C20.9726099,4.483008 20.8086735,4.994496 20.8086735,7.187328 C20.8086735,9.36288 20.9726099,9.87552 21.6307227,9.87552 L21.6307227,9.87552 Z" id="Fill-3"></path>
                        <path d="M26.5630175,12.244032 C26.7766674,12.29184 27.0068885,12.307392 27.2205384,12.307392 C27.9603235,12.307392 28.2065239,11.827008 28.2065239,11.651904 C28.2065239,11.52288 28.1420147,11.23488 28.0763218,11.011968 L25.724989,2.850048 L28.7823726,2.850048 L29.686094,8.691264 L29.7198282,8.691264 L30.5750197,2.850048 L33.5341599,2.850048 L31.1496847,11.794752 C30.6235496,13.779648 29.8180717,14.323392 28.2242788,14.323392 C27.5987165,14.323392 27.0566021,14.308416 26.5630175,14.260032 L26.5630175,12.244032" id="Fill-4"></path>
                        <polyline id="Fill-5" points="33.3524687 2.850048 36.2139572 2.850048 36.9537422 9.076032 36.9868846 9.076032 37.8574636 2.850048 41.015458 2.850048 41.8866289 9.076032 41.9191794 9.076032 42.6589644 2.850048 45.5198611 2.850048 43.7106428 11.507328 40.3573452 11.507328 39.4524402 5.379264 39.4198896 5.379264 38.5161682 11.507328 35.1616869 11.507328 33.3524687 2.850048"></polyline>
                        <path d="M48.8074658,7.667136 L48.8074658,8.803008 C48.8074658,9.73152 49.202807,9.971712 49.6129438,9.971712 C50.1402626,9.971712 50.4521559,9.651456 50.4521559,8.466624 L53.1153821,8.466624 C53.0994027,9.507456 52.8354474,10.323648 52.2773536,10.884096 C51.7180761,11.443392 50.8622928,11.731392 49.6301068,11.731392 C46.7692101,11.731392 45.8483257,10.484352 45.8483257,7.187328 C45.8483257,3.874752 46.965697,2.62656 49.6301068,2.62656 C51.9974189,2.62656 53.1976462,3.651264 53.1976462,6.787008 L53.1976462,7.667136 L48.8074658,7.667136 L48.8074658,7.667136 Z M50.4361766,5.714496 C50.4361766,4.802112 50.2373224,4.386816 49.6129438,4.386816 C49.0051364,4.386816 48.8074658,4.802112 48.8074658,5.714496 L48.8074658,6.097536 L50.4361766,6.097536 L50.4361766,5.714496 L50.4361766,5.714496 Z" id="Fill-6"></path>
                        <path d="M58.3424072,11.507328 C58.2441638,11.203776 58.2116132,10.884096 58.1618997,10.531584 L58.129941,10.531584 C57.8002928,11.299968 57.0119778,11.731392 56.1242358,11.731392 C54.347568,11.731392 53.6574965,10.675008 53.6574965,9.188352 C53.6574965,7.587648 54.2333452,6.835392 56.1242358,6.403392 L57.2919125,6.130944 C57.9322704,5.986944 58.1618997,5.714496 58.1618997,5.18688 C58.1618997,4.658112 57.9156992,4.386816 57.4061353,4.386816 C56.8468578,4.386816 56.5840862,4.625856 56.5669231,5.53824 L54.0031241,5.53824 C54.0031241,3.05856 56.0585429,2.62656 57.4061353,2.62656 C59.4775334,2.62656 60.9245529,3.154752 60.9245529,5.410944 L60.9245529,9.635328 C60.9245529,10.435968 60.9582871,11.0592 61.2044876,11.507328 L58.3424072,11.507328 L58.3424072,11.507328 Z M58.1618997,8.372736 L58.1618997,7.331328 L58.129941,7.331328 C57.9642291,7.554816 57.5540923,7.539264 57.1262006,7.731648 C56.6663503,7.939008 56.5183932,8.27424 56.5183932,8.851392 C56.5183932,9.427392 56.7983279,9.79488 57.2421989,9.79488 C57.8997199,9.79488 58.1618997,9.315648 58.1618997,8.372736 L58.1618997,8.372736 Z" id="Fill-7"></path>
                        <path d="M61.6809092,2.850048 L62.6668947,2.850048 L62.6668947,0.306432 L65.6272185,0.306432 L65.6272185,2.850048 L66.7943033,2.850048 L66.7943033,4.78656 L65.6272185,4.78656 L65.6272185,8.915328 C65.6272185,9.411264 65.8568477,9.586944 66.334453,9.586944 L66.7943033,9.586944 L66.7943033,11.507328 C66.2521889,11.571264 65.676932,11.60352 65.1833474,11.60352 C63.3753128,11.60352 62.6668947,11.31552 62.6668947,9.395136 L62.6668947,4.78656 L61.6809092,4.78656 L61.6809092,2.850048" id="Fill-8"></path>
                        <path d="M67.4186819,0.082368 L70.3790057,0.082368 L70.3790057,3.81024 L70.4115563,3.81024 C70.9039572,2.898432 71.7431693,2.62656 72.4663832,2.62656 C73.6825898,2.62656 74.7851654,3.17088 74.7851654,4.978944 L74.7851654,11.507328 L71.8248416,11.507328 L71.8248416,5.795136 C71.8248416,5.07456 71.627171,4.771008 71.1028114,4.771008 C70.5754926,4.771008 70.3790057,5.07456 70.3790057,5.795136 L70.3790057,11.507328 L67.4186819,11.507328 L67.4186819,0.082368" id="Fill-9"></path>
                        <path d="M78.6645981,7.667136 L78.6645981,8.803008 C78.6645981,9.73152 79.0587556,9.971712 79.4700761,9.971712 C79.9962112,9.971712 80.3081046,9.651456 80.3081046,8.466624 L82.9725144,8.466624 C82.9553514,9.507456 82.6931715,10.323648 82.1333022,10.884096 C81.5752084,11.443392 80.7200169,11.731392 79.4866473,11.731392 C76.6257506,11.731392 75.705458,10.484352 75.705458,7.187328 C75.705458,3.874752 76.8234211,2.62656 79.4866473,2.62656 C81.8539594,2.62656 83.0547785,3.651264 83.0547785,6.787008 L83.0547785,7.667136 L78.6645981,7.667136 L78.6645981,7.667136 Z M80.2921252,5.714496 C80.2921252,4.802112 80.0944547,4.386816 79.4700761,4.386816 C78.8622687,4.386816 78.6645981,4.802112 78.6645981,5.714496 L78.6645981,6.097536 L80.2921252,6.097536 L80.2921252,5.714496 L80.2921252,5.714496 Z" id="Fill-10"></path>
                        <path d="M83.7933799,2.850048 L86.6554602,2.850048 L86.6554602,4.227264 L86.6868271,4.227264 C87.0158835,3.185856 87.8053821,2.62656 88.6771448,2.62656 L89.15475,2.62656 L89.15475,5.314752 C88.8907947,5.266944 88.6611654,5.25024 88.4137813,5.25024 C87.3615111,5.25024 86.7537037,5.65056 86.7537037,6.787008 L86.7537037,11.507328 L83.7933799,11.507328 L83.7933799,2.850048" id="Fill-11"></path>
                    </g>
                </g>
                <g id="Group-2">
                    <g id="Page-1">
                        <g id="Group-3">
                            <mask id="mask-2" fill="white">
                                <use xlink:href="#path-1"></use>
                            </mask>
                            <g id="Clip-2"></g>
                            <path d="M9.00067466,17.5926535 C9.09998687,17.5882728 9.21117848,17.5819461 9.32245581,17.5787086 C9.82360233,17.5642053 10.3182349,17.4954321 10.8052221,17.3778867 C12.4664881,16.9768276 13.8721497,16.1294887 15.007199,14.8328247 C16.2773187,13.3818683 16.9616961,11.6755758 17.0852729,9.73735148 C17.1184512,9.21705404 17.0999464,8.6966955 17.0349354,8.17910326 C16.9502281,7.50476642 16.7921874,6.84854571 16.5488395,6.21496142 C15.9287618,4.60048864 14.9201862,3.29663405 13.5151503,2.31732505 C12.3100416,1.47735136 10.9727766,1.01550372 9.51646902,0.912592628 C9.13433945,0.885601702 8.75199559,0.890217997 8.36958317,0.920524976 C7.96462044,0.952612152 7.56404606,1.01203059 7.16911998,1.10681734 C5.7594129,1.44512456 4.51882884,2.11268967 3.47093806,3.1299413 C1.80420376,4.74794829 0.9511233,6.74103578 0.881629611,9.08192488 C0.873710005,9.34864898 0.891786249,9.61656861 0.906116965,9.88347598 C0.928598705,10.3022062 0.992658378,10.7157878 1.08678513,11.1235664 C1.50043028,12.9155091 2.38444349,14.4224806 3.76016655,15.6176996 C5.26335755,16.9236485 7.01486764,17.5668843 9.00067466,17.5926535 M8.69099577,-2.61793684e-06 L9.34239196,-2.61793684e-06 C9.37004202,0.00478820604 9.39754636,0.0126158365 9.4253507,0.0139160783 C9.81366854,0.0319885673 10.1994065,0.075140889 10.5818704,0.14488272 C11.3927558,0.292752506 12.1691858,0.549772795 12.9102518,0.916554439 C15.2436387,2.07143099 17.0037455,4.23508578 17.6835117,6.78800156 C17.8504491,7.41498865 17.9641006,8.05142649 17.9851938,8.7026644 C17.9860167,8.72817183 17.9943048,8.75343492 17.9991046,8.77881145 L17.9991046,9.75617445 C17.9946991,9.76956083 17.9870452,9.78279886 17.9864452,9.79635977 C17.9826911,9.88057879 17.9843025,9.96519923 17.9772057,10.0490779 C17.9342907,10.5565562 17.8551032,11.0580307 17.7313636,11.5518521 C17.3234096,13.1799119 16.5431055,14.595884 15.3870401,15.7942532 C14.4315962,16.7846536 13.310449,17.5165326 12.0273185,17.9880405 C11.2331551,18.2798444 10.4141101,18.4519388 9.57086061,18.5029013 C9.54593613,18.504411 9.52139735,18.5125092 9.49667001,18.5175356 L8.53671772,18.5175356 C8.51174182,18.5126837 8.48693734,18.5048386 8.46177287,18.5034075 C7.92151687,18.4726118 7.38914618,18.3887069 6.86430084,18.2557419 C5.52561309,17.9165883 4.32791833,17.2936502 3.27106228,16.3923732 C2.26911208,15.5379311 1.48561959,14.508602 0.91666787,13.3106255 C0.554183028,12.5473661 0.301826999,11.747377 0.155665692,10.9129446 C0.0919660007,10.5492958 0.0484681625,10.1830116 0.0296119568,9.81377778 C0.0259435677,9.74188924 0.010181494,9.67063773 -8.57100531e-07,9.59909825 L-8.57100531e-07,8.93588765 C0.010327201,8.8588505 0.0258921417,8.78211005 0.030083362,8.70473257 C0.0513823034,8.31228642 0.099602764,7.92340939 0.169936411,7.53711539 C0.316431987,6.73240531 0.562616895,5.96046308 0.912776634,5.22412477 C1.61086765,3.75616046 2.61418922,2.55039122 3.93192087,1.62184401 C5.33558539,0.632761385 6.89379366,0.100552327 8.5988232,0.013872446 C8.62969596,0.0123016841 8.66027729,0.00475330022 8.69099577,-2.61793684e-06" id="Fill-1" fill="#FFFFFF" mask="url(#mask-2)"></path>
                        </g>
                        <path d="M15.1861847,5.30035472 C15.1404755,5.30744061 15.0982547,5.31290337 15.0564454,5.32066991 C14.9182466,5.34635187 14.8162859,5.42393006 14.7487893,5.54836931 C14.7189279,5.60343325 14.6887751,5.65601886 14.6942605,5.72621447 C14.7006374,5.80754504 14.6552111,5.8711958 14.5900543,5.91536039 C14.540351,5.94905324 14.4845367,5.97329533 14.4342078,6.00615916 C14.376902,6.04356075 14.3188849,6.08146847 14.2680332,6.12709038 C14.1960282,6.19170105 14.1851258,6.27045731 14.2204641,6.3643976 C14.2549024,6.45590321 14.2748728,6.55315083 14.299343,6.64838264 C14.3041685,6.66714452 14.3048713,6.68930099 14.3000801,6.70792324 C14.2843095,6.7692615 14.2435972,6.7865137 14.1914512,6.75119774 C14.1612385,6.73074292 14.1346512,6.7030277 14.1109267,6.67468418 C14.0590721,6.61276997 14.0111773,6.54742628 13.9596485,6.48521538 C13.9005343,6.41385915 13.8245866,6.36961602 13.7346425,6.3514999 C13.6626118,6.33699653 13.5902983,6.32400284 13.5223731,6.31114005 C13.5135364,6.32476204 13.5085309,6.32906419 13.5078966,6.33394227 C13.4975429,6.41520303 13.4730641,6.43240287 13.3757918,6.42024692 C13.2687914,6.40688671 13.1600511,6.40549048 13.052005,6.40412043 C12.9914766,6.4033525 12.9437018,6.43869464 12.905098,6.48397622 C12.7687762,6.64387979 12.6856547,6.97452518 12.8616345,7.23195561 C12.9052523,7.29575473 12.9650951,7.33072163 13.0423198,7.33195206 C13.1446233,7.33357519 13.2386986,7.31917653 13.3135577,7.23345656 C13.3605011,7.1797016 13.4208581,7.13785825 13.4764582,7.09227997 C13.4985628,7.07416385 13.5228016,7.0576883 13.5483004,7.04518329 C13.5936667,7.0229221 13.6384759,7.03237285 13.6776282,7.06113525 C13.7114494,7.08597947 13.7035469,7.1257372 13.6953016,7.15788546 C13.6736941,7.24209575 13.6469526,7.32495345 13.6214367,7.40808166 C13.6088116,7.44921817 13.5943609,7.48978746 13.576499,7.54328936 C13.6256708,7.54089831 13.6643517,7.53965043 13.702947,7.53704994 C13.9297357,7.52170884 14.0267337,7.62915768 13.9978237,7.85718869 C13.990307,7.91651113 13.9928097,7.9789751 14.0019721,8.03819282 C14.0123173,8.10500256 14.0588835,8.14508317 14.1256259,8.1525792 C14.1648554,8.15697733 14.2060648,8.15944692 14.24442,8.15209924 C14.33133,8.13545789 14.4144087,8.144961 14.4971275,8.17285948 C14.5211349,8.18095763 14.5464107,8.18516378 14.577892,8.19280816 C14.6422003,8.08485318 14.7269332,8.00167261 14.8431646,7.95557074 C14.9589674,7.90965213 15.1443753,7.88218125 15.3025703,7.89164946 C15.3106185,7.91012336 15.320398,7.93048218 15.3284719,7.95153912 C15.3606988,8.03559234 15.3605531,8.03731145 15.4528886,8.03492913 C15.6156347,8.0307317 15.7783295,8.0242654 15.9410414,8.01898589 C15.9520295,8.01862811 15.9630775,8.02026868 15.9772111,8.02117623 C16.0093952,8.14688955 16.0792917,8.24796808 16.1676845,8.33707392 C16.2391666,8.40913699 16.3190484,8.45886033 16.4261345,8.44996807 C16.4612242,8.44704471 16.4975223,8.45927047 16.5342491,8.46472451 C16.5419544,8.54793998 16.5505254,8.62283042 16.5555566,8.6979652 C16.579864,9.061169 16.5808668,9.42464332 16.5551538,9.78762896 C16.4807318,10.8381196 16.2157421,11.8359898 15.7509195,12.7778623 C15.7394257,12.8011445 15.7266292,12.824034 15.7120928,12.8454662 C15.6359823,12.9576971 15.5590404,13.0693347 15.4825871,13.18133 C15.4679392,13.2027883 15.4506087,13.2231908 15.4776587,13.2499985 C15.4834699,13.2557579 15.4799815,13.2781238 15.4737932,13.288517 C15.3300404,13.5294457 15.1780336,13.7646499 15.0087563,13.9854205 C14.7332329,13.9217261 14.5593787,13.5601978 14.7067571,13.3107084 C14.6936263,13.2982121 14.6798527,13.2851224 14.6623421,13.2684724 C14.7084027,13.0701375 14.7560575,12.870005 14.8012009,12.669279 C14.8655092,12.3833829 14.9395026,12.099075 14.9880488,11.8103689 C15.039012,11.5072293 15.0685905,11.2001192 15.1001232,10.8939515 C15.116871,10.7312817 15.0549369,10.637673 14.9112012,10.5705491 C14.8269568,10.5311928 14.7519348,10.4777519 14.6938491,10.4041967 C14.6492628,10.3477452 14.6046336,10.2894961 14.5715409,10.2258366 C14.4617464,10.0146128 14.3370554,9.81317129 14.2005965,9.61913856 C14.1684724,9.57346429 14.1606899,9.53203108 14.1753463,9.4744452 C14.195891,9.39378657 14.2037078,9.3083633 14.2062619,9.22464169 C14.2108303,9.07464265 14.2557595,8.94995033 14.370988,8.84772863 C14.4971275,8.73580311 14.5213149,8.58216514 14.4529525,8.42651136 C14.4401989,8.39747844 14.4242911,8.36955378 14.4070977,8.34295555 C14.3916784,8.31911487 14.3724708,8.29780487 14.3496891,8.26866723 C14.3326071,8.29078007 14.3196392,8.30791883 14.3062941,8.32476089 C14.2509769,8.39458126 14.1968424,8.41336059 14.1182292,8.37286111 C14.057975,8.34180366 14.0016464,8.29971596 13.9504947,8.25443438 C13.9034741,8.21278301 13.8645275,8.16132311 13.8240981,8.11239387 C13.7531473,8.02652555 13.6689629,7.95801415 13.5704993,7.90820354 C13.4733898,7.8590736 13.3743947,7.81371348 13.2782109,7.76281207 C13.2332046,7.73898885 13.1895696,7.70992975 13.1511115,7.67635908 C13.0757724,7.61060524 12.9973906,7.58497564 12.8983698,7.61821471 C12.8582661,7.63168835 12.8062401,7.62911405 12.765305,7.6158062 C12.555684,7.54765259 12.3518141,7.46433239 12.158118,7.35671775 C12.0590972,7.30170617 12.0022629,7.22583837 12.0154108,7.10306587 C12.0189506,7.06992279 12.0049799,7.02450159 11.9826696,7.00047766 C11.8237718,6.8293606 11.6606656,6.66228388 11.4985879,6.49423853 C11.4953995,6.49093993 11.4884399,6.49139371 11.4695408,6.48668142 C11.4921168,6.5288302 11.5084275,6.5643556 11.5291693,6.59694018 C11.566436,6.65547725 11.6097538,6.71024448 11.6440807,6.77041339 C11.6709937,6.81757116 11.6905698,6.86965064 11.7080718,6.92141597 C11.712863,6.93557028 11.7033321,6.96390508 11.6913841,6.9720905 C11.6801303,6.97977851 11.6503033,6.9763141 11.6401123,6.96600816 C11.4902484,6.814386 11.3402215,6.66280747 11.1954744,6.5062025 C11.1617904,6.46976082 11.1461826,6.41530774 11.1248151,6.36794054 C11.099822,6.31253628 11.0804773,6.25437445 11.0536415,6.19999118 C10.9994556,6.0901862 10.9151255,6.01495543 10.7944201,5.99167324 C10.7503908,5.9831824 10.7238722,5.95997876 10.7007647,5.92428755 C10.6552784,5.85402214 10.6083522,5.784673 10.5604317,5.71609178 C10.4598853,5.57217508 10.3815977,5.41969773 10.3616959,5.24015964 C10.3518649,5.15136795 10.3629387,5.06585742 10.3844262,4.98142024 C10.4006939,4.9174815 10.4020824,4.85529678 10.384769,4.79242267 C10.36491,4.72033342 10.33528,4.66052229 10.2569154,4.63109669 C10.1741966,4.6000305 10.1201479,4.52847357 10.0688504,4.45770202 C10.0213928,4.39222742 9.97604361,4.32502499 9.92608324,4.26160111 C9.88722231,4.21226174 9.8398161,4.17184952 9.76280564,4.14470152 C9.78697587,4.22386792 9.80663775,4.28827789 9.83085083,4.36755773 C9.72541035,4.30702231 9.64741423,4.24940153 9.59536253,4.15053079 C9.47522279,3.92235144 9.3010943,3.75151362 9.04994678,3.67685879 C8.91983039,3.63818314 8.78715127,3.62560832 8.65170372,3.63855838 C8.60384324,3.6431485 8.5545514,3.64347138 8.50694806,3.63736286 C8.38375704,3.62155052 8.26221165,3.62631517 8.14083768,3.65217165 C8.05126213,3.67123896 7.98210271,3.71242783 7.95062999,3.80697024 C7.94215327,3.83242531 7.92143716,3.85862213 7.89922969,3.87337857 C7.84484668,3.90947991 7.7863153,3.93911496 7.72180136,3.97568753 C7.71000766,3.91494268 7.70026243,3.86470447 7.69011437,3.81246791 C7.68205762,3.81343655 7.67137816,3.8113422 7.66673267,3.81578396 C7.49841532,3.97636819 7.29259127,4.05598837 7.07208508,4.1068287 C6.87224359,4.15288693 6.67343061,4.20357891 6.46700659,4.25398292 C6.46452957,4.24747298 6.45900984,4.23291726 6.4517502,4.21372778 C6.48708844,4.19851757 6.51797834,4.18449415 6.5494082,4.17183207 C6.82277176,4.06168675 7.09640102,3.95221337 7.36938745,3.84110814 C7.39537473,3.83053167 7.44212955,3.83287909 7.43428708,3.78773714 C7.42649604,3.7428657 7.38358103,3.76052805 7.35530529,3.75990847 C7.26150424,3.75786648 7.16763462,3.75914054 7.07220508,3.75914054 C7.05794293,3.72056088 7.04610638,3.68852607 7.02966719,3.6440386 C6.87646909,3.63518124 6.71893406,3.62607082 6.54020295,3.61572125 C6.67871035,3.48602867 6.80146425,3.37107507 6.93423765,3.24675799 C6.8731264,3.22847607 6.82470881,3.21357128 6.7760598,3.19954787 C6.71015736,3.18054165 6.6435521,3.16387412 6.57841248,3.14252048 C6.55998482,3.13647305 6.53611458,3.12039892 6.53137481,3.10394955 C6.52144959,3.06955859 6.55401083,3.06331045 6.57790679,3.05487196 C6.64530915,3.03105747 6.71293436,3.00791491 6.78026816,2.9838997 C6.80637543,2.9745973 6.83192559,2.96368923 6.87691478,2.94594835 C6.78908772,2.91142649 6.71924262,2.88398179 6.64858328,2.85622294 C6.65948559,2.79982385 6.69335819,2.77394991 6.74126153,2.76171542 C6.99031772,2.69808211 7.23879108,2.63200539 7.48868724,2.57205464 C7.54287311,2.55905223 7.60257872,2.56206285 7.65888163,2.56734236 C7.93155094,2.59286724 8.20414311,2.61967491 8.47632386,2.65006043 C8.64920956,2.66936335 8.82198383,2.69172925 8.99365244,2.71994188 C9.19746231,2.75344274 9.39745808,2.72768225 9.59842238,2.6972531 C9.75360038,2.67376148 9.90944692,2.65464182 10.0652592,2.63592357 C10.0927635,2.63261624 10.1228992,2.63642098 10.1496321,2.6444755 C10.3381256,2.70122364 10.530776,2.71507252 10.7260235,2.7085015 C10.801774,2.70595337 10.8776702,2.70809136 10.9753368,2.70809136 C10.9104972,2.63295658 10.8606396,2.57519617 10.8061709,2.51207772 C10.6265484,2.69947834 10.4439604,2.6064107 10.252287,2.53076106 C10.2941135,2.44015427 10.332503,2.35699115 10.3719639,2.2715417 L10.8815015,2.2715417 C10.8826328,2.26576479 10.8837471,2.26000533 10.8848784,2.25423714 L10.4884096,2.14720717 C10.4878782,2.1406536 10.4873468,2.13410876 10.4868239,2.12756391 C10.6197602,2.08916751 10.7510165,2.04240244 10.886027,2.01431198 C11.092691,1.97130801 11.3019177,1.9409923 11.5101159,1.90566761 C11.5889435,1.89228995 11.6519317,1.93682978 11.7231996,1.97843752 C11.6170906,2.01299428 11.5109902,2.04755105 11.4027213,2.08281465 C11.4906683,2.16142256 11.5428829,2.16879642 11.6238103,2.10737962 C11.6787504,2.06568462 11.7368961,2.04952322 11.8005015,2.071383 C11.8620242,2.0925272 11.9225183,2.11840114 11.9802783,2.14849868 C12.0057256,2.16176289 12.0233047,2.19064746 12.0514947,2.21967165 C11.7003493,2.34287175 11.3552036,2.31522634 11.0058839,2.28281628 C11.0213545,2.29131585 11.0360624,2.30194467 11.0524073,2.30798338 C11.3181169,2.40610364 11.5883435,2.44813025 11.8670896,2.37157306 C11.913853,2.35872772 11.9588508,2.3392939 12.0054856,2.32586389 C12.0796419,2.30451025 12.1104632,2.32176245 12.1363134,2.395501 C12.1420645,2.41190674 12.1459986,2.42897568 12.1518955,2.44532033 C12.1985389,2.57452423 12.2606786,2.61868882 12.3962119,2.61929967 C12.4330672,2.61946548 12.4699311,2.61932585 12.503358,2.61932585 C12.5233027,2.57862566 12.5147489,2.55801378 12.4800792,2.54513353 C12.4237848,2.52423367 12.3682447,2.5011871 12.3126446,2.47838487 C12.2897001,2.46896903 12.2674154,2.4578428 12.2281431,2.43984012 C12.3194757,2.39860762 12.394832,2.36063008 12.4734109,2.33175424 C12.4942985,2.32408369 12.5283253,2.33889248 12.5508242,2.35267156 C12.783167,2.4950175 13.0199752,2.63083605 13.2442526,2.78546011 C13.4496224,2.92705557 13.6412614,3.08931528 13.8384888,3.24308415 C13.8624619,3.26177622 13.8835465,3.28430793 13.9086424,3.30752903 C13.8172841,3.35311603 13.7846286,3.34966035 13.7237916,3.29157707 C13.6949845,3.26407128 13.6673859,3.23523907 13.6427785,3.2105432 C13.5184647,3.26534534 13.4000906,3.31551373 13.2834478,3.36953049 C13.1664879,3.4236956 13.0687013,3.50071529 13.0104271,3.62761541 C13.1027625,3.71988022 13.194018,3.80718841 13.3265942,3.83899634 C13.5320669,3.88830953 13.7356196,3.94583433 13.9403466,3.99844613 C13.997138,4.01303676 14.0446385,4.0375581 14.0861822,4.08236845 C14.1287544,4.12828706 14.1815603,4.16436222 14.2333892,4.20767162 C14.3364726,4.07776088 14.2736043,3.92441088 14.3062341,3.77378353 C14.371348,3.84628293 14.38963,3.93142695 14.4427702,4.00161383 C14.4786998,3.98108921 14.512521,3.96177756 14.552059,3.93920222 C14.8602894,4.28195121 15.1375014,4.64836634 15.3859833,5.05148495 C15.3346773,5.06111895 15.2962963,5.0676987 15.2581639,5.07561359 C15.1674313,5.09448019 15.1439725,5.13264971 15.1664028,5.22392843 C15.1725139,5.24877265 15.1792164,5.27346852 15.1861847,5.30035472" id="Fill-4" fill="#FFFFFF"></path>
                        <path d="M13.3748404,15.5883464 C12.3951662,16.3218312 11.3072917,16.7776139 10.1121254,16.9600667 C8.95936843,17.1360444 7.82555335,17.0441984 6.71382575,16.6877402 C6.71404002,16.6817451 6.71426287,16.6757413 6.71446857,16.6697462 C6.92222967,16.6759856 7.13014506,16.6790312 7.33770903,16.6893633 C7.54484444,16.6996954 7.7517313,16.7076365 7.93947055,16.7048876 C7.88874735,16.642764 7.83410721,16.5735981 7.77705862,16.5065528 C7.71411317,16.4325961 7.63485711,16.4022891 7.53899902,16.4222552 C7.52562826,16.4250302 7.51188894,16.4259989 7.48721302,16.4293062 C7.49609258,16.3940251 7.50275225,16.3676625 7.51176895,16.3318317 L8.38006293,16.3318317 C8.38607978,16.286393 8.36031534,16.2865676 8.33851071,16.2827105 C8.17550739,16.2539219 8.01249549,16.2252031 7.84947502,16.1965542 C7.70337371,16.1708722 7.55724669,16.1453037 7.4022401,16.1181382 C7.40014878,16.088381 7.39803174,16.058266 7.39596613,16.0287095 C7.46224569,15.9974165 7.52407691,15.9742041 7.59135928,15.9819095 C7.78172981,16.0037082 7.96859481,15.9786371 8.15094289,15.9284076 C8.41458693,15.8557774 8.68302216,15.8289173 8.9542344,15.8139078 C9.15362163,15.8028776 9.35231461,15.7786268 9.55171042,15.7678671 C9.66820748,15.761584 9.78562165,15.7674569 9.90235013,15.7733385 C9.96603268,15.7765411 10.0144074,15.7655545 10.0598166,15.7120352 C10.1406754,15.6167423 10.2518413,15.6058866 10.3670785,15.6272228 C10.4427947,15.6412375 10.5172853,15.6670852 10.5933872,15.6727312 C10.6835884,15.6794332 10.775101,15.6726963 10.8657565,15.667059 C10.9978528,15.6588387 11.1272321,15.6714659 11.2570571,15.6974271 C11.3231738,15.7106564 11.3932589,15.7087453 11.4612098,15.7057609 C11.5614734,15.7013453 11.6532688,15.7115203 11.7313078,15.7873358 C11.7524182,15.8078342 11.7947846,15.8161418 11.8260859,15.8135326 C11.9849495,15.8003382 12.1433673,15.7817247 12.301948,15.7650048 C12.3043136,15.7588875 12.3066706,15.7527877 12.3090277,15.7466705 C12.2675783,15.7068168 12.2261375,15.6669543 12.1808312,15.6233919 C12.2676126,15.5381344 12.3676876,15.4885681 12.4803877,15.4818575 C12.5789628,15.4759933 12.681952,15.4770492 12.7772701,15.4998514 C12.9616238,15.5439637 13.1475203,15.5678218 13.3353881,15.5825171 C13.3486046,15.5835556 13.3616925,15.5863655 13.3748404,15.5883464" id="Fill-6" fill="#FFFFFF"></path>
                        <path d="M2.75507507,9.59972743 C2.73831019,9.64128281 2.72549654,9.67303838 2.70952876,9.71260413 C2.80302126,9.79707622 2.93118346,9.83528064 3.00753395,9.94187429 C2.94367141,10.0045041 2.87864322,10.0173756 2.79837578,9.97139589 C2.69653512,9.91305081 2.58983471,9.86351945 2.48513992,9.81035788 C2.45732701,9.79622975 2.42921412,9.78271247 2.39387588,9.76527701 C2.33741869,9.82713013 2.28189573,9.88795352 2.22279867,9.95270382 C2.25913115,10.0072267 2.29134955,10.0581369 2.32607068,10.1072232 C2.411635,10.2282155 2.4859713,10.3535099 2.51881538,10.5022698 C2.54246278,10.6094219 2.60504824,10.6980304 2.67851888,10.7769001 C2.72757929,10.8295642 2.78300797,10.8760588 2.83202553,10.9287491 C2.92603229,11.0298102 3.02548163,11.1271015 3.10816609,11.2372555 C3.23130569,11.4013041 3.25120756,11.5876401 3.181971,11.7824233 C3.16936305,11.8178877 3.15719223,11.8540675 3.13960453,11.8870535 C3.06201124,12.0325236 2.98566932,12.1788749 2.90271916,12.3211772 C2.83145127,12.4434349 2.72847068,12.5279157 2.58687772,12.5543569 C2.56783295,12.5578998 2.54415984,12.5648199 2.52916058,12.5570621 C2.44771892,12.515018 2.36120322,12.5296697 2.27639315,12.5293817 C2.10858149,12.5287883 2.10885576,12.5298442 2.04329616,12.3761975 C1.77813505,11.754743 1.59732975,11.1084356 1.49507769,10.4392822 C1.47587865,10.31363 1.46369925,10.1868695 1.44651439,10.0462252 C1.54445524,10.0540092 1.63102237,10.0608857 1.71458964,10.0675091 C1.7798664,10.2037378 1.76964119,10.2615505 1.6561954,10.381644 C1.7889088,10.4460714 1.91846808,10.5089717 2.05862111,10.5770119 C2.10193039,10.3439283 2.14361975,10.1195798 2.18689474,9.88667073 C2.04817306,9.85225359 1.91629962,9.81954684 1.77690083,9.78498135 C1.8048423,9.72164474 1.83011818,9.66435556 1.85626831,9.60506802 C1.72832039,9.48998353 1.56887403,9.45211071 1.41220467,9.40393195 L1.41220467,9.05643577 C1.45843666,9.06686389 1.50149737,9.06908041 1.53794985,9.08603591 C1.77243534,9.19502061 2.02039444,9.26420395 2.26393948,9.34655551 C2.36404022,9.38040543 2.46248676,9.41933414 2.56148184,9.45651757 C2.66579094,9.49569063 2.77159996,9.51186075 2.87987744,9.47599502 C2.9410144,9.45574964 2.99066622,9.42028533 3.02146183,9.351931 C2.97246141,9.3250797 2.92813218,9.30081143 2.87994601,9.27442263 C2.88745421,9.25698717 2.89398531,9.24182059 2.90534189,9.21548415 C3.01838484,9.27578395 3.1281451,9.33433847 3.23872818,9.39332058 C3.19330186,9.45163075 3.00327416,9.59169036 2.94534276,9.61512962 C2.88233732,9.6406196 2.82247744,9.62628203 2.75507507,9.59972743" id="Fill-8" fill="#FFFFFF"></path>
                        <path d="M3.22600281,4.5921732 C3.27878304,4.53135854 3.32933482,4.46830117 3.38513204,4.41051458 C3.4218845,4.37245851 3.42893844,4.33563287 3.41257639,4.28593571 C3.3926831,4.22554864 3.37966374,4.16278797 3.36430451,4.10089122 C3.35161085,4.04976292 3.35551923,4.00286695 3.40058556,3.96779533 C3.40283116,3.96605876 3.40461393,3.96368516 3.40649098,3.96150355 C3.52894489,3.81867766 3.65593287,3.68146287 3.84323499,3.61053424 C3.82764433,3.58489592 3.81826766,3.569485 3.80475119,3.54726744 C3.87909606,3.47840698 3.95343237,3.40726019 4.03017713,3.3389146 C4.29260408,3.10520267 4.56987602,2.89132597 4.86033872,2.69487601 C4.9038537,2.66544168 4.94498595,2.65798056 4.99632625,2.66233506 C5.19375072,2.67906367 5.38266419,2.72146552 5.56838068,2.79684464 C5.7075309,2.85333099 5.85964906,2.87672661 6.00604178,2.91469542 C6.12749289,2.94619793 6.24901256,2.97746482 6.37874326,3.01096568 C6.36736097,3.03107143 6.36060702,3.04910901 6.34889903,3.06273974 C6.22226246,3.21026919 6.07082999,3.26605742 5.88116227,3.20175217 C5.78683839,3.16976971 5.68826329,3.15078967 5.60574168,3.12956693 C5.53953068,3.1632336 5.48555908,3.1906783 5.42587919,3.22102891 C5.45400065,3.27205249 5.4825078,3.32375674 5.51512047,3.38290466 C5.46312876,3.39016507 5.42136227,3.39766109 5.37927008,3.40156182 C5.25934461,3.4126706 5.14109048,3.43365772 5.02984744,3.48079803 C4.85417617,3.5552347 4.67082529,3.5924094 4.48289748,3.61383284 C4.3807997,3.62547394 4.28027041,3.64638252 4.18714647,3.69491907 C4.1286408,3.72540058 4.08732,3.76440783 4.07154936,3.83503976 C4.04473926,3.95509833 3.97413991,4.05060066 3.88321014,4.12955763 C3.83118416,4.17473449 3.77471839,4.21456203 3.7210982,4.25788888 C3.64518483,4.31923586 3.56864578,4.37990218 3.49498658,4.44398054 C3.41673333,4.51204689 3.33431457,4.57136933 3.22600281,4.5921732" id="Fill-10" fill="#FFFFFF"></path>
                        <path d="M5.01273886,12.6439348 C4.99220274,12.6248588 4.97165805,12.6058089 4.95279327,12.5882862 C4.9542932,12.5788442 4.95322182,12.5715663 4.9562731,12.5683462 C5.03540059,12.4847817 5.05411966,12.4239496 4.96851249,12.2977738 C4.94260235,12.2595955 4.91647793,12.22133 4.89402191,12.18104 C4.87934835,12.1546948 4.87111162,12.1246409 4.85997788,12.096245 C4.86487193,12.092449 4.8697574,12.0886443 4.87465144,12.0848657 C4.90225007,12.1075109 4.93001155,12.1299902 4.95742161,12.1528884 C5.04339734,12.2246897 5.13065872,12.2950162 5.21451741,12.3693045 C5.25367832,12.4040096 5.29157929,12.4268468 5.34459094,12.408303 C5.35444759,12.4048648 5.36646414,12.4078056 5.3788321,12.4078056 C5.39819399,12.4484796 5.38539748,12.4845897 5.36613844,12.5163278 C5.33178586,12.5729451 5.29716758,12.6302517 5.25560679,12.6813277 C5.09647756,12.8769224 4.91273241,13.0459015 4.70822828,13.1913017 C4.68022682,13.2112067 4.64966262,13.2273158 4.62124975,13.2466536 C4.58209741,13.2733129 4.54590207,13.2767424 4.50310705,13.2497602 C4.44526992,13.2132836 4.38323301,13.1837446 4.31549637,13.147172 C4.33262981,13.129754 4.3439521,13.1143955 4.3586428,13.1039499 C4.44972685,13.0392519 4.54237938,12.9767705 4.63276918,12.9110603 C4.6648333,12.8877432 4.69364901,12.8590594 4.72098194,12.8299305 C4.74648924,12.8027301 4.76785675,12.7715417 4.79138415,12.7423954 C4.84845846,12.6716849 4.92125198,12.6410202 5.01273886,12.6439348" id="Fill-12" fill="#FFFFFF"></path>
                        <path d="M14.7495067,7.74343844 C14.7699913,7.61426517 14.7844592,7.4956982 14.8081323,7.38061233 C14.8369137,7.24066977 14.9997628,7.15439902 15.0998378,7.22262393 C15.1273164,7.24135667 15.1526438,7.26908905 15.1748084,7.29847466 C15.2474133,7.39476958 15.3200526,7.5932505 15.3390974,7.74343844 L14.7495067,7.74343844 Z" id="Fill-14" fill="#FFFFFF"></path>
                        <path d="M14.7955424,7.4303745 C14.7417593,7.43784436 14.6938988,7.44874693 14.6458498,7.45027511 C14.5480204,7.4533885 14.4652674,7.4029014 14.4106444,7.29549513 C14.3452133,7.16683113 14.2564606,7.12306119 14.1455861,7.13775001 C14.1002626,7.1437487 14.055102,7.15318011 14.0096843,7.15625929 C13.9628352,7.15941829 13.9137576,7.17929609 13.8645001,7.13261805 C13.9270512,7.00458129 14.0168068,6.93882374 14.1239186,6.91522812 C14.2339446,6.89097105 14.3411935,6.91244546 14.437163,6.99082763 C14.5318212,7.06812639 14.6229652,7.15308887 14.7155921,7.23480112 C14.7637097,7.27724815 14.7894484,7.33683593 14.7955424,7.4303745" id="Fill-16" fill="#FFFFFF"></path>
                        <path d="M7.38261856,16.4168603 L7.38261856,16.6643665 C7.20203481,16.6119145 7.03009419,16.5619636 6.8532331,16.51059 C6.87990359,16.3848407 6.91958617,16.2801319 6.9788386,16.1906125 C7.03574713,16.1046382 7.0985154,16.097422 7.16965968,16.1659927 C7.20203481,16.1971862 7.23024779,16.2360319 7.26025316,16.2715505 C7.30090949,16.3197003 7.34147104,16.3679648 7.38261856,16.4168603" id="Fill-18" fill="#FFFFFF"></path>
                        <path d="M5.6243099,4.52101365 C5.81344621,4.43456828 5.99572572,4.35125716 6.18513631,4.26468504 L6.18513631,4.56283053 C6.00679089,4.64323786 5.8269284,4.72434809 5.63852062,4.80931852 C5.63366943,4.71092383 5.62938393,4.62387926 5.6243099,4.52101365" id="Fill-20" fill="#FFFFFF"></path>
                        <path d="M2.38242931,12.7691726 C2.54462042,12.7264263 2.69655421,12.6864241 2.85375342,12.6450212 C2.91196945,12.766394 2.92588522,12.8847126 2.89784853,13.005695 C2.87527101,13.1030826 2.80849582,13.1619032 2.71089167,13.1824669 C2.602221,13.2053613 2.53607265,13.1749578 2.49212571,13.071152 C2.45232728,12.9771171 2.42189722,12.8790751 2.38242931,12.7691726" id="Fill-22" fill="#FFFFFF"></path>
                        <path d="M3.64606593,9.68703474 C3.81858307,9.76994479 3.96864418,9.86097918 3.99275441,10.0809993 C3.91544397,10.0443831 3.84390181,10.0135351 3.77525665,9.9770323 C3.72154218,9.94847934 3.69105512,9.89925341 3.68443831,9.83731303 C3.68109562,9.8061334 3.67638157,9.77927337 3.63379226,9.78161206 L3.63379226,9.85884119 C3.58990015,9.87954907 3.56086159,9.8539282 3.53539715,9.82779247 C3.43516784,9.72489883 3.33646418,9.62046934 3.23405784,9.51333465 C3.25187695,9.49246097 3.26426205,9.4779576 3.28364966,9.45526009 C3.38854159,9.55584994 3.49125648,9.65433671 3.59919969,9.7578412 C3.61641026,9.73183636 3.63002101,9.71127683 3.64606593,9.68703474" id="Fill-24" fill="#FFFFFF"></path>
                        <path d="M5.42004659,11.0253706 C5.35867221,10.9411622 5.30555214,10.8682901 5.25481312,10.7986538 C5.33009962,10.7120931 5.39841305,10.6323481 5.46806441,10.5538308 C5.51933633,10.4960472 5.58137967,10.4619576 5.65885447,10.49171 C5.71047788,10.5115372 5.77000411,10.5317087 5.78001585,10.5975701 C5.79044712,10.6662311 5.78536754,10.7286503 5.71777977,10.7780578 C5.61771901,10.8512052 5.52611665,10.9362398 5.42004659,11.0253706" id="Fill-26" fill="#FFFFFF"></path>
                        <path d="M16.1760857,7.93004206 C16.042034,7.74834333 15.9081469,7.56687058 15.774248,7.38540859 C15.9562903,7.43345625 16.1218421,7.50047548 16.2438462,7.63028489 C16.3423427,7.73506431 16.3187177,7.83577609 16.1760857,7.93004206" id="Fill-28" fill="#FFFFFF"></path>
                        <path d="M4.79329039,10.7627524 C4.75707803,10.7981492 4.72822342,10.8263313 4.68850736,10.8651522 C4.55247364,10.727863 4.41754754,10.591687 4.26390494,10.4366149 C4.39349638,10.3946235 4.50260817,10.359255 4.62210672,10.3205187 C4.67838055,10.4659102 4.73313989,10.6073563 4.79329039,10.7627524" id="Fill-30" fill="#FFFFFF"></path>
                        <path d="M15.1118458,7.2047141 C14.9334337,7.29482297 14.8340756,7.27302303 14.7438122,7.1304642 C14.6675576,7.01002444 14.6199089,6.87658574 14.5824604,6.71393315 C14.6627038,6.75683337 14.7070485,6.81291666 14.7589863,6.85778084 C14.8106597,6.90242407 14.8599303,6.94996414 14.9129854,6.99874396 C14.8984962,7.03583822 14.8856769,7.06866088 14.8705629,7.10732631 C14.9490042,7.13899514 15.0225917,7.16868774 15.1118458,7.2047141" id="Fill-32" fill="#FFFFFF"></path>
                        <path d="M4.6137536,11.2467332 C4.59117163,11.2847215 4.57404631,11.3135641 4.54812721,11.3571619 C4.39237587,11.2119701 4.24221647,11.0719847 4.08436815,10.9248347 C4.10646533,10.8884935 4.12691651,10.8548593 4.15268904,10.8125284 C4.30937613,10.9600816 4.45735964,11.099445 4.6137536,11.2467332" id="Fill-34" fill="#FFFFFF"></path>
                        <path d="M4.7604435,15.9345726 C4.6083975,15.75088 4.47493415,15.5895884 4.3414708,15.4283332 C4.34543103,15.4155352 4.34937999,15.4027371 4.35332894,15.3899391 C4.5206856,15.456144 4.69638019,15.4679073 4.87085625,15.6089761 C4.8337248,15.7184764 4.80106131,15.8147975 4.7604435,15.9345726" id="Fill-36" fill="#FFFFFF"></path>
                        <path d="M12.5942116,2.66487757 C12.4231849,2.62897139 12.2422005,2.80903422 12.0752287,2.51638937 C12.116514,2.39324448 12.1532139,2.28381613 12.2005559,2.14262316 C12.3335481,2.28165036 12.4690897,2.42333728 12.6046142,2.5650242 C12.6011409,2.59830865 12.5976677,2.63159311 12.5942116,2.66487757" id="Fill-38" fill="#FFFFFF"></path>
                        <path d="M3.13057589,4.86666473 C2.94755578,5.05497431 2.77815049,5.22923699 2.60119043,5.41129821 C2.66557647,5.08256729 2.73566513,4.97190918 3.13057589,4.86666473" id="Fill-40" fill="#FFFFFF"></path>
                        <path d="M14.1405572,3.35215612 C14.2427612,3.49527512 14.3269914,3.61317851 14.4388284,3.76987999 C14.2554877,3.94796127 14.1139685,3.84257136 13.909443,3.77541358 C14.0075745,3.59563449 14.0679179,3.48515115 14.1405572,3.35215612" id="Fill-42" fill="#FFFFFF"></path>
                    </g>
                    <path d="M9.00806763,6.88884194 C8.48849954,6.88884194 8.0652106,7.32461289 8.0652106,7.85706974 C8.0652106,8.39002433 8.48849954,8.82585749 9.00806763,8.82585749 C9.52684803,8.82585749 9.95031874,8.39002433 9.95031874,7.85706974 C9.95031874,7.32461289 9.52684803,6.88884194 9.00806763,6.88884194 L9.00806763,6.88884194 Z M10.7713878,8.53387105 L9.43190189,11.4611394 C9.35380005,11.6270733 9.18432693,12.0588001 9.00806763,12.0588001 C8.83102064,12.0588001 8.66112339,11.6270733 8.58744469,11.4611394 L7.24335387,8.53387105 C7.1478624,8.32618923 7.12205062,8.08820753 7.12205062,7.85706974 C7.12205062,6.78643204 7.96535658,5.92136076 9.00806763,5.92136076 C10.0495668,5.92136076 10.8931758,6.78643204 10.8931758,7.85706974 C10.8931758,8.08820753 10.8674852,8.32618923 10.7713878,8.53387105 L10.7713878,8.53387105 Z" id="Fill-55" fill="#FFFFFF"></path>
                </g>
            </g>
        </g>
    </g>
</svg>