<?xml version="1.0" encoding="UTF-8" standalone="no"?>
<svg width="145px" height="25px" viewBox="0 0 145 25" version="1.1" xmlns="http://www.w3.org/2000/svg" xmlns:xlink="http://www.w3.org/1999/xlink">
    <!-- Generator: Sketch 39.1 (31720) - http://www.bohemiancoding.com/sketch -->
    <title>Group 13</title>
    <desc>Created with Sketch.</desc>
    <defs></defs>
    <g id="web-color" stroke="none" stroke-width="1" fill="none" fill-rule="evenodd">
        <g id="sign-in-desktop" transform="translate(-71.000000, -19.000000)" fill="#FFFFFF">
            <g id="Group">
                <g id="Group-13" transform="translate(71.000000, 19.000000)">
                    <g id="Imported-Layers" transform="translate(0.028436, 0.142857)">
                        <path d="M0.577966103,0.13728 L8.07232391,0.13728 C11.6198069,0.13728 13.2720987,2.0304 13.2720987,4.88352 C13.2720987,6.91104 12.3926685,8.72544 10.2853004,9.15072 L10.2853004,9.20352 C12.7920604,9.44544 13.8068613,11.57856 13.8068613,13.55232 C13.8068613,16.85952 12.2073737,19.17888 8.07232391,19.17888 L0.577966103,19.17888 L0.577966103,0.13728 L0.577966103,0.13728 Z M5.53868181,7.60608 L6.73877753,7.60608 C7.75165833,7.60608 8.31234305,6.69792 8.31234305,5.6832 C8.31234305,4.6176 7.75165833,3.71232 6.73877753,3.71232 L5.53868181,3.71232 L5.53868181,7.60608 L5.53868181,7.60608 Z M5.53868181,15.6048 L6.92503239,15.6048 C7.83230476,15.6048 8.68581284,14.80608 8.68581284,13.2576 C8.68581284,11.79168 7.83230476,10.96608 6.92503239,10.96608 L5.53868181,10.96608 L5.53868181,15.6048 L5.53868181,15.6048 Z" id="Fill-1"></path>
                        <path d="M15.5129174,4.75008 L20.3133003,4.75008 L20.3133003,14.27136 C20.3133003,15.4704 20.6339659,15.97824 21.487474,15.97824 C22.340022,15.97824 22.6606876,15.4704 22.6606876,14.27136 L22.6606876,4.75008 L27.4629906,4.75008 L27.4629906,19.17888 L22.8200603,19.17888 L22.8200603,17.4192 L22.7682162,17.4192 C22.1547272,18.83328 20.9267893,19.55232 19.2725773,19.55232 C17.1671294,19.55232 15.5129174,18.7248 15.5129174,15.63168 L15.5129174,4.75008" id="Fill-2"></path>
                        <path d="M35.089839,19.55232 C29.46091,19.55232 28.9539896,16.11168 28.9539896,11.95104 C28.9539896,8.16576 29.6759672,4.3776 35.089839,4.3776 C40.7168479,4.3776 41.2256885,7.81824 41.2256885,11.97888 C41.2256885,15.76608 40.505631,19.55232 35.089839,19.55232 L35.089839,19.55232 Z M35.089839,16.4592 C36.1824062,16.4592 36.4214652,15.6048 36.4214652,11.97888 C36.4214652,8.32416 36.1824062,7.47168 35.089839,7.47168 C34.0222339,7.47168 33.7562926,8.32416 33.7562926,11.97888 C33.7562926,15.6048 34.0222339,16.4592 35.089839,16.4592 L35.089839,16.4592 Z" id="Fill-3"></path>
                        <path d="M43.0911173,20.40672 C43.4377049,20.4864 43.8111747,20.51232 44.1577623,20.51232 C45.3578581,20.51232 45.7572499,19.71168 45.7572499,19.41984 C45.7572499,19.2048 45.6526016,18.7248 45.5460331,18.35328 L41.7316488,4.75008 L46.6914044,4.75008 L48.1574414,14.48544 L48.2121658,14.48544 L49.5994764,4.75008 L54.3998593,4.75008 L50.5317108,19.65792 C49.6782027,22.96608 48.3715385,23.87232 45.7860522,23.87232 C44.7712513,23.87232 43.8918211,23.84736 43.0911173,23.76672 L43.0911173,20.40672" id="Fill-4"></path>
                        <polyline id="Fill-5" points="54.1051158 4.75008 58.7470861 4.75008 59.9471818 15.12672 60.0009461 15.12672 61.4132188 4.75008 66.5361874 4.75008 67.9494201 15.12672 68.0022243 15.12672 69.2023201 4.75008 73.8433303 4.75008 70.9083762 19.17888 65.4685822 19.17888 64.0006252 8.96544 63.9478209 8.96544 62.481784 19.17888 57.0400699 19.17888 54.1051158 4.75008"></polyline>
                        <path d="M79.1765557,12.77856 L79.1765557,14.67168 C79.1765557,16.2192 79.8178869,16.61952 80.4832199,16.61952 C81.3386482,16.61952 81.8446085,16.08576 81.8446085,14.11104 L86.1649531,14.11104 C86.1390311,15.84576 85.7108369,17.20608 84.8054847,18.14016 C83.8982123,19.07232 82.5099416,19.55232 80.5110621,19.55232 C75.8700519,19.55232 74.3761728,17.47392 74.3761728,11.97888 C74.3761728,6.45792 76.1887974,4.3776 80.5110621,4.3776 C84.3513685,4.3776 86.2984038,6.08544 86.2984038,11.31168 L86.2984038,12.77856 L79.1765557,12.77856 L79.1765557,12.77856 Z M81.8186865,9.52416 C81.8186865,8.00352 81.4961007,7.31136 80.4832199,7.31136 C79.4972213,7.31136 79.1765557,8.00352 79.1765557,9.52416 L79.1765557,10.16256 L81.8186865,10.16256 L81.8186865,9.52416 L81.8186865,9.52416 Z" id="Fill-6"></path>
                        <path d="M94.6443495,19.17888 C94.4849768,18.67296 94.4321726,18.14016 94.3515262,17.55264 L94.299682,17.55264 C93.7649194,18.83328 92.4860974,19.55232 91.0459825,19.55232 C88.1638326,19.55232 87.0443833,17.79168 87.0443833,15.31392 C87.0443833,12.64608 87.9785378,11.39232 91.0459825,10.67232 L92.9402136,10.21824 C93.9790164,9.97824 94.3515262,9.52416 94.3515262,8.6448 C94.3515262,7.76352 93.9521343,7.31136 93.1255084,7.31136 C92.218236,7.31136 91.791962,7.70976 91.7641198,9.2304 L87.605068,9.2304 C87.605068,5.0976 90.939414,4.3776 93.1255084,4.3776 C96.4857764,4.3776 98.8331636,5.25792 98.8331636,9.01824 L98.8331636,16.05888 C98.8331636,17.39328 98.887888,18.432 99.2872799,19.17888 L94.6443495,19.17888 L94.6443495,19.17888 Z M94.3515262,13.95456 L94.3515262,12.21888 L94.299682,12.21888 C94.0308606,12.59136 93.3655275,12.56544 92.6713921,12.88608 C91.9254126,13.23168 91.6853935,13.7904 91.6853935,14.75232 C91.6853935,15.71232 92.1395097,16.3248 92.8595672,16.3248 C93.9262122,16.3248 94.3515262,15.52608 94.3515262,13.95456 L94.3515262,13.95456 Z" id="Fill-7"></path>
                        <path d="M100.060142,4.75008 L101.659629,4.75008 L101.659629,0.51072 L106.461932,0.51072 L106.461932,4.75008 L108.355203,4.75008 L108.355203,7.9776 L106.461932,7.9776 L106.461932,14.85888 C106.461932,15.68544 106.834442,15.97824 107.609224,15.97824 L108.355203,15.97824 L108.355203,19.17888 C107.475773,19.28544 106.542579,19.3392 105.741875,19.3392 C102.808841,19.3392 101.659629,18.8592 101.659629,15.65856 L101.659629,7.9776 L100.060142,7.9776 L100.060142,4.75008" id="Fill-8"></path>
                        <path d="M109.368084,0.13728 L114.170387,0.13728 L114.170387,6.3504 L114.223191,6.3504 C115.021975,4.83072 116.383364,4.3776 117.556577,4.3776 C119.529535,4.3776 121.318157,5.2848 121.318157,8.29824 L121.318157,19.17888 L116.515854,19.17888 L116.515854,9.65856 C116.515854,8.4576 116.195189,7.95168 115.344561,7.95168 C114.489132,7.95168 114.170387,8.4576 114.170387,9.65856 L114.170387,19.17888 L109.368084,19.17888 L109.368084,0.13728" id="Fill-9"></path>
                        <path d="M127.611459,12.77856 L127.611459,14.67168 C127.611459,16.2192 128.25087,16.61952 128.918123,16.61952 C129.771632,16.61952 130.277592,16.08576 130.277592,14.11104 L134.599857,14.11104 C134.572014,15.84576 134.146701,17.20608 133.238468,18.14016 C132.333116,19.07232 130.945805,19.55232 128.945006,19.55232 C124.303995,19.55232 122.811076,17.47392 122.811076,11.97888 C122.811076,6.45792 124.624661,4.3776 128.945006,4.3776 C132.785312,4.3776 134.733307,6.08544 134.733307,11.31168 L134.733307,12.77856 L127.611459,12.77856 L127.611459,12.77856 Z M130.25167,9.52416 C130.25167,8.00352 129.931004,7.31136 128.918123,7.31136 C127.932125,7.31136 127.611459,8.00352 127.611459,9.52416 L127.611459,10.16256 L130.25167,10.16256 L130.25167,9.52416 L130.25167,9.52416 Z" id="Fill-10"></path>
                        <path d="M135.931483,4.75008 L140.574413,4.75008 L140.574413,7.04544 L140.625297,7.04544 C141.1591,5.30976 142.439842,4.3776 143.854035,4.3776 L144.628817,4.3776 L144.628817,8.85792 C144.200622,8.77824 143.828113,8.7504 143.426801,8.7504 C141.719785,8.7504 140.733786,9.4176 140.733786,11.31168 L140.733786,19.17888 L135.931483,19.17888 L135.931483,4.75008" id="Fill-11"></path>
                    </g>
                </g>
            </g>
        </g>
    </g>
</svg>
