<?xml version="1.0" encoding="UTF-8" standalone="no"?>
<svg width="72px" height="13px" viewBox="0 0 72 13" version="1.1" xmlns="http://www.w3.org/2000/svg" xmlns:xlink="http://www.w3.org/1999/xlink">
    <!-- Generator: Sketch 40.3 (33839) - http://www.bohemiancoding.com/sketch -->
    <title>Imported Layers Copy</title>
    <desc>Created with Sketch.</desc>
    <defs></defs>
    <g id="-Account" stroke="none" stroke-width="1" fill="none" fill-rule="evenodd">
        <g id="Overview-SL-BW-Premium" transform="translate(-468.000000, -152.000000)" fill="#FFFFFF">
            <g id="Group-12" transform="translate(422.000000, 120.000000)">
                <g id="Group-10" transform="translate(46.000000, 32.000000)">
                    <g id="Imported-Layers-Copy">
                        <path d="M4.60314183,11.2778144 C4.34774147,11.2740663 4.10072063,11.2363984 3.86574532,11.1681839 C5.14501653,10.8334827 6.10185134,9.60430885 6.12035608,8.12776348 C6.1254187,7.68924131 6.46059893,7.33861098 6.86927441,7.34498267 C7.27690245,7.35097955 7.60317946,7.71060521 7.59776769,8.14800297 C7.57542234,9.90077983 6.23505057,11.3010523 4.60314183,11.2778144 L4.60314183,11.2778144 Z M2.41696369,8.86725429 C2.00846278,8.86069519 1.68201121,8.50200655 1.68759754,8.06385918 C1.70959375,6.31126973 3.04996552,4.91043502 4.68222341,4.93423516 C4.93710004,4.9372336 5.18447004,4.97602594 5.41996906,5.04442791 C4.14017413,5.378192 3.18368847,6.60624148 3.16500915,8.08466088 C3.15977196,8.52280824 2.82459173,8.87325117 2.41696369,8.86725429 L2.41696369,8.86725429 Z M8.77124764,6.03803668 C8.26027237,4.63232951 4.64224619,0.0419019286 4.64224619,0.0419019286 C4.64224619,0.0419019286 1.02369629,4.63232951 0.513244727,6.03803668 C0.239339633,6.66621032 0.0858899339,7.36690878 0.0858899339,8.10527517 C0.0858899339,10.807059 2.12577586,12.9961092 4.64224619,12.9961092 C7.15854193,12.9961092 9.19825329,10.807059 9.19825329,8.10527517 C9.19825329,7.36690878 9.04480359,6.66621032 8.77124764,6.03803668 L8.77124764,6.03803668 Z" id="Fill-1"></path>
                        <path d="M12.1146704,8.34140249 L12.2880215,8.50819083 C12.8964085,9.08520355 13.6615621,9.55595897 14.5527575,9.55595897 C14.9350724,9.55595897 15.5682488,9.38898323 15.6441881,8.87268896 C15.7203019,8.3563947 15.2180553,8.31085586 14.8751939,8.23477039 L14.1192926,8.08278685 C12.6479911,7.79418679 11.5160595,6.83749633 11.7805376,5.04480271 C12.1813573,2.32671487 14.7124918,0.807441698 17.0322183,0.807441698 C18.2488178,0.807441698 19.3194742,1.12640099 20.2660092,1.809671 L18.7863282,4.74121044 C18.1929544,4.2552754 17.4990266,3.87559766 16.6645675,3.87559766 C16.3246738,3.87559766 15.8096833,4.01202678 15.7402033,4.48315701 C15.6775315,4.90837359 16.1494025,4.96909205 16.4353531,5.04480271 L17.281334,5.25769211 C18.8638386,5.65292427 19.9135463,6.59480992 19.6265482,8.53855006 C19.2236336,11.2723797 16.704021,12.6241149 14.3972129,12.6241149 C13.0535242,12.6241149 11.5551639,12.229445 10.4490691,11.5763468 L12.1146704,8.34140249" id="Fill-2"></path>
                        <path d="M24.4852649,4.37689971 L23.871117,8.53855006 C23.8019861,9.00893068 23.7565971,9.51042013 24.3506691,9.51042013 C24.944392,9.51042013 25.0472156,9.00893068 25.1163465,8.53855006 L25.7301453,4.37689971 L29.3528849,4.37689971 L28.680255,8.93322001 C28.303701,11.4850817 26.0698644,12.6241149 23.891542,12.6241149 C21.7121723,12.6241149 19.8142142,11.4850817 20.1909428,8.93322001 L20.8637473,4.37689971 L24.4852649,4.37689971" id="Fill-3"></path>
                        <path d="M35.9650133,8.17386453 C35.6191841,7.93080331 35.3796699,7.73365574 34.9121633,7.73365574 C33.96493,7.73365574 33.3944253,8.34140249 33.2460382,9.34381919 L32.789006,12.4423344 L29.1383347,12.4423344 L30.3287482,4.37689971 L33.9787212,4.37689971 L33.7351919,5.45540189 L33.8195106,5.45540189 C34.6274346,4.39189193 35.3260759,4.16419772 36.5528007,4.19455695 L35.9650133,8.17386453" id="Fill-4"></path>
                        <path d="M38.282994,3.66289567 C38.6305689,1.30874375 39.8133013,0.00235997233 42.077339,0.00235997233 C42.6143256,0.00235997233 43.1254755,0.0936250563 43.6495437,0.184702738 L43.1898929,3.29858494 C43.0168911,3.22287428 42.8843901,3.16159362 42.7147051,3.16159362 C42.0920031,3.16159362 41.8702954,3.70862191 41.7913883,4.24009579 L41.7470468,4.54387546 L43.0020523,4.37689971 L42.5382118,7.52057894 L41.3800943,7.41469645 L40.6378097,12.4423344 L36.9881858,12.4423344 L37.7295975,7.41469645 L36.7233585,7.52057894 L37.1871991,4.37689971 L38.1578252,4.51389104 L38.282994,3.66289567" id="Fill-5"></path>
                        <polyline id="Fill-6" points="44.6346594 0.123984283 48.2846324 0.123984283 46.4675017 12.4423344 42.8170049 12.4423344 44.6346594 0.123984283"></polyline>
                        <path d="M49.029361,4.37689971 L52.6800323,4.37689971 L51.489968,12.4423344 L47.8394712,12.4423344 L49.029361,4.37689971 L49.029361,4.37689971 Z M53.2309848,1.88594387 C53.0361613,3.20750726 51.9888977,3.78470738 50.9421578,3.78470738 C49.8948941,3.78470738 49.0178392,3.20750726 49.2130118,1.88594387 C49.3856646,0.716176614 50.3540212,0.00235997233 51.499744,0.00235997233 C52.6459906,0.00235997233 53.4036376,0.716176614 53.2309848,1.88594387 L53.2309848,1.88594387 Z" id="Fill-7"></path>
                        <path d="M57.1724949,5.66791648 L57.2575119,5.66791648 C58.0944151,4.78712409 58.719212,4.19455695 59.8939139,4.19455695 C61.76202,4.19455695 62.2757884,5.6982757 62.0137543,7.4752275 L61.2812459,12.4423344 L57.6302254,12.4423344 L58.2105061,8.50819083 C58.2805099,8.03724801 58.3789691,7.36897021 57.7566162,7.36897021 C57.1478801,7.36897021 57.0494209,8.03724801 56.9795917,8.50819083 L56.4000092,12.4423344 L52.7491633,12.4423344 L53.9390531,4.37689971 L57.5045328,4.37689971 L57.1724949,5.66791648" id="Fill-8"></path>
                        <path d="M66.4250404,7.39951684 C66.507788,6.83749633 66.8482054,6.35137389 67.4003799,6.35137389 C67.9239245,6.35137389 68.2175563,6.85267594 68.136729,7.39951684 L66.4250404,7.39951684 L66.4250404,7.39951684 Z M71.484167,9.06983654 C72.1140265,6.04759422 70.2790893,4.19455695 67.6049795,4.19455695 C65.2138526,4.19455695 63.0430369,5.86543886 62.6490256,8.53855006 C62.2391281,11.318106 64.2105814,12.6241149 66.5734275,12.6241149 C68.2999548,12.6241149 70.4552335,11.7279555 71.2230057,9.78365318 L67.671841,9.78365318 C67.5452755,10.1635183 67.2193477,10.4521184 66.837731,10.4521184 C66.0734503,10.4521184 66.0820044,9.72312213 66.1785432,9.06983654 L71.484167,9.06983654 L71.484167,9.06983654 Z" id="Fill-9"></path>
                    </g>
                </g>
            </g>
        </g>
    </g>
</svg>