{
  "created": 1326853478,
  "livemode": false,
  "id": "plan.updated_00000000000000",
  "type": "plan.updated",
  "object": "event",
  "request": null,
  "pending_webhooks": 1,
  "api_version": "2018-11-08",
  "data": {
    "object": {
      "id": "bw_00000000000000",
      "object": "plan",
      "active": true,
      "aggregate_usage": null,
      "amount": 1299,
      "billing_scheme": "per_unit",
      "created": 1532043762,
      "currency": "usd",
      "interval": "month",
      "interval_count": 1,
      "livemode": false,
      "metadata": {
        "description": "Billed once a month at $12.99.",
        "entitlement": "bw_premium",
        "features": "premium",
        "query_set": "bw",
        "rank": "3",
        "upgradable": "true",
        "status": "active"
      },
      "nickname": "Buoyweather Premium Monthly",
      "product": "prod_00000000000000",
      "tiers": null,
      "tiers_mode": null,
      "transform_usage": null,
      "trial_period_days": 15,
      "usage_type": "licensed"
    },
    "previous_attributes": {
      "name": "Old name"
    }
  }
}
