{
  "_type": "travel",
  "_source": {
    "articleId": 303,
    "createdAt": 1489194883454,
    "updatedAt": 1489194883454,
    "relatedPosts": [],
    "targetTaxonomy": "58f7ed5fdadb30820bb3987c",
    "content": {
      "title": "Winter is Coming!",
      "subtitle": "So say we all.",
      "summary": "Summary and warm.",
      "body": "Test body"
    },
    "media": {
      "type": "image",
      "thumbnail": "http://i.cdn-surfline.com/forecasters/2017/03_MAR/PACoutlook_spring/creek_pacoutlook.jpg",
      "medium": "http://i.cdn-surfline.com/forecasters/2017/03_MAR/PACoutlook_spring/creek_pacoutlook.jpg",
      "large": "http://i.cdn-surfline.com/forecasters/2017/03_MAR/PACoutlook_spring/creek_pacoutlook.jpg",
      "full": "http://i.cdn-surfline.com/forecasters/2017/03_MAR/PACoutlook_spring/creek_pacoutlook.jpg"
    }
  }
}