[
  {
    "type": "npacwave",
    "name": "North Pacific Wave Height",
    "slug": "north-pacific-wave-height"
  },
  {
    "type": "npacperiod",
    "name": "North Pacific Dominant Wave Period",
    "slug": "north-pacific-dominant-wave-period"
  },
  {
    "type": "npacwind",
    "name": "North Pacific Wind (GFS)",
    "slug": "north-pacific-wind-gfs"
  },
  {
    "type": "npaceband10",
    "name": "North Pacific Swell T>10s",
    "slug": "north-pacific-swell-10-seconds"
  },
  {
    "type": "npaceband13",
    "name": "North Pacific Swell T>13s",
    "slug": "north-pacific-swell-13-seconds"
  },
  {
    "type": "npaceband16",
    "name": "North Pacific Swell T>16s",
    "slug": "north-pacific-swell-16-seconds"
  },
  {
    "type": "npaceband20",
    "name": "North Pacific Swell T>20s",
    "slug": "north-pacific-swell-20-seconds"
  }
]
