{
    "imageName": "services/breaking-wave-height-api",
    "compose": "breaking-wave-height-api",
    "serviceName": "wt-breaking-wave-height-api",
    "cluster": "sl-core-svc",
    "secrets": {
        "common": {
          "prefix": "/{env}/common/",
          "secrets": []
        },
        "service": {
          "prefix": "/{env}/services/breaking-wave-height-api/",
          "secrets": ["PORT"]
        }
    },
    "taskRoleArn": {
        "staging": "arn:aws:iam::665294954271:role/breaking_wave_height_api_task_role_staging",
        "sandbox": "arn:aws:iam::665294954271:role/breaking_wave_height_api_task_role_sandbox",
        "prod": "arn:aws:iam::833713747344:role/breaking_wave_height_api_task_role_prod"
    }
}
