@startuml
!includeurl https://raw.githubusercontent.com/RicardoNiepel/C4-PlantUML/master/C4_Component.puml

title live-wind ingestion


ContainerDb(liveWindDb, "Live wind S3 bucket", "Live wind S3 bucket which will hold raw live wind collected from a batch of weather link requests it can contain multiple stations or a single station")

ContainerDb(liveWindPostGres, "live wind Postgres DB", "")

Component(liveWindIngestionLambda, "Live wind ingestion lambda", "Loop through stations in file generate a row in Postgres for each sensor", "")
Component(liveWindS3PushEvent, "SNS", "Triggered via S3 push event", "")

Component(liveWindSQSMessage, "SQS", "Triggered via SQS message from SNS", "")




liveWindDb --> liveWindS3PushEvent
liveWindS3PushEvent --> liveWindSQSMessage
liveWindSQSMessage --> liveWindIngestionLambda
liveWindIngestionLambda --> liveWindPostGres

@enduml