@startuml
!define AWSPuml https://raw.githubusercontent.com/awslabs/aws-icons-for-plantuml/v11.1/dist
!includeurl AWSPuml/AWSCommon.puml
!includeurl AWSPuml/Containers/all.puml
!includeurl AWSPuml/Compute/LambdaLambdaFunction.puml
!includeurl AWSPuml/ApplicationIntegration/SimpleNotificationServiceTopic.puml
!includeurl AWSPuml/Database/Database.puml
!includeurl AWSPuml/General/User.puml

UserParticipant(user, Internal User, Via the POI/Spot CMS)
ElasticContainerServiceServiceParticipant(spot_api, Spot Admin API, spots source-of-truth)
ElasticContainerServiceServiceParticipant(api, Weather-stations API, Node)
SimpleNotificationServiceTopicParticipant(spot_updated_sns, Spot Updated, spot_details_updated_prod)
LambdaLambdaFunctionParticipant(report_builder, Spot report view builder, Node)

user                -> spot_api         : Update the list of stations assicated with a spot
spot_api            -> api              : Request station and its sensors for any new station_ids
api               -->> spot_api
spot_api			      -> spot_api         : Calclulate and store the chosen sensor_id to use against each spot.
spot_api            -> spot_updated_sns : Notify on spots that are changed
spot_updated_sns    -> report_builder   : SNS subscription
note right							              	: This will be a full report update, in particular will update the sensor information on spot-rerport and the current wind and rating information.

@enduml
