{
  "id": 1,
  "name": "Roberto Recinos",
  "url": "",
  "description": "Front-end Developer",
  "link": "http://localhost:8080/surf-news/author/admin",
  "slug": "admin",
  "avatar_urls": {
    "24": "http://2.gravatar.com/avatar/bd9e5d564976b763e5d5aa60a3bc1996?s=24&d=mm&r=g",
    "48": "http://2.gravatar.com/avatar/bd9e5d564976b763e5d5aa60a3bc1996?s=48&d=mm&r=g",
    "96": "http://2.gravatar.com/avatar/bd9e5d564976b763e5d5aa60a3bc1996?s=96&d=mm&r=g"
  },
  "meta": [],
  "acf": [],
  "_links": {
    "self": [
      {
        "href": "http://localhost:8080/wp-json/wp/v2/users/1"
      }
    ],
    "collection": [
      {
        "href": "http://localhost:8080/wp-json/wp/v2/users"
      }
    ]
  }
}
