{
  "variables": {
    "aws_region": "us-west-1",
    "aws_source_ami": "ami-824c4ee2",
    "sl_brand": "surfline",
    "surfline_science_version": ""
  },
  "builders": [
    {
      "type": "amazon-ebs",
      "region": "{{user `aws_region`}}",
      "source_ami": "{{user `aws_source_ami`}}",
      "instance_type": "r5.xlarge",
      "ssh_username": "ec2-user",
      "iam_instance_profile": "sl-airflow-celery-prod-InstanceProfile-6SWSDCC5ONQG",
      "security_group_ids": ["sg-a4a0e5c1", "sg-895b87ef", "sg-a5a0e5c0"],
      "subnet_id": "subnet-d1bb6988",
      "ami_name": "surfline-science-{{user `surfline_science_version`}}-{{timestamp}}",
      "ami_users": ["665294954271", "833713747344", "094422976157"],
      "launch_block_device_mappings": [
        {
          "device_name": "/dev/xvda",
          "volume_size": "60",
          "volume_type": "gp2"
        }
      ],
      "tags": {
        "Application": "science",
        "surfline-science": "{{user `surfline_science_version`}}"
      },
      "user_data":
        "#cloud-config\nrepo_releasever: 2017.09\nrepo_update: true\nrepo_upgrade: all\n"
    }
  ],
  "provisioners": [
     {
       "type": "chef-solo",
       "cookbook_paths": ["/tmp/berks-vendor"],
       "run_list": ["recipe[surfline-science::all-tools]"],
       "version": "12.19.36",
       "json": {
         "surfline-science": {
           "bucket": "sl-artifacts-prod"
         }
       }
     }
  ]
}
