{
  "Version": "2012-10-17",
  "Statement": [
    {
      "Action": [
        "ssm:GetParameter*"
      ],
      "Resource": [
        "${ssm_parameter_name}"
      ],
      "Effect": "Allow"
    },
    {
      "Action": [
        "kms:Decrypt"
      ],
      "Resource": [
        "${kms_key}"
      ],
      "Effect": "Allow"
    }
  ]
}
