<svg xmlns="http://www.w3.org/2000/svg" xmlns:xlink="http://www.w3.org/1999/xlink" width="48" height="49" viewBox="0 0 48 49">
    <defs>
        <path id="a" d="M.075 24.455c0 13.122 10.58 23.758 23.63 23.758 13.051 0 23.63-10.636 23.63-23.758 0-13.12-10.579-23.757-23.63-23.757C10.655.698.075 11.335.075 24.455z"/>
        <path id="c" d="M.075 24.455c0 13.122 10.58 23.758 23.63 23.758 13.051 0 23.63-10.636 23.63-23.758 0-13.12-10.579-23.757-23.63-23.757C10.655.698.075 11.335.075 24.455z"/>
        <path id="e" d="M.075 24.455c0 13.122 10.58 23.758 23.63 23.758 13.051 0 23.63-10.636 23.63-23.758 0-13.12-10.579-23.757-23.63-23.757C10.655.698.075 11.335.075 24.455z"/>
        <path id="g" d="M46.384 27.662c.14-1.049.213-2.12.213-3.207 0-13.12-10.58-23.757-23.63-23.757C12.695.698 3.953 7.288.697 16.49v11.171h45.687z"/>
        <path id="i" d="M23.705 48.213c13.051 0 23.63-10.636 23.63-23.758 0-13.12-10.579-23.757-23.63-23.757C10.655.698.075 11.335.075 24.455c0 13.122 10.58 23.758 23.63 23.758z"/>
    </defs>
    <g fill="none" fill-rule="evenodd">
        <g>
            <mask id="b" fill="#fff">
                <use xlink:href="#a"/>
            </mask>
            <path fill="#A2A2A2" d="M-37.224-4.578c5.81 2.336 13.033 5.226 15.796 11.144.187 3.23-.938 5.98-2.137 8.883-1.687 4.07-3.6 8.682-2.525 15.894.826 5.477 4.025 8.996 7.736 13.066 1.537 1.683 3.1 3.418 4.6 5.39 3.91 5.177 6.585 11.02 8.66 16.057 2.086 5.013 3.723 8.97 9.198 10.29 3.273.792 7.848 1.345 10.985 1.672 1.736.187 3.349.288 4.799.288 2.412 0 4.486-.264 6.236-.778 3.71-1.107 6.073-4.147 9.047-7.991a126.006 126.006 0 0 1 2.837-3.556c.7-.855 1.624-1.785 2.612-2.79 2.05-2.072 4.162-4.221 4.749-5.942.213-.665.15-1.269.1-1.96-.05-.529-.1-1.106-.037-1.797l.012-.038-.025-.026c-1.987-2.637-4.4-4.748-6.736-6.809-3.961-3.492-7.724-6.784-9.135-12.2-.75-2.852-.475-5.905.824-9.335 1.388-3.618 4.613-7.6 9.11-11.194 2.025-1.622 4.175-3.304 6.449-5.101C56.367.41 68.2-8.863 74.663-16.942l.011-.05c.213-.992.139-2.123-.15-3.367-.837-3.393-3.474-7.425-7.248-11.069-3.598-3.455-7.686-6.044-10.948-6.948a18.76 18.76 0 0 0-1.324-.327c-4.348-.98-8.86-.301-13.21.352-3.762.565-7.334 1.105-10.797.654-7.485-.993-12.871-6.031-14.772-13.822-2.5-10.227 4.413-16.646 11.097-22.866 4.925-4.598 10.036-9.336 11.373-15.592 1.275-5.893-.387-12.25-1.487-16.459-.437-1.697-.975-3.393-1.55-5.076h-.175a69.137 69.137 0 0 1 1.563 5.126c1.087 4.184 2.749 10.516 1.487 16.37-1.325 6.209-6.411 10.933-11.334 15.505-6.711 6.245-13.66 12.702-11.135 23.03 1.912 7.853 7.373 12.941 14.921 13.935 3.475.451 7.047-.077 10.834-.641 4.337-.654 8.824-1.32 13.148-.353.537.113 1.062.252 1.324.327 6.475 1.784 16.272 10.58 18.058 17.88.314 1.23.363 2.336.176 3.29C68.063-8.976 56.255.297 45.83 8.463a688.85 688.85 0 0 0-6.461 5.088c-4.51 3.619-7.76 7.614-9.148 11.283-1.311 3.456-1.587 6.533-.836 9.423 1.437 5.465 5.198 8.795 9.184 12.3 2.325 2.037 4.712 4.146 6.7 6.748-.064.69-.013 1.268.024 1.796.075.68.125 1.257-.088 1.885-.574 1.684-2.661 3.832-4.711 5.892-.974.993-1.912 1.935-2.612 2.79a98.729 98.729 0 0 0-2.849 3.569c-2.963 3.818-5.3 6.834-8.96 7.927-2.787.829-6.374.992-10.96.49-3.15-.34-7.71-.892-10.973-1.671-5.387-1.281-7.023-5.214-9.085-10.19-2.087-5.05-4.749-10.906-8.674-16.107-1.5-1.973-3.073-3.706-4.6-5.39-3.697-4.046-6.884-7.55-7.696-12.979-1.075-7.161.824-11.748 2.499-15.805 1.2-2.928 2.35-5.692 2.161-8.972l-.011-.037c-2.8-5.968-10.061-8.895-15.897-11.22-1.588-.64-3.224-1.294-5.01-1.683-4.125-.892-8.05-1.383-11.736-1.534v.177c3.674.126 7.587.64 11.697 1.52 1.774.377 3.411 1.03 4.987 1.659" mask="url(#b)"/>
        </g>
        <g>
            <mask id="d" fill="#fff">
                <use xlink:href="#c"/>
            </mask>
            <path fill="#27AAE1" d="M19.887 78.848c-1.441 0-3.083-.098-4.877-.292-4.779-.498-8.507-1.066-11.079-1.688-5.826-1.405-7.618-5.708-9.693-10.692-1.934-4.695-4.64-10.712-8.58-15.928-1.47-1.931-2.993-3.626-4.555-5.336-3.79-4.157-7.062-7.746-7.923-13.458-1.105-7.417.849-12.13 2.572-16.29 1.145-2.77 2.228-5.388 2.09-8.412-2.677-5.55-9.665-8.36-15.289-10.62l.047-.145-.034-.014c-.003 0-.005-.002-.007-.003l-.056.142c-1.548-.618-3.147-1.257-4.867-1.622-4.091-.876-7.983-1.383-11.569-1.505l-.713-.025v-1.667l.768.032c3.844.156 7.835.678 11.86 1.55 1.887.41 3.61 1.105 5.13 1.719 5.946 2.368 13.346 5.316 16.29 11.592l.065.183.016.129c.197 3.412-.956 6.223-2.175 9.2l-.04.096c-1.643 3.978-3.495 8.466-2.452 15.412.781 5.225 3.9 8.637 7.51 12.587l.08.09c1.51 1.665 3.069 3.387 4.563 5.352 3.98 5.276 6.667 11.187 8.77 16.274 2.057 4.966 3.544 8.555 8.572 9.751 2.48.592 6.04 1.134 10.881 1.656 4.483.49 7.972.34 10.672-.464 3.43-1.025 5.703-3.954 8.58-7.663a99.33 99.33 0 0 1 2.875-3.601c.654-.799 1.501-1.66 2.398-2.574l.252-.257c1.687-1.696 3.994-4.014 4.539-5.612.158-.467.123-.921.051-1.561l-.01-.153a11.413 11.413 0 0 1-.036-1.495c-1.957-2.504-4.328-4.58-6.427-6.419-3.89-3.42-7.911-6.956-9.414-12.67-.79-3.04-.508-6.271.86-9.877 1.426-3.773 4.757-7.892 9.377-11.599 1.96-1.568 4.004-3.17 6.47-5.095C55.683-.197 67.355-9.342 73.832-17.361c.13-.823.064-1.76-.198-2.788-1.74-7.105-11.256-15.616-17.538-17.348a20.018 20.018 0 0 0-1.28-.316c-4.226-.946-8.63-.281-12.887.36-3.829.57-7.444 1.11-11.039.643-7.889-1.038-13.553-6.321-15.544-14.494-2.626-10.744 4.471-17.35 11.335-23.737 4.853-4.507 9.855-9.152 11.13-15.13 1.219-5.654-.396-11.859-1.463-15.965a69.512 69.512 0 0 0-1.562-5.133l-.34-.986h1.74l.172.5c.677 1.986 1.175 3.617 1.565 5.133 1.118 4.28 2.806 10.74 1.494 16.803-1.377 6.44-6.518 11.24-11.49 15.883l-.102.095c-6.536 6.08-13.276 12.351-10.883 22.145 1.824 7.478 6.982 12.312 14.151 13.263 3.349.436 6.847-.09 10.552-.646 4.466-.671 9.038-1.359 13.52-.349.56.115 1.096.261 1.365.337 3.375.936 7.585 3.6 11.256 7.127 3.868 3.733 6.584 7.898 7.456 11.426.331 1.435.381 2.643.154 3.702l-.037.172-.12.187C68.729-8.337 56.874.954 46.414 9.152l-2.064 1.627c-1.53 1.206-3 2.364-4.408 3.492-4.377 3.496-7.53 7.36-8.881 10.88-1.244 3.285-1.505 6.19-.8 8.879 1.348 5.165 4.987 8.374 8.84 11.77l.197.174c2.306 2.033 4.69 4.137 6.68 6.767l.284.29-.1.391c-.05.621 0 1.16.042 1.597l.01.15c.05.662.1 1.347-.142 2.106-.655 1.92-2.827 4.115-4.929 6.24l-.194.197c-.894.91-1.738 1.77-2.37 2.54a126.043 126.043 0 0 0-2.826 3.541c-2.932 3.792-5.467 7.068-9.42 8.246-1.825.538-3.993.81-6.446.81" mask="url(#d)"/>
        </g>
        <g>
            <mask id="f" fill="#fff">
                <use xlink:href="#e"/>
            </mask>
            <path fill="#27AAE1" d="M-8.386 31.755c3.133 10.876 6.805 19.08 11.221 25.078 1.006 1.365 2.242 2.93 3.793 4.186 2.19 1.736 5.28 2.775 8.261 2.775 2.951 0 5.452-1.008 7.042-2.836 1.812-2.067 2.467-5.064 1.948-8.91-.28-2.257-1.155-4.745-1.926-6.94-.843-2.41-1.702-4.869-2.023-7.259-1.245-9.295 2.68-18.899 10.498-25.688 3.346-2.923 6.78-5.289 9.812-7.376 3.452-2.389 6.984-4.833 10.334-7.868 4.995-4.569 10.653-9.742 11.62-17.362-.586-3.559-1.692-7.197-5.655-9.782-2.307-1.495-4.853-2.192-8.008-2.192-2.666 0-5.461.495-8.42 1.02l-.35.062c-3.018.563-6.782 1.267-10.6 1.267-.923 0-1.828-.04-2.69-.117-1.756-.167-3.918-.692-6.205-1.248-2.883-.716-6.087-1.512-8.551-1.512-.525 0-.94.025-1.304.08-3.115.494-6.56 3.324-9.211 5.734-4.438 4.057-8.638 8.268-9.295 11.58-.248 1.302-.15 3.495.01 4.976.24 2.339.741 4.357 1.226 6.308l.032.126c.864 3.467 1.844 7.397 1.382 13.542-.224 3.058-.851 5.726-1.405 8.08-.943 3.982-1.92 8.099-1.536 14.276m23.275 33.688c-3.374 0-6.844-1.175-9.285-3.14-1.688-1.359-3.017-3.029-4.093-4.485-4.563-6.223-8.325-14.626-11.501-25.691l-.028-.16c-.407-6.44.59-10.73 1.555-14.878v-.005c.652-2.736 1.168-5.049 1.383-7.812.439-5.81-.464-9.463-1.338-12.996l-.079-.317c-.486-1.954-.987-3.972-1.232-6.367-.18-1.675-.269-3.996.024-5.472.757-3.795 5.158-8.235 9.8-12.467 2.815-2.572 6.504-5.596 10.071-6.14a9.05 9.05 0 0 1 1.549-.121c2.55 0 5.7.767 8.749 1.509l.135.032c2.435.609 4.421 1.085 6.033 1.238.85.065 1.705.097 2.529.097 3.52 0 6.94-.613 10.249-1.207l.23-.041c3.093-.56 6.013-1.088 8.891-1.088 3.504 0 6.328.781 8.888 2.457 4.566 2.962 5.803 7.22 6.412 10.996l.01.163-.006.082c-1 8.336-6.935 13.737-12.173 18.502-3.41 3.115-6.996 5.6-10.464 8.005l-.318.22c-3.091 2.13-6.287 4.334-9.372 7.038-7.401 6.446-11.116 15.503-9.94 24.23.292 2.244 1.13 4.63 1.94 6.939.788 2.257 1.68 4.813 2.01 7.26.568 4.362-.22 7.798-2.34 10.214-1.9 2.194-4.845 3.405-8.289 3.405" mask="url(#f)"/>
        </g>
        <g transform="translate(.738)">
            <mask id="h" fill="#fff">
                <use xlink:href="#g"/>
            </mask>
            <path fill="#27AAE1" d="M2.877 16.719c.127.577.223 1.167.323 1.79l.081.499c.458 2.885.888 5.597 3.267 6.975 3.024-.341 5.115-3.296 7.327-6.42l.21-.298c.807-1.14 1.64-2.321 2.55-3.353C21.99 9.689 27.974 5.587 33.762 1.62c4.058-2.77 7.85-5.358 11.225-8.538l.16-.115c.963-.469 1.586-1.288 2.245-2.156l.054-.07c.545-.683 1.107-1.388 1.846-1.982 2.827-3.577 3.786-7.709 2.443-10.546-1.21-2.517-4.13-3.85-8.443-3.85-.731 0-1.542.046-2.411.135-1.683.155-3.592.504-5.613.872l-.692.126c-2.603.474-5.486.999-8.414 1.314l-.545.056c-.418.044-.825.085-1.23.12l-.069.008c-8.013.831-12.037 1.249-16.453 6.517C4.672-12.677 2.963-7.952 2.49-1.62c-.305 4.071-.068 8.573.14 12.544l.07 1.364c.08 1.574.156 3.062.177 4.43zm3.525 10.943h-.229l-.159-.082c-3.332-1.76-3.898-5.392-4.354-8.31l-.062-.383a27.602 27.602 0 0 0-.351-1.885l-.02-.162c-.024-1.653-.117-3.46-.236-5.648-.214-4.06-.455-8.66-.15-12.934.513-6.722 2.347-11.752 5.772-15.83 4.897-5.793 9.96-6.3 17.624-7.07.404-.052.828-.094 1.27-.138l.49-.049c2.851-.307 5.7-.827 8.213-1.285l.078-.014c2.507-.468 4.574-.84 6.433-1.026 1.01-.089 1.825-.13 2.572-.13 6.301 0 8.869 2.6 9.914 4.78 1.637 3.401.578 8.262-2.7 12.384l-.132.128c-.593.452-1.08 1.07-1.552 1.668l-.128.162c-.692.894-1.478 1.912-2.675 2.54C42.633-2.46 38.834.147 34.814 2.904l-.157.108c-5.696 3.9-11.587 7.935-16.787 13.978-.827.952-1.612 2.053-2.37 3.118l-.274.384c-2.52 3.563-4.877 6.895-8.798 7.168l-.026.002z" mask="url(#h)"/>
        </g>
        <g>
            <mask id="j" fill="#fff">
                <use xlink:href="#i"/>
            </mask>
            <path fill="#27AAE1" d="M41.677 243.515h-1.711l-.154-.536c-.805-2.786-1.728-6.113-2.489-9.661-.908-4.233-.83-10.154.18-13.479 1.339-4.4 3.598-7.1 7.157-11.025.567-.622 1.159-1.254 1.801-1.925 2.27-2.338 5.09-5.244 5.671-8.078 1.162-5.577-2.353-8.887-5.946-11.39-1.752-1.231-3.76-2.223-5.703-3.181l-.405-.198c-2.678-1.308-5.446-2.66-7.755-4.687-2.523-2.198-4.693-5.311-6.448-9.252-.781-1.709-1.133-3.511-1.473-5.255l-.052-.27c-.316-1.674-.643-3.4-1.327-4.957-3.27-7.431-7.564-15.822-14.618-21.703C5.176 135.24 1.099 130.97.02 125.84c-.737-3.5.295-6.527 1.048-8.738l.116-.387c1.76-5.23 7.022-17.676 18.025-20.84 1.881-.536 4.087-.936 6.776-1.402l.356-.064c2.94-.522 5.977-1.062 8.137-1.86 3.497-1.302 6.046-3.14 8.782-5.236l.383-.297c2.604-2.015 6.173-4.772 10.83-4.411 3.892.312 8.316 2.338 12.14 5.56 3.865 3.289 6.461 7.293 7.126 10.991.382 2.117.562 3.82.734 5.465l.05.456c.144 1.604.292 2.973.543 4.478 2.437 13.957 12.57 22.584 30.116 25.64 10.244 1.79 18.915-1.577 22.168-3.108 5.113-2.394 10.727-8.313 15.588-13.674 4.73-5.234 7.225-8.35 7.795-16.588.169-2.635-.046-5.241-.254-7.76l-.007-.093a193.488 193.488 0 0 1-.239-3.072 161.91 161.91 0 0 0-.14-1.861l-.034-.447c-.23-2.512-.49-5.369.02-8.278 1.036-6.18 4.744-9.016 11.006-8.426 7.883.755 14.769 6.012 17.545 13.393 2.225 5.963.407 12.242-.92 16.827l-.225.78c-2.266 7.98-5.364 14.216-9.47 19.057-2.367 2.787-5.104 5.511-7.304 7.7-.896.888-1.83 1.826-2.726 2.753-1.214 1.231-2.537 2.353-3.816 3.437l-.287.243c-1.707 1.43-3.469 2.907-4.92 4.571-2.105 2.417-3.72 5.207-4.892 7.367-4.166 7.69-7.065 14.451-8.863 20.67-1.702 5.934-6.45 10.654-12.697 12.626-7.818 2.458-18.933 2.18-33.041-.824-7.246-1.522-11.56-5.711-12.82-12.45-1.272-6.897-5.994-10.395-10.993-14.097-1.223-.893-2.658-1.96-4.047-3.107-6.077-4.984-3.02-9.786-.06-14.43l.087-.138c1.215-1.914 2.47-3.893 3.003-5.851.813-3.018-.297-6.374-1.37-9.618l.521-.277-.397.133-.008-.025-.155.052c-.591-1.782-1.15-3.466-1.43-5.162-1.283-7.605-2.554-13.606-6.191-15.916-1.908-1.218-4.403-1.37-7.63-.466-.578.151-1.192.337-1.83.536-1.297.383-2.9.856-4.222 1.146-2.197.49-4.454.79-6.964 1.105l-.683.087c-2.326.297-4.732.605-7.342 1.159-8.594 1.796-14.647 8.151-15.804 16.587-.247 1.682-.32 3.119.127 4.681 1.38 4.65 5.538 7.901 9.558 11.046.806.62 1.74 1.353 2.62 2.1l.093.064c4.017 3.344 8.953 7.456 8.766 13.292-.184 5.434.497 9.363 2.279 13.14 2.771 5.924 6.718 9.526 13.627 12.435.256.103.522.212.789.322.264.11.529.22.797.327 2.334.963 4.97 2.05 7.426 3.434 1.994 1.126 3.298 2.496 4.678 3.945l.08.085c.65.709 1.428 1.53 2.352 2.34 1.058.917 2.026 2.109 3.052 3.37l.183.226c2.668 3.297 5.42 6.693 9.586 5.884 2.224-.424 4.52-2.04 6.952-3.75 2.112-1.482 4.503-3.164 7.226-4.24 4.436-1.75 10.56-2.164 17.045-2.603l.148-.01c3.706-.249 7.907-.53 11.63-1.122 8.204-1.3 13.721-4.15 16.867-8.712.927-1.342 1.54-2.89 2.134-4.388.494-1.244.99-2.49 1.689-3.673.564-1.01 1.425-1.786 2.116-2.409.326-.298.752-.695 1.122-1.103a66.538 66.538 0 0 0 1.924-2.283 70.389 70.389 0 0 1 2.22-2.612c1.22-1.329 2.548-2.534 3.83-3.7l.111-.101c1.208-1.078 2.477-2.227 3.593-3.425.932-1 1.703-2.105 2.353-3.064l.08-.113c.835-1.19 1.698-2.421 2.852-3.554 1.892-1.88 3.865-3.936 5.46-6.228 1.297-1.896 1.894-3.776 2.525-5.768l.253-.758c.134-.403.27-.817.416-1.234.534-1.549 1.46-2.969 2.355-4.343l.334-.518c.438-.678.89-1.38 1.259-2.058a77.913 77.913 0 0 0 4.297-9.248 83.8 83.8 0 0 0 .925-2.57c.074-.197.135-.368.197-.538.07-.195.14-.39.214-.584.426-1.185.877-2.397 1.323-3.596l.586-1.573c1.708-4.527 3.473-9.206 4.382-13.466.57-2.715 1.078-5.597.475-8.356-2.11-9.832-11.549-20.08-20.202-21.935-4.023-.873-9.115-.808-14.345.18-4.31.801-7.113 2.218-8.823 4.458-1.663 2.214-2.339 5.379-2.122 9.955.098 2.128.29 4.282.497 6.486l.013.159c.412 4.616.8 8.976.31 13.251-.23 1.949-.794 3.99-1.725 6.243-1.292 3.173-4.31 8.61-8.072 14.538-3.733 5.888-8.816 10.214-13.943 11.866-9.655 3.06-22.556.012-30.014-7.09-5.409-5.125-7.414-11.781-5.644-18.74.108-.446.282-.87.466-1.318l.15-.37c.335-.73.576-1.322.715-1.956l.094-.248c1.131-1.983 2.543-3.75 3.907-5.46l.082-.1c3.1-3.851 5.762-7.16 4.728-11.93-.17-.825-.556-1.779-.966-2.789l-.047-.117c-.976-2.337-2.086-4.993-.643-6.822 1.929-2.42 4.536-4.912 7.297-7.55l.302-.29c4.655-4.46 9.47-9.073 10.809-13.284 1.289-4.062-1.465-8.253-2.642-10.043-1.314-2-2.827-4.077-4.428-6.278l-.084-.114a199.489 199.489 0 0 1-3.812-5.332c-.473-.677-.943-1.355-1.407-2.025-.543-.784-1.08-1.557-1.612-2.316l-.98-1.417c-1.944-2.81-3.78-5.465-5.667-8.31-.8-1.204-1.592-2.469-2.358-3.692l-.72-1.145c-1.271-2.014-2.584-4.096-3.896-5.845C78.237 1.3 74.862-.386 71.223.358c-3.804.776-8.008 3.788-11.65 6.549-.497.388-1.016.782-1.535 1.163l-.122.092C51.108 13.31 43.39 19.144 41.4 25.45c-1.584 5.029 1.308 7.362 4.656 10.063.177.147.347.283.52.421.2.161.402.323.603.493 2.327 1.933 4.124 3.937 5.576 5.641 2.033 2.413 3.801 5.242 5.363 7.74 1.197 1.927 2.272 3.635 3.326 5.035 3.656 4.83 8.448 6.97 13.081 9.042 4.75 2.132 9.66 4.336 13.423 9.292l.176.184.025.324v.565c.037.477.056 1.107-.113 1.739l-.078.234-.108.116c-4.596 4.978-10.283 6.242-17.382 3.867-2.005-.676-3.953-1.73-6.017-2.847l-.335-.18c-4.632-2.52-9.419-5.12-14.796-3.487-3.895 1.168-6.53 3.877-9.32 6.745l-.078.078c-2.776 2.828-5.646 5.75-9.884 7.215-2.518.874-5.018 1.115-8.544 1.383-8.442.648-12.514 1.614-15.885 5.925-4.667 5.962-10.43 16.523-12.192 20.89-.692 1.726-1.113 2.994-1.285 3.872-1.454 7.272 3.072 13.055 7.177 17.281.963.99 2.03 1.916 3.063 2.81l.127.11c.88.748 1.978 1.684 2.955 2.68 1.936 1.909 3.467 4.186 4.947 6.388l.425.628c.628.928 1.277 1.887 1.943 2.788 6.03 8.107 7.842 15.2 5.874 23.001-2.031 8.06-6.295 13.152-12.329 14.722-2.656.693-5.479 1.022-8.467 1.371l-.144.016c-2.609.306-5.566.652-8.396 1.295-2.46.562-4.813 1.292-7.012 1.992l-.171.054c-3.136.982-6.097 1.91-9.218 2.314-5.61.735-10.475-.406-15.183-1.511-4.043-.94-7.845-1.826-11.53-1.32l-.838.116v-1.674l.64-.087c4.013-.54 8.125.43 12.102 1.369l.277.064c4.496 1.035 9.146 2.104 14.315 1.406 2.884-.364 5.696-1.236 8.673-2.16l.442-.138c2.211-.712 4.59-1.457 7.127-2.037 2.657-.614 5.364-.942 7.981-1.26l.605-.073c3.22-.363 5.878-.693 8.391-1.339 6.815-1.764 9.826-8.335 11.153-13.536 1.828-7.279.097-13.936-5.612-21.585a69.376 69.376 0 0 1-1.823-2.614l-.519-.767c-1.372-2.061-2.922-4.39-4.8-6.276-.86-.842-1.804-1.656-2.716-2.443l-.167-.145c-1.206-1.03-2.287-1.97-3.294-2.994-4.383-4.537-9.206-10.766-7.622-18.76.209-1.01.66-2.374 1.375-4.177 1.809-4.459 7.69-15.227 12.441-21.302 3.752-4.785 8.099-5.842 17.046-6.525 3.422-.274 5.837-.511 8.128-1.295 3.91-1.374 6.66-4.192 9.321-6.917 2.847-2.9 5.76-5.868 10.038-7.163 6.025-1.843 11.113.932 16.035 3.614 2.28 1.253 4.178 2.263 6.107 2.913 6.345 2.126 11.417 1.054 15.49-3.28.055-.288.045-.624.035-.977l-.002-.108c0-.098-.003-.174-.005-.25l-.001-.023c-3.494-4.488-8.13-6.561-12.615-8.568l-.177-.08c-4.782-2.17-9.727-4.413-13.595-9.506-1.051-1.383-2.089-3.044-3.186-4.803l-.214-.342c-1.547-2.474-3.3-5.279-5.223-7.553-1.407-1.653-3.148-3.593-5.38-5.434-.37-.321-.737-.616-1.104-.91-3.494-2.815-7.107-5.723-5.192-11.848 2.147-6.817 10.113-12.83 17.141-18.134l.103-.078c.496-.387 1-.768 1.52-1.15 3.988-3.003 8.229-6.01 12.31-6.85 4.31-.879 8.23 1.02 11.66 5.635 1.496 2.007 2.973 4.36 4.402 6.634l.831 1.316c.598.95 1.2 1.905 1.803 2.813 1.909 2.865 3.758 5.54 5.716 8.371l1.374 1.983a648.528 648.528 0 0 1 2.55 3.683c1.174 1.692 2.422 3.404 3.627 5.06l1.078 1.494c1.303 1.807 2.533 3.514 3.64 5.193 1.311 1.98 4.389 6.62 2.836 11.467-1.472 4.667-6.522 9.492-11.405 14.157-2.619 2.493-5.326 5.07-7.267 7.503-.828 1.03.028 3.13.856 5.158l.052.125c.44 1.073.855 2.085 1.063 3.068 1.197 5.537-1.97 9.48-5.032 13.293-1.34 1.664-2.709 3.365-3.806 5.254-.184.788-.48 1.491-.775 2.134-.211.493-.418.989-.545 1.464-2.075 8.13 1.664 13.793 5.166 17.11 7.088 6.733 19.291 9.621 28.389 6.717 4.763-1.518 9.533-5.596 13.085-11.188 3.59-5.65 6.627-11.117 7.926-14.27.565-1.381 1.348-3.488 1.611-5.806.48-4.16.083-8.485-.338-13.065l-.115-1.374c-.147-1.7-.296-3.457-.376-5.193-.466-9.713 3.094-14.384 12.288-16.118 5.4-1.017 10.722-1.078 14.985-.173 9.217 1.991 19.252 12.837 21.476 23.211.674 3.119.128 6.185-.488 9.058-.924 4.344-2.698 9.066-4.413 13.634l-.128.343a278.603 278.603 0 0 0-1.821 4.89c-.06.174-.127.356-.192.536-.065.177-.13.354-.192.534-.136.37-.264.731-.393 1.093a88.14 88.14 0 0 1-.552 1.527 82.13 82.13 0 0 1-4.403 9.466c-.468.862-1.026 1.723-1.559 2.53l-.068.104c-.85 1.306-1.728 2.657-2.199 4.026a29.524 29.524 0 0 0-.64 1.94l-.117.354c-.666 2.005-1.296 3.898-2.657 5.876-1.623 2.354-3.668 4.496-5.636 6.462-1.075 1.046-1.852 2.165-2.673 3.347l-.065.094c-.78 1.113-1.548 2.211-2.522 3.24-1.141 1.223-2.384 2.354-3.585 3.448l-.531.483c-1.147 1.041-2.333 2.118-3.372 3.258-.714.777-1.39 1.602-2.042 2.4l-.132.16a69.395 69.395 0 0 1-1.984 2.349c-.39.45-.852.868-1.25 1.219l-.088.08c-.671.617-1.306 1.198-1.7 1.917-.638 1.111-1.113 2.317-1.573 3.483-.685 1.733-1.333 3.282-2.333 4.703-3.414 4.956-9.286 8.037-17.946 9.414-3.78.59-8.028.875-11.776 1.127l-.158.011c-6.35.43-12.348.836-16.542 2.49-2.489.988-4.723 2.557-6.882 4.075l-.088.06c-2.555 1.783-4.968 3.466-7.507 3.957-5.152.988-8.485-3.154-11.161-6.483-1.073-1.333-2.043-2.508-3.047-3.386-.93-.816-1.744-1.677-2.463-2.436-1.31-1.39-2.546-2.701-4.376-3.735-2.295-1.301-4.779-2.333-7.18-3.332-.312-.124-.58-.235-.85-.347-.262-.109-.524-.217-.79-.322-7.314-3.07-11.513-6.912-14.505-13.265-1.896-4.042-2.623-8.195-2.432-13.886.163-5.051-4.43-8.864-8.12-11.93l-.134-.111a83.562 83.562 0 0 0-2.58-2.046c-4.042-3.16-8.604-6.726-10.119-11.9-.53-1.8-.464-3.45-.198-5.375.624-4.429 2.524-8.436 5.494-11.59 3.029-3.228 7.043-5.438 11.608-6.387 2.843-.6 5.42-.928 7.911-1.245l.257-.033c2.476-.297 4.693-.583 6.802-1.068 1.237-.27 2.767-.72 4.103-1.12a37.27 37.27 0 0 1 1.886-.535c3.675-1.043 6.6-.833 8.918.648 4.216 2.699 5.587 9.039 6.943 17.048.264 1.582.804 3.212 1.376 4.937l.033.098c1.15 3.473 2.34 7.066 1.375 10.578-.588 2.217-1.938 4.338-3.245 6.389-2.951 4.633-5.258 8.252-.31 12.326a122.625 122.625 0 0 0 3.979 3.041c5.28 3.913 10.248 7.596 11.637 15.113 1.113 6.012 4.994 9.765 11.537 11.157 13.84 2.926 24.688 3.211 32.231.846 5.7-1.797 10.04-6.105 11.608-11.522 1.834-6.33 4.772-13.193 8.983-20.978 1.396-2.562 2.98-5.261 5.108-7.676 1.502-1.71 3.26-3.218 5.079-4.74 1.344-1.12 2.762-2.316 4.01-3.584a135.97 135.97 0 0 1 2.747-2.76c2.417-2.418 4.924-4.925 7.203-7.591 3.952-4.68 6.946-10.713 9.147-18.441l.253-.879c1.31-4.603 2.94-10.333.928-15.692-2.55-6.81-8.894-11.647-16.16-12.326-5.39-.526-8.328 1.715-9.251 7.052-.46 2.744-.212 5.46.007 7.859.068.734.137 1.527.176 2.344.039.632.092 1.273.145 1.908.032.381.064.761.092 1.138l.01.12c.21 2.564.43 5.214.24 7.978-.59 8.774-3.221 12.064-8.212 17.585-4.931 5.463-10.649 11.507-16.108 14.07-3.397 1.593-12.45 5.095-23.133 3.225-8.162-1.41-14.864-4.026-19.918-7.774-6.235-4.62-10.113-11.085-11.526-19.215-.244-1.348-.37-2.562-.505-3.848l-.076-.736c-.187-1.892-.373-3.63-.754-5.792-.61-3.345-3.006-6.997-6.573-10.016-3.52-2.995-7.606-4.886-11.21-5.193-4.019-.307-7.166 2.129-9.696 4.085l-.41.307c-2.8 2.153-5.43 4.053-9.195 5.453-2.29.855-5.326 1.41-8.769 1.996l-.472.084c-2.265.405-4.406.786-6.144 1.291-10.272 2.953-15.242 14.807-16.9 19.766l-.12.384c-.737 2.174-1.647 4.854-1.008 7.88.99 4.655 4.8 8.629 7.82 11.143 7.241 6.044 11.685 14.66 15.076 22.293.768 1.757 1.124 3.662 1.438 5.343l.06.302c.322 1.633.656 3.322 1.348 4.839 1.67 3.737 3.7 6.66 6.036 8.694 2.2 1.91 4.913 3.242 7.536 4.53 1.97.96 4.2 2.047 6.185 3.424 3.796 2.635 7.978 6.501 6.627 13.074-.67 3.253-3.556 6.259-6.103 8.91l-.465.483c-.456.472-.889.92-1.286 1.375-3.534 3.925-5.59 6.338-6.835 10.42-.929 3.08-.987 8.634-.134 12.644.758 3.502 1.676 6.817 2.475 9.6l.272.947z" mask="url(#j)"/>
        </g>
        <path fill="#FFF" d="M23.63.742C10.58.742 0 11.38 0 24.5c0 13.12 10.58 23.758 23.63 23.758 13.052 0 23.632-10.637 23.632-23.758C47.262 11.38 36.682.742 23.63.742m0 1.485c12.215 0 22.154 9.992 22.154 22.273 0 12.281-9.939 22.273-22.154 22.273-12.216 0-22.154-9.992-22.154-22.273 0-12.281 9.938-22.273 22.154-22.273"/>
    </g>
</svg>
