{
    "streams": [
        {
            "tap_stream_id": "financial",
            "stream": "financial",
            "key_properties": [
                "id"
            ],
            "schema": {
                "type": "object",
                "properties": {
                    "id": {
                        "type": [
                            "string"
                        ]
                    },
                    "start_date": {
                        "type": [
                            "null",
                            "string"
                        ],
                        "format": "date-time"
                    },
                    "end_date": {
                        "type": [
                            "null",
                            "string"
                        ],
                        "format": "date-time"
                    },
                    "upc": {
                        "type": [
                            "null",
                            "string"
                        ]
                    },
                    "isrc_isbn": {
                        "type": [
                            "null",
                            "string"
                        ]
                    },
                    "vendor_identifier": {
                        "type": [
                            "null",
                            "string"
                        ]
                    },
                    "quantity": {
                        "type": [
                            "null",
                            "number"
                        ]
                    },
                    "partner_share": {
                        "type": [
                            "null",
                            "number"
                        ]
                    },
                    "extended_partner_share": {
                        "type": [
                            "null",
                            "number"
                        ]
                    },
                    "partner_share_currency": {
                        "type": [
                            "null",
                            "string"
                        ]
                    },
                    "sales_or_return": {
                        "type": [
                            "null",
                            "string"
                        ]
                    },
                    "apple_identifier": {
                        "type": [
                            "null",
                            "string"
                        ]
                    },
                    "artist_show_developer_author": {
                        "type": [
                            "null",
                            "string"
                        ]
                    },
                    "title": {
                        "type": [
                            "null",
                            "string"
                        ]
                    },
                    "label_studio_network_developer_publisher": {
                        "type": [
                            "null",
                            "string"
                        ]
                    },
                    "grid": {
                        "type": [
                            "null",
                            "string"
                        ]
                    },
                    "product_type_identifier": {
                        "type": [
                            "null",
                            "string"
                        ]
                    },
                    "isan_other_identifier": {
                        "type": [
                            "null",
                            "string"
                        ]
                    },
                    "country_of_sale": {
                        "type": [
                            "null",
                            "string"
                        ]
                    },
                    "pre_order_flag": {
                        "type": [
                            "null",
                            "string"
                        ]
                    },
                    "promo_code": {
                        "type": [
                            "null",
                            "string"
                        ]
                    },
                    "customer_price": {
                        "type": [
                            "null",
                            "number"
                        ]
                    },
                    "customer_currency": {
                        "type": [
                            "null",
                            "string"
                        ]
                    },
                    "apple_report_datetime": {
                        "type": [
                            "null",
                            "string"
                        ],
                        "format": "date-time"
                    }
                }
            },
            "metadata": [
                {
                    "breadcrumb": [],
                    "metadata": {
                        "table-key-properties": [
                            "id"
                        ],
                        "forced-replication-method": "INCREMENTAL",
                        "valid-replication-keys": [
                            "apple_report_datetime"
                        ],
                        "inclusion": "available"
                    }
                },
                {
                    "breadcrumb": [
                        "properties",
                        "id"
                    ],
                    "metadata": {
                        "inclusion": "automatic"
                    }
                },
                {
                    "breadcrumb": [
                        "properties",
                        "start_date"
                    ],
                    "metadata": {
                        "inclusion": "available"
                    }
                },
                {
                    "breadcrumb": [
                        "properties",
                        "end_date"
                    ],
                    "metadata": {
                        "inclusion": "available"
                    }
                },
                {
                    "breadcrumb": [
                        "properties",
                        "upc"
                    ],
                    "metadata": {
                        "inclusion": "available"
                    }
                },
                {
                    "breadcrumb": [
                        "properties",
                        "isrc_isbn"
                    ],
                    "metadata": {
                        "inclusion": "available"
                    }
                },
                {
                    "breadcrumb": [
                        "properties",
                        "vendor_identifier"
                    ],
                    "metadata": {
                        "inclusion": "available"
                    }
                },
                {
                    "breadcrumb": [
                        "properties",
                        "quantity"
                    ],
                    "metadata": {
                        "inclusion": "available"
                    }
                },
                {
                    "breadcrumb": [
                        "properties",
                        "partner_share"
                    ],
                    "metadata": {
                        "inclusion": "available"
                    }
                },
                {
                    "breadcrumb": [
                        "properties",
                        "extended_partner_share"
                    ],
                    "metadata": {
                        "inclusion": "available"
                    }
                },
                {
                    "breadcrumb": [
                        "properties",
                        "partner_share_currency"
                    ],
                    "metadata": {
                        "inclusion": "available"
                    }
                },
                {
                    "breadcrumb": [
                        "properties",
                        "sales_or_return"
                    ],
                    "metadata": {
                        "inclusion": "available"
                    }
                },
                {
                    "breadcrumb": [
                        "properties",
                        "apple_identifier"
                    ],
                    "metadata": {
                        "inclusion": "available"
                    }
                },
                {
                    "breadcrumb": [
                        "properties",
                        "artist_show_developer_author"
                    ],
                    "metadata": {
                        "inclusion": "available"
                    }
                },
                {
                    "breadcrumb": [
                        "properties",
                        "title"
                    ],
                    "metadata": {
                        "inclusion": "available"
                    }
                },
                {
                    "breadcrumb": [
                        "properties",
                        "label_studio_network_developer_publisher"
                    ],
                    "metadata": {
                        "inclusion": "available"
                    }
                },
                {
                    "breadcrumb": [
                        "properties",
                        "grid"
                    ],
                    "metadata": {
                        "inclusion": "available"
                    }
                },
                {
                    "breadcrumb": [
                        "properties",
                        "product_type_identifier"
                    ],
                    "metadata": {
                        "inclusion": "available"
                    }
                },
                {
                    "breadcrumb": [
                        "properties",
                        "isan_other_identifier"
                    ],
                    "metadata": {
                        "inclusion": "available"
                    }
                },
                {
                    "breadcrumb": [
                        "properties",
                        "country_of_sale"
                    ],
                    "metadata": {
                        "inclusion": "available"
                    }
                },
                {
                    "breadcrumb": [
                        "properties",
                        "pre_order_flag"
                    ],
                    "metadata": {
                        "inclusion": "available"
                    }
                },
                {
                    "breadcrumb": [
                        "properties",
                        "promo_code"
                    ],
                    "metadata": {
                        "inclusion": "available"
                    }
                },
                {
                    "breadcrumb": [
                        "properties",
                        "customer_price"
                    ],
                    "metadata": {
                        "inclusion": "available"
                    }
                },
                {
                    "breadcrumb": [
                        "properties",
                        "customer_currency"
                    ],
                    "metadata": {
                        "inclusion": "available"
                    }
                },
                {
                    "breadcrumb": [
                        "properties",
                        "apple_report_datetime"
                    ],
                    "metadata": {
                        "inclusion": "available"
                    }
                }
            ]
        },
        {
            "tap_stream_id": "newsstand",
            "stream": "newsstand",
            "key_properties": [
                "id"
            ],
            "schema": {
                "type": "object",
                "properties": {
                    "id": {
                        "type": [
                            "string"
                        ]
                    },
                    "provider": {
                        "type": [
                            "null",
                            "string"
                        ]
                    },
                    "provider_country": {
                        "type": [
                            "null",
                            "string"
                        ]
                    },
                    "sku": {
                        "type": [
                            "null",
                            "string"
                        ]
                    },
                    "developer": {
                        "type": [
                            "null",
                            "string"
                        ]
                    },
                    "title": {
                        "type": [
                            "null",
                            "string"
                        ]
                    },
                    "version": {
                        "type": [
                            "null",
                            "string"
                        ]
                    },
                    "product_type_identifier": {
                        "type": [
                            "null",
                            "string"
                        ]
                    },
                    "units": {
                        "type": [
                            "null",
                            "number"
                        ]
                    },
                    "developer_proceeds": {
                        "type": [
                            "null",
                            "number"
                        ]
                    },
                    "customer_currency": {
                        "type": [
                            "null",
                            "string"
                        ]
                    },
                    "country_code": {
                        "type": [
                            "null",
                            "string"
                        ]
                    },
                    "currency_of_proceeds": {
                        "type": [
                            "null",
                            "string"
                        ]
                    },
                    "apple_identifier": {
                        "type": [
                            "null",
                            "number"
                        ]
                    },
                    "customer_price": {
                        "type": [
                            "null",
                            "number"
                        ]
                    },
                    "promo_code": {
                        "type": [
                            "null",
                            "string"
                        ]
                    },
                    "parent_identifier": {
                        "type": [
                            "null",
                            "string"
                        ]
                    },
                    "subscription": {
                        "type": [
                            "null",
                            "string"
                        ]
                    },
                    "period": {
                        "type": [
                            "null",
                            "string"
                        ]
                    },
                    "download_date_pst": {
                        "type": [
                            "null",
                            "string"
                        ]
                    },
                    "customer_identifier": {
                        "type": [
                            "null",
                            "number"
                        ]
                    },
                    "report_date_local": {
                        "type": [
                            "null",
                            "string"
                        ]
                    },
                    "sales_return": {
                        "type": [
                            "null",
                            "string"
                        ]
                    },
                    "category": {
                        "type": [
                            "null",
                            "string"
                        ]
                    },
                    "cmb": {
                        "type": [
                            "null",
                            "string"
                        ]
                    },
                    "preserved_pricing": {
                        "type": [
                            "null",
                            "string"
                        ]
                    },
                    "proceeds_reason": {
                        "type": [
                            "null",
                            "string"
                        ]
                    },
                    "client": {
                        "type": [
                            "null",
                            "string"
                        ]
                    },
                    "device": {
                        "type": [
                            "null",
                            "string"
                        ]
                    },
                    "supported_platforms": {
                        "type": [
                            "null",
                            "string"
                        ]
                    },
                    "apple_report_datetime": {
                        "type": [
                            "null",
                            "string"
                        ],
                        "format": "date-time"
                    }
                }
            },
            "metadata": [
                {
                    "breadcrumb": [],
                    "metadata": {
                        "table-key-properties": [
                            "id"
                        ],
                        "forced-replication-method": "INCREMENTAL",
                        "valid-replication-keys": [
                            "apple_report_datetime"
                        ],
                        "inclusion": "available"
                    }
                },
                {
                    "breadcrumb": [
                        "properties",
                        "id"
                    ],
                    "metadata": {
                        "inclusion": "automatic"
                    }
                },
                {
                    "breadcrumb": [
                        "properties",
                        "provider"
                    ],
                    "metadata": {
                        "inclusion": "available"
                    }
                },
                {
                    "breadcrumb": [
                        "properties",
                        "provider_country"
                    ],
                    "metadata": {
                        "inclusion": "available"
                    }
                },
                {
                    "breadcrumb": [
                        "properties",
                        "sku"
                    ],
                    "metadata": {
                        "inclusion": "available"
                    }
                },
                {
                    "breadcrumb": [
                        "properties",
                        "developer"
                    ],
                    "metadata": {
                        "inclusion": "available"
                    }
                },
                {
                    "breadcrumb": [
                        "properties",
                        "title"
                    ],
                    "metadata": {
                        "inclusion": "available"
                    }
                },
                {
                    "breadcrumb": [
                        "properties",
                        "version"
                    ],
                    "metadata": {
                        "inclusion": "available"
                    }
                },
                {
                    "breadcrumb": [
                        "properties",
                        "product_type_identifier"
                    ],
                    "metadata": {
                        "inclusion": "available"
                    }
                },
                {
                    "breadcrumb": [
                        "properties",
                        "units"
                    ],
                    "metadata": {
                        "inclusion": "available"
                    }
                },
                {
                    "breadcrumb": [
                        "properties",
                        "developer_proceeds"
                    ],
                    "metadata": {
                        "inclusion": "available"
                    }
                },
                {
                    "breadcrumb": [
                        "properties",
                        "customer_currency"
                    ],
                    "metadata": {
                        "inclusion": "available"
                    }
                },
                {
                    "breadcrumb": [
                        "properties",
                        "country_code"
                    ],
                    "metadata": {
                        "inclusion": "available"
                    }
                },
                {
                    "breadcrumb": [
                        "properties",
                        "currency_of_proceeds"
                    ],
                    "metadata": {
                        "inclusion": "available"
                    }
                },
                {
                    "breadcrumb": [
                        "properties",
                        "apple_identifier"
                    ],
                    "metadata": {
                        "inclusion": "available"
                    }
                },
                {
                    "breadcrumb": [
                        "properties",
                        "customer_price"
                    ],
                    "metadata": {
                        "inclusion": "available"
                    }
                },
                {
                    "breadcrumb": [
                        "properties",
                        "promo_code"
                    ],
                    "metadata": {
                        "inclusion": "available"
                    }
                },
                {
                    "breadcrumb": [
                        "properties",
                        "parent_identifier"
                    ],
                    "metadata": {
                        "inclusion": "available"
                    }
                },
                {
                    "breadcrumb": [
                        "properties",
                        "subscription"
                    ],
                    "metadata": {
                        "inclusion": "available"
                    }
                },
                {
                    "breadcrumb": [
                        "properties",
                        "period"
                    ],
                    "metadata": {
                        "inclusion": "available"
                    }
                },
                {
                    "breadcrumb": [
                        "properties",
                        "download_date_pst"
                    ],
                    "metadata": {
                        "inclusion": "available"
                    }
                },
                {
                    "breadcrumb": [
                        "properties",
                        "customer_identifier"
                    ],
                    "metadata": {
                        "inclusion": "available"
                    }
                },
                {
                    "breadcrumb": [
                        "properties",
                        "report_date_local"
                    ],
                    "metadata": {
                        "inclusion": "available"
                    }
                },
                {
                    "breadcrumb": [
                        "properties",
                        "sales_return"
                    ],
                    "metadata": {
                        "inclusion": "available"
                    }
                },
                {
                    "breadcrumb": [
                        "properties",
                        "category"
                    ],
                    "metadata": {
                        "inclusion": "available"
                    }
                },
                {
                    "breadcrumb": [
                        "properties",
                        "cmb"
                    ],
                    "metadata": {
                        "inclusion": "available"
                    }
                },
                {
                    "breadcrumb": [
                        "properties",
                        "preserved_pricing"
                    ],
                    "metadata": {
                        "inclusion": "available"
                    }
                },
                {
                    "breadcrumb": [
                        "properties",
                        "proceeds_reason"
                    ],
                    "metadata": {
                        "inclusion": "available"
                    }
                },
                {
                    "breadcrumb": [
                        "properties",
                        "client"
                    ],
                    "metadata": {
                        "inclusion": "available"
                    }
                },
                {
                    "breadcrumb": [
                        "properties",
                        "device"
                    ],
                    "metadata": {
                        "inclusion": "available"
                    }
                },
                {
                    "breadcrumb": [
                        "properties",
                        "supported_platforms"
                    ],
                    "metadata": {
                        "inclusion": "available"
                    }
                },
                {
                    "breadcrumb": [
                        "properties",
                        "apple_report_datetime"
                    ],
                    "metadata": {
                        "inclusion": "available"
                    }
                }
            ]
        },
        {
            "tap_stream_id": "pre_order",
            "stream": "pre_order",
            "key_properties": [
                "id"
            ],
            "schema": {
                "type": "object",
                "properties": {
                    "id": {
                        "type": [
                            "string"
                        ]
                    },
                    "provider": {
                        "type": [
                            "null",
                            "string"
                        ]
                    },
                    "provider_country": {
                        "type": [
                            "null",
                            "string"
                        ]
                    },
                    "sku": {
                        "type": [
                            "null",
                            "string"
                        ]
                    },
                    "developer": {
                        "type": [
                            "null",
                            "string"
                        ]
                    },
                    "title": {
                        "type": [
                            "null",
                            "string"
                        ]
                    },
                    "version": {
                        "type": [
                            "null",
                            "string"
                        ]
                    },
                    "pre_order_start_date": {
                        "type": [
                            "null",
                            "string"
                        ],
                        "format": "date-time"
                    },
                    "pre_order_end_date": {
                        "type": [
                            "null",
                            "string"
                        ],
                        "format": "date-time"
                    },
                    "ordered": {
                        "type": [
                            "null",
                            "number"
                        ]
                    },
                    "canceled": {
                        "type": [
                            "null",
                            "number"
                        ]
                    },
                    "cumalitive_ordered": {
                        "type": [
                            "null",
                            "number"
                        ]
                    },
                    "cumalitive_canceled": {
                        "type": [
                            "null",
                            "number"
                        ]
                    },
                    "start_date": {
                        "type": [
                            "null",
                            "string"
                        ],
                        "format": "date-time"
                    },
                    "end_date": {
                        "type": [
                            "null",
                            "string"
                        ],
                        "format": "date-time"
                    },
                    "country_code": {
                        "type": [
                            "null",
                            "string"
                        ]
                    },
                    "apple_identifier": {
                        "type": [
                            "null",
                            "number"
                        ]
                    },
                    "device": {
                        "type": [
                            "null",
                            "string"
                        ]
                    },
                    "supported_platforms": {
                        "type": [
                            "null",
                            "string"
                        ]
                    },
                    "category": {
                        "type": [
                            "null",
                            "string"
                        ]
                    },
                    "client": {
                        "type": [
                            "null",
                            "string"
                        ]
                    },
                    "apple_report_datetime": {
                        "type": [
                            "null",
                            "string"
                        ],
                        "format": "date-time"
                    }
                }
            },
            "metadata": [
                {
                    "breadcrumb": [],
                    "metadata": {
                        "table-key-properties": [
                            "id"
                        ],
                        "forced-replication-method": "INCREMENTAL",
                        "valid-replication-keys": [
                            "apple_report_datetime"
                        ],
                        "inclusion": "available"
                    }
                },
                {
                    "breadcrumb": [
                        "properties",
                        "id"
                    ],
                    "metadata": {
                        "inclusion": "automatic"
                    }
                },
                {
                    "breadcrumb": [
                        "properties",
                        "provider"
                    ],
                    "metadata": {
                        "inclusion": "available"
                    }
                },
                {
                    "breadcrumb": [
                        "properties",
                        "provider_country"
                    ],
                    "metadata": {
                        "inclusion": "available"
                    }
                },
                {
                    "breadcrumb": [
                        "properties",
                        "sku"
                    ],
                    "metadata": {
                        "inclusion": "available"
                    }
                },
                {
                    "breadcrumb": [
                        "properties",
                        "developer"
                    ],
                    "metadata": {
                        "inclusion": "available"
                    }
                },
                {
                    "breadcrumb": [
                        "properties",
                        "title"
                    ],
                    "metadata": {
                        "inclusion": "available"
                    }
                },
                {
                    "breadcrumb": [
                        "properties",
                        "version"
                    ],
                    "metadata": {
                        "inclusion": "available"
                    }
                },
                {
                    "breadcrumb": [
                        "properties",
                        "pre_order_start_date"
                    ],
                    "metadata": {
                        "inclusion": "available"
                    }
                },
                {
                    "breadcrumb": [
                        "properties",
                        "pre_order_end_date"
                    ],
                    "metadata": {
                        "inclusion": "available"
                    }
                },
                {
                    "breadcrumb": [
                        "properties",
                        "ordered"
                    ],
                    "metadata": {
                        "inclusion": "available"
                    }
                },
                {
                    "breadcrumb": [
                        "properties",
                        "canceled"
                    ],
                    "metadata": {
                        "inclusion": "available"
                    }
                },
                {
                    "breadcrumb": [
                        "properties",
                        "cumalitive_ordered"
                    ],
                    "metadata": {
                        "inclusion": "available"
                    }
                },
                {
                    "breadcrumb": [
                        "properties",
                        "cumalitive_canceled"
                    ],
                    "metadata": {
                        "inclusion": "available"
                    }
                },
                {
                    "breadcrumb": [
                        "properties",
                        "start_date"
                    ],
                    "metadata": {
                        "inclusion": "available"
                    }
                },
                {
                    "breadcrumb": [
                        "properties",
                        "end_date"
                    ],
                    "metadata": {
                        "inclusion": "available"
                    }
                },
                {
                    "breadcrumb": [
                        "properties",
                        "country_code"
                    ],
                    "metadata": {
                        "inclusion": "available"
                    }
                },
                {
                    "breadcrumb": [
                        "properties",
                        "apple_identifier"
                    ],
                    "metadata": {
                        "inclusion": "available"
                    }
                },
                {
                    "breadcrumb": [
                        "properties",
                        "device"
                    ],
                    "metadata": {
                        "inclusion": "available"
                    }
                },
                {
                    "breadcrumb": [
                        "properties",
                        "supported_platforms"
                    ],
                    "metadata": {
                        "inclusion": "available"
                    }
                },
                {
                    "breadcrumb": [
                        "properties",
                        "category"
                    ],
                    "metadata": {
                        "inclusion": "available"
                    }
                },
                {
                    "breadcrumb": [
                        "properties",
                        "client"
                    ],
                    "metadata": {
                        "inclusion": "available"
                    }
                },
                {
                    "breadcrumb": [
                        "properties",
                        "apple_report_datetime"
                    ],
                    "metadata": {
                        "inclusion": "available"
                    }
                }
            ]
        },
        {
            "tap_stream_id": "sales",
            "stream": "sales",
            "key_properties": [
                "id"
            ],
            "schema": {
                "type": "object",
                "properties": {
                    "id": {
                        "type": [
                            "string"
                        ]
                    },
                    "provider": {
                        "type": [
                            "null",
                            "string"
                        ]
                    },
                    "provider_country": {
                        "type": [
                            "null",
                            "string"
                        ]
                    },
                    "sku": {
                        "type": [
                            "null",
                            "string"
                        ]
                    },
                    "developer": {
                        "type": [
                            "null",
                            "string"
                        ]
                    },
                    "title": {
                        "type": [
                            "null",
                            "string"
                        ]
                    },
                    "version": {
                        "type": [
                            "null",
                            "string"
                        ]
                    },
                    "product_type_identifier": {
                        "type": [
                            "null",
                            "string"
                        ]
                    },
                    "units": {
                        "type": [
                            "null",
                            "number"
                        ]
                    },
                    "developer_proceeds": {
                        "type": [
                            "null",
                            "number"
                        ]
                    },
                    "begin_date": {
                        "type": [
                            "null",
                            "string"
                        ],
                        "format": "date-time"
                    },
                    "end_date": {
                        "type": [
                            "null",
                            "string"
                        ],
                        "format": "date-time"
                    },
                    "customer_currency": {
                        "type": [
                            "null",
                            "string"
                        ]
                    },
                    "country_code": {
                        "type": [
                            "null",
                            "string"
                        ]
                    },
                    "currency_of_proceeds": {
                        "type": [
                            "null",
                            "string"
                        ]
                    },
                    "apple_identifier": {
                        "type": [
                            "null",
                            "number"
                        ]
                    },
                    "customer_price": {
                        "type": [
                            "null",
                            "number"
                        ]
                    },
                    "promo_code": {
                        "type": [
                            "null",
                            "string"
                        ]
                    },
                    "parent_identifier": {
                        "type": [
                            "null",
                            "string"
                        ]
                    },
                    "subscription": {
                        "type": [
                            "null",
                            "string"
                        ]
                    },
                    "period": {
                        "type": [
                            "null",
                            "string"
                        ]
                    },
                    "category": {
                        "type": [
                            "null",
                            "string"
                        ]
                    },
                    "cmb": {
                        "type": [
                            "null",
                            "string"
                        ]
                    },
                    "supported_platforms": {
                        "type": [
                            "null",
                            "string"
                        ]
                    },
                    "device": {
                        "type": [
                            "null",
                            "string"
                        ]
                    },
                    "preserved_pricing": {
                        "type": [
                            "null",
                            "string"
                        ]
                    },
                    "proceeds_reason": {
                        "type": [
                            "null",
                            "string"
                        ]
                    },
                    "client": {
                        "type": [
                            "null",
                            "string"
                        ]
                    },
                    "order_type": {
                        "type": [
                            "null",
                            "string"
                        ]
                    },
                    "apple_report_datetime": {
                        "type": [
                            "null",
                            "string"
                        ],
                        "format": "date-time"
                    }
                }
            },
            "metadata": [
                {
                    "breadcrumb": [],
                    "metadata": {
                        "table-key-properties": [
                            "id"
                        ],
                        "forced-replication-method": "INCREMENTAL",
                        "valid-replication-keys": [
                            "apple_report_datetime"
                        ],
                        "inclusion": "available"
                    }
                },
                {
                    "breadcrumb": [
                        "properties",
                        "id"
                    ],
                    "metadata": {
                        "inclusion": "automatic"
                    }
                },
                {
                    "breadcrumb": [
                        "properties",
                        "provider"
                    ],
                    "metadata": {
                        "inclusion": "available"
                    }
                },
                {
                    "breadcrumb": [
                        "properties",
                        "provider_country"
                    ],
                    "metadata": {
                        "inclusion": "available"
                    }
                },
                {
                    "breadcrumb": [
                        "properties",
                        "sku"
                    ],
                    "metadata": {
                        "inclusion": "available"
                    }
                },
                {
                    "breadcrumb": [
                        "properties",
                        "developer"
                    ],
                    "metadata": {
                        "inclusion": "available"
                    }
                },
                {
                    "breadcrumb": [
                        "properties",
                        "title"
                    ],
                    "metadata": {
                        "inclusion": "available"
                    }
                },
                {
                    "breadcrumb": [
                        "properties",
                        "version"
                    ],
                    "metadata": {
                        "inclusion": "available"
                    }
                },
                {
                    "breadcrumb": [
                        "properties",
                        "product_type_identifier"
                    ],
                    "metadata": {
                        "inclusion": "available"
                    }
                },
                {
                    "breadcrumb": [
                        "properties",
                        "units"
                    ],
                    "metadata": {
                        "inclusion": "available"
                    }
                },
                {
                    "breadcrumb": [
                        "properties",
                        "developer_proceeds"
                    ],
                    "metadata": {
                        "inclusion": "available"
                    }
                },
                {
                    "breadcrumb": [
                        "properties",
                        "begin_date"
                    ],
                    "metadata": {
                        "inclusion": "available"
                    }
                },
                {
                    "breadcrumb": [
                        "properties",
                        "end_date"
                    ],
                    "metadata": {
                        "inclusion": "available"
                    }
                },
                {
                    "breadcrumb": [
                        "properties",
                        "customer_currency"
                    ],
                    "metadata": {
                        "inclusion": "available"
                    }
                },
                {
                    "breadcrumb": [
                        "properties",
                        "country_code"
                    ],
                    "metadata": {
                        "inclusion": "available"
                    }
                },
                {
                    "breadcrumb": [
                        "properties",
                        "currency_of_proceeds"
                    ],
                    "metadata": {
                        "inclusion": "available"
                    }
                },
                {
                    "breadcrumb": [
                        "properties",
                        "apple_identifier"
                    ],
                    "metadata": {
                        "inclusion": "available"
                    }
                },
                {
                    "breadcrumb": [
                        "properties",
                        "customer_price"
                    ],
                    "metadata": {
                        "inclusion": "available"
                    }
                },
                {
                    "breadcrumb": [
                        "properties",
                        "promo_code"
                    ],
                    "metadata": {
                        "inclusion": "available"
                    }
                },
                {
                    "breadcrumb": [
                        "properties",
                        "parent_identifier"
                    ],
                    "metadata": {
                        "inclusion": "available"
                    }
                },
                {
                    "breadcrumb": [
                        "properties",
                        "subscription"
                    ],
                    "metadata": {
                        "inclusion": "available"
                    }
                },
                {
                    "breadcrumb": [
                        "properties",
                        "period"
                    ],
                    "metadata": {
                        "inclusion": "available"
                    }
                },
                {
                    "breadcrumb": [
                        "properties",
                        "category"
                    ],
                    "metadata": {
                        "inclusion": "available"
                    }
                },
                {
                    "breadcrumb": [
                        "properties",
                        "cmb"
                    ],
                    "metadata": {
                        "inclusion": "available"
                    }
                },
                {
                    "breadcrumb": [
                        "properties",
                        "supported_platforms"
                    ],
                    "metadata": {
                        "inclusion": "available"
                    }
                },
                {
                    "breadcrumb": [
                        "properties",
                        "device"
                    ],
                    "metadata": {
                        "inclusion": "available"
                    }
                },
                {
                    "breadcrumb": [
                        "properties",
                        "preserved_pricing"
                    ],
                    "metadata": {
                        "inclusion": "available"
                    }
                },
                {
                    "breadcrumb": [
                        "properties",
                        "proceeds_reason"
                    ],
                    "metadata": {
                        "inclusion": "available"
                    }
                },
                {
                    "breadcrumb": [
                        "properties",
                        "client"
                    ],
                    "metadata": {
                        "inclusion": "available"
                    }
                },
                {
                    "breadcrumb": [
                        "properties",
                        "order_type"
                    ],
                    "metadata": {
                        "inclusion": "available"
                    }
                },
                {
                    "breadcrumb": [
                        "properties",
                        "apple_report_datetime"
                    ],
                    "metadata": {
                        "inclusion": "available"
                    }
                }
            ]
        },
        {
            "tap_stream_id": "subscriber",
            "stream": "subscriber",
            "key_properties": [
                "id"
            ],
            "schema": {
                "type": "object",
                "properties": {
                    "id": {
                        "type": [
                            "string"
                        ]
                    },
                    "event_date": {
                        "type": [
                            "null",
                            "string"
                        ],
                        "format": "date-time"
                    },
                    "app_name": {
                        "type": [
                            "null",
                            "string"
                        ]
                    },
                    "app_apple_id": {
                        "type": [
                            "null",
                            "number"
                        ]
                    },
                    "subscription_name": {
                        "type": [
                            "null",
                            "string"
                        ]
                    },
                    "subscription_apple_id": {
                        "type": [
                            "null",
                            "number"
                        ]
                    },
                    "subscription_group_id": {
                        "type": [
                            "null",
                            "number"
                        ]
                    },
                    "standard_subscription_duration": {
                        "type": [
                            "null",
                            "string"
                        ]
                    },
                    "promotional_offer_name": {
                        "type": [
                            "null",
                            "string"
                        ]
                    },
                    "promotional_offer_id": {
                        "type": [
                            "null",
                            "string"
                        ]
                    },
                    "subscription_offer_type": {
                        "type": [
                            "null",
                            "string"
                        ]
                    },
                    "subscription_offer_duration": {
                        "type": [
                            "null",
                            "string"
                        ]
                    },
                    "marketing_opt_in_duration": {
                        "type": [
                            "null",
                            "string"
                        ]
                    },
                    "customer_price": {
                        "type": [
                            "null",
                            "number"
                        ]
                    },
                    "customer_currency": {
                        "type": [
                            "null",
                            "string"
                        ]
                    },
                    "developer_proceeds": {
                        "type": [
                            "null",
                            "number"
                        ]
                    },
                    "proceeds_currency": {
                        "type": [
                            "null",
                            "string"
                        ]
                    },
                    "preserved_pricing": {
                        "type": [
                            "null",
                            "string"
                        ]
                    },
                    "proceeds_reason": {
                        "type": [
                            "null",
                            "string"
                        ]
                    },
                    "client": {
                        "type": [
                            "null",
                            "string"
                        ]
                    },
                    "device": {
                        "type": [
                            "null",
                            "string"
                        ]
                    },
                    "country": {
                        "type": [
                            "null",
                            "string"
                        ]
                    },
                    "subscriber_id": {
                        "type": [
                            "null",
                            "number"
                        ]
                    },
                    "subscriber_id_reset": {
                        "type": [
                            "null",
                            "string"
                        ]
                    },
                    "refund": {
                        "type": [
                            "null",
                            "string"
                        ]
                    },
                    "purchase_date": {
                        "type": [
                            "null",
                            "string"
                        ],
                        "format": "date-time"
                    },
                    "units": {
                        "type": [
                            "null",
                            "string"
                        ]
                    },
                    "apple_report_datetime": {
                        "type": [
                            "null",
                            "string"
                        ],
                        "format": "date-time"
                    }
                }
            },
            "metadata": [
                {
                    "breadcrumb": [],
                    "metadata": {
                        "table-key-properties": [
                            "id"
                        ],
                        "forced-replication-method": "INCREMENTAL",
                        "valid-replication-keys": [
                            "apple_report_datetime"
                        ],
                        "inclusion": "available"
                    }
                },
                {
                    "breadcrumb": [
                        "properties",
                        "id"
                    ],
                    "metadata": {
                        "inclusion": "automatic"
                    }
                },
                {
                    "breadcrumb": [
                        "properties",
                        "event_date"
                    ],
                    "metadata": {
                        "inclusion": "available"
                    }
                },
                {
                    "breadcrumb": [
                        "properties",
                        "app_name"
                    ],
                    "metadata": {
                        "inclusion": "available"
                    }
                },
                {
                    "breadcrumb": [
                        "properties",
                        "app_apple_id"
                    ],
                    "metadata": {
                        "inclusion": "available"
                    }
                },
                {
                    "breadcrumb": [
                        "properties",
                        "subscription_name"
                    ],
                    "metadata": {
                        "inclusion": "available"
                    }
                },
                {
                    "breadcrumb": [
                        "properties",
                        "subscription_apple_id"
                    ],
                    "metadata": {
                        "inclusion": "available"
                    }
                },
                {
                    "breadcrumb": [
                        "properties",
                        "subscription_group_id"
                    ],
                    "metadata": {
                        "inclusion": "available"
                    }
                },
                {
                    "breadcrumb": [
                        "properties",
                        "standard_subscription_duration"
                    ],
                    "metadata": {
                        "inclusion": "available"
                    }
                },
                {
                    "breadcrumb": [
                        "properties",
                        "promotional_offer_name"
                    ],
                    "metadata": {
                        "inclusion": "available"
                    }
                },
                {
                    "breadcrumb": [
                        "properties",
                        "promotional_offer_id"
                    ],
                    "metadata": {
                        "inclusion": "available"
                    }
                },
                {
                    "breadcrumb": [
                        "properties",
                        "subscription_offer_type"
                    ],
                    "metadata": {
                        "inclusion": "available"
                    }
                },
                {
                    "breadcrumb": [
                        "properties",
                        "subscription_offer_duration"
                    ],
                    "metadata": {
                        "inclusion": "available"
                    }
                },
                {
                    "breadcrumb": [
                        "properties",
                        "marketing_opt_in_duration"
                    ],
                    "metadata": {
                        "inclusion": "available"
                    }
                },
                {
                    "breadcrumb": [
                        "properties",
                        "customer_price"
                    ],
                    "metadata": {
                        "inclusion": "available"
                    }
                },
                {
                    "breadcrumb": [
                        "properties",
                        "customer_currency"
                    ],
                    "metadata": {
                        "inclusion": "available"
                    }
                },
                {
                    "breadcrumb": [
                        "properties",
                        "developer_proceeds"
                    ],
                    "metadata": {
                        "inclusion": "available"
                    }
                },
                {
                    "breadcrumb": [
                        "properties",
                        "proceeds_currency"
                    ],
                    "metadata": {
                        "inclusion": "available"
                    }
                },
                {
                    "breadcrumb": [
                        "properties",
                        "preserved_pricing"
                    ],
                    "metadata": {
                        "inclusion": "available"
                    }
                },
                {
                    "breadcrumb": [
                        "properties",
                        "proceeds_reason"
                    ],
                    "metadata": {
                        "inclusion": "available"
                    }
                },
                {
                    "breadcrumb": [
                        "properties",
                        "client"
                    ],
                    "metadata": {
                        "inclusion": "available"
                    }
                },
                {
                    "breadcrumb": [
                        "properties",
                        "device"
                    ],
                    "metadata": {
                        "inclusion": "available"
                    }
                },
                {
                    "breadcrumb": [
                        "properties",
                        "country"
                    ],
                    "metadata": {
                        "inclusion": "available"
                    }
                },
                {
                    "breadcrumb": [
                        "properties",
                        "subscriber_id"
                    ],
                    "metadata": {
                        "inclusion": "available"
                    }
                },
                {
                    "breadcrumb": [
                        "properties",
                        "subscriber_id_reset"
                    ],
                    "metadata": {
                        "inclusion": "available"
                    }
                },
                {
                    "breadcrumb": [
                        "properties",
                        "refund"
                    ],
                    "metadata": {
                        "inclusion": "available"
                    }
                },
                {
                    "breadcrumb": [
                        "properties",
                        "purchase_date"
                    ],
                    "metadata": {
                        "inclusion": "available"
                    }
                },
                {
                    "breadcrumb": [
                        "properties",
                        "units"
                    ],
                    "metadata": {
                        "inclusion": "available"
                    }
                },
                {
                    "breadcrumb": [
                        "properties",
                        "apple_report_datetime"
                    ],
                    "metadata": {
                        "inclusion": "available"
                    }
                }
            ]
        },
        {
            "tap_stream_id": "subscription_event",
            "stream": "subscription_event",
            "key_properties": [
                "id"
            ],
            "schema": {
                "type": "object",
                "properties": {
                    "id": {
                        "type": [
                            "string"
                        ]
                    },
                    "event_date": {
                        "type": [
                            "null",
                            "string"
                        ],
                        "format": "date-time"
                    },
                    "event": {
                        "type": [
                            "null",
                            "string"
                        ]
                    },
                    "app_name": {
                        "type": [
                            "null",
                            "string"
                        ]
                    },
                    "app_apple_id": {
                        "type": [
                            "null",
                            "number"
                        ]
                    },
                    "subscription_name": {
                        "type": [
                            "null",
                            "string"
                        ]
                    },
                    "subscription_apple_id": {
                        "type": [
                            "null",
                            "number"
                        ]
                    },
                    "subscription_group_id": {
                        "type": [
                            "null",
                            "number"
                        ]
                    },
                    "standard_subscription_duration": {
                        "type": [
                            "null",
                            "string"
                        ]
                    },
                    "subscription_offer_type": {
                        "type": [
                            "null",
                            "string"
                        ]
                    },
                    "subscription_offer_duration": {
                        "type": [
                            "null",
                            "string"
                        ]
                    },
                    "marketing_opt_in": {
                        "type": [
                            "null",
                            "string"
                        ]
                    },
                    "marketing_opt_in_duration": {
                        "type": [
                            "null",
                            "string"
                        ]
                    },
                    "preserved_pricing": {
                        "type": [
                            "null",
                            "string"
                        ]
                    },
                    "proceeds_reason": {
                        "type": [
                            "null",
                            "string"
                        ]
                    },
                    "promotional_offer_name": {
                        "type": [
                            "null",
                            "string"
                        ]
                    },
                    "promotional_offer_id": {
                        "type": [
                            "null",
                            "string"
                        ]
                    },
                    "consecutive_paid_periods": {
                        "type": [
                            "null",
                            "number"
                        ]
                    },
                    "original_start_date": {
                        "type": [
                            "null",
                            "string"
                        ],
                        "format": "date-time"
                    },
                    "device": {
                        "type": [
                            "null",
                            "string"
                        ]
                    },
                    "client": {
                        "type": [
                            "null",
                            "string"
                        ]
                    },
                    "state": {
                        "type": [
                            "null",
                            "string"
                        ]
                    },
                    "country": {
                        "type": [
                            "null",
                            "string"
                        ]
                    },
                    "previous_subscription_name": {
                        "type": [
                            "null",
                            "string"
                        ]
                    },
                    "previous_subscription_apple_id": {
                        "type": [
                            "null",
                            "string"
                        ]
                    },
                    "days_before_canceling": {
                        "type": [
                            "null",
                            "number"
                        ]
                    },
                    "cancellation_reason": {
                        "type": [
                            "null",
                            "string"
                        ]
                    },
                    "days_canceled": {
                        "type": [
                            "null",
                            "number"
                        ]
                    },
                    "quantity": {
                        "type": [
                            "null",
                            "number"
                        ]
                    },
                    "apple_report_datetime": {
                        "type": [
                            "null",
                            "string"
                        ],
                        "format": "date-time"
                    }
                }
            },
            "metadata": [
                {
                    "breadcrumb": [],
                    "metadata": {
                        "table-key-properties": [
                            "id"
                        ],
                        "forced-replication-method": "INCREMENTAL",
                        "valid-replication-keys": [
                            "apple_report_datetime"
                        ],
                        "inclusion": "available"
                    }
                },
                {
                    "breadcrumb": [
                        "properties",
                        "id"
                    ],
                    "metadata": {
                        "inclusion": "automatic"
                    }
                },
                {
                    "breadcrumb": [
                        "properties",
                        "event_date"
                    ],
                    "metadata": {
                        "inclusion": "available"
                    }
                },
                {
                    "breadcrumb": [
                        "properties",
                        "event"
                    ],
                    "metadata": {
                        "inclusion": "available"
                    }
                },
                {
                    "breadcrumb": [
                        "properties",
                        "app_name"
                    ],
                    "metadata": {
                        "inclusion": "available"
                    }
                },
                {
                    "breadcrumb": [
                        "properties",
                        "app_apple_id"
                    ],
                    "metadata": {
                        "inclusion": "available"
                    }
                },
                {
                    "breadcrumb": [
                        "properties",
                        "subscription_name"
                    ],
                    "metadata": {
                        "inclusion": "available"
                    }
                },
                {
                    "breadcrumb": [
                        "properties",
                        "subscription_apple_id"
                    ],
                    "metadata": {
                        "inclusion": "available"
                    }
                },
                {
                    "breadcrumb": [
                        "properties",
                        "subscription_group_id"
                    ],
                    "metadata": {
                        "inclusion": "available"
                    }
                },
                {
                    "breadcrumb": [
                        "properties",
                        "standard_subscription_duration"
                    ],
                    "metadata": {
                        "inclusion": "available"
                    }
                },
                {
                    "breadcrumb": [
                        "properties",
                        "subscription_offer_type"
                    ],
                    "metadata": {
                        "inclusion": "available"
                    }
                },
                {
                    "breadcrumb": [
                        "properties",
                        "subscription_offer_duration"
                    ],
                    "metadata": {
                        "inclusion": "available"
                    }
                },
                {
                    "breadcrumb": [
                        "properties",
                        "marketing_opt_in"
                    ],
                    "metadata": {
                        "inclusion": "available"
                    }
                },
                {
                    "breadcrumb": [
                        "properties",
                        "marketing_opt_in_duration"
                    ],
                    "metadata": {
                        "inclusion": "available"
                    }
                },
                {
                    "breadcrumb": [
                        "properties",
                        "preserved_pricing"
                    ],
                    "metadata": {
                        "inclusion": "available"
                    }
                },
                {
                    "breadcrumb": [
                        "properties",
                        "proceeds_reason"
                    ],
                    "metadata": {
                        "inclusion": "available"
                    }
                },
                {
                    "breadcrumb": [
                        "properties",
                        "promotional_offer_name"
                    ],
                    "metadata": {
                        "inclusion": "available"
                    }
                },
                {
                    "breadcrumb": [
                        "properties",
                        "promotional_offer_id"
                    ],
                    "metadata": {
                        "inclusion": "available"
                    }
                },
                {
                    "breadcrumb": [
                        "properties",
                        "consecutive_paid_periods"
                    ],
                    "metadata": {
                        "inclusion": "available"
                    }
                },
                {
                    "breadcrumb": [
                        "properties",
                        "original_start_date"
                    ],
                    "metadata": {
                        "inclusion": "available"
                    }
                },
                {
                    "breadcrumb": [
                        "properties",
                        "device"
                    ],
                    "metadata": {
                        "inclusion": "available"
                    }
                },
                {
                    "breadcrumb": [
                        "properties",
                        "client"
                    ],
                    "metadata": {
                        "inclusion": "available"
                    }
                },
                {
                    "breadcrumb": [
                        "properties",
                        "state"
                    ],
                    "metadata": {
                        "inclusion": "available"
                    }
                },
                {
                    "breadcrumb": [
                        "properties",
                        "country"
                    ],
                    "metadata": {
                        "inclusion": "available"
                    }
                },
                {
                    "breadcrumb": [
                        "properties",
                        "previous_subscription_name"
                    ],
                    "metadata": {
                        "inclusion": "available"
                    }
                },
                {
                    "breadcrumb": [
                        "properties",
                        "previous_subscription_apple_id"
                    ],
                    "metadata": {
                        "inclusion": "available"
                    }
                },
                {
                    "breadcrumb": [
                        "properties",
                        "days_before_canceling"
                    ],
                    "metadata": {
                        "inclusion": "available"
                    }
                },
                {
                    "breadcrumb": [
                        "properties",
                        "cancellation_reason"
                    ],
                    "metadata": {
                        "inclusion": "available"
                    }
                },
                {
                    "breadcrumb": [
                        "properties",
                        "days_canceled"
                    ],
                    "metadata": {
                        "inclusion": "available"
                    }
                },
                {
                    "breadcrumb": [
                        "properties",
                        "quantity"
                    ],
                    "metadata": {
                        "inclusion": "available"
                    }
                },
                {
                    "breadcrumb": [
                        "properties",
                        "apple_report_datetime"
                    ],
                    "metadata": {
                        "inclusion": "available"
                    }
                }
            ]
        },
        {
            "tap_stream_id": "subscription",
            "stream": "subscription",
            "key_properties": [
                "id"
            ],
            "schema": {
                "type": "object",
                "properties": {
                    "id": {
                        "type": [
                            "string"
                        ]
                    },
                    "app_name": {
                        "type": [
                            "null",
                            "string"
                        ]
                    },
                    "app_apple_id": {
                        "type": [
                            "null",
                            "number"
                        ]
                    },
                    "subscription_name": {
                        "type": [
                            "null",
                            "string"
                        ]
                    },
                    "subscription_apple_id": {
                        "type": [
                            "null",
                            "number"
                        ]
                    },
                    "subscription_group_id": {
                        "type": [
                            "null",
                            "number"
                        ]
                    },
                    "standard_subscription_duration": {
                        "type": [
                            "null",
                            "string"
                        ]
                    },
                    "customer_price": {
                        "type": [
                            "null",
                            "number"
                        ]
                    },
                    "customer_currency": {
                        "type": [
                            "null",
                            "string"
                        ]
                    },
                    "developer_proceeds": {
                        "type": [
                            "null",
                            "number"
                        ]
                    },
                    "proceeds_currency": {
                        "type": [
                            "null",
                            "string"
                        ]
                    },
                    "preserved_pricing": {
                        "type": [
                            "null",
                            "string"
                        ]
                    },
                    "proceeds_reason": {
                        "type": [
                            "null",
                            "string"
                        ]
                    },
                    "promotional_offer_name": {
                        "type": [
                            "null",
                            "string"
                        ]
                    },
                    "promotional_offer_id": {
                        "type": [
                            "null",
                            "string"
                        ]
                    },
                    "state": {
                        "type": [
                            "null",
                            "string"
                        ]
                    },
                    "country": {
                        "type": [
                            "null",
                            "string"
                        ]
                    },
                    "device": {
                        "type": [
                            "null",
                            "string"
                        ]
                    },
                    "client": {
                        "type": [
                            "null",
                            "string"
                        ]
                    },
                    "active_standard_price_subscriptions": {
                        "type": [
                            "null",
                            "number"
                        ]
                    },
                    "active_free_trial_introductory_offer_subscriptions": {
                        "type": [
                            "null",
                            "number"
                        ]
                    },
                    "active_pay_up_front_introductory_offer_subscriptions": {
                        "type": [
                            "null",
                            "number"
                        ]
                    },
                    "active_pay_as_you_go_introductory_offer_subscriptions": {
                        "type": [
                            "null",
                            "number"
                        ]
                    },
                    "free_trial_promotional_offer_subscriptions": {
                        "type": [
                            "null",
                            "number"
                        ]
                    },
                    "pay_up_front_promotional_offer_subscriptions": {
                        "type": [
                            "null",
                            "number"
                        ]
                    },
                    "pay_as_you_go_promotional_offer_subscriptions": {
                        "type": [
                            "null",
                            "number"
                        ]
                    },
                    "marketing_opt_ins": {
                        "type": [
                            "null",
                            "number"
                        ]
                    },
                    "billing_retry": {
                        "type": [
                            "null",
                            "number"
                        ]
                    },
                    "grace_period": {
                        "type": [
                            "null",
                            "number"
                        ]
                    },
                    "apple_report_datetime": {
                        "type": [
                            "null",
                            "string"
                        ],
                        "format": "date-time"
                    }
                }
            },
            "metadata": [
                {
                    "breadcrumb": [],
                    "metadata": {
                        "table-key-properties": [
                            "id"
                        ],
                        "forced-replication-method": "INCREMENTAL",
                        "valid-replication-keys": [
                            "apple_report_datetime"
                        ],
                        "inclusion": "available"
                    }
                },
                {
                    "breadcrumb": [
                        "properties",
                        "id"
                    ],
                    "metadata": {
                        "inclusion": "automatic"
                    }
                },
                {
                    "breadcrumb": [
                        "properties",
                        "app_name"
                    ],
                    "metadata": {
                        "inclusion": "available"
                    }
                },
                {
                    "breadcrumb": [
                        "properties",
                        "app_apple_id"
                    ],
                    "metadata": {
                        "inclusion": "available"
                    }
                },
                {
                    "breadcrumb": [
                        "properties",
                        "subscription_name"
                    ],
                    "metadata": {
                        "inclusion": "available"
                    }
                },
                {
                    "breadcrumb": [
                        "properties",
                        "subscription_apple_id"
                    ],
                    "metadata": {
                        "inclusion": "available"
                    }
                },
                {
                    "breadcrumb": [
                        "properties",
                        "subscription_group_id"
                    ],
                    "metadata": {
                        "inclusion": "available"
                    }
                },
                {
                    "breadcrumb": [
                        "properties",
                        "standard_subscription_duration"
                    ],
                    "metadata": {
                        "inclusion": "available"
                    }
                },
                {
                    "breadcrumb": [
                        "properties",
                        "customer_price"
                    ],
                    "metadata": {
                        "inclusion": "available"
                    }
                },
                {
                    "breadcrumb": [
                        "properties",
                        "customer_currency"
                    ],
                    "metadata": {
                        "inclusion": "available"
                    }
                },
                {
                    "breadcrumb": [
                        "properties",
                        "developer_proceeds"
                    ],
                    "metadata": {
                        "inclusion": "available"
                    }
                },
                {
                    "breadcrumb": [
                        "properties",
                        "proceeds_currency"
                    ],
                    "metadata": {
                        "inclusion": "available"
                    }
                },
                {
                    "breadcrumb": [
                        "properties",
                        "preserved_pricing"
                    ],
                    "metadata": {
                        "inclusion": "available"
                    }
                },
                {
                    "breadcrumb": [
                        "properties",
                        "proceeds_reason"
                    ],
                    "metadata": {
                        "inclusion": "available"
                    }
                },
                {
                    "breadcrumb": [
                        "properties",
                        "promotional_offer_name"
                    ],
                    "metadata": {
                        "inclusion": "available"
                    }
                },
                {
                    "breadcrumb": [
                        "properties",
                        "promotional_offer_id"
                    ],
                    "metadata": {
                        "inclusion": "available"
                    }
                },
                {
                    "breadcrumb": [
                        "properties",
                        "state"
                    ],
                    "metadata": {
                        "inclusion": "available"
                    }
                },
                {
                    "breadcrumb": [
                        "properties",
                        "country"
                    ],
                    "metadata": {
                        "inclusion": "available"
                    }
                },
                {
                    "breadcrumb": [
                        "properties",
                        "device"
                    ],
                    "metadata": {
                        "inclusion": "available"
                    }
                },
                {
                    "breadcrumb": [
                        "properties",
                        "client"
                    ],
                    "metadata": {
                        "inclusion": "available"
                    }
                },
                {
                    "breadcrumb": [
                        "properties",
                        "active_standard_price_subscriptions"
                    ],
                    "metadata": {
                        "inclusion": "available"
                    }
                },
                {
                    "breadcrumb": [
                        "properties",
                        "active_free_trial_introductory_offer_subscriptions"
                    ],
                    "metadata": {
                        "inclusion": "available"
                    }
                },
                {
                    "breadcrumb": [
                        "properties",
                        "active_pay_up_front_introductory_offer_subscriptions"
                    ],
                    "metadata": {
                        "inclusion": "available"
                    }
                },
                {
                    "breadcrumb": [
                        "properties",
                        "active_pay_as_you_go_introductory_offer_subscriptions"
                    ],
                    "metadata": {
                        "inclusion": "available"
                    }
                },
                {
                    "breadcrumb": [
                        "properties",
                        "free_trial_promotional_offer_subscriptions"
                    ],
                    "metadata": {
                        "inclusion": "available"
                    }
                },
                {
                    "breadcrumb": [
                        "properties",
                        "pay_up_front_promotional_offer_subscriptions"
                    ],
                    "metadata": {
                        "inclusion": "available"
                    }
                },
                {
                    "breadcrumb": [
                        "properties",
                        "pay_as_you_go_promotional_offer_subscriptions"
                    ],
                    "metadata": {
                        "inclusion": "available"
                    }
                },
                {
                    "breadcrumb": [
                        "properties",
                        "marketing_opt_ins"
                    ],
                    "metadata": {
                        "inclusion": "available"
                    }
                },
                {
                    "breadcrumb": [
                        "properties",
                        "billing_retry"
                    ],
                    "metadata": {
                        "inclusion": "available"
                    }
                },
                {
                    "breadcrumb": [
                        "properties",
                        "grace_period"
                    ],
                    "metadata": {
                        "inclusion": "available"
                    }
                },
                {
                    "breadcrumb": [
                        "properties",
                        "apple_report_datetime"
                    ],
                    "metadata": {
                        "inclusion": "available"
                    }
                }
            ]
        }
    ]
}