@startuml Sessions Overall System Context
!include https://raw.githubusercontent.com/plantuml-stdlib/C4-PlantUML/master/C4_Container.puml
LAYOUT_WITH_LEGEND()

title Sessions Apple Watch Context
' Audience semi-technical.
Person(appleWatchUserAlias, "Apple Watch", "User who wants to record a session on their apple watch")

Container(sessionsApi, "Sessions API", "node, express", "Creates/Updates sessions")
Container(sessionEnricherAlias, "Session Enricher Lambda", "node, aws lambda", "sl-sessions-api-enrich-session-sandbox adds/updates spot/cam details and requests clips")
ContainerDb(mongoDbAlias, "Sessions Collection", "mongo", "Stores all sessions data")
ContainerDb(eventsS3Alias, "Session Events S3 Bucket", "aws S3", "sl-sessions-api-sessions-events-sandbox Stores sessions events for processing clips")
Container(sessionAnalyserAlias, "Session Analyser Service", "python", "POST /analyze generates events for PADDLE and WAVE from an array of positions")


Rel(appleWatchUserAlias, sessionsApi, "Sends raw positions data","https" )
Rel(sessionsApi, mongoDbAlias, "Requests and sends data", "mongoose")
Rel(sessionsApi, sessionEnricherAlias, "Queues for enrichment", "sl-sessions-api-sessions-enricher-queue-sandbox")
Rel(sessionsApi, eventsS3Alias, "Uploads events", "aws-sdk")
Rel(sessionsApi, sessionAnalyserAlias, "requests analysis before storing/enriching", "https synchronous")

@enduml
