@startuml Sessions Overall System Context
!include https://raw.githubusercontent.com/plantuml-stdlib/C4-PlantUML/master/C4_Container.puml
LAYOUT_WITH_LEGEND()

title Garmin Watch Context
' Audience semi-technical.
Person(garminUserAlias, "Garmin Watch Integration", "User who wants to record a session on their garmin watch")

Container(garminWebhookAlias, "Garmin Webhook Endpoint", "Node, express", "/garmin/activity-files accepts sessions from garmin")
Container(sessionsApi, "Sessions API", "node, express", "/sessions Creates sessions from Dawn Patrol and Garmin")


Container(garminParserAlias, "Garmin Parser Lambda", "node, aws lambda", "Retrieves and processes garmin fit files")
Container(sessionEnricherAlias, "Session Enricher Lambda", "node, aws lambda", "sl-sessions-api-enrich-session-sandbox adds/updates spot/cam details and requests clips")
ContainerDb(mongoDbAlias, "Sessions Collection", "mongo", "Stores all sessions data")
ContainerDb(eventsS3Alias, "Session Events S3 Bucket", "aws S3", "sl-sessions-api-sessions-events-sandbox Stores sessions events for processing clips")

Rel_R(garminUserAlias, garminWebhookAlias, "Calls with url for .fit file", "webhook")
Rel_D(garminWebhookAlias, garminParserAlias, "Invokes Asynchronously", "aws-sdk")
Rel_L(garminParserAlias, sessionsApi, "Sends parsed .fit file", "https")
Rel(sessionsApi, mongoDbAlias, "Requests and sends data", "mongoose")
Rel(sessionsApi, sessionEnricherAlias, "Queues for enrichment", "sl-sessions-api-sessions-enricher-queue-sandbox")
Rel(sessionsApi, eventsS3Alias, "Uploads events", "aws-sdk")

@enduml
