 /slow/tpxo8/DATA/Model_atlas
 Elevations (m)
   Lat     Lon       m2_amp  m2_ph   s2_amp  s2_ph   n2_amp  n2_ph   k2_amp  k2_ph   k1_amp  k1_ph   o1_amp  o1_ph   p1_amp  p1_ph   q1_amp  q1_ph   m4_amp  m4_ph   ms4_amp  ms4_ph   mn4_amp  mn4_ph   mm_amp  mm_ph   mf_amp  mf_ph   
 HC extracted from local solution :CAGoM               
   8.2700  277.1600   1.114  -115.4   0.293   -58.4   0.237  -146.9   0.074   -63.6   0.119    65.0   0.036    83.8   0.038    64.7   0.007   124.1   0.001   -52.7   0.003  -147.4   0.000   145.6   0.007    12.2   0.012    19.0
