<?xml version="1.0" encoding="UTF-8" standalone="no"?>
<svg width="17px" height="19px" viewBox="0 0 17 19" version="1.1" xmlns="http://www.w3.org/2000/svg" xmlns:xlink="http://www.w3.org/1999/xlink" xmlns:sketch="http://www.bohemiancoding.com/sketch/ns">
    <!-- Generator: Sketch 3.5.2 (25235) - http://www.bohemiancoding.com/sketch -->
    <title>teardrop</title>
    <desc>Created with Sketch.</desc>
    <defs></defs>
    <g id="Page-1" stroke="none" stroke-width="1" fill="none" fill-rule="evenodd" sketch:type="MSPage">
        <g id="Styles" sketch:type="MSArtboardGroup" transform="translate(-1063.000000, -536.000000)" fill="#FFFFFF">
            <g id="btn-loading" sketch:type="MSLayerGroup" transform="translate(951.000000, 518.000000)">
                <path d="M120.206127,36.9991844 C119.456147,36.988462 118.730774,36.8807022 118.040772,36.6855551 C121.797335,35.7280475 124.607067,32.2116462 124.661406,27.9875686 C124.676272,26.7330513 125.660525,25.7299736 126.860595,25.7482017 C128.057589,25.7653575 129.015697,26.7941689 128.999805,28.0454694 C128.934188,33.0597857 124.998205,37.0656631 120.206127,36.9991844 Z M114.141981,29.2523738 C112.942424,29.2336096 111.983803,28.2074788 112.000207,26.9540338 C112.064799,21.9402536 116.000783,17.9327679 120.793886,18.0008549 C121.542327,18.0094328 122.268726,18.1204093 122.960266,18.3160926 C119.202165,19.2709196 116.393458,22.7841041 116.338607,27.0135429 C116.323228,28.266988 115.338975,29.2695296 114.141981,29.2523738 Z" id="teardrop" sketch:type="MSShapeGroup"></path>
            </g>
        </g>
    </g>
</svg>