<?xml version="1.0" encoding="UTF-8" standalone="no"?>
<svg width="71px" height="12px" viewBox="0 0 71 12" version="1.1" xmlns="http://www.w3.org/2000/svg" xmlns:xlink="http://www.w3.org/1999/xlink">
    <!-- Generator: Sketch 40.3 (33839) - http://www.bohemiancoding.com/sketch -->
    <title>fishtack-logo-white</title>
    <desc>Created with Sketch.</desc>
    <defs></defs>
    <g id="Account-Mobile" stroke="none" stroke-width="1" fill="none" fill-rule="evenodd">
        <g id="mobile-overview" transform="translate(-152.000000, -1475.000000)" fill="#FFFFFF">
            <g id="Group-10" transform="translate(10.000000, 1460.000000)">
                <g id="fishtack-logo-white" transform="translate(142.000000, 15.000000)">
                    <path d="M10.1432544,4.12583226 C9.66711901,4.22276284 9.56500704,4.26192671 9.19430161,4.49119854 C8.66582447,4.81813528 8.37508324,4.94288853 8.1313749,5.40306402 C7.81267938,5.07555614 7.69978385,4.66662005 7.38905157,4.37582831 C7.0205858,4.03338921 6.51500298,3.84556581 5.96487578,3.63440727 C5.33354012,3.39387582 4.76856479,3.10846911 4.20541438,2.88792756 C3.60485332,2.20402845 2.69306229,1.8715435 2.04712735,1.23847584 C1.95165141,1.25087773 1.9391259,1.16732814 1.82988019,1.19384535 C1.39231672,0.809141901 0.893038129,0.492485683 0.387455308,0.18488611 C0.373519637,0.228537508 0.433658693,0.33599338 0.367547206,0.33542224 C0.263112625,0.207731701 0.188291345,0.0441409467 0.00837187936,-8.8817842e-16 C0.44104128,1.35017447 1.309864,1.94008028 2.18042868,2.69814596 C2.52442408,2.99726003 2.80023423,3.42659397 3.18927171,3.58716585 C3.6099133,3.76062916 4.06572587,3.85405131 4.47027508,4.03852946 C5.35212101,4.4394696 6.24027118,4.93358711 6.20800346,6.19482695 C5.99374253,6.27527607 5.72713987,6.45624579 5.75293745,6.64651693 C5.75418171,6.62758773 5.75492826,6.61086149 5.78072584,6.6146147 C5.78794253,6.87219874 5.40330142,7.03864519 4.98805161,7.029099 C4.92335028,7.08384683 4.84828015,7.3374329 4.98348934,7.38891707 C5.02687241,7.06100124 5.5075701,7.10930335 5.80959259,7.00176588 C5.96263612,7.40197169 6.23288859,7.8277972 6.74369729,7.71658813 C6.82316379,7.62561372 6.73482159,7.51872899 6.78334759,7.44521513 C7.30029462,7.48690834 7.66801384,7.3497532 8.04759497,7.20770257 C8.30457538,7.11077199 8.5248917,6.91740038 8.75383486,6.85873616 C8.90953281,6.82055139 9.07253039,6.90703827 9.20583171,6.79819534 C9.15257754,6.79452373 9.05710161,6.83776717 9.08090838,6.74695594 C9.52908951,6.58295723 9.98705879,6.56109074 10.4731483,6.62065246 C11.2717949,6.71758304 12.1653369,6.8348301 12.938269,7.0017661 C12.3304083,6.65736881 11.2635828,6.72606855 10.555601,6.49492011 C11.6720307,6.53971379 12.7987468,6.47434468 13.7383262,6.39389556 C12.5894628,6.22336954 11.039036,6.6146147 10.0516772,6.26091598 C9.94774029,6.10377095 10.2015686,5.53328389 10.267846,5.4364349 C10.4907337,5.1034604 10.7961572,4.69044474 11.1798029,4.56365171 C11.2646612,4.53680814 11.3716672,4.56520194 11.4529586,4.54480409 C11.5524162,4.51959235 11.6449059,4.4299234 11.7476815,4.40520121 C12.0353536,4.33462465 12.3288321,4.33968332 12.5872227,4.22716878 C12.6944776,4.21125845 12.4749078,4.15422607 12.5814991,4.13749983 C12.735621,4.12950387 12.892895,4.12346611 12.9707025,4.05093136 C12.9382689,4.05476615 12.892895,4.0419563 12.9382689,4.02359824 C13.2597018,3.99022736 13.4131601,3.81219492 13.7444641,3.78747273 C13.8367879,3.71983346 13.6555412,3.73427514 13.7383257,3.69837492 C14.295006,3.58561561 14.4908519,3.29188657 15.0436336,3.21845431 C15.056242,3.12193169 14.9326459,3.18565457 15.0053934,3.10120747 C15.1668979,3.10822433 15.2652771,3.06139087 15.397666,3.04393031 C15.5105615,2.85104825 16.0281721,2.85610691 16.0412783,2.67081285 C15.2382352,3.01317036 14.1714928,3.19699578 13.1085661,3.41256025 C12.0689485,3.62347402 11.0470822,3.9424148 10.1432544,4.12583226 Z" id="Fill-1" transform="translate(8.024825, 3.867271) scale(-1, 1) translate(-8.024825, -3.867271) "></path>
                    <g id="Group-Copy-7" transform="translate(14.861773, 2.189127)">
                        <g id="Group-3-Copy-4" transform="translate(0.000000, 0.053890)">
                            <path d="M6.85013505,5.19705736 L2.02988907,5.19705722 L2.02988909,8.84953173 L0,8.84953173 L0,4.6338961 C0,3.56445349 0.0655418217,2.78134502 0.196627431,2.28454721 C0.312291205,1.7953341 0.53975988,1.3743896 0.879040282,1.02170108 C1.06410232,0.851045343 1.25880008,0.709782436 1.46313942,0.59790812 C1.66747875,0.486033804 1.90747748,0.386486118 2.1831428,0.299262075 C2.45880813,0.212038032 2.75856558,0.149465201 3.08242415,0.111541704 C3.39857179,0.073618207 3.77061802,0.0546567429 4.19857398,0.0546567429 L6.85013505,0.0546567429 L6.85013505,1.77827102 L4.05399498,1.77827106 C3.36001234,1.77827106 2.85109937,1.92048204 2.52724081,2.20490827 C2.19567133,2.4817498 2.02988907,2.90838274 2.02988907,3.48481989 L6.85013505,3.48481975 L6.85013505,5.19705736 Z M9.6694431,8.84632554 L7.69160246,8.84632554 L7.69160246,2.53778337 L9.6694431,2.53778337 L9.6694431,8.84632554 Z M16.2391126,8.26041044 C15.8998322,8.64723011 15.4641718,8.84063704 14.9321185,8.84063704 L10.5658328,8.84063689 L10.5658329,7.3047432 L14.1745245,7.3047431 C14.4212739,7.3047431 14.6121163,7.25733944 14.7470574,7.1625307 C14.8434438,7.1018531 14.8916363,6.99756505 14.8916363,6.84966341 C14.8916363,6.69417707 14.8434438,6.58230444 14.7470574,6.51404214 C14.64296,6.4495722 14.4521176,6.41733771 14.1745245,6.41733771 L12.7923494,6.41733771 C11.9402929,6.41733771 11.3561996,6.27986709 11.040052,6.00492174 C10.7239043,5.72997639 10.5658329,5.25119942 10.5658329,4.56857647 C10.5658329,3.85940708 10.7547475,3.34555141 11.1325825,3.02699403 C11.4872848,2.70464431 12.0559564,2.54347186 12.8386146,2.54347186 L16.4299568,2.54347186 L16.4299568,4.07936581 L13.4574127,4.07936581 C13.0140349,4.07936581 12.7383737,4.11349645 12.6304209,4.18175874 C12.5494562,4.21968224 12.5089745,4.3163857 12.5089745,4.47187204 C12.5089745,4.61218898 12.5436731,4.71458089 12.6130714,4.77905083 C12.7248797,4.84731312 12.890662,4.88144376 13.1104231,4.88144376 L14.5562131,4.88144376 C15.2579066,4.88144376 15.7938074,5.04830464 16.1639315,5.38203142 C16.5533329,5.70058879 16.7480306,6.17462539 16.7480306,6.80415544 C16.7480306,7.39576199 16.578393,7.88117547 16.2391126,8.26041044 Z M23.4160138,8.84632554 L21.5075711,8.84632554 L21.5075711,5.05778714 C21.5075711,4.68234452 21.4458847,4.43774163 21.32251,4.32397114 C21.2415453,4.2595012 21.1509434,4.21209754 21.0507015,4.18175874 C20.9388932,4.15141994 20.7846771,4.13625077 20.5880487,4.13625077 L19.4603325,4.14762776 L19.4603325,8.84632554 L17.5750225,8.84632554 L17.5750225,0.0165933322 L19.4603326,0.0165933322 L19.4603325,2.54347186 L20.7268445,2.54347186 C21.6752875,2.54347186 22.3586574,2.72550192 22.7769747,3.08956749 C23.195292,3.45363306 23.4044475,4.05091918 23.4044475,4.88144376 L23.4160138,8.84632554 Z" id="Fish-Copy-11"></path>
                            <polygon id="T-Copy-11" points="30.6542758 1.74821425 27.9599027 1.74821425 27.9599028 8.81654814 25.8681422 8.81654814 25.8681422 1.74821425 23.1969465 1.74821425 23.1969465 0.0165933322 30.6542758 0.0165933322"></polygon>
                            <path d="M35.3570009,5.29826868 L33.5354187,5.29826868 L33.5354187,4.36651563 C33.5354187,4.18092161 33.5113239,4.06634743 33.4631337,4.02278965 C33.4149435,3.97923187 33.3561522,3.95366573 33.2867583,3.94609047 C33.2173643,3.9385152 33.1152025,3.93472762 32.9802699,3.93472762 L32.5639082,3.93472762 L32.5639082,8.79234264 L30.6671497,8.79234264 L30.6671497,2.49164667 L33.5007219,2.49164667 C34.1792406,2.49164667 34.6495703,2.61663669 34.9117252,2.86662046 C35.0428027,2.98403709 35.1478559,3.15069044 35.2268879,3.36658552 C35.3059199,3.5824806 35.3454353,3.84192957 35.3454353,4.1449402 L35.3570009,5.29826868 Z M42.2674475,8.78666122 L37.8146911,8.78666122 C37.1978559,8.78666122 36.7082504,8.62379545 36.3458598,8.29805901 C35.9796139,7.97989784 35.7964937,7.51591976 35.7964937,6.90611085 C35.7964937,6.17509768 35.9979259,5.65051838 36.4007964,5.33235721 C36.8036668,5.01419604 37.4561529,4.85511784 38.3582743,4.85511784 L40.3244265,4.85511784 C40.3244265,4.5521072 40.2338302,4.33432157 40.0526349,4.20175442 C39.8675843,4.08055016 39.5186922,4.01994894 39.005948,4.01994894 L36.2012897,4.01994894 L36.2012897,2.49732809 L39.613142,2.49732809 C40.4805665,2.49732809 41.1397991,2.69428205 41.5908598,3.08819588 C42.0419205,3.48210972 42.2674475,4.07865296 42.2674475,4.87784352 L42.2674475,8.78666122 Z M40.4735731,7.28676606 L40.4735731,6.34365016 L38.7329501,6.34365016 C38.3859804,6.34365016 38.1604534,6.37679145 38.0563625,6.44307503 C37.9522715,6.50935861 37.9002269,6.64665824 37.9002269,6.85497806 C37.9002269,7.01027101 37.9368509,7.1238983 38.0101001,7.19586332 C38.0486523,7.22616439 38.119009,7.24888984 38.2211723,7.26404037 C38.3233356,7.27919091 38.4534473,7.28676606 38.6115113,7.28676606 L40.4735731,7.28676606 Z" id="ra-copy-11"></path>
                            <polygon id="k-copy-4" points="56.0628391 2.65005492 53.4026774 5.554895 56.0628391 8.87170064 53.5099237 8.87170064 51.4979138 6.23794726 51.4979138 8.82598672 49.5392418 8.82598672 49.5392418 0.0939387491 51.4979138 0.0939387491 51.4979138 4.90696244 53.5099237 2.65005492"></polygon>
                            <path d="M48.6964045,8.82202728 L46.3587755,8.82202728 C46.0711855,8.82202728 45.8108038,8.8067781 45.5776227,8.77627928 C45.3483279,8.74578045 45.1345818,8.70193905 44.9363778,8.64475375 C44.5788335,8.52275845 44.2484985,8.32451907 43.945363,8.05002965 C43.8093407,7.91659729 43.6849793,7.75648086 43.5722751,7.56967556 C43.4556846,7.39049497 43.3488115,7.19606788 43.2516527,6.98638846 C43.1739257,6.78433375 43.1136881,6.57656362 43.0709382,6.36307185 C43.0320747,6.15339243 43.0126432,5.92274853 43.0126432,5.67113323 C43.0126432,5.19840145 43.0923123,4.75426898 43.2516527,4.3387225 C43.4109931,3.93080072 43.6422276,3.56291417 43.945363,3.2350518 C44.221294,2.98724885 44.551629,2.8023525 44.9363778,2.68035721 C45.3172403,2.55454955 45.7913681,2.49164667 46.3587755,2.49164667 L48.6964045,2.49164667 L48.6964045,4.08138995 L46.8309649,4.08138995 C46.4423297,4.08138995 46.1314262,4.10426373 45.8982451,4.15001196 C45.6689504,4.20719726 45.4901809,4.30059851 45.3619312,4.43021851 C45.0976593,4.6665844 44.9655253,5.08021851 44.9655253,5.67113323 C44.9655253,5.99899559 45.0238197,6.27729319 45.1404103,6.50603438 C45.2414554,6.73096321 45.4007935,6.91776571 45.6184292,7.06644748 L45.9973466,7.197973 C46.1022781,7.21322241 46.2091512,7.2246593 46.317969,7.232284 C46.4306732,7.23990871 46.6016702,7.24372101 46.8309649,7.24372101 L48.6964045,7.24372101 L48.6964045,8.82202728 Z" id="Type-something-Copy-11"></path>
                        </g>
                        <path d="M7.99635283,1.90861364 C7.97479245,1.90939561 7.95294244,1.90979226 7.93079895,1.90979226 L7.79722707,1.90979226 L7.79722707,1.84173053 L7.79722707,-0.0357395757 L9.59291897,-0.0357395757 C9.59291897,-0.0357395757 9.4847787,1.85463024 7.99635283,1.90861364 Z" id="Path-Copy-9" transform="translate(8.695073, 0.937026) scale(-1, 1) rotate(-90.000000) translate(-8.695073, -0.937026) "></path>
                    </g>
                </g>
            </g>
        </g>
    </g>
</svg>