{
  "Version": "2012-10-17",
  "Statement": [
    {
      "Effect": "Allow",
      "Action": [
        "s3:Get*",
        "s3:List*",
        "s3:Put*",
        "s3:AbortMultipartUpload"
      ],
      "Resource": [
        "${resource_arn}",
        "${resource_arn}/*"
      ]
    }
  ]
}
