﻿Spot (just for reference),SLSpot ID,Spot Description,Ability Level DD,Ability Level Description,Access Description,Best Season Description,Best Season DD,Best Surf Height Description,Best Swell Direction Description,Best Tides Description,Best Tides DD,Best Wind Direction Description,Board Type DD,Bottom Description,Bottom DD,Break Type DD,Crowd Factor Description,Crowd Factor DD,Hazards Description,Local Vibe Description,Local Vibe DD,Shoulder Burn Description,Shoulder Burn DD,Spot Rating Description,Spot Rating DD,Water Quality Description,Water Quality DD
Coos Bay,601ae044df7c711be586dd8f,"One of the central hubs of the Southern Oregon surf scene, Coos Bay is an idyllic slice of the great Pacific Northwest. The coastline is defined by a myriad of rocky headlands and coves which hold plenty of potential for great waves. For those looking to learn to surf in the chilly waters, Bastendorff Beach is a great option. The first stop on the Cape Arago Highway, this large, sandy stretch of beach enjoys protection from the regular S winds, thanks to Yoakam Head. Down around the south jetty, various peaks are loosely divided into spots like South End, Gray Houses, Middles, Crappers aka Shitters, and North End. There are several regularly surfed spots further out on the Cape, including Simpson’s Reef, which is a sucking righthander for only the most adventurous surfers with a heap of experience.",Beginner|Intermediate|Advanced,"There’s something for everyone along this stretch of the Oregon coast, as long as the Pacific Ocean cooperates.",Explore the Cape Arago Highway and you’re bound to find what you’re looking for.,There’s no shortage of swell in these waters during the winter months. The trick is being there when it’s clean enough to surf.,Winter,Waist-high to several feet overhead.,"W, W-NW","Breaks on most tides, except for extreme high and low swings.",Medium,SE,Shortboard|Fish|Funboard|Longboard,"Bastendorff Beach is a user-friendly beachbreak that enjoys some shelter from local S winds. Other setups in the area are more exposed, and more challenging, depending on the conditions.",Sand|Rock,Beach Break|Reef,"The epicenter of South Oregon surfing, but it’s not exactly Lower Trestles. At least not yet.",5,"Cold water, strong currents, big sharks, polluted water.",They’re mellow if you’re mellow.,4,"Depends on where you paddle out at Coos Bay, but doing it in a 5-mil wetsuit, hood, booties and gloves is never easy, especially when it’s pumping.",7,"Playful when it’s small, challenging when it’s big. There’s something for everyone around Coos Bay.",7,One of the most polluted spots in the Pacific Northwest. Some regulars have reported skin problems.,7
Pangandaran,60510d5e06cc8e245375cdd9,"A crescent-shaped beach in central Java, Pangandaran picks up ample swell from the S and SW, which lights up the endless selection of beach break peaks. The waves tend to be biggest on the more exposed, middle section of the beach, and get progressively smaller as you move east toward the nature reserve, offering a nice array of options for various skill levels.",Beginner|Intermediate|Advanced,"Less experienced surfers can opt for the smaller peaks at the end of the beach, while those who are more advanced will appreciate the hollow beach break barrels farther west.",Numerous beachfront accommodation options.,"Swells are common all year, but most consistent from April through September.",Autumn|Winter,Head-high.,"S, SW",Mid to high.,Medium|Medium High|High,"E, glassy",Shortboard,Sand.,Sand,Rights|Lefts|Beach Break,"Pangandaran has become a popular surf destination over the past few years, but doesn't have the crowds of better known areas.",4,"Rips, sunburn, midday onshores during the dry season, closeouts when the swell gets too big.",Very friendly.,2,Normal beach break effort.,3,Long series of beach break peaks that range from fun to excellent depending on sand.,5,Stays pretty clean.,3
Pacitan,60510fc8910e9dd5054795b4,"A picturesque bay with a number of different wave options, East Java's Pacitan has only recently found its way on the mainstream surf community's radar. But that's not to say it isn't worthy of attention. A mix of beach breaks, reefs, and a river mouth provide short but intense barrels set against incredible backdrops, often with minimal crowds.",Intermediate|Advanced,"Most visiting surfers come looking for barrels, so in general this is an intermediate+ destination.","Take a bus from Surabaya to Ponorogo, then a smaller bus to Pacitan. Stay in beachside accommodations for easy access to the waves.","Swell is consistent year round, but Autumn and winter tend to be biggest.",Autumn|Winter,Head-high+,SW,Low to mid.,Low|Medium Low|Medium,N,Shortboard,"Sand, reef.",Sand|Lava|Rock,Rights|Lefts|Beach Break|Reef,"Starting to gain in popularity, but still quite uncrowded.",3,"Shallow reef, hollow waves, sharks.",Mellow.,3,Easy access to numerous waves within a short paddle.,3,Multiple hollow reef and beach break peaks.,6,A bit brown but not terribly polluted.,4
Parangtritis,605111785f3aed68cedbcc1d,"Located just outside of Kretek in Central Java, Parangtritis is a beach break set up with numerous peaks that pick up consistent swell all year. Fun but not mind-blowing, this is a great option for beginners or surfers looking for some sand-bottom alternatives to Indonesia's multitude of reef breaks.",Beginner|Intermediate,Relatively tame compared to many waves in Indo.,Find your way to Kretek then drive past the Parangkusumo Sand Dunes and park for free at Squid Surf Shop.,"Swell year round, but most consistent between May and September.",Autumn|Winter,Head-high.,"S, SW",All tides.,Low|Medium Low|Medium|Medium High|High,N,Shortboard|Funboard|Longboard|Fish,Sand.,Sand,Rights|Lefts|Beach Break,"There's a healthy surf population, but not overbearingly crowded.",4,"Sunburn, rips.",The local surf scene is pretty friendly.,3,"Mellow paddle, mild rips.",3,Fun but not epic beach break peaks.,4,Not the cleanest water in Indonesia.,4
Old Mans - Batu-Bolong,605112930a374f33cf5f8f05,"Just south of Canggu lies Old Man's, a mellow right-hander that lazily bends around a lava reef and provides fun waves for longboards and SUPs. One of Bali's better beginner spots.",Beginner|Intermediate,Great place to learn how to surf or go for a cruisy trim on your longboard.,"Easy parking in front of the wave; mind the hot, black sand on the walk down.",Consistent swell and trade winds mean good conditions during Autumn and winter.,Autumn|Winter,Chest- to head-high.,SW,All tides.,Low|Medium Low|Medium|Medium High|High,NE,Longboard|SUP,Sand and reef.,Sand|Lava|Rock,Rights|Lefts|Reef,Definitely gets crowded.,7,"Reef cuts, crowds of newbies, sunburn, hot sand.","Crowded, but not really localized.",2,Super mellow lineup.,1,"Soft, mushy, right-hand reef break.",2,About the same as everywhere else on Bali's west coast.,3
Whangamata,584204204e65fad6a770966e,"A decent beach break and river mouth setup set in the town of Whangamata on Coromandel Peninsula, Whangamata Beach is relatively consistent and consistently fun. The left in particularly can get quite good, and is fed by the sediment that flows out of the river.",Beginner|Intermediate|Advanced,All surfers.,Drive to Whangamata town and park at the beach.,Swell is most consistent in January through March.,Summer,Chest-high to overhead.,"NE, E",All tides.,Low|Medium Low|Medium|Medium High|High,"W, WNW",Shortboard|Fish|Funboard|BODYBOARD,Sand.,Sand,Rights|Lefts|Beach Break,Gets busy.,6,"Rips, river runoff after rains.",There are locals but they aren't too heavy.,4,Typical beach break currents.,4,"Fun beach break peaks, better left-hand sandbar by the river mouth.",5,Decent unless it rains.,3
Forestry,604fa0c633c33cfd96f3bbcd,"A good option for beginners and intermediate surfers, Forestry is home to a series of beach break peaks and a fun left-hand point break, located south of Te Arai point near Auckland. A beautiful area with fun waves and a relatively uncrowded beach, but still only an hour drive from the city.",Beginner|Intermediate|Advanced,Something for everyone.,"Drive to the car park, then walk through the forest a minute or two to the beach.",Summer is typically best.,Summer,Knee- to head-high.,"NE, E",All tides.,Low|Medium Low|Medium|Medium High|High,SW,Shortboard|Fish|Funboard|Longboard|BODYBOARD,Sand.,Sand,Rights|Lefts|Beach Break,A little busy on weekends.,4,"Sharks, rocks up at the top of the point.",Pretty mellow.,2,"Easy paddle, easy waves.",2,"User-friendly beach break appropriate for beginners, maybe lacking in excitement for experts.",5,The water is lovely.,2
Fistral Beach,5842041f4e65fad6a7708ca7,"The heart of the UK surf scene since the 1960’s, ‘North’ is the site of the annual Boardmasters contest for good reason. It is a swell magnet that works through all tides, with conical, reeling pits and feathering A frames on a par with the best French beachies on its day. Some of the UK’s top surfers are locals here, honing their skills on the long, rippable walls and barrel sections. Great facilities - showers, lockers, beach bars etc meaning in the summer its packed. Even through winter it’s never quiet and there will be a tight pack on each peak. Holds its shape even in a big swell.",Beginner|Intermediate|Advanced,Good for all abilities.,Beachfront parking by Surfing Centre. Super keen enforcement so be sure to get a ticket.,Works year round.,Autumn,Thigh high to double overhead.,SW to NW,All tides.,Low|Medium Low|Medium|Medium High|High,SE to NE,Shortboard|Funboard|Longboard|Fish|BODYBOARD,Sand,Sand,Rights|Lefts|Beach Break,Always busy. Perhaps consistently the busiest in the UK.,8,"Crowds, rips, rocks at northern end.",The best peaks have a heavy and competitive local crew.,5,A big paddle in big swells.,5,"Biggest and best days are heavy and hollow, but mostly fun peaks.",7,Good.,2
Woolacombe Bay,584204204e65fad6a77090ac,"A 2 mile long stretch of sand that offers many peaks and loads of room to spread out. Popular high tide right at the northern end where the town is, plus the stream here helps sculpt consistent banks. Looking south there are a number of lefts and rights that work through the tides. Good option to escape the Croyde crowds.",Beginner|Intermediate,"Generally good for all comers, but best left to more experienced surfers when it gets big due to rips.","Large car park in Woolacombe overlooking the sea, or on Marine Drive running parallel to the beach, just back from dunes.","Works year round, but best September - November.",Autumn,Waist high to overhead.,W,Breaks through the tides.,Low|Medium Low|Medium|Medium High|High,E,Shortboard|Fish|Funboard|Longboard|SUP|BODYBOARD,Sand,Sand,Rights|Lefts|Beach Break,its busy but manageable as there's plenty of room to spread out.,4,Rips when big.,Relaxed.,2,Not too bad.,3,"Flexible, fun beach break with loads of potential to find good peaks in clean swells.",4,Pretty clean - can be sewage discharge after heavy rains.,3
Rest Bay,584204204e65fad6a77090d2,"Popular beach that can produce great peaks, considered to be some of the best in the area. Works best from low to three-quarter tide on the push, but with high surfable by the slipway. Southern peaks are the most popular.",Beginner|Intermediate,"Good for all levels, popular with beginners at low.","Large car park just back from the beach, turning towards the café.","Works year round, but best September through February.",Autumn|Winter,Thigh high to overhead.,NW-SW,Not high as the beach disappears.,Low|Medium Low|Medium|Medium High,"E, NE",Shortboard|Fish|Funboard|Longboard|SUP|BODYBOARD,Sand and rock patches near high,Sand,Rights|Lefts|Beach Break,"A committed local crew means its often busy, but manageable.",4,Rocks near high.,Competitive. Relaxed if respectful.,4,OK unless big.,3,Fairly consistent spot with good banks and walling waves.,5,OK - but watch out for sewage after heavy rains.,4
Godrevy,584204214e65fad6a7709d2a,"One of Cornwall’s most popular surfing beaches, Godrevy picks up plenty of swell, works through the tides, through is noticeably smaller at high. Waves tend to be a bit on the fat side – so bring a board with a bit of extra volume. The Red River is both a source of good sandbars as well as pollution after heavy rains. The rip from the river makes for an easier paddle out when the swell picks up. Any east wind is good, but gets chopped up in a southerly. Easy access from the National Trust car park, which fills rapidly on good days. At lower tides, the beach joins up with Gwithian to the south offering up a huge expanse of peaks and possibilities.",Beginner|Intermediate,"Good for all, beginners watch out for rips by the river.","The National Trust has two parking areas in summer, only one in winter. Also parking at Rockpool Pub.","Works year round, but best September - November.",Autumn,Thigh high to double overhead.,SW to NW,"All tides, mid tide is generally best.",Low|Medium Low|Medium|Medium High|High,"SE to NE, and even N or NW on right tides.",Shortboard|Funboard|Longboard|Fish|BODYBOARD,Sand with occasional rock outcrops to southern end. High tide breaks on pebbles and stones.,Sand,Rights|Lefts|Beach Break,"its never quiet, gets very busy during the summer and when good.",7,"Pollution after heavy rain can be dire, crowds, rips.","Competitive line-up with general good vibe. This may be a popular tourist beach, the the tight local crew won't welcome a lack of etiquette.",4,Experienced surfers use the rip from the river to get outback. General rips can be strong in big swells.,4,"Popular, classic Cornish beachie. Middle of bay canclose out in anything above a small swell, but rivermouth generally has good lefts and rights. Can be a bit fat.",6,"Generally good, but sewage outAutumn from river after rains.",3
Putsborough,5842041f4e65fad6a7708ca1,"This quality beachbreak, at the southern end of Woolacombe Sands, can throw up some decent banks and, in a solid swell, can deliver hollow rides almost on par with its better-known and more-crowded neighbour, Croyde. The huge mass of Baggy Point, at the southern end of the bay, offers protection from the wrath of southerly and southwesterly winds that can wreck nearby spots, although it also means that the waves are usually a foot or two smaller. Easy parking overlooking the waves. Can get crowded.",Beginner|Intermediate,"Good for all, especially when small.",There's ample parking overlooking the beach behind the café. Road to beach is narrow and windy.,September - February as it needs bigger swells.,Autumn|Winter,Thigh high to overhead.,Big SW to W.,"Works on all tides, but can disappear at high.",Low|Medium Low|Medium|Medium High|High,"SE, E",Shortboard|Fish|Funboard|Longboard|SUP|BODYBOARD,"Sandy bay, occasional rocks at high.",Sand,Rights|Lefts|Beach Break,"Can get busy, but manageable.",5,Watch out for rips by the point when big. Crowds.,Pretty tolerant so bring a relaxed vibe.,4,"Generally OK, can be heavy going when big. Rips by headland.",3,"Fun banks that can be excellent, peaky, hollow waves on those big winter swells.",4,OK.,3
South Fistral Beach,584204214e65fad6a7709ced,"Just a short walk down the beach from ‘North’ lies another iconic break with long, walling peaks and a long left breaking off the rocks. South pics up less swell due to Pentire Headland but has the advantage of offering some shelter in a southwesterly wind. Always busy with advanced surfers out back and beginners on foamies on the inside. Watch out for rips here.",Intermediate,Better left to experienced surfers.,"Parking along Esplanade Road overlooking sea, fills quickly when good. Steps down to beach.",Works year round.,Spring|Summer|Autumn|Winter,Thigh high to head and a half.,SW to NW,"Low to mid tide best, high tide breaks on rocks.",Low|Medium Low|Medium,"SE to NE, but can be sheltered in S to SW.",Shortboard|Funboard|Longboard|Fish|BODYBOARD,Sand and rock.,Sand|Rock,Rights|Lefts|Beach Break,"Always busy, crazy in the summer.",8,"Crowds, rips, rocks at southern end.",The best peaks will have a heavy and competitive local crew.,5,A big paddle in big swells.,5,"Biggest and best days sees long walls plus heavy and hollow peaks, mostly fun and rippable.",6,Good.,2
Watersplash-Jersey,5a283328aa1aea001b27be3c,"This long, flat stretch of sand faces west, Hoovering up any passing westerly or northwesterly swell. The banks here shift regularly but are consistently good. its an ideal spot for beginners in small, summer swells. Lots of power in the winter.",Beginner|Intermediate,"Any and all surfers, especially when small.",Parking on beachfront overlooking sea.,Works year round but best in the clean swells of Autumn running September - November.,Spring|Summer|Autumn|Winter,Thigh high to head and a half.,"W, NW",Low to near high.,Low|Medium Low|Medium|Medium High,E,Shortboard|Fish|Longboard|BODYBOARD,Sand,Sand,Rights|Lefts|Beach Break,"Busy in peak season, less crowded in winter.",5,Rips.,"Pretty chilled through the hectic summer, the local crew will be on it when the serious swells roll in.",4,"Not too bad when small, hard when big.",5,Shifty peaks that can get excellent.,5,Good.,2
Scarborough North Bay,584204204e65fad6a7709088,"Scarborough Castle looms over the bay, looking down onto one of the region's most consistent and popular breaks. The northeasterly aspect of this beach means it Hoovers up swells from the north, north east and east and the combination of sand and flat reef creates some fun, long walls and wedgy peaks. At high the waves rebound off the huge, concave, seawall and rocky sea defences, so best at lower tides. Plenty of parking on Marine Drive.",Beginner|Intermediate,"Good for all surfers when small, better left to more experienced surfers when it gets big due to rips and access.","Parking on roadside overlooking sea, exit from sea tricky at high tide and big swells.",September - November is the golden time.,Autumn|Winter,Waist high to head and a half.,NE to E,Not high.,Low|Medium Low|Medium|Medium High,SW,Shortboard|Fish|Funboard|Longboard|BODYBOARD|Bodysurfing,Sand and rock,Sand|Rock,Rights|Lefts|Beach Break,"Busy spot, popular with local and the many visiting surfers",7,"Crowds, rips, rocks.",Competitive spot with general relaxed vibe.,4,"OK when small, heavy paddle when big.",5,"Mostly fun peaks that throw up walling, occasionally sectiony waves.",5,OK.,3
East Wittering,584204204e65fad6a770909d,"Huge stretch of sandy beach with pebbles and shingle at high tide. Better on the lower tides as it drops out below the many wooden groynes. Popular with windsurfers... for a reason - a mostly average surf spot that tends to break in windswells, but that can get good in a small, clean groundswell and light winds. Has a big local crew, especially popular with longboarders.",Beginner|Intermediate,"Good for all, beginners watch out for rips.","Not a lot of parking options on the beach, Marine Drive car park is close.",September - February.,Autumn|Winter,Thigh high to overhead.,Big W to SW.,Not high.,Low|Medium Low|Medium,"N, NE.",Shortboard|Fish|Funboard|Longboard|SUP|Kiteboard,Sand and pebbles,Sand,Rights|Lefts|Beach Break|Jetty,Popular but loads of room to spread out.,4,"Groynes, rips.",Friendly vibe in line-up.,2,"OK when small, heavy paddle when big.",5,"This is the Goldilocks of surf breaks - wants a clean groundswell, but not too small and not too big! Then the subtle banks can produce decent peaks with long walling waves. A more common windswell can be a confused jumble, with the odd fun ride to be had.",3,OK - can be sewage after heavy rains.,4
Brighton West Pier,5b0d97856f349c001a3b7cab,"Long, rolling, waves that are popular with longboarders, form close to the remnants of the burnt out West Pier. Better on lower tides, usually onshore, this is a cruisy spot. Most locals head elsewhere when a proper swell kicks in.",Beginner|Intermediate,OK for those with low expectations or beginners. Watch out for rips.,Parking is pretty limited unless you can snag one of the few Beachfront bays.,September - February are best when the big swells roll into the Channel.,Autumn|Winter,Waist to head high.,"E windswells, SW groundswells",Low to mid.,Low|Medium Low|Medium,N,Longboard|SUP,Sand.,Sand,Lefts|Rights|Beach Break,"If its breaking OK, it won't be quiet.",4,"Rips, debris around pier.",Pretty chilled.,3,"OK when small, long paddle when bigger.",3,Go with the right mindset and it'll be fun.,2,Not amazing.,5
Whitby Beach,584204204e65fad6a7709085,"Starting in the northern lee of the harbour groynes, the beach at Whitby runs from the town all the way to Sandsend. The harbour end is sheltered during an onshore southeasterly wind and is a popular spot with local groms. There's a rip that runs next to the wall for an easy paddle out. There can be fun waves here from low to three quarter tide. There are more banks along the Promenade toward the golf course, the sand shifts regularly but it can get excellent.",Beginner|Intermediate,"Best for intermediate, beginners beware of rips.",Parking along clifftop North Promenade.,September - November.,Autumn,Waist to shoulder high.,"NE, E, SE",Not high.,Low|Medium Low|Medium|Medium High,SW,Shortboard|Funboard|Longboard|Fish,Sand with rock patches near high.,Sand|Rock,Rights|Lefts|Beach Break,Usually uncrowded.,2,Rips and rocks.,Pretty friendly.,3,"Can be a slog, there's a useful rip by harbour.",4,"Standard fun beachie with occasional good bank, Sandsend is usually a better bet.",4,Not amazing.,4
Bracklesham Bay,584204204e65fad6a77090a1,"A continuation of the beach from East Wittering, with similar characteristics so usually its all about the windswell. Better on low tides as high has shingle banks and groynes. Picks up slightly more swell as less blocked by Isle of Wight.",Beginner|Intermediate,"Good for all comers, beginners watch out for rips.",Small Beachfront car park on East Bracklesham Drive.,September - February.,Autumn|Winter,Thigh high to head high.,Big W to SW,Not high.,Low|Medium Low|Medium,"N, NE",Shortboard|Fish|Funboard|Longboard|SUP|BODYBOARD,Sand and pebbles.,Sand,Rights|Lefts|Beach Break|Jetty,Less crowded than the Witterings.,4,"Groynes, rips.","Chilled, friendly.",2,"OK when small, long paddle when bigger.",5,"Catch it on a rare, clean groundswell and you'll find surprisingly good waves. Mostly messy but fun.",3,OK - can be sewage after heavy rains.,4
Cromer Pier,584204214e65fad6a7709cf3,"The breaks are front and centre at Cromer next to the pier, where there are short rights and longer lefts. Needs a clean north, northeasterly or easterly swell but there will also be crumbly waves for the committed in onshores or windswells. Works on all tides but watch out for groynes and shore dump at high. Busy when good and rippy when big, as longshore drift can kick in.",Beginner|Intermediate,"Good for all comers, beginners stick to low tide small days.","Parking is tricky, there's a small car park on Runton Road or parking bays along the sea front.",September - February when the North Sea comes to life.,Autumn|Winter,Thigh high to overhead.,"N,NE or E.",Not high.,Low|Medium Low|Medium|Medium High,SW,Shortboard|Fish|Funboard|Longboard|SUP,Sand and flint.,Sand|Rock,Rights|Lefts|Beach Break|Pier|Jetty,"Popular spot, can be very busy when its on.",4,"Rips, groynes, jetty, current when big.",Competitive but pretty chilled.,3,Can be a slog in bigger swells.,4,"Not a classic, but can have long, fun waves in the right swell, with the occasional wedgy peak.",3,Was terrible but getting better. Still bad after rain.,4
Coney Beach,5a2f01963795dd001a9e3cb5,"Sheltered sandy bay to east of breakwater that works on all tides. In the right conditions it can have a rare, long, winding, low tide righthander that the locals have christened ironically The Superbank. There's also a series of peaks as the tide pushes in. A haven in big swells / storms for the large local crew.",Beginner|Intermediate,Good for all when small and clean. Best left to more experienced surfers when size picks up.,Beachfront carpark and parking on Promenade.,December - February.,Winter,Thigh high to overhead.,W or SW,Breaks through the tides.,Low|Medium Low|Medium|Medium High|High,N,Shortboard|Fish|Funboard|Longboard|SUP|BODYBOARD,Sand.,Sand,Rights|Lefts|Beach Break|Jetty,Popular spot.,4,"Rips when big, especially at low.",Tolerant if respectful.,3,Big rips at low tide.,5,"Not a classic, but can be fun.",4,OK - can be sewage after heavy rains.,4
Shoreham,601896c5797ce97445fac470,"In big storm conditions waves break inside the harbour arm, cleaned up and sheltered from the wind. This strange scenario is almost a proto-wavepool type set-up - swell is funnelled in and breaks between the concrete walls, producing both rights and lefts. On the eastern outside of the arm there is also a series of rights and lefts, each more exposed, with the most consistent being the Hotpipe - the outflow from the nearby power plant. Beware of the beach furniture - there are many groynes and break waters as the tide pushes in.",Beginner|Intermediate,"Beaches are for all especially when small, breakwaters best left to experienced surfers.",Parking by beach at Basin Road car park.,September - February are best when the big swells roll into the Channel.,Autumn|Winter,Thigh high to overhead.,W/SW,Low to near high.,Low|Medium Low|Medium|Medium High,N,Shortboard|Fish|Funboard|Longboard|SUP|BODYBOARD,Sand and shingle.,Sand|Rock,Rights|Beach Break|Jetty,If there's a wave the crowd will be on it.,5,"Groynes, rips, pollution.",Pretty chilled.,3,"Easy when small, can be hard work when onshore.",3,"Fun waves when the Channel comes to life, with a slightly crazed local crew.",3,Can be polluted after rains.,5
Towan,584204204e65fad6a77090bc,"The most sheltered of the Newquay beaches, and hence a popular spot during huge southwesterly storms when the waves here can be clean and offshore. A left breaks off the harbour wall, but the rest of the beach is either fast short lefts and rights, or a huge close out. This doesn't stop if from being super busy when breaking and carnage can ensue. Fun if you need to get wet and this is your only option - but keep your eyes open.",Beginner|Intermediate,Good for all and any.,A couple of car park options close to the beach.,A haven December - February.,Winter,Waist to shoulder high.,W/SW,Low to mid.,Low|Medium Low|Medium,SW to SE,Shortboard|Funboard|Longboard|Fish|BODYBOARD,Sand and rock patches near high.,Sand,Rights|Lefts|Beach Break,Busy in storm swells.,7,"Crowds, stray boards, rocks.",Either a chilled summer beginners spot or winter chaos.,4,No real channel so lots of paddling.,4,Mostly a close-out. Fun for beginners when small.,3,Pretty clean.,3
Kimmeridge Bay,5842041f4e65fad6a7708e1f,"There are a number of quality reefs here that start breaking in small swells and can hold a good size. The Bench (Broad Bench) breaks off the end of the headland with excellent rights and shorter lefts. It is on an MOD firing range so access is restricted - check first. To the east, outside the bay, are The Ledges, a number of right and left reefs with long walls. There are also waves in the bay. Usually crowded when good, with plenty of logs. Kimmeridge Bay is part of the private Smedmore Estate. There is a toll road leading down to the breaks - but fee includes parking.",Intermediate|Advanced,"Best left to experienced surfers due to crowds, rips and reef.",Toll road leads to car park - don't enter if closed. Access to The Bench past the pump is restricted so check first at Range Warden's Cabin.,September - February.,Autumn|Winter,Waist high to head and a half.,SW,Works through the tides.,Low|Medium Low|Medium|Medium High|High,N,Shortboard|Fish|Longboard|SUP,Flat ledge reef with rocks.,Rock,Rights|Lefts|Reef,"Usually crowded, especially when good.",6,"Crowds, reef, rocks, rips when big.",Competitive.,4,Waves break far out so long paddles.,5,"The Bench can be excellent, hollow and fast. The Ledges are longer and rolling, but can be fast and walling.",6,Clean.,2
Compton,5ad50d3e8e6264001ab2d694,"This long, popular bay stretches south and has three main set-ups. Fields is a consistent beach break with good, mid-tide peaks in medium swells. To the south is Middle Compton, a flexible spot with more powerful peaks and finally Hanover Point, a pretty mellow A frame which always attracts the crowds, best in medium swell at mid to high tide.",Intermediate,"Not great for beginners, safer bays nearby.","Cliffs make access tricky, National Trust cliff top parking with steps at Hanover Point.",Year round but September - November is best.,Autumn,Waist high to overhead.,SW,Breaks through the tides.,Low|Medium Low|Medium|Medium High|High,NE,Shortboard|Fish|Funboard|Longboard|SUP|BODYBOARD,Flat rocky reef partially covered with sand.,Rock|Sand,Rights|Lefts|Beach Break|Reef,"Popular breaks, especially in summer.",4,"Rocks, can be rippy and heavy when big.",Pretty chilled.,3,"OK paddle but waves can break a long way out, gets rippy when big.",3,"Variety of spots, overall pretty fun and walling, more serious in big swells.",5,"Silty water, generally clean.",2
Vazon Bay-Guernsey,584204214e65fad6a7709ba9,"The most popular surf spot on the island, there are as a number of distinct breaks here including a beginner-friendly beach, then The Reef with short rights and lefts at high tide. To the south is T'Others, a long right that breaks over rock and sand, followed by Centres, which wakes in a spring tide and bigger swells. The main spot on the island so expect it to be busy during peak season.",Beginner|Intermediate,Lots of scope for all surfers.,Beachfront parking.,Works year round but best in the clean swells September - November.,Autumn,Thigh high to head and a half.,W,Works through the tides.,Low|Medium Low|Medium|Medium High|High,SE,Shortboard|Fish|Funboard|Longboard|BODYBOARD|SUP,Sand and reef.,Sand|Rock,Rights|Lefts|Beach Break|Reef,"Summer and early Autumn are busy, rarely uncrowded.",5,"Crowds, rocks.",Competitive.,4,OK unless big.,2,Flexible spot with a range of waves from fun to barrels.,5,Good.,2
Joss Bay,584204204e65fad6a7709093,"A central hub of the Kent surf scene, this bay has a left reef on its northern edge and right on its southern fringe. The middle of the bay can have peaks also. Pretty flexible - reefs better on higher tides, beach on lower. The shallow North Sea drains lots of the energy from the swells so needs a decent groundswell or more common local windswell.",Beginner|Intermediate,Beginners stick to beach which is learner friendly.,Car park overlooking beach.,September - February.,Autumn|Winter,Thigh high to overhead.,NE groundswell or E windswell.,Breaks through the tides.,Low|Medium Low|Medium|Medium High|High,SW,Shortboard|Fish|Funboard|Longboard|SUP|BODYBOARD,Sand and chalky reefs.,Sand|Rock,Rights|Lefts|Beach Break|Reef,Popular spot when its on.,4,Reefs can be shallow. Rips.,Fairly relaxed.,3,"OK when small, heavy paddle when big.",4,"Good on those rare clean groundswell days, but fun waves to be had even in windswells.",3,OK - can be sewage after heavy rains.,3
Highcliffe,604a75d1d397152373ccb0d8,"Not super consistent but there are a series of groynes here that are edging out of the swell shadow cast by the IOW and Hengistbury Head, so will wake in a solid southwesterly swell. The best bet for a fun peak can be found in front of the car park or just to the east where good banks can form, best at low tide.",Beginner|Intermediate,"Good for all when small, but gets rippy.",Cliff top car park overlooking breaks.,December - February.,Winter,Thigh high to overhead.,SW.,"All tides, best at low.",Low|Medium Low|Medium|Medium High|High,N,Shortboard|Fish|Longboard|BODYBOARD,Sand with shingle at High tide.,Sand,Rights|Lefts|Beach Break|Jetty,"OK, can get busy.",3,"Rocky groynes, heavy and rippy when big.",Chilled.,2,"Easy when small, rips when bigger.",2,Fun banks in clean groundswell.,3,OK.,3
Anglesey (Ynys Môn),604a76c3b550129363c81f35,"Not exactly renowned for the quality of its surf, this long stretch of sandy beach is more popular with kitesurfers and windsurfers, but on those super rare days when a SW swell threads the needle between Ireland and the Llyn Peninsula there can be fun waves here. It mostly gets onshore windswell through. Better banks form by the stream.",Beginner|Intermediate,Often onshore and small so OK for all comers.,"Tricky parking, a couple of small car parks set back from the beach.",December - February.,Winter,Waist to shoulder high.,Big SW,Works through the tides.,Low|Medium Low|Medium|Medium High|High,NE,Funboard|Fish|Longboard|SUP|Kiteboard,Sand.,Sand,Rights|Lefts|Beach Break,Quiet.,1,Rips and currents when big.,Chilled.,1,"OK when small, heavy paddle when big.",1,"Not a classic worth travelling for, really a once in a blue moon kind of spot. Super fickle beachbreak, usually onshore windswell.",1,OK.,2
Trevaunance Cove,5842041f4e65fad6a7708c93,"Punchy, busy beachbreak nestled in the heart of the 'Badlands,' one of Cornwall's most core surf communities. In medium to large swells, this small sheltered bay delivers quality, hollow rights and shorter lefts and is one of the few spots on the coast that can handle southwesterly winds. As a result, the small line-up has become increasingly busy to the point of chaos. Don't drop in. Heavy rains bring pollution down the outdated drains from the overwhelmed village sewage infrastructure.",Intermediate|Advanced,Not for beginners except when small.,Pay car parks close to beach. Do not drive down the slip way... its a clutch burning reverse or a watery automotive grave...,December - February.,Winter,Thigh high to overhead.,Big SW,Mid tide.,Medium Low|Medium|Medium High,SE to SW,Shortboard|Funboard|Longboard|Fish|BODYBOARD,Sand.,Sand,Rights|Lefts|Beach Break,Very busy.,8,"Rips, Crowds, punchy, rocks.","Always super competitive. Can get feisty. Long established local crew, don't expect a warm welcome.",7,Easy paddle out in rip on left by harbour wall.,3,"Heavy and hollow, especially at low.",5,OK - except after heavy rain when the sewage is definitely visible.,3
Great Western,584204214e65fad6a7709cef,"Another of the Newquay town beaches, this cliff lined cove opens out at low tide into a large expanse of sand. Popular in big winter storms when the southwesterly winds ravage all the other north coast breaks. Mostly close-outs but occasional banks form. A great spot for summer beginners. Parking close by in town.",Beginner|Intermediate,Good for any and all surfers.,Pay car parks short walk from beach.,December - February.,Winter,Waist to shoulder high.,W/SW,Low to mid.,Low|Medium Low|Medium|Medium High,SW to SE,Shortboard|Funboard|Longboard|Fish|BODYBOARD,Sand.,Sand,Rights|Lefts|Beach Break,Busy in storm swells and summer.,4,"Crowds, stray boards, beach disappears as tide pushes in.",Chilled or chaos.,3,No real channel so lots of paddling.,4,Mostly a close-out. Fun for beginners when small.,3,Clean.,2
Whitesands,584204204e65fad6a77090ce,"This popular bay has a number of banks that work through the tides. At the north end of the bay is the Elevator, a good quality low tide righthander. through consistent, it is slightly blocked by Ramsey Island so picks up less swell than Freshwater West. Best on a pushing tide from low to mid, busy in the summer, quieter out of season.",Beginner|Intermediate,Beginners stick to middle of the beach which is more learner friendly.,Huge car park at northern end of bay.,"Works all year, best in September - February.",Autumn|Winter,Thigh high to overhead.,W/SW,Low to mid.,Low|Medium Low|Medium|Medium High,E,Shortboard|Fish|Funboard|Longboard|SUP|BODYBOARD|Bodysurfing,Sand.,Sand,Rights|Lefts|Beach Break,"Busy in holiday season, can get crowded at northern end.",4,Rips by rocks at northern end.,Chilled.,3,OK when smaller.,3,"Quality, consistent beachie with good banks.",4,Good.,1
Borth,584204204e65fad6a77090cc,"A long stretch of mediocre shifting peaks with some scattered sea defences. Needs a very big SW swell to push into the bay here, although there can be a wave by the point in town on those rare days. A bit weak so best on pushing tide.",Beginner|Intermediate,"Mellow waves so fun for all, but isolated so take care.",Beachfront parking.,Big swells and storms that rage December - February.,Winter,Waist to head high.,SW,Works through the tides.,Low|Medium Low|Medium|Medium High|High,E,Funboard|Fish|Longboard|SUP|Kiteboard,Sand.,Sand,Rights|Lefts|Beach Break,Quiet.,1,Big rips in big swells.,Friendly.,1,Longshore drift - take care.,5,"Sheltered, fickle, will be quiet as other better spots nearby.",2,OK - except after rain can Autumn foul of sewage.,3
Walcott,584204204e65fad6a770909f,"A good left hand bank can show itself at low in decent swells, plus there can be a number of waves that form off the groynes in smaller swells. There is a constant battle with the erosive power of the ocean here, so new sea defences and sandbanks constantly springing up. Has a good reputation for punchy waves with locals.",Beginner|Intermediate,"Good for all, beginners stick to low tide small days.",Parking bays along sea wall or respectful parking to south.,December - February when the North Sea comes to life.,Autumn|Winter,Thigh high to overhead.,NE to E.,Low to mid.,Low|Medium Low|Medium,SW,Shortboard|Fish|Funboard|Longboard|BODYBOARD,Sand.,Sand,Lefts|Rights|Beach Break|Jetty,Quiet.,1,"Rips, groynes, jetty, current when big.",Friendly.,1,"Easy when small, relentless when bigger.",2,"Quiet, fun, predominantly left walls, occasional chunkier peaks.",3,OK.,3
Bude Summerleaze ,5a282eb11d8788001b7967a1,"The large stretch of golden sands is edged by a breakwater and river at the southern limits of the bay. It is home to some decent sandbars, including a quality, low-tide left and a high-tide right near the seawater swimming pool at the northern edge of the bay. A little relief from strong winds and swell can be found near the mouth of the harbour at higher tides. As with many Cornish resorts, busy in the summer.",Beginner|Intermediate,"Low tide can have challenging waves for more experienced surfers, higher tides on smaller swells is good for all.",Car park close to beach on north side of river.,Year round but September - November is golden.,Autumn,Waist high to head and a half.,"W, NW",Low to mid.,Low|Medium Low|Medium,"E, SE",Shortboard|Fish|Funboard|Longboard|BODYBOARD,Sand and rock.,Sand|Rock,Rights|Lefts|Beach Break|Jetty,Busy in the summer.,4,"Fingers of rock, rips when bigger.",Fairly relaxed.,3,Hard work in big swells.,4,Consistent beach that can be excellent in the right swell / bank combo.,5,Good.,3
Sunderland,604a7a8c3a388458aba839b3,"There are some classic breaks in the Northeast worth travelling for - this isn't really one of them. That doesn't mean its not a fun spot. To the north of the mouth of the Wear is a long, curved breakwater at Roker Beach. There's a right that wedges off the northern side of the wall creating fun waves in small clean swells, whereas on the other side of the breakwater, inside the rivermouth area, there's a peak with short rights and longer lefts that only works in massive swells. Water quality can be pretty poor.",Intermediate,"Best for intermediate, beginners beware of rips.",Park at Harbour View car park on Marine Walk.,"September - November for the right, December - February for the peak.",Autumn|Winter,Thigh to head high.,"NE, E, SE",Works on all tides but mid best.,Low|Medium Low|Medium|Medium High|High,W,Shortboard|Fish|Funboard|Longboard|SUP|BODYBOARD|Bodysurfing,Sand.,Sand,Rights|Lefts|Beach Break|Jetty,Pretty quiet but small take off point.,2,Can be wedgy and rippy when bigger.,Chilled.,2,OK when small.,2,"Fun, peaky waves.",3,Can get nasty when it rains.,5
Aberdeen - Beach,604a7c5cd3971561d2ccb0de,"A 3 mile long stretch of sand that runs north from the mouth of the River Dee with a number of banks that work through the tides, sculpted in part by the obvious impediment of groynes built to lessen beach erosion. Sandbars also form around the mouth of the River Don at the northern end of the Esplanade. Obviously beware of rips.",Beginner|Intermediate,"Fun spot for all, beginners watch out for rips in anything but tiny waves.",Plenty of Beachfront parking.,December - February.,Autumn|Winter,Thigh to head high.,"SE, E, NE",All tides but best at low.,Low|Medium Low|Medium|Medium High|High,W,Shortboard|Fish|Longboard|BODYBOARD|Bodysurfing,Sand with groynes.,Sand,Rights|Lefts|Beach Break|Jetty,"Can get busy, but generally mellow.",2,"Long shore drift and strong rips a problem, plus many groynes.",Chilled.,2,Hard work in anything but small waves.,5,Beachbreak that can be excellent but depends on the banks which shift and form around groynes and rivermouth.,4,Can be polluted after rains.,4
Sidmouth (Lyme Bay),604a7f34c8c32d683355303b,"This stretch of shingle and sand needs a big southwesterly pushing up the channel to work, or an easterly windswell. There are a series of groynes and a couple of rock sea defences, so best best surfed at low tide. Fat, rolling, occasionally walling waves; brown with sediment.",Beginner|Intermediate,"All when small, not for beginners when swell picks up.",A few Beachfront car parks to choose from.,December - February as it needs a big swell to get going.,Winter,Thigh to head high.,SW,Best at low.,Low|Medium Low|Medium,"N, NW.",Shortboard|Fish|Funboard|Longboard|BODYBOARD|SUP,Sand and pebbles.,Sand,Lefts|Rights|Beach Break|Jetty,Pretty quiet.,2,"Rips when bigger, groynes as tide pushes in.",Chilled.,2,Hard work in anything but small waves.,4,"Low expectations yields most fun. Fat, rolling waves that will occasionally wall up into longer, steeper sections. Not a classic.",2,Brown silty waves that can be polluted after heavy rains.,4
West Sands Beach,6019d13607013a21ca462667,"To the south of the rivermouth breakwater and to the north of a large swaithe of folded reef, the Kinness Burn has laid down a layer of sand over the bedrock to produce this easterly facing beach break. Needs a bigger swell to work with the best waves close to the breakwater. Best on higher tides with lefts predominating. Offshore in westerly or southwesterly winds.",Beginner|Intermediate,Good for all when small.,Parking overlooking the beach by the slipway.,September - February as needs the bigger swells.,Autumn|Winter,Thigh high to overhead.,NE to E.,Mid to high.,Medium|Medium High|High,SW,Shortboard|Fish|Funboard|Longboard|BODYBOARD,Sand covered reef.,Sand|Rock,Rights|Lefts|Beach Break,Pretty quiet.,3,Rips when bigger.,Friendly.,2,Hard work when bigger.,4,"Can be fun, not classic.",3,"Variable, especially when the sewage system becomes overwhelmed.",4
Sandend (Moray Firth),604a82027c33973f33051916,"This small, picturesque bay has a lovely village and harbour to the western end, where you can also find a rocky, left reef breaking in a good swell and southerly winds. Fun peaks can also be found in the bay, which works through the tides, but is best at low. Watch out for rips when big.",Beginner|Intermediate,"All when small, not for beginners when swell picks up.",Parking overlooking the beach at western end.,September - February.,Autumn|Winter,Thigh high to overhead.,NE,Works through the tides.,Low|Medium Low|Medium|Medium High|High,"S, SW",Shortboard|Fish|Funboard|Longboard|BODYBOARD,Sandy with rock reef.,Sand|Rock,Rights|Lefts|Beach Break|Reef,Pretty quiet.,2,Rips when bigger.,Friendly.,2,"Easy when small, rippy when bigger.",4,Fun beach break with wedgy peaks and an occasionally good reef.,3,Good.,2
Lossiemouth,604a82ded397156564ccb109,"This long, flat, uniform stretch of sand winds away for six miles east from the rivermouth breakwater. Needs a decent swell to produce waves here but can be fun with lefts and right peaks. Beach is sand at rivermouth end then becomes pebbles further along. There are fun low tide lefts by the breakwater wall but access is tricky as the footbridge is closed. Change in car park and paddle across river to access beach.",Beginner|Intermediate,Any and all when small.,Access is tricky as river runs behind beach and bridge now in disrepair. Surfers can paddle / wade across.,September - February when the North Sea comes to life.,Autumn|Winter,Thigh to head high.,NE,Low to mid.,Low|Medium Low|Medium,SW,Shortboard|Fish|Funboard|Longboard|SUP|BODYBOARD,Sand and pebbles.,Sand,Lefts|Beach Break,Quiet.,1,Tricky access.,Friendly.,1,"Easy when small, lots of duck-diving when bigger.",2,"Fun, quiet beach with loads of room to spread out. Better at river end.",3,OK.,2
South Bay,584204204e65fad6a7709087,"This is the resort part of the town with a long, curved stretch of sand that arcs from the harbour round to the Spa to the south. The majority of the bay is pretty poor surf wise, flat, lacking in sandbars, and backed by amusements... Good fish & chips through. This part of the bay is very sheltered so can be one of the few spots that stays clean in huge northerly storms. Where things get interesting is at the Spa end with its numerous areas of flat reef and where the currents conspire to produce better banks. Not high tide due to sea wall.",Beginner|Intermediate,Fun spot for all abilities.,Parking is tricky here with limited sea front spaces near to Spa.,Big winter swells or storms December - February.,Winter,Thigh to head high.,N to NE,Not high.,Low|Medium Low|Medium,NW to SW,Shortboard|Funboard|Longboard|Fish,Sandy bay with reefs to south.,Sand|Rock,Rights|Lefts|Beach Break|Reef,May be one of the only spots breaking so expect crowds.,6,"Crowds, rips, rocks at southern end.","Busy, hectic.",4,Any size quite hard work.,4,"Mostly a close-out or fat, can be fun waves at southern end.",4,OK.,3
Paignton,604b906f909f8fb8d1e1a768,"With its distinct red sand and sheltered aspect, the bay here has always been more famed as a tourist draw than a surf spot. However there can be waves here in just the right conditions - needs a huge southwesterly groundswell or easterly windswell. The flat beach has its best banks near to the pier.",Beginner|Intermediate,Ok for all when it breaks.,Beachfront parking all along the Esplanade.,Big swells or storms December - February.,Winter,Thigh to head high.,SW groundswell or E windswell.,Low to mid.,Low|Medium Low|Medium,W,Shortboard|Fish|Funboard|Longboard|BODYBOARD,Sand.,Sand,Rights|Lefts|Beach Break|Pier,Quiet.,2,Rips if big.,Relaxed.,2,"Doesn't get big very often, but will be lots of duck dives if it does.",4,"Rarely breaks, mostly rolling waves or fat, wedgy walls on a good swell.",2,OK - can be sewage after heavy rains.,3
Perran Sands,584204204e65fad6a77090c0,"Huge stretch of golden sand overlooked by towering sand dunes, this is a consistent and fun beach break with shifting peaks that work through all tides. A huge area to spread out and lifeguarded in summer, popular with local and visiting surfers who want to escape the busier beaches. Bring a good vibe and it will be returned. Long, up-hill walk back from the surf. Drive through holiday camp to pay and display parking overlooking sea.",Beginner|Intermediate,Fun spot for all.,"Pay car park, get tickets from holiday camp reception.",June - November is the golden time.,Summer|Autumn,Thigh to head high.,"NW, W, SW",Breaks through the tides.,Low|Medium Low|Medium|Medium High|High,SE to NE,Shortboard|Funboard|Longboard|Fish,Sand.,Sand,Rights|Lefts|Beach Break,"Can get busy, but generally mellow.",4,"Crowds, occasional adder in the dunes.","Competitive locals on best peaks, fairly relaxed on the rest.",3,"OK when small, hard work over that.",3,"Good beachie with shifty peaks, was quiet, now getting crowded.",5,Good.,2
West Wittering,604b93727e36356e3c8d9822,"This huge stretch of sandy beach joins up with East Wittering and is more in the swell shadow of the Isle of Wight. Needs a really big swell to wrap in here, and is popular with windsurfers and kitesurfers for a reason. However, it can offer some long, rolling, wind swell waves. Better at low tides. Easy parking just behind beach.",Beginner|Intermediate,Good for any and all.,There's a big car park just behind the dunes.,December - February as needs a big swell.,Winter,Thigh to head high.,Big SW,Works on all tides but low best.,Low|Medium Low|Medium|Medium High|High,NE,Longboard|SUP|Kiteboard,"Big, flat sandy beach.",Sand,Rights|Lefts|Beach Break,Popular but loads of room to spread out.,4,"Rips when bigger, groynes.",Fairly relaxed.,2,Easy.,2,Tends to close out unless small when long rolling waves are popular with the local longboard crew.,2,OK - can be sewage after heavy rains.,3
Exmouth,604b949c3a2c552aed3b0fdd,"When a huge southwesterly or westerly groundswell rolls down the channel there can be fun lefts out past the lifeboat station by the breakwaters in front of Marine Drive. Fickle, rare and often onshore - can be crazy busy when word gets out that its on.",Beginner|Intermediate,"Any and all when small, but gets rippy and more challenging in bigger swells.",Parking on Marine Drive.,December - February as needs big swells or storms.,Winter,Thigh high to overhead.,"Big SW, W.",Breaks through the tides.,Low|Medium Low|Medium|Medium High|High,NE,Shortboard|Fish|Funboard|Longboard|SUP|BODYBOARD,Sand with groynes.,Sand,Lefts|Rights|Beach Break,Can be an insane pack of all kinds of wavecraft from foils to inflatable SUPs.,5,"Crowds, bailed boards, foils, groynes!",Busy.,3,OK unless big.,3,"A rare, fun, walling left.",2,Can get nasty when it rains.,5
Pentewan,604b95b0219e49fe952ac4c0,"This small beach break faces due east, meaning only the biggest Atlantic swells or storms wrap around into the bay. Offshore in westerly winds, its best when small and clean, working well from low to mid - gets a bit fat at high when there can be backwash from the steep beach. Usually crowded when working.",Beginner|Intermediate,Fun spot for all.,Pay parking at leisure centre in campsite. Ticket gets you discount in the leisure centre cafe.,December - February when the big storms rage.,Winter,Thigh to head high.,W to SW,Low to near high.,Low|Medium Low|Medium|Medium High,W to NW,Shortboard|Funboard|Longboard|Fish,Sand.,Sand,Rights|Lefts|Beach Break,Can be one of few spots working so expect crowds.,4,Crowds - watch out for bailed boards.,Pretty friendly.,2,Easy paddle out.,1,"Fun wave in huge storms, easily closes out.",3,Good.,2
Runton,584204214e65fad6a7709cf2,"Best known break on this part of the coastline, an average section of beach break with chalk-flint reef offering short rights and longer lefts. Best from mid to three quarter tide. Like many breaks here its exposed to winds. Water is brown from the fine sediment.",Beginner|Intermediate,"Fun for all surfers when small, better for the more experienced in bigger waves.",Parking in car park by slipway.,September - February when the North Sea comes to life.,Autumn|Winter,Thigh high to overhead.,"N,NE or E.",Not high.,Low|Medium Low|Medium|Medium High,SW,Shortboard|Fish|Funboard|Longboard|SUP,Sand and chalky-flint.,Sand|Rock,Rights|Lefts|Beach Break|Reef,Popular when swells kick in.,5,"Rips, reef.",Fairly relaxed.,3,OK unless big when currents and rips kick in.,3,"Fun, mellow, peeling waves.",3,OK - can be sewage after heavy rains.,4
Hayle Rivermouth,604b97ba2aecfaefc4e3085c,"A big, sheltered expanse of shifting sands that can produce fun, walls or maddeningly fickle sections. The tide drops out and pushes in quickly, transforming a once fat peak into a sand sucking close-out. Expect rips and crowds when good. Bounces off the Bluff at high.",Intermediate,The rips here can be pretty full on so best left to more experienced surfers.,Pay parking at Bluff Inn.,December - February.,Winter,Thigh high to overhead.,"NW, W, big SW",Low to near high.,Low|Medium Low|Medium|Medium High,"E, SE, S",Shortboard|Funboard|Longboard|Fish,Sand.,Sand,Rights|Lefts|Beach Break,Can get crowded when its working.,4,"Rips, pollution after rain.",Fairly relaxed.,2,"Can be rippy, currents around rivermouth.",3,"Shifty, fickle, can be excellent, fat or close-out - flip a coin!",4,River runoff after rains.,3
Brighton - Marina,604bc4e9909f8fae5be1a78f,"Popular spot for Brighton surfers who congregate here in a SW storm swell, when the eastern side of the marina offers a sheltered corner for clean / semi-clean waves. They can be long and fun, but tend to be a bit on the slow and fat side, reforming as they roll. There's a rip to aid the paddle out by the harbour wall. Can get unruly and heavy in big storms.",Intermediate,"Not really a place for beginners due to crowds, groynes and reef.",Car park at the top of the cliffs above the marina.,December - February as it needs big swells or storms.,Winter,Thigh high to overhead.,W or SW,Low to near high.,Low|Medium Low|Medium,"N, NE.",Shortboard|Fish|Funboard|Longboard|SUP|BODYBOARD,"Chalky, flinty reef with high tide shingle.",Rock|Sand,Rights|Lefts|Reef|Jetty,"There's a large, hard-core local crew who scour the forecast and will be on it.",5,"Rips, crowd, groynes.",Competitive.,4,"OK when small, long paddle when bigger.",3,"Fickle, fun, long, fat rolling waves that come to life in windy, stormy conditions - occasionally gets good when a big, clean, long distance groundswell rolls in.",3,Can be poor after rains.,4
Bigbury,604bc5c5ab677d2dddb8cb82,"The more sheltered end of the bay from Bantham so usually smaller, with fun, peaks and a long, peeling right at lower tides.",Beginner|Intermediate,Popular spot for beginners.,Big beachfront car park.,December - February as needs a bigger swell.,Winter,Thigh to head high.,SW,Breaks through the tides.,Low|Medium Low|Medium|Medium High|High,NE,Shortboard|Fish|Funboard|Longboard|SUP,Sandy bay.,Sand,Rights|Lefts|Beach Break,Popular.,3,Rips when big.,Chilled.,2,Easy.,2,"Fun, mellow peeling waves.",3,OK - can be sewage after heavy rains.,2
Hayling Island,604bc67d6bec13ed6e0cf33b,"This sheltered stretch of sand and shingle is broken up by regular groynes and the lack of waves make it more famous as a kitesurf / windsurf spot, however it is increasingly popular with the SUP crowd. Low tide can see small waves break a hundred meters offshore due to huge sandbanks and roll and reform all the way to the beach. Very occasionally will produce a good peak in a monster swell.",Beginner|Intermediate,Good for all and best for beginners when small and clean.,There are a few Beachfront car parks.,December - February - it needs huge swell to get going.,Winter,Thigh to head high.,SW,Works on all tides but low best.,Low|Medium Low|Medium|Medium High,N,Fish|Funboard|Longboard|SUP|Kiteboard,Sand.,Sand,Rights|Lefts|Beach Break,Quiet.,2,Rips if big.,Chilled.,2,Can be hardwork.,3,"Long, mellow peelers, occasional 'hen's teeth' reeling banks.",2,Can be polluted after rains.,5
Blyth Beach,584204204e65fad6a770907d,"Long, sandy bay with seawall / harbour at northern end, making it a good option for a bit of shelter in northerly winds. The river filters in here and there is another small river to the south. Banks are shifty, but can be good and there are a few groynes towards the Blyth end. Parking all along the bay. The UK's only world champion Martin Potter was born here.",Beginner|Intermediate,Good for all.,There are a number of car parks either overlooking the beach or just set back behind the dunes.,September - February.,Autumn|Winter,Thigh to head high.,NE,Breaks through the tides.,Low|Medium Low|Medium|Medium High|High,"W, SW.",Shortboard|Funboard|Longboard|Fish|SUP|BODYBOARD,Sand.,Sand,Rights|Lefts|Beach Break,Quiet.,2,"Rips when bigger, occasional groyne.",Friendly.,1,"Fun and mellow when small, hard work when bigger.",2,Long beach with shifty peaks.,4,Can be polluted after rains.,3
Folkestone,604bc812c27c3c577be08ac4,"In big Channel storms or occasional big SW swells, there can be wedgy, walling waves at Sunny Sands, nestled in the lee of the harbour wall. Turns into a shore dump at high tide.",Beginner|Intermediate,"Best left to experienced when bigger, good for all when small and clean.",Parking by the harbour.,December - February as needs big swells or storms.,Winter,Thigh to head high.,SW,Not high.,Low|Medium Low|Medium|Medium High,NW,Shortboard|Fish|Funboard|Longboard|SUP|BODYBOARD,Sand.,Sand,Lefts|Rights|Beach Break,Quiet.,2,"Rips, shore dump at high.",Friendly.,2,"OK when small, heavy paddle when big.",3,"Fun, wedgy, walling waves in stormy conditions. Can break in huge swells but rippy and heavy. Take care.",3,OK - can be sewage after heavy rains.,3
Camber sands,604bca4106f62cd01d31481e,"Long, flat sandy bay that can have OK banks at rivermouth western end (some shelter in W wind) or occasional peaks spread to east at mid to lower tides. Best on a rare west or southwest groundswell, more often breaks on windswell. Popular longboard and SUP spot. Closes out when gets bigger.",Beginner|Intermediate,Good for all.,Large beachside car park.,December - February - needs big swell.,Winter,Thigh to head high.,SW,Not high.,Low|Medium Low|Medium|Medium High,N,Longboard|SUP,Sand.,Sand,Lefts|Rights|Beach Break,"Can get busy, but generally mellow.",2,Rips by river when big.,Chilled.,2,Easy.,2,"Long, rolling waves, occasional walling section.",2,OK - can be sewage discharge after heavy rains from the Rother.,3
Coldingham Bay,604f75d33f7d33c430322e4b,"Small, crescent shaped sandy bay, fronted by beach huts. Works best on lower tides. Always smaller here than at Pease Bay due to shelter from St Abb's Head. When it does break there's fun peaks. Parking just back from beach.",Beginner|Intermediate,Any and all when small.,Pay car park a short walk from the beach. Can get busy - popular with day trippers.,September - February as needs bigger swells.,Autumn|Winter,Thigh to head high.,NE to E,All tides but best low to mid.,Low|Medium Low|Medium,SW,Shortboard|Fish|Funboard|Longboard|BODYBOARD,Sand with a couple of rock outcrops.,Sand|Rock,Rights|Lefts|Beach Break,"Can get busy, but manageable.",5,"Rocks, rips when big.",Chilled.,3,"OK, except when big.",3,"Fun, peaky waves.",4,OK.,3
Fraserburgh,604f773c69b0fc4eb653c334,"Fraserburgh is the epicentre of the East Coast scene with a large hardcore crew and many of Scotland's top surfers started here. The Broch – as it is known locally – translates as the Fort. This crescent shaped beach faces N/NE so picks up plenty of swell, working on all tides. The western harbour end is home to a good quality left point breaking over boulders at high tide. Philorth at the eastern end is a beach break with fun peaks.",Beginner|Intermediate,"Beach great for all when small, points best left to experienced surfers.",There's a car park at the western harbour end and a few parking areas all along the bay.,September - February.,Autumn|Winter,Thigh high to overhead.,N to NE,Breaks through the tides.,Low|Medium Low|Medium|Medium High|High,SW,Shortboard|Funboard|Longboard|Fish,Sand.,Sand,Lefts|Rights|Beach Break|Reef,Large local crew who wait through the cold flat spells for the good days - follow etiquette.,6,"Crowded when good, rips.",Competitive. Relaxed if respectful.,5,Hard work when big.,5,Good quality waves when all the factors come together.,5,"Mostly OK, can be sewage after rains.",3
Teignmouth,604f78b169b0fc122a53c33a,"It might be in Devon but it ticks very few of the surfing boxes, facing east in the Channel. That's not to say there are no waves here. This fickle spot is an increasingly popular stretch of beach, with the best banks showing up close to the pier at low tide when a rare swell arrives. Can be fun, will be busy. Closes out at high.",Beginner|Intermediate,Ok for all when it breaks.,Parking a short walk inland or to the south of the pier.,December - February.,Winter,Thigh to head high.,SW groundswell or E windswell.,Not high.,Low|Medium Low|Medium,NW,Shortboard|Fish|Funboard|Longboard|BODYBOARD,Sand.,Sand,Rights|Lefts|Beach Break|Pier|Jetty,Can be surprisingly busy.,5,"Crowds, groynes, shore dump at high.",Fairly relaxed.,3,"OK, except when big.",2,"Short, fun, peaky, if fat waves.",3,OK - can be sewage discharge after heavy rains.,4
Arbroath,604f79ca7cd0e412d775c207,"Not a regional classic but to the south of the town there's a fickle left point that breaks in big swells, running from the point onto the beach. There are banks with predominantly lefts along the more than 2 mile stretch of sand, but closes out when big, when it will also be rippy.",Beginner|Intermediate,Any and all when small.,Parking on the Queens drive and walk. Access points to the beach further south limited due to railway lines.,December - February as needs a big northerly or small southeasterly.,Winter,Thigh to head high.,"Big NE, E, small SE.",All tides but best low to mid.,Low|Medium Low|Medium|Medium High|High,NW,Shortboard|Fish|Funboard|Longboard|SUP|BODYBOARD,Sand.,Sand,Lefts|Rights|Beach Break|Point,Quiet.,1,Rips.,Friendly.,1,"Easy when small, rippy when bigger.",2,"Needs a magic balance of big enough to bend into the bay, but not too big to close-out. Fun on its day.",3,Clean.,2
Padang Padang,5842041f4e65fad6a7708d44,"When it's on, Padang Padang is a beast, truly ""The Balinese Pipeline."" On the biggest days of the year, huge swells march down the reef from Uluwatu, forming some of the biggest and heaviest barrels anywhere in Indonesia when they hit the Padang reef. Though Padang Padang breaks relatively frequently during the season, classic Padang is rare. For it all to come together, a strong, long-period SW swell, mid tides, and light offshores are required. Even with all of the elements in place, sometimes Padang Padang can pinch, or mutate halfway through the barrel. Not good when you consider that a wipeout in these conditions is very serious and means almost certain injury, broken boards, or both. When Padang Padang is classic, surfers can expect deep, dry, heavy, big tubes. When surfing Padang Padang it is important to understand the tides. During the lower tides of the month, Padang Padang can become absurdly dangerous as the end section breaks below sea level and directly in front of exposed, jagged reef. Even professional surfers find Padang's twisting barrel a challenge to negotiate, and most wipeouts mean a trip to a very unforgiving reef.",Advanced,Advanced,Easy.,May-Sept,Summer|Autumn,Overhead-3X overhead,"S, SW, WSW",Low or Medium depending on swell direction and size.,Low|Medium Low|Medium,"SE Trade winds are offshore, Glassy mornings and evenings.",Shortboard|Gun,"Shallow, Sharp, Coral Reef.",Coral|Lava,Lefts|Reef,Heavy,9,Everything about Padang Padang is difficult.,They're out there.,5,Moderate.,6,Really good.,9,Mostly clean.,2
Maverick's,5842041f4e65fad6a7708801,"One of the seven natural wonders of the world, Maverick's is that rarest of things: not just a perfect wave and not just a giant wave but a perfect, giant wave. The peak lies a little less than a half-mile off of Pillar Point and is marked by a clump of Stonehenge-like boulders lining the inside (two of these boulders have even been christened: Mushroom Rock on the south end and Sail Rock on the north). Massive swells looming out of the deep approach a shelf - made up of black, ungodly reef and boulders 20-feet beneath the surface - at breakneck speeds. From there, Maverick's becomes a 20-foot version of Stockton Avenue: a perfect, jacking AAA-frame breaking both ways, the right going long and the left a short-lived explosion of hell and spitfire.</br></br>The hot spots on the Maverick's playing field are as follows: </br></br><b>1. Outer Bowl:</b> On the biggest of days (20 feet at 20 seconds and beyond on the Half Moon Bay buoy), there's a takeoff spot about 100 yards out beyond Maverick's proper. Few waves have been caught here, but all of them have been memorable; </br></br><b>2. The Corner:</b> This is the peak on the extreme north end of the break that, if surfers time it right and choose the right one, allows them to get into the wave and down the face. Since it's the deepest takeoff point for the rights, it's often regarded as the triple-diamond takeoff zone; </br></br><b>3. Lates Bowl:</b> This is an overflow section on the south end that occasionally serves up the rogue monster. When a big set shifts wide of the Corner, it usually breaks on Lates Bowl; </br></br><b>4. The Cauldron:</b> Just inside the Corner, there's a wicked set of boils to be avoided at all costs. This is the focal point for the majority of Maverick's wrath and is the spot where most two-wave hold-downs happen. Strange phenomena -- whirlpools, undertows that suck people into the abyss, etc. -- have been known to take place at the Cauldron.",Advanced,Advanced,"Parking in the lot, maybe, if you're lucky. Also, Wave Runners out of Pillar Point Harbor.",November-February,Winter,4-8X overhead,"W is bowly, but dangerous and pushes into the rocks. NW is lined up and safer.",Low and incoming to medium are best.,Low|Medium Low|Medium,"E, but not too strong. Some guys like a slight onshore.",Gun|Tow,You don't want to know.,Rock,Rights|Reef|Offshore|Canyon,"It's getting crowded out there, but there are a lot of lookie-loos. Real takers are the minority.",6,"Death by drowning, sharks, run over by a whale, run over by a PWC, a trip through the rocks, hypothermia, broken boards, ego deflation.",It exists. Do something stupid and you'll hear about it.,8,Yes and can be very strong when XXL.,10,World class for experts or big-wave dudes. Straight scary for anyone else.,10,Clean.,1
Bells Beach,584204204e65fad6a77099c7,"Winki is without doubt a world-class wave. When it's on, it breaks for over 250 meters over a flat reef bottom. It's rideable from three-feet (choose the lower tides), great from five-feet, and unforgettable from eight-feet and up (all tides). On a typical, three-to-five-foot day there are two distinct sections, Uppers and Lowers. Get the right wave from Uppers and you'll connect through Lowers for one of the rides of your life. Many opt to sit at Lowers where it's less likely to close out on you. You've got two choices for the paddle-out. When it's small you can head out in front of the break. When it gets bigger, paddle out from the beach at Bells. Take the path from the Winki car park and head to the right, down onto the sand at Bells. Watch the sets breaking out at Bells and wait for a nice gap. You want to be a good ten meters away from the reef to your left, known as The Button. Keep your eye on the Button as you express paddle through the shorebreak - you do not want to get swept onto it. Once you get around it, you'll drift quickly into prime location at Uppers.</br></br>Bells Beach has two defined waves. Rincon breaks on high tides when the waves are four-feet and under, peaking on a distinct ledge and then peeling nicely beneath the limestone cliffs all the way through to the beach. The Bowl is the premier wave, though when the swell is four-feet and under it only breaks on low tide. Over five-feet, though, and the Bowl comes into its own. Get Bells Bowl at ten-feet and you'll remember it for the rest of your life. When it's this big, paddle out from the inside corner of the beach, closest to the cliffs. Timing is crucial - the sweep will quickly drag you sideways along the beach. You'll probably need to punch through chunky shorebreak waves before you make it into open water.",Intermediate|Advanced,Intermediate to advanced,"Big car parks, easy access",Year-round,Spring|Summer|Autumn|Winter,Shoulder high-4 x overhead,"SW, SSW",All tides,Low|Medium Low|Medium|Medium High|High,"NW, N, W",Shortboard|Fish|Gun,sand and reef,Sand|Rock,Rights|Beach Break|Reef|Point,"Gets busy year round, but plenty of waves and options to disperse the crowd",7,"A bit chunk of rock that divides Winkipop and Bells, called the Button","Locals get their share, but not too heavy",6,"Bigger the swell, stronger the current, especially on the lower tides. Long rides equal long paddle back.",6,One of the best spots in Oz,9,Clean most of the time,3
