{
  "config": {
    "ssm_doc_filter": "chefrun"
  },
  "coldfusion": {
    "source":"../../chef/cookbooks/surfline-coldfusion",
    "roles": {
      "staging": ["coldfusion-admin","coldfusion-api-int","coldfusion-app","coldfusion-api","coldfusion-fishtrack","coldfusion-jobs","coldfusion-marineapi","coldfusion-qa","coldfusion-sandbox","coldfusion-sciencejobs","coldfusion-tile"],
      "prod" : ["coldfusion-admin","coldfusion-api-int","coldfusion-app","coldfusion-api","coldfusion-fishtrack","coldfusion-jobs","coldfusion-marineapi","coldfusion-sandbox","coldfusion-sciencejobs","coldfusion-tile"]
    }
  },
  "science-snowflake": {
    "source":"../../chef/cookbooks/surfline-science",
    "roles": {
      "prod" : ["science-snowflake"],
      "dev" : ["science-snowflake"]
    }
  },
  "celery": {
    "source":"../../chef/cookbooks/surfline-airflow-celery",
    "roles": {
      "dev": ["airflow-celery"],
      "prod" : ["airflow-celery"]
    }
  },
  "ecs": {
    "source":"../../chef/cookbooks/surfline-ecs",
    "roles": {
      "sbox": ["editorial-cms","admin-tools","core-svc","product-svc"],
      "staging": ["editorial-cms","admin-tools","core-svc","product-svc"],
      "prod" : ["editorial-cms","admin-tools","core-svc","product-svc"]
    }
  },
  "varnish": {
    "source":"../../chef/cookbooks/surfline-varnish",
    "roles": {
      "staging": ["varnish-cache"],
      "prod" : ["varnish-cache"]
    }
  }
}

