[
    {
        "_id": "58eac6362fe5857c49d19f7c",
        "geonameId": 5391832,
        "type": "geoname",
        "liesIn": [
            "58eac6362fe5857c49d19f7a"
        ],
        "geonames": {
            "fcode": "ADM2",
            "lat": "33.0282",
            "adminName1": "California",
            "fcodeName": "second-order administrative division",
            "countryName": "United States",
            "fclName": "country, state, region,...",
            "name": "San Diego",
            "countryCode": "US",
            "population": 3095313,
            "fcl": "A",
            "countryId": "6252001",
            "toponymName": "San Diego County",
            "geonameId": 5391832,
            "lng": "-116.77021",
            "adminCode1": "CA"
        },
        "location": {
            "coordinates": [
                -116.77021,
                33.0282
            ],
            "type": "Point"
        },
        "enumeratedPath": ",Earth,North America,US,CA,San Diego",
        "name": "San Diego",
        "category": "geonames",
        "__v": 0,
        "in": [
            {
                "_id": "58eac6362fe5857c49d19f74",
                "geonameId": 6295630,
                "type": "geoname",
                "geonames": {
                    "population": 6814400000,
                    "fcode": "AREA",
                    "fcl": "L",
                    "lat": "0",
                    "adminName1": "",
                    "fcodeName": "area",
                    "toponymName": "Earth",
                    "fclName": "parks,area, ...",
                    "name": "Earth",
                    "geonameId": 6295630,
                    "lng": "0"
                },
                "location": {
                    "coordinates": [
                        0,
                        0
                    ],
                    "type": "Point"
                },
                "enumeratedPath": ",Earth",
                "name": "Earth",
                "category": "geonames",
                "__v": 0,
                "depth": 4
            },
            {
                "_id": "58eac6362fe5857c49d19f7c",
                "geonameId": 5391832,
                "type": "geoname",
                "liesIn": [
                    "58eac6362fe5857c49d19f7a"
                ],
                "geonames": {
                    "fcode": "ADM2",
                    "lat": "33.0282",
                    "adminName1": "California",
                    "fcodeName": "second-order administrative division",
                    "countryName": "United States",
                    "fclName": "country, state, region,...",
                    "name": "San Diego",
                    "countryCode": "US",
                    "population": 3095313,
                    "fcl": "A",
                    "countryId": "6252001",
                    "toponymName": "San Diego County",
                    "geonameId": 5391832,
                    "lng": "-116.77021",
                    "adminCode1": "CA"
                },
                "location": {
                    "coordinates": [
                        -116.77021,
                        33.0282
                    ],
                    "type": "Point"
                },
                "enumeratedPath": ",Earth,North America,US,CA,San Diego",
                "name": "San Diego",
                "category": "geonames",
                "__v": 0,
                "depth": 0
            },
            {
                "_id": "58eac6362fe5857c49d19f7a",
                "geonameId": 5332921,
                "type": "geoname",
                "liesIn": [
                    "58eac6362fe5857c49d19f78"
                ],
                "geonames": {
                    "fcode": "ADM1",
                    "lat": "37.25022",
                    "adminName1": "California",
                    "fcodeName": "first-order administrative division",
                    "countryName": "United States",
                    "fclName": "country, state, region,...",
                    "name": "California",
                    "countryCode": "US",
                    "population": 37691912,
                    "fcl": "A",
                    "countryId": "6252001",
                    "toponymName": "California",
                    "geonameId": 5332921,
                    "lng": "-119.75126",
                    "adminCode1": "CA"
                },
                "location": {
                    "coordinates": [
                        -119.75126,
                        37.25022
                    ],
                    "type": "Point"
                },
                "enumeratedPath": ",Earth,North America,US,CA",
                "name": "California",
                "category": "geonames",
                "__v": 0,
                "depth": 1
            },
            {
                "_id": "58eac6362fe5857c49d19f78",
                "geonameId": 6252001,
                "type": "geoname",
                "liesIn": [
                    "58eac6362fe5857c49d19f76"
                ],
                "geonames": {
                    "fcode": "PCLI",
                    "lat": "39.76",
                    "adminName1": "",
                    "fcodeName": "independent political entity",
                    "countryName": "United States",
                    "fclName": "country, state, region,...",
                    "name": "United States",
                    "countryCode": "US",
                    "population": 310232863,
                    "fcl": "A",
                    "countryId": "6252001",
                    "toponymName": "United States",
                    "geonameId": 6252001,
                    "lng": "-98.5",
                    "adminCode1": "00"
                },
                "location": {
                    "coordinates": [
                        -98.5,
                        39.76
                    ],
                    "type": "Point"
                },
                "enumeratedPath": ",Earth,North America,US",
                "name": "United States",
                "category": "geonames",
                "__v": 0,
                "depth": 2
            },
            {
                "_id": "58eac6362fe5857c49d19f76",
                "geonameId": 6255149,
                "type": "geoname",
                "liesIn": [
                    "58eac6362fe5857c49d19f74"
                ],
                "geonames": {
                    "population": 0,
                    "fcode": "CONT",
                    "fcl": "L",
                    "lat": "46.07323",
                    "adminName1": "",
                    "fcodeName": "continent",
                    "toponymName": "North America",
                    "fclName": "parks,area, ...",
                    "name": "North America",
                    "geonameId": 6255149,
                    "lng": "-100.54688"
                },
                "location": {
                    "coordinates": [
                        -100.54688,
                        46.07323
                    ],
                    "type": "Point"
                },
                "enumeratedPath": ",Earth,North America",
                "name": "North America",
                "category": "geonames",
                "__v": 0,
                "depth": 3
            }
        ],
        "contains": [
            {
                "_id": "58eac6362fe5857c49d19f80",
                "spot": "5842041f4e65fad6a770883c",
                "type": "spot",
                "liesIn": [
                    "58eac6362fe5857c49d19f7e",
                    "58eac6362fe5857c49d19f86"
                ],
                "location": {
                    "coordinates": [
                        -117.2822713851,
                        32.829151647032
                    ],
                    "type": "Point"
                },
                "name": "Windansea",
                "category": "surfline",
                "__v": 0,
                "depth": 1
            },
            {
                "_id": "58eac6362fe5857c49d19f7e",
                "geonameId": 5363943,
                "type": "geoname",
                "liesIn": [
                    "58eac6362fe5857c49d19f7c"
                ],
                "geonames": {
                    "fcode": "PPL",
                    "lat": "32.84727",
                    "adminName1": "California",
                    "fcodeName": "populated place",
                    "countryName": "United States",
                    "fclName": "city, village,...",
                    "name": "La Jolla",
                    "countryCode": "US",
                    "population": 42808,
                    "fcl": "P",
                    "countryId": "6252001",
                    "toponymName": "La Jolla",
                    "geonameId": 5363943,
                    "lng": "-117.2742",
                    "adminCode1": "CA"
                },
                "location": {
                    "coordinates": [
                        -117.2742,
                        32.84727
                    ],
                    "type": "Point"
                },
                "enumeratedPath": ",Earth,North America,US,CA,San Diego,La Jolla",
                "name": "La Jolla",
                "category": "geonames",
                "__v": 0,
                "depth": 0
            }
        ]
    }
]