[
   {
      "_id": "5842041f4e65fad6a77088e4",
      "name": "South Side/13th Street",
      "cameras": [
         {
            "title": "South Side/13th Street",
            "streamUrl": "https://wowzaprod3-i.akamaihd.net/hls/live/253451/91961185/playlist.m3u8",
            "stillUrl": "https://camstills.cdn-surfline.com/sealbeachsscam/latest_small_pixelated.png",
            "rewindBaseUrl": "http://live-cam-archive.cdn-surfline.com/sealbeachsscam/sealbeachsscam",
            "_id": "58dad5a4d572cb0012fdb4b1",
            "status": {
               "isDown": false,
               "message": ""
            }
         }
      ],
      "conditions": {
         "human": false,
         "value": null
      },
      "wind": {
         "speed": 11.81,
         "direction": 342.58
      },
      "waveHeight": {
         "human": false,
         "min": 0,
         "max": 1,
         "occasional": null,
         "humanRelation": null
      },
      "tide": {
         "previous": {
            "type": "HIGH",
            "height": 5,
            "timestamp": 1490721448,
            "utcOffset": -7
         },
         "next": {
            "type": "LOW",
            "height": 0,
            "timestamp": 1490743709,
            "utcOffset": -7
         }
      },
      "thumbnail": "https://spot-thumbnails.cdn-surfline.com/spots/5842041f4e65fad6a77088e4/5842041f4e65fad6a77088e4_1500.jpg",
      "rank": 0
   }
]
