[
  {
    "forecast": {
      "am": {
        "condition": 0,
        "humanRelation": "None",
        "maxHeight": 0,
        "minHeight": 0,
        "occasionalHeight": 0,
        "rating": "None"
      },
      "pm": {
        "condition": 0,
        "humanRelation": "None",
        "maxHeight": 0,
        "minHeight": 0,
        "occasionalHeight": 0,
        "rating": "None"
      },
      "observation": ""
    },
    "forecastDate": 1627862400,
    "subregionId": "58581a836630e24c44878fd6",
    "updatedAt": null,
    "createdAt": null,
    "forecastDay": "2021-08-02"
  },
  {
    "forecast": {
      "am": {
        "rating": "POOR",
        "occasionalHeight": 0,
        "condition": 8,
        "minHeight": 4,
        "maxHeight": 5,
        "humanRelation": "Chest to head high"
      },
      "pm": {
        "rating": "VERY_POOR",
        "occasionalHeight": 0,
        "condition": 10,
        "minHeight": 4,
        "maxHeight": 7,
        "humanRelation": "Shoulder high to 2 ft overhead"
      },
      "observation": "day 2"
    },
    "forecastDate": 1627948800,
    "subregionId": "58581a836630e24c44878fd6",
    "updatedAt": 1642808994,
    "createdAt": 1642808994,
    "forecastDay": "2021-08-03"
  },
  {
    "forecast": {
      "am": {
        "condition": 0,
        "humanRelation": "None",
        "maxHeight": 0,
        "minHeight": 0,
        "occasionalHeight": 0,
        "rating": "None"
      },
      "pm": {
        "condition": 0,
        "humanRelation": "None",
        "maxHeight": 0,
        "minHeight": 0,
        "occasionalHeight": 0,
        "rating": "None"
      },
      "observation": ""
    },
    "forecastDate": 1628035200,
    "subregionId": "58581a836630e24c44878fd6",
    "updatedAt": null,
    "createdAt": null,
    "forecastDay": "2021-08-04"
  },
  {
    "_id": "61e82b76119604473892c70b",
    "forecast": {
      "am": {
        "rating": "POOR",
        "occasionalHeight": 0,
        "condition": 8,
        "minHeight": 4,
        "maxHeight": 5,
        "humanRelation": "Chest to head high"
      },
      "pm": {
        "rating": "VERY_POOR",
        "occasionalHeight": 0,
        "condition": 10,
        "minHeight": 4,
        "maxHeight": 7,
        "humanRelation": "Shoulder high to 2 ft overhead"
      },
      "observation": "day 4"
    },
    "forecastDate": 1628121600,
    "subregionId": "58581a836630e24c44878fd6",
    "updatedAt": 1642808994,
    "createdAt": 1642808994,
    "__v": 0,
    "forecastDay": "2021-08-05"
  },
  {
    "forecast": {
      "am": {
        "condition": 0,
        "humanRelation": "None",
        "maxHeight": 0,
        "minHeight": 0,
        "occasionalHeight": 0,
        "rating": "None"
      },
      "pm": {
        "condition": 0,
        "humanRelation": "None",
        "maxHeight": 0,
        "minHeight": 0,
        "occasionalHeight": 0,
        "rating": "None"
      },
      "observation": ""
    },
    "forecastDate": 1628208000,
    "subregionId": "58581a836630e24c44878fd6",
    "updatedAt": null,
    "createdAt": null,
    "forecastDay": "2021-08-06"
  },
  {
    "_id": "61e83b9d11960454c692c70c",
    "forecast": {
      "am": {
        "rating": "FAIR_TO_GOOD",
        "occasionalHeight": 0,
        "condition": 3,
        "minHeight": 2,
        "maxHeight": 3,
        "humanRelation": "Thigh to waist high"
      },
      "pm": {
        "rating": "GOOD",
        "occasionalHeight": 0,
        "condition": 7,
        "minHeight": 3,
        "maxHeight": 5,
        "humanRelation": "Waist to head high"
      },
      "observation": "day 6"
    },
    "forecastDate": 1628294400,
    "subregionId": "58581a836630e24c44878fd6",
    "updatedAt": 1642808994,
    "createdAt": 1642808994,
    "__v": 0,
    "forecastDay": "2021-08-07"
  },
  {
    "forecast": {
      "am": {
        "rating": "FAIR_TO_GOOD",
        "occasionalHeight": 0,
        "condition": 3,
        "minHeight": 2,
        "maxHeight": 3,
        "humanRelation": "Thigh to waist high"
      },
      "pm": {
        "rating": "GOOD",
        "occasionalHeight": 0,
        "condition": 7,
        "minHeight": 3,
        "maxHeight": 5,
        "humanRelation": "Waist to head high"
      },
      "observation": "day 7"
    },
    "forecastDate": 1628380800,
    "subregionId": "58581a836630e24c44878fd6",
    "updatedAt": 1642808994,
    "createdAt": 1642808994,
    "forecastDay": "2021-08-08"
  },
  {
    "forecast": {
      "am": {
        "rating": "FAIR_TO_GOOD",
        "occasionalHeight": 0,
        "condition": 3,
        "minHeight": 2,
        "maxHeight": 3,
        "humanRelation": "Thigh to waist high"
      },
      "pm": {
        "rating": "GOOD",
        "occasionalHeight": 0,
        "condition": 7,
        "minHeight": 3,
        "maxHeight": 5,
        "humanRelation": "Waist to head high"
      },
      "observation": "day 8"
    },
    "forecastDate": 1628467200,
    "subregionId": "58581a836630e24c44878fd6",
    "updatedAt": 1642808994,
    "createdAt": 1642808994,
    "forecastDay": "2021-08-09"
  }
]
