[
  {
      "_id": "610884a22e18fbdcead59995",
      "forecast": {
          "am": {
              "rating": "FAIR",
              "occasionalHeight": 0,
              "condition": 4,
              "minHeight": 2,
              "maxHeight": 3,
              "humanRelation": "Waist to stomach"
          },
          "pm": {
              "rating": "GOOD",
              "occasionalHeight": 0,
              "condition": 6,
              "minHeight": 3,
              "maxHeight": 4,
              "humanRelation": "Waist to shoulder"
          },
          "observation": "Test"
      },
      "forecastDate": "2021-08-02T00:00:00.000Z",
      "subregionId": "58581a836630e24c44878fd6",
      "updatedAt": "2021-08-02T23:49:54.112Z",
      "createdAt": "2021-08-02T23:49:54.112Z",
      "__v": 0
  },
  {
      "_id": "610884a22e18fb461bd59996",
      "forecast": {
          "am": {
              "rating": "GOOD",
              "occasionalHeight": 0,
              "condition": 7,
              "minHeight": 3,
              "maxHeight": 5,
              "humanRelation": "Waist to head"
          },
          "pm": {
              "rating": "FAIR_TO_GOOD",
              "occasionalHeight": 0,
              "condition": 4,
              "minHeight": 2,
              "maxHeight": 3,
              "humanRelation": "Waist to stomach"
          },
          "observation": "Test2"
      },
      "forecastDate": "2021-08-03T00:00:00.000Z",
      "subregionId": "58581a836630e24c44878fd6",
      "updatedAt": "2021-08-02T23:49:54.113Z",
      "createdAt": "2021-08-02T23:49:54.113Z",
      "__v": 0
  }
]
