[
  {
    "forecast": {
      "am": {
        "rating": "POOR",
        "occasionalHeight": 0,
        "condition": 8,
        "minHeight": 4,
        "maxHeight": 5,
        "humanRelation": "Chest to head high"
      },
      "pm": {
        "rating": "VERY_POOR",
        "occasionalHeight": 0,
        "condition": 10,
        "minHeight": 4,
        "maxHeight": 7,
        "humanRelation": "Shoulder high to 2 ft overhead"
      },
      "observation": "day 2"
    },
    "forecastDate": "2021-08-03T00:00:00.000Z",
    "subregionId": "58581a836630e24c44878fd6",
    "updatedAt": "2022-01-21T23:49:54.112Z",
    "createdAt": "2022-01-21T23:49:54.112Z"
  },
  {
    "_id": "61e82b76119604473892c70b",
    "forecast": {
      "am": {
        "rating": "POOR",
        "occasionalHeight": 0,
        "condition": 8,
        "minHeight": 4,
        "maxHeight": 5,
        "humanRelation": "Chest to head high"
      },
      "pm": {
        "rating": "VERY_POOR",
        "occasionalHeight": 0,
        "condition": 10,
        "minHeight": 4,
        "maxHeight": 7,
        "humanRelation": "Shoulder high to 2 ft overhead"
      },
      "observation": "day 4"
    },
    "forecastDate": "2021-08-05T00:00:00.000Z",
    "subregionId": "58581a836630e24c44878fd6",
    "updatedAt": "2022-01-21T23:49:54.112Z",
    "createdAt": "2022-01-21T23:49:54.112Z",
    "__v": 0
  },
  {
    "_id": "61e83b9d11960454c692c70c",
    "forecast": {
      "am": {
        "rating": "FAIR_TO_GOOD",
        "occasionalHeight": 0,
        "condition": 3,
        "minHeight": 2,
        "maxHeight": 3,
        "humanRelation": "Thigh to waist high"
      },
      "pm": {
        "rating": "GOOD",
        "occasionalHeight": 0,
        "condition": 7,
        "minHeight": 3,
        "maxHeight": 5,
        "humanRelation": "Waist to head high"
      },
      "observation": "day 6"
    },
    "forecastDate": "2021-08-07T00:00:00.000Z",
    "subregionId": "58581a836630e24c44878fd6",
    "updatedAt": "2022-01-21T23:49:54.112Z",
    "createdAt": "2022-01-21T23:49:54.112Z",
    "__v": 0
  },
  {
    "forecast": {
      "am": {
        "rating": "FAIR_TO_GOOD",
        "occasionalHeight": 0,
        "condition": 3,
        "minHeight": 2,
        "maxHeight": 3,
        "humanRelation": "Thigh to waist high"
      },
      "pm": {
        "rating": "GOOD",
        "occasionalHeight": 0,
        "condition": 7,
        "minHeight": 3,
        "maxHeight": 5,
        "humanRelation": "Waist to head high"
      },
      "observation": "day 7"
    },
    "forecastDate": "2021-08-08T00:00:00.000Z",
    "subregionId": "58581a836630e24c44878fd6",
    "updatedAt": "2022-01-21T23:49:54.112Z",
    "createdAt": "2022-01-21T23:49:54.112Z"
  },
  {
    "forecast": {
      "am": {
        "rating": "FAIR_TO_GOOD",
        "occasionalHeight": 0,
        "condition": 3,
        "minHeight": 2,
        "maxHeight": 3,
        "humanRelation": "Thigh to waist high"
      },
      "pm": {
        "rating": "GOOD",
        "occasionalHeight": 0,
        "condition": 7,
        "minHeight": 3,
        "maxHeight": 5,
        "humanRelation": "Waist to head high"
      },
      "observation": "day 8"
    },
    "forecastDate": "2021-08-09T00:00:00.000Z",
    "subregionId": "58581a836630e24c44878fd6",
    "updatedAt": "2022-01-21T23:49:54.112Z",
    "createdAt": "2022-01-21T23:49:54.112Z"
  }
]
