[
  {
    "type": "Feature",
    "geometry": {
      "type": "Point",
      "coordinates": [
        -117.9256143290497,
        33.60546308958586
      ]
    },
    "properties": {
      "randomNumber": 1
    }
  },
  {
    "type": "Feature",
    "geometry": {
      "type": "Point",
      "coordinates": [
        -117.9396915436,
        33.616960167726
      ]
    },
    "properties": {
      "randomNumber": 2
    }
  },
  {
    "type": "Feature",
    "geometry": {
      "type": "Point",
      "coordinates": [
        -117.9315376281,
        33.60577342582
      ]
    },
    "properties": {
      "randomNumber": 3
    }
  },
  {
    "type": "Feature",
    "geometry": {
      "type": "Point",
      "coordinates": [
        -117.9474812414847,
        33.62270460093146
      ]
    },
    "properties": {
      "randomNumber": 4
    }
  },
  {
    "type": "Feature",
    "geometry": {
      "type": "Point",
      "coordinates": [
        -117.9593911234855,
        33.62778647706099
      ]
    },
    "properties": {
      "randomNumber": 5
    }
  },
  {
    "type": "Feature",
    "geometry": {
      "type": "Point",
      "coordinates": [
        -118.1034243408604,
        33.7368459504689
      ]
    },
    "properties": {
      "randomNumber": 6
    }
  },
  {
    "type": "Feature",
    "geometry": {
      "type": "Point",
      "coordinates": [
        -118.08982,
        33.728733
      ]
    },
    "properties": {
      "randomNumber": 7
    }
  },
  {
    "type": "Feature",
    "geometry": {
      "type": "Point",
      "coordinates": [
        -117.95,
        33.623
      ]
    },
    "properties": {
      "randomNumber": 8
    }
  },
  {
    "type": "Feature",
    "geometry": {
      "type": "Point",
      "coordinates": [
        -118.1086921691,
        33.737902112055
      ]
    },
    "properties": {
      "randomNumber": 9
    }
  },
  {
    "type": "Feature",
    "geometry": {
      "type": "Point",
      "coordinates": [
        -118.0824279785,
        33.722483580767
      ]
    },
    "properties": {
      "randomNumber": 10
    }
  },
  {
    "type": "Feature",
    "geometry": {
      "type": "Point",
      "coordinates": [
        -117.9396915435,
        33.616960167725
      ]
    },
    "properties": {
      "randomNumber": 11
    }
  },
  {
    "type": "Feature",
    "geometry": {
      "type": "Point",
      "coordinates": [
        -117.93402671813965,
        33.60763202663875
      ]
    },
    "properties": {
      "randomNumber": 12
    }
  },
  {
    "type": "Feature",
    "geometry": {
      "type": "Point",
      "coordinates": [
        -117.9474812414848,
        33.62270460093145
      ]
    },
    "properties": {
      "randomNumber": 13
    }
  },
  {
    "type": "Feature",
    "geometry": {
      "type": "Point",
      "coordinates": [
        -118.0143556189923,
        33.66315613358258
      ]
    },
    "properties": {
      "randomNumber": 14
    }
  },
  {
    "type": "Feature",
    "geometry": {
      "type": "Point",
      "coordinates": [
        -117.9396915435,
        33.616960167725
      ]
    },
    "properties": {
      "randomNumber": 15
    }
  },
  {
    "type": "Feature",
    "geometry": {
      "type": "Point",
      "coordinates": [
        -118.0943556189923,
        33.66315613358258
      ]
    },
    "properties": {
      "randomNumber": 16
    }
  },
  {
    "type": "Feature",
    "geometry": {
      "type": "Point",
      "coordinates": [
        -118.043096169064,
        33.68730096183094
      ]
    },
    "properties": {
      "randomNumber": 17
    }
  },
  {
    "type": "Feature",
    "geometry": {
      "type": "Point",
      "coordinates": [
        -117.985944738959,
        33.64377868530139
      ]
    },
    "properties": {
      "randomNumber": 18
    }
  },
  {
    "type": "Feature",
    "geometry": {
      "type": "Point",
      "coordinates": [
        -118.043096169064,
        33.68730096183094
      ]
    },
    "properties": {
      "randomNumber": 19
    }
  },
  {
    "type": "Feature",
    "geometry": {
      "type": "Point",
      "coordinates": [
        -118.0032588192,
        33.654213041213
      ]
    },
    "properties": {
      "randomNumber": 20
    }
  },
  {
    "type": "Feature",
    "geometry": {
      "type": "Point",
      "coordinates": [
        -118.0192012569068,
        33.66704400178788
      ]
    },
    "properties": {
      "randomNumber": 21
    }
  },
  {
    "type": "Feature",
    "geometry": {
      "type": "Point",
      "coordinates": [
        -118.0064678192,
        33.656781041213
      ]
    },
    "properties": {
      "randomNumber": 22
    }
  }
]
