{
  "imageName": "services/crowd-counting-service",
  "compose": "crowd-counting-service",
  "serviceName": "wt-crowd-counting-service",
  "cluster": "wt-core-gpu",
  "secrets": {
    "common": {
      "prefix": "/{env}/common/",
      "secrets": [
        "CAMERAS_API",
        "NEW_RELIC_ATTRIBUTES_EXCLUDE",
        "NEW_RELIC_ENABLED",
        "NEW_RELIC_IGNORING_RULES",
        "NEW_RELIC_LICENSE_KEY",
        "NEW_RELIC_LOG_LEVEL",
        "LOG_LEVEL",
        "APP_ENV"
      ]
    },
    "service": {
      "prefix": "/{env}/services/crowd-counting-service/",
      "secrets": [
        "CROWD_FRAME_BUCKET",
        "CROWD_COUNTING_QUEUE_URL"
      ]
    }
  },
  "taskRoleArn": {
    "sandbox": "arn:aws:iam::665294954271:role/crowd_counting_service_task_role_sandbox",
    "staging": "arn:aws:iam::665294954271:role/crowd_counting_service_task_role_staging",
    "prod": "arn:aws:iam::833713747344:role/crowd_counting_service_task_role_prod"
  },
  "tests": {
    "contract": "",
    "integration": "",
    "lint": "",
    "type-check": "",
    "unit": ""
  },
  "newRelic": {
    "applicationId": {
      "development": 86877789,
      "sandbox": 89632650,
      "prod": 31984768
    }
  },
  "releaseStrategy": {
    "staging": "manual",
    "sandbox": "manual",
    "prod": "manual"
  }
}
