spot_id,name,spotlat,spotlon,gridlat,gridlon,GPswelldir,optimalswelldir,optimalwinddir,surfarea,surf_id,country_id,country_name
584204204e65fad6a770991d,Abashita,35.50208333,133.4604167,35.875,133.875,25,335,155,Tottori,1094,90,Chugoku
584204204e65fad6a7709800,Aoya,35.52708333,133.99375,35.875,133.875,25,0,180,Tottori,1094,90,Chugoku
584204204e65fad6a7709919,Boat Akasaki,35.51875,133.6395833,35.875,133.875,25,345,165,Tottori,1094,90,Chugoku
584204204e65fad6a7709918,Bokura,35.5054,133.7242,35.875,133.875,25,0,180,Tottori,1094,90,Chugoku
584204204e65fad6a770991f,Burleigh,35.491433,133.44257,35.875,133.875,25,315,135,Tottori,1094,90,Chugoku
584204204e65fad6a7709803,Daikoku,35.52708333,133.60625,35.875,133.875,25,355,175,Tottori,1094,90,Chugoku
584204204e65fad6a77097fd,Funaiso,35.52291667,134.0270833,35.875,134.125,20,350,170,Tottori,1094,90,Chugoku
584204204e65fad6a770991a,Gyaku Burleigh,35.52708333,133.5520833,35.875,133.875,25,340,160,Tottori,1094,90,Chugoku
584204204e65fad6a77097f8,Hakuto,35.53125,134.1145833,35.875,134.125,20,0,180,Tottori,1094,90,Chugoku
584204204e65fad6a77097fc,Haneo,35.60625,134.3479167,35.875,134.375,20,0,180,Tottori,1094,90,Chugoku
584204204e65fad6a7709801,Hawai,35.51041667,133.88125,35.875,133.875,25,350,170,Tottori,1094,90,Chugoku
584204204e65fad6a77097f5,Higashihama,35.60625,134.3604167,35.875,134.375,20,10,190,Tottori,1094,90,Chugoku
584204204e65fad6a77097f9,Idegahama,35.52708333,133.9854167,35.875,133.875,25,0,180,Tottori,1094,90,Chugoku
584204204e65fad6a77097ff,Ishiwaki,35.52291667,133.9520833,35.875,133.875,25,340,160,Tottori,1094,90,Chugoku
584204204e65fad6a77097f7,Iwado,35.56458333,134.26875,35.875,134.375,20,335,155,Tottori,1094,90,Chugoku
584204204e65fad6a77097fb,Karo,35.54375,134.18125,35.875,134.125,20,5,185,Tottori,1094,90,Chugoku
584204204e65fad6a77097fe,Kozomi,35.53125,134.10625,35.875,134.125,20,0,180,Tottori,1094,90,Chugoku
584204204e65fad6a770991e,Mihowan,35.546195,133.395309,36.125,133.375,20,210,30,Tottori,1094,90,Chugoku
584204204e65fad6a770991c,Nawagawa,35.51041667,133.4854167,35.875,133.875,25,350,170,Tottori,1094,90,Chugoku
584204204e65fad6a770991b,Toyoshige,35.52708333,133.5395833,35.875,133.875,25,340,160,Tottori,1094,90,Chugoku
584204204e65fad6a77097fa,Uradome,35.59375,134.3229167,35.875,134.375,20,340,160,Tottori,1094,90,Chugoku
584204204e65fad6a7709920,Yodoe,35.46458333,133.41875,36.125,133.375,20,310,130,Tottori,1094,90,Chugoku
584204204e65fad6a7709804,Yumigahama,35.47708333,133.2979167,36.125,133.375,20,30,210,Tottori,1094,90,Chugoku
584204204e65fad6a7709890,Aia,26.71041667,128.3020833,26.625,128.625,55,110,290,Okinawa,197,174,Okinawa
584204204e65fad6a7709894,Ajya,26.2218,127.6645,26.375,127.625,110,335,155,Okinawa,197,174,Okinawa
584204204e65fad6a7709895,Bowl,26.30208333,127.75625,26.375,127.625,110,310,130,Okinawa,197,174,Okinawa
584204204e65fad6a7709891,Kochan,26.8731,128.2658,26.875,128.375,60,40,220,Okinawa,197,174,Okinawa
584204204e65fad6a770989b,Maeda,26.445489,127.769647,26.625,127.875,65,330,150,Okinawa,197,174,Okinawa
584204204e65fad6a7709892,Suicide,26.08541667,127.70625,25.875,127.625,55,165,345,Okinawa,197,174,Okinawa
584204204e65fad6a7709896,Turtle,26.3645,127.7355,26.375,127.625,110,245,65,Okinawa,197,174,Okinawa
584204204e65fad6a7709897,Zanpa,26.4373,128,26.375,128.125,60,290,110,Okinawa,197,174,Okinawa
584204204e65fad6a7709717,Ajigaura/Naka,36.39375,140.61875,36.375,141.125,45,45,225,Ibaraki,1081,129,Kanto
584204204e65fad6a7709716,Ajigaura/Shomen,36.39375,140.61875,36.375,141.125,45,45,225,Ibaraki,1081,129,Kanto
584204204e65fad6a77098eb,Akashi,35.99791667,140.6604167,36.125,141.125,40,65,245,Ibaraki,1081,129,Kanto
584204204e65fad6a770971e,Baitenmae,36.12291667,140.5979167,36.125,141.125,40,70,250,Ibaraki,1081,129,Kanto
584204204e65fad6a770970e,Futatsujima,36.80208333,140.7604167,36.875,141.125,145,130,310,Ibaraki,1081,129,Kanto
584204204e65fad6a77098f0,Hakashita,35.979204,140.670319,36.125,141.125,40,60,240,Ibaraki,1081,129,Kanto
584204204e65fad6a7709710,Hakashita,36.63541667,140.69375,36.625,141.125,45,85,265,Ibaraki,1081,129,Kanto
584204204e65fad6a7709720,Hiraihama,35.97291667,140.6770833,36.125,141.125,40,65,245,Ibaraki,1081,129,Kanto
584204204e65fad6a7709714,Hitachi todai shita,36.50625,140.6354167,36.625,141.125,45,105,285,Ibaraki,1081,129,Kanto
584204204e65fad6a7709711,Hitachieki shita,36.58541667,140.66875,36.625,141.125,45,130,310,Ibaraki,1081,129,Kanto
584204204e65fad6a77098e1,Hitachinakakou,36.39791667,140.61875,36.375,141.125,45,70,250,Ibaraki,1081,129,Kanto
584204204e65fad6a77098ea,Hiyamizu,36.21041667,140.5729167,36.125,141.125,40,75,255,Ibaraki,1081,129,Kanto
584204204e65fad6a7709712,Hotelshita,36.63125,140.6895833,36.625,141.125,45,70,250,Ibaraki,1081,129,Kanto
584204204e65fad6a77098de,Ibuki,36.79375,140.7604167,36.875,141.125,145,115,295,Ibaraki,1081,129,Kanto
584204204e65fad6a7709713,Ibuki,36.69791667,140.7229167,36.625,141.125,45,110,290,Ibaraki,1081,129,Kanto
584204204e65fad6a770970d,Ishihama,36.66875,140.71875,36.625,141.125,45,90,270,Ibaraki,1081,129,Kanto
584204204e65fad6a770970f,Kawajiri,36.64375,140.6979167,36.625,141.125,45,90,270,Ibaraki,1081,129,Kanto
584204204e65fad6a7709715,Kawarago,36.54375,140.6479167,36.625,141.125,45,90,270,Ibaraki,1081,129,Kanto
584204204e65fad6a770971d,Kosumo,36.09791667,140.6104167,36.125,141.125,40,65,245,Ibaraki,1081,129,Kanto
584204204e65fad6a770971f,Kyochigama,36.09375,140.6104167,36.125,141.125,40,70,250,Ibaraki,1081,129,Kanto
584204204e65fad6a770970b,Nakoso,36.86458333,140.79375,36.875,141.125,145,100,280,Ibaraki,1081,129,Kanto
584204204e65fad6a77098e9,Oarai Isoba,36.32291667,140.59375,36.375,141.125,45,100,280,Ibaraki,1081,129,Kanto
584204204e65fad6a77098e2,Oarai Suizokukanmae,36.33541667,140.5979167,36.375,141.125,45,140,320,Ibaraki,1081,129,Kanto
584204204e65fad6a77098e3,Oarai Sunbeach,36.302771,140.568544,36.375,141.125,45,170,350,Ibaraki,1081,129,Kanto
584204204e65fad6a77098e0,Oarai Teibowaki,36.33541667,140.5979167,36.375,141.125,45,140,320,Ibaraki,1081,129,Kanto
584204204e65fad6a770971c,Okahorikome,36.15625,140.5854167,36.125,141.125,40,65,245,Ibaraki,1081,129,Kanto
584204204e65fad6a77098ed,Onuki Hotel Mae,36.29375,140.5645833,36.375,141.125,45,130,310,Ibaraki,1081,129,Kanto
584204204e65fad6a77098e5,Onuki-Shomen,36.29791667,140.5645833,36.375,141.125,45,125,305,Ibaraki,1081,129,Kanto
584204204e65fad6a77098e7,Onuki-Uminoko,36.28958333,140.5645833,36.375,141.125,45,115,295,Ibaraki,1081,129,Kanto
584204204e65fad6a7709719,Onuki/Tsurukame,36.29791667,140.5645833,36.375,141.125,45,125,305,Ibaraki,1081,129,Kanto
584204204e65fad6a770971a,Onuki/Uminoko,36.299,140.5699,36.375,141.125,45,115,295,Ibaraki,1081,129,Kanto
584204204e65fad6a7709718,Ooarai,36.29791667,140.53125,35.625,141.125,50,120,300,Ibaraki,1081,129,Kanto
584204204e65fad6a770971b,Otake,36.16458333,140.58125,36.125,141.125,40,70,250,Ibaraki,1081,129,Kanto
584204204e65fad6a77098e6,Takahagi,36.712312,140.726237,36.625,141.125,45,115,295,Ibaraki,1081,129,Kanto
584204204e65fad6a77098e8,Tamada,36.22708333,140.56875,36.125,141.125,40,75,255,Ibaraki,1081,129,Kanto
584204204e65fad6a77098e4,Tokenjo Shita,36.29375,140.5645833,36.375,141.125,45,130,310,Ibaraki,1081,129,Kanto
584204204e65fad6a7709721,Topsanteshita,36.08541667,140.6145833,36.125,141.125,40,60,240,Ibaraki,1081,129,Kanto
584204204e65fad6a7709826,Akigawakakou,33.494556,133.910831,33.375,133.875,110,225,45,Kochi,1084,127,Shikoku
584204204e65fad6a7709932,Chobokujo,33.41041667,134.0270833,33.375,133.875,110,215,35,Kochi,1084,127,Shikoku
584204204e65fad6a770982f,Hutami,32.96946,132.9992,32.625,133.125,135,100,280,Kochi,1084,127,Shikoku
584204204e65fad6a770982c,Ida,33.03541667,133.06875,32.875,133.375,100,200,20,Kochi,1084,127,Shikoku
584204204e65fad6a7709821,Ikumi,33.52291667,134.2895833,33.375,134.375,105,120,300,Kochi,1084,127,Shikoku
584204204e65fad6a7709825,Iokigawakakou,33.4931,133.9156,33.375,133.875,110,195,15,Kochi,1084,127,Shikoku
584204204e65fad6a770982e,Irinomatsubara,33.0206,133.018,32.875,133.375,100,115,295,Kochi,1084,127,Shikoku
584204204e65fad6a770981e,Kaihukawa Kako,33.5954,134.3627,33.375,134.375,105,105,285,Kochi,1084,127,Shikoku
584204204e65fad6a7709936,Kaminokae,33.280709,133.251361,33.375,133.625,110,320,140,Kochi,1084,127,Shikoku
584204204e65fad6a7709931,Kira,33.327758,134.100859,33.125,134.125,110,255,75,Kochi,1084,127,Shikoku
584204204e65fad6a7709934,Kochi,33.461521,133.606796,33.375,133.625,110,185,5,Kochi,1084,127,Shikoku
584204204e65fad6a770982d,Komuronohama,33.16458333,133.2020833,32.875,133.375,100,180,0,Kochi,1084,127,Shikoku
584204204e65fad6a7709828,Koudono,33.4768,133.522,33.375,133.625,110,150,330,Kochi,1084,127,Shikoku
584204204e65fad6a770982b,Kureoono,33.3308,133.2502,33.125,133.375,105,135,315,Kochi,1084,127,Shikoku
584204204e65fad6a7709827,Monobekakou,33.53125,133.6854167,33.375,133.625,110,180,0,Kochi,1084,127,Shikoku
584204204e65fad6a7709829,Niyodogawakakou,33.4599,133.4842,33.375,133.625,110,160,340,Kochi,1084,127,Shikoku
584204204e65fad6a7709939,Nuno,32.86216,132.988944,32.625,133.125,135,175,355,Kochi,1084,127,Shikoku
584204204e65fad6a7709832,Ookinohama,32.82291667,132.95625,32.875,133.375,100,55,235,Kochi,1084,127,Shikoku
584204204e65fad6a7709822,Ozaki,33.36875,134.2104167,33.375,134.375,105,100,280,Kochi,1084,127,Shikoku
584204204e65fad6a7709823,Shiina,33.31875,134.1979167,33.375,134.375,105,135,315,Kochi,1084,127,Shikoku
584204204e65fad6a770993b,Shimonokae,32.85625,132.95625,32.625,133.125,135,85,265,Kochi,1084,127,Shikoku
584204204e65fad6a7709938,Shirahama,33.05625,133.10625,33.125,133.375,105,110,290,Kochi,1084,127,Shikoku
584204204e65fad6a770981f,Shishikui,33.56458333,134.3145833,33.625,134.625,115,80,260,Kochi,1084,127,Shikoku
584204204e65fad6a7709820,Takegashima,33.54791667,134.3145833,33.375,134.375,105,90,270,Kochi,1084,127,Shikoku
584204204e65fad6a7709830,Tanoura,32.99375,133.00625,32.625,133.125,135,105,285,Kochi,1084,127,Shikoku
584204204e65fad6a7709933,Tei,33.52708333,133.7520833,33.375,133.625,110,205,25,Kochi,1084,127,Shikoku
584204204e65fad6a7709937,Yaiga,33.24791667,133.2520833,33.125,133.375,105,75,255,Kochi,1084,127,Shikoku
584204204e65fad6a7709824,Yasudagawakakou,33.43125,133.98125,33.375,133.875,110,205,25,Kochi,1084,127,Shikoku
584204204e65fad6a770982a,Yokonamisukailain,33.41875,133.45625,33.375,133.625,110,150,330,Kochi,1084,127,Shikoku
584204204e65fad6a77098da,Akitako,39.770284,140.013542,39.875,139.875,245,250,70,Akita,1078,92,Tohoku
584204204e65fad6a77096f4,Detohama,39.83541667,140.0104167,39.875,139.875,245,230,50,Akita,1078,92,Tohoku
584204204e65fad6a77096f3,Funakoshi,39.8895,139.9498,39.875,139.875,245,210,30,Akita,1078,92,Tohoku
584204204e65fad6a77096f6,Futago,39.53958333,140.04375,39.625,139.875,245,280,100,Akita,1078,92,Tohoku
584204204e65fad6a77096f5,Honjouhama,39.38958333,140.0104167,39.375,139.875,245,290,110,Akita,1078,92,Tohoku
584204204e65fad6a77096f2,Miyazawa,40.03541667,139.9145833,40.125,139.625,240,310,130,Akita,1078,92,Tohoku
584204204e65fad6a77098d8,Ohama,39.79791667,140.03125,39.875,139.875,245,250,70,Akita,1078,92,Tohoku
584204204e65fad6a77096dc,Akkagawa,40.06041667,141.85625,40.375,142.125,55,55,235,Iwate,1077,92,Tohoku
584204204e65fad6a77096e4,Koganezawa,38.79375,141.5395833,38.875,141.875,50,125,305,Iwate,1077,92,Tohoku
584204204e65fad6a77096de,Namiita,39.38541667,141.94375,39.375,142.125,55,40,220,Iwate,1077,92,Tohoku
584204204e65fad6a77098d4,Nodawan,40.108144,141.831586,39.875,142.125,55,120,300,Iwate,1077,92,Tohoku
584204204e65fad6a77098d6,Oisehama,38.82291667,141.5854167,38.625,141.875,50,140,320,Iwate,1077,92,Tohoku
584204204e65fad6a77098d3,Okiraiwan,39.097495,141.826887,38.875,142.125,50,320,140,Iwate,1077,92,Tohoku
584204204e65fad6a77096e3,Ooya,38.80625,141.5645833,38.875,141.875,50,180,0,Iwate,1077,92,Tohoku
584204204e65fad6a77096da,Tobugaura,40.11041667,141.83125,39.875,142.125,55,70,250,Iwate,1077,92,Tohoku
584204204e65fad6a77096dd,Omoe,39.52291667,142.0354167,39.375,142.125,55,155,335,Iwate,1077,92,Tohoku
584204204e65fad6a7709864,Aoshima,31.81041667,131.4729167,31.875,131.875,135,35,215,Miyazaki,1090,126,Kyushu
584204204e65fad6a7709868,Chokusen,31.63541667,131.46875,31.375,131.625,70,165,345,Miyazaki,1090,126,Kyushu
584204204e65fad6a7709863,Curren's Point,31.74791667,131.4770833,31.625,131.625,75,120,300,Miyazaki,1090,126,Kyushu
584204204e65fad6a770985f,Hakashita,32.23723,131.5734,32.125,131.875,135,120,300,Miyazaki,1090,126,Kyushu
584204204e65fad6a7709860,Hitotsuba,31.95208333,131.48125,31.625,131.625,75,120,300,Miyazaki,1090,126,Kyushu
584204204e65fad6a7709950,Hitotsuse Kako,32.047024,131.511455,32.125,131.875,135,110,290,Miyazaki,1090,126,Kyushu
584204204e65fad6a7709867,Ibii,31.71041667,131.4729167,31.625,131.875,70,80,260,Miyazaki,1090,126,Kyushu
584204204e65fad6a7709861,Ikuragahama,32.19375,131.5645833,32.125,131.875,135,105,285,Miyazaki,1090,126,Kyushu
584204204e65fad6a7709859,Isegahama,32.39791667,131.65625,32.125,131.875,135,170,350,Miyazaki,1090,126,Kyushu
584204204e65fad6a770985e,Ishinamigawakakou,32.32291667,131.6145833,32.375,131.875,135,120,300,Miyazaki,1090,126,Kyushu
584204204e65fad6a770985d,Kanegahama,32.36041667,131.63125,32.375,131.875,135,85,265,Miyazaki,1090,126,Kyushu
584204204e65fad6a7709862,Kizakihama,31.83125,131.45625,31.875,131.875,135,55,235,Miyazaki,1090,126,Kyushu
584204204e65fad6a7709866,Kobukei,31.63958333,131.46875,31.625,131.875,70,130,310,Miyazaki,1090,126,Kyushu
5842041f4e65fad6a7708da3,OceanDome,31.94791667,131.4770833,31.625,131.625,75,145,325,Miyazaki,1090,126,Kyushu
584204204e65fad6a770985c,Okuragahama,32.37708333,131.6395833,32.375,131.875,135,100,280,Miyazaki,1090,126,Kyushu
584204204e65fad6a770986c,Oodoutsu,31.55208333,131.3854167,31.125,131.625,65,80,260,Miyazaki,1090,126,Kyushu
584204204e65fad6a770986a,Ooula,31.61875,131.45625,31.375,131.625,70,80,260,Miyazaki,1090,126,Kyushu
584204204e65fad6a7709956,Oyodogawa Kako,31.88958333,131.46875,31.625,131.625,75,90,270,Miyazaki,1090,126,Kyushu
584204204e65fad6a7709869,Sentan,31.63125,131.46875,31.625,131.625,75,135,315,Miyazaki,1090,126,Kyushu
584204204e65fad6a770986b,Shoujyuen,31.60625,131.4270833,31.375,131.625,70,235,55,Miyazaki,1090,126,Kyushu
584204204e65fad6a770985b,Siomigawakakou,32.39791667,131.64375,32.375,131.875,135,185,5,Miyazaki,1090,126,Kyushu
584204204e65fad6a7709865,Uchiumi,31.75208333,131.4770833,31.625,131.625,75,90,270,Miyazaki,1090,126,Kyushu
584204204e65fad6a770986d,Umegahama,31.58958333,131.4145833,31.625,131.625,75,75,255,Miyazaki,1090,126,Kyushu
584204204e65fad6a77096ef,Arahama-Kako,38.04375,140.9270833,38.125,141.625,50,95,275,Miyagi,1034,92,Tohoku
584204204e65fad6a77096f0,Arahama-Pool,38.0359,140.9235,38.125,141.625,50,120,300,Miyagi,1034,92,Tohoku
584204204e65fad6a77096ec,Fukanuma,38.2114,140.9825,38.125,141.625,50,120,300,Miyagi,1034,92,Tohoku
584204204e65fad6a77096ea,Gamou,38.2495,141.0114,38.125,141.625,50,125,305,Miyagi,1034,92,Tohoku
584204204e65fad6a77096fe,Kagesuka,37.82708333,140.98125,37.375,141.375,50,15,195,Miyagi,1034,92,Tohoku
584204204e65fad6a77096e6,Koizumi,38.76875,141.5229167,38.875,141.875,50,65,245,Miyagi,1034,92,Tohoku
584204204e65fad6a77098d7,Koizumi Kako,38.76875,141.5229167,38.875,141.875,50,65,245,Miyagi,1034,92,Tohoku
584204204e65fad6a77096fd,Lahainamae,37.88125,140.9354167,37.375,141.375,50,90,270,Miyagi,1034,92,Tohoku
584204204e65fad6a77096ff,Matayamae,37.86041667,140.94375,37.375,141.375,50,70,250,Miyagi,1034,92,Tohoku
584204204e65fad6a77096fb,Motelshita,37.89375,140.9354167,37.375,141.375,50,75,255,Miyagi,1034,92,Tohoku
584204204e65fad6a77096e7,Nobiru,38.36041667,141.1645833,38.125,141.625,50,130,310,Miyagi,1034,92,Tohoku
584204204e65fad6a77096e8,Oomagari,38.37291667,141.1770833,38.125,141.625,50,135,315,Miyagi,1034,92,Tohoku
584204204e65fad6a77096eb,Sendai Shinko,38.26041667,141.0229167,38.125,141.625,50,135,315,Miyagi,1034,92,Tohoku
584204204e65fad6a77096e9,Shoubutahama,38.28958333,141.06875,38.125,141.625,50,180,0,Miyagi,1034,92,Tohoku
584204204e65fad6a7709700,Todai shita,37.82291667,140.9895833,37.375,141.375,50,95,275,Miyagi,1034,92,Tohoku
584204204e65fad6a77096e5,Toyomazawa,38.78125,141.5229167,38.875,141.875,50,60,240,Miyagi,1034,92,Tohoku
584204204e65fad6a77096f1,Yoshidahama,38.0294,140.9211,38.125,141.625,50,130,310,Miyagi,1034,92,Tohoku
584204204e65fad6a77096ed,Yuriage-Charimae,38.1672,140.9607,38.125,141.625,50,105,285,Miyagi,1034,92,Tohoku
584204204e65fad6a77096ee,Yuriage-Kako,38.17708333,140.9645833,38.125,141.625,50,115,295,Miyagi,1034,92,Tohoku
584204204e65fad6a7709923,Asari,35.04375,132.26875,35.125,132.125,10,335,155,Shimane,1093,90,Chugoku
5a1f3fdc9caa98001b09d0e5,Hamada Beach,34.95625,132.1229167,35.125,132.125,10,335,155,Shimane,1093,90,Chugoku
584204204e65fad6a7709806,Hane,35.24375,132.5229167,35.375,132.375,245,290,110,Shimane,1093,90,Chugoku
584204204e65fad6a7709808,Hashi,34.96458333,132.14375,35.125,132.125,10,340,160,Shimane,1093,90,Chugoku
584204204e65fad6a7709807,Inasanohama,35.40208333,132.66875,35.375,132.375,245,270,90,Shimane,1093,90,Chugoku
584204204e65fad6a7709809,Iwamikaihinkouen,34.95625,132.1229167,35.125,132.125,10,335,155,Shimane,1093,90,Chugoku
584204204e65fad6a7709921,Koura,35.52291667,132.96875,35.625,132.625,30,330,150,Shimane,1093,90,Chugoku
584204204e65fad6a7709805,Oda,35.28958333,132.61875,35.375,132.375,245,315,135,Shimane,1093,90,Chugoku
584204204e65fad6a770980c,Ootsuka,34.70208333,131.8229167,35.125,131.875,15,325,145,Shimane,1093,90,Chugoku
584204204e65fad6a770980a,Senjyou,34.93958333,132.1020833,35.125,131.875,15,340,160,Shimane,1093,90,Chugoku
584204204e65fad6a770980e,Takatsu,34.69791667,131.8104167,35.125,131.875,15,355,175,Shimane,1093,90,Chugoku
584204204e65fad6a770980b,Tsuda,34.72708333,131.8604167,35.125,131.875,15,330,150,Shimane,1093,90,Chugoku
584204204e65fad6a77097d7,Ataka No Seki,36.42291667,136.4145833,36.625,136.375,10,315,135,Ishikawa,1097,91,Chubu
584204204e65fad6a7709903,Gongenmori,36.67708333,136.6479167,36.625,136.375,10,315,135,Ishikawa,1097,91,Chubu
584204204e65fad6a7709905,Ikadaiura,36.66458333,136.6395833,36.625,136.375,10,305,125,Ishikawa,1097,91,Chubu
584204204e65fad6a77097d5,Kaneiwa,36.60208333,136.5854167,36.625,136.375,10,315,135,Ishikawa,1097,91,Chubu
584204204e65fad6a7709902,Marina,36.67291667,136.64375,36.625,136.375,10,310,130,Ishikawa,1097,91,Chubu
584204204e65fad6a7709904,Marina Ikesu,36.66875,136.6395833,36.625,136.375,10,300,120,Ishikawa,1097,91,Chubu
584204204e65fad6a77097ce,Masuhogaura,37.14791667,136.70625,36.875,136.375,355,225,45,Ishikawa,1097,91,Chubu
584204204e65fad6a77097d2,Mikawa,36.4911,136.4782,36.625,136.375,10,310,130,Ishikawa,1097,91,Chubu
584204204e65fad6a77097cd,Monzen,37.23125,136.7020833,37.375,136.625,250,240,60,Ishikawa,1097,91,Chubu
584204204e65fad6a7709906,Senkouji,36.59375,136.5770833,36.625,136.375,10,315,135,Ishikawa,1097,91,Chubu
584204204e65fad6a77097cf,Shibagaki,36.94791667,136.75625,37.125,136.625,350,290,110,Ishikawa,1097,91,Chubu
584204204e65fad6a77098fd,Shibagaki Gallerymae,36.95625,136.7604167,37.125,136.625,350,270,90,Ishikawa,1097,91,Chubu
584204204e65fad6a77098fe,Shibagaki Pensionmae,36.94791667,136.75625,37.125,136.625,350,290,110,Ishikawa,1097,91,Chubu
584204204e65fad6a77097d4,Shiosai,36.59375,136.5770833,36.625,136.375,10,315,135,Ishikawa,1097,91,Chubu
584204204e65fad6a77097d1,Taki,36.922,136.7607,36.875,136.375,355,270,90,Ishikawa,1097,91,Chubu
584204204e65fad6a7709900,Taki Marina,36.920606,136.759433,37.125,136.625,350,275,95,Ishikawa,1097,91,Chubu
584204204e65fad6a77098ff,Taki Reef,36.926438,136.748897,37.125,136.625,350,230,50,Ishikawa,1097,91,Chubu
584204204e65fad6a7709907,Tokumitsu,36.53958333,136.5270833,36.625,136.375,10,315,135,Ishikawa,1097,91,Chubu
584204204e65fad6a77097d3,Uchinada,36.6387,136.6167,36.625,136.375,10,310,130,Ishikawa,1097,91,Chubu
584204204e65fad6a770972b,Ayamemae,35.69791667,140.7020833,35.375,140.875,145,225,45,Chiba,200,129,Kanto
584204204e65fad6a770975a,Chikura,34.96458333,139.96875,34.875,140.125,145,90,270,Chiba,200,129,Kanto
584204204e65fad6a7709758,Chitose,34.99791667,139.9770833,34.875,140.125,145,110,290,Chiba,200,129,Kanto
584204204e65fad6a770975e,Familypark mae,34.93958333,139.8104167,34.875,139.625,145,210,30,Chiba,200,129,Kanto
584204204e65fad6a7709726,Gakeshita,35.71041667,140.8145833,35.375,140.875,145,190,10,Chiba,200,129,Kanto
584204204e65fad6a770974e,Grand Hotel Shita,35.11041667,140.1145833,34.875,140.125,145,125,305,Chiba,200,129,Kanto
584204204e65fad6a77098ec,Ground,35.65208333,140.5979167,35.375,140.875,145,135,315,Chiba,200,129,Kanto
584204204e65fad6a7709752,Hakashita,35.04375,140.0270833,34.875,140.125,145,145,325,Chiba,200,129,Kanto
584204204e65fad6a7709755,Hanakagomae,35.02291667,139.9979167,34.875,140.125,145,130,310,Chiba,200,129,Kanto
584204204e65fad6a7709724,Hasaki,35.75625,140.8354167,35.625,141.125,50,20,200,Chiba,200,129,Kanto
584204204e65fad6a770973e,Hasegawasou mae,35.27291667,140.40625,35.125,140.625,45,90,270,Chiba,200,129,Kanto
584204204e65fad6a7709747,Hebara,35.16458333,140.3395833,35.125,140.375,145,110,290,Chiba,200,129,Kanto
584204204e65fad6a77098f7,Hitotsumatsu,35.40625,140.3979167,35.125,140.625,45,115,295,Chiba,200,129,Kanto
584204204e65fad6a770975f,Hotel Accion Shita,34.94791667,139.7895833,34.875,139.625,145,215,35,Chiba,200,129,Kanto
584204204e65fad6a7709754,I's Mae,35.03958333,140.0229167,34.875,140.125,145,135,315,Chiba,200,129,Kanto
584204204e65fad6a7709736,Ichinomiya,35.38541667,140.3979167,35.125,140.625,45,85,265,Chiba,200,129,Kanto
584204204e65fad6a7709729,Iioka Kako,35.6987,140.6924,35.375,140.875,145,180,0,Chiba,200,129,Kanto
584204204e65fad6a770972a,Iiokasomae,35.69791667,140.7104167,35.375,140.875,145,195,15,Chiba,200,129,Kanto
584204204e65fad6a770975c,Ikoinomuramae,34.93541667,139.81875,34.875,139.625,145,245,65,Chiba,200,129,Kanto
584204204e65fad6a770973b,Isumi,35.28958333,140.40625,35.125,140.625,45,90,270,Chiba,200,129,Kanto
584204204e65fad6a770973c,Isumigawa kako,35.29375,140.4104167,35.125,140.625,45,120,300,Chiba,200,129,Kanto
584204204e65fad6a7709742,Iwawada,35.1808,140.3622,35.125,140.375,145,180,0,Chiba,200,129,Kanto
584204204e65fad6a770973d,Jinjyasita,35.27708333,140.40625,35.125,140.625,45,85,265,Chiba,200,129,Kanto
584204204e65fad6a770974b,Kameda byoin mae,35.1184,140.1272,34.875,140.125,145,145,325,Chiba,200,129,Kanto
584204204e65fad6a7709723,Kanekyu,35.76041667,140.83125,36.125,141.125,40,35,215,Chiba,200,129,Kanto
584204204e65fad6a770972e,Kanpomae,35.68125,140.6520833,35.375,140.875,145,145,325,Chiba,200,129,Kanto
584204204e65fad6a77098f2,Katagai Chuo,35.52708333,140.45625,35.125,140.625,45,135,315,Chiba,200,129,Kanto
584204204e65fad6a7709732,Katagai gyokou,35.532734,140.462291,35.125,140.625,45,125,305,Chiba,200,129,Kanto
584204204e65fad6a7709731,Katagai shintei,35.5295,140.4563,35.125,140.625,45,135,315,Chiba,200,129,Kanto
584204204e65fad6a7709750,Keio Mansion Shita,35.05625,140.05625,34.875,140.125,145,180,0,Chiba,200,129,Kanto
584204204e65fad6a7709725,Kimigahama,35.71458333,140.86875,35.625,141.125,50,130,310,Chiba,200,129,Kanto
584204204e65fad6a7709759,Kouminkan,35.0273,140.9987,35.125,140.875,45,315,135,Chiba,200,129,Kanto
584204204e65fad6a7709744,Kusoshita,35.16875,140.34375,35.125,140.375,145,160,340,Chiba,200,129,Kanto
584204204e65fad6a7709748,Malibu,35.14791667,140.30625,34.875,140.375,45,80,260,Chiba,200,129,Kanto
584204204e65fad6a7709727,Mansionshita,35.69791667,140.7104167,35.375,140.875,145,195,15,Chiba,200,129,Kanto
584204204e65fad6a770974a,Maruki,35.11875,140.1354167,34.875,140.125,145,150,330,Chiba,200,129,Kanto
584204204e65fad6a770974f,Massakigawakakoushita,35.10625,140.1104167,34.875,140.125,145,110,290,Chiba,200,129,Kanto
584204204e65fad6a770974c,Matsube,35.145,140.2959,34.875,140.375,45,210,30,Chiba,200,129,Kanto
584204204e65fad6a77098ee,Motosuka,35.549974,140.474957,35.375,140.875,145,125,305,Chiba,200,129,Kanto
584204204e65fad6a7709734,Nakasato/Shoumen,35.42708333,140.4020833,35.125,140.625,45,90,270,Chiba,200,129,Kanto
584204204e65fad6a77098f4,Nakazato,35.42708333,140.4020833,35.125,140.625,45,90,270,Chiba,200,129,Kanto
584204204e65fad6a770975d,Nanpara,34.93541667,139.81875,34.875,139.625,145,245,65,Chiba,200,129,Kanto
584204204e65fad6a77098f1,Notehama,35.648552,140.59056,35.375,140.875,145,155,335,Chiba,200,129,Kanto
584204204e65fad6a7709746,Obachan,35.16458333,140.3395833,35.125,140.625,45,110,290,Chiba,200,129,Kanto
584204204e65fad6a7709740,Ohara,35.26458333,140.4020833,35.125,140.625,45,75,255,Chiba,200,129,Kanto
584204204e65fad6a77098f6,Ohara Chusyajo Mae,35.02291667,139.9979167,34.875,140.125,145,130,310,Chiba,200,129,Kanto
584204204e65fad6a77090df,Onjuku Iwawada,35.181,140.363,35.125,140.375,145,180,0,Chiba,200,129,Kanto
584204204e65fad6a7709757,Oohara,35.02708333,140.0020833,34.875,140.125,145,145,325,Chiba,200,129,Kanto
584204204e65fad6a7709741,Ooharakakou,35.26041667,140.40625,35.125,140.625,45,90,270,Chiba,200,129,Kanto
584204204e65fad6a770973f,Panyashita,35.26458333,140.4020833,35.125,140.625,45,75,255,Chiba,200,129,Kanto
584204204e65fad6a770972c,Pipe shita,35.69791667,140.6895833,35.375,140.875,145,180,0,Chiba,200,129,Kanto
584204204e65fad6a7709753,Pokoshita,35.0475,140.0305,34.875,140.125,145,155,335,Chiba,200,129,Kanto
584204204e65fad6a770974d,Royal Hotel Shita,35.11458333,140.1229167,34.875,140.125,145,145,325,Chiba,200,129,Kanto
584204204e65fad6a7709730,Sakuta,35.5435,140.4684,35.375,140.875,145,125,305,Chiba,200,129,Kanto
584204204e65fad6a7709745,Sandra shita,35.171,140.3432,35.125,140.375,145,105,285,Chiba,200,129,Kanto
584204204e65fad6a77098ef,Seasaide Park,35.78958333,140.80625,35.625,141.125,50,45,225,Chiba,200,129,Kanto
584204204e65fad6a7709751,Seaside,35.10625,140.1104167,34.875,140.125,145,110,290,Chiba,200,129,Kanto
584204204e65fad6a77098f3,Seaside Otsuka,35.36458333,140.39375,35.125,140.625,45,105,285,Chiba,200,129,Kanto
584204204e65fad6a7709722,Sharihama,35.776264,140.812238,35.625,141.125,50,35,215,Chiba,200,129,Kanto
584204204e65fad6a7709739,Shidashita,35.33958333,140.3979167,35.375,140.875,145,50,230,Chiba,200,129,Kanto
584204204e65fad6a770972d,Shiinauchi-yasutaro mae,35.68958333,140.66875,35.375,140.875,145,160,340,Chiba,200,129,Kanto
584204204e65fad6a7709749,Shinga,35.16041667,140.3354167,34.875,140.375,45,125,305,Chiba,200,129,Kanto
584204204e65fad6a7709728,Shingoshita,35.69791667,140.7104167,35.375,140.875,145,195,15,Chiba,200,129,Kanto
584204204e65fad6a7709735,Shirako,35.44375,140.40625,35.125,140.625,45,110,290,Chiba,200,129,Kanto
584204204e65fad6a7709737,Sunrise,35.35625,140.3979167,35.125,140.625,45,45,225,Chiba,200,129,Kanto
584204204e65fad6a77090dd,Taito Beach,35.33541667,140.4020833,35.375,140.875,145,85,265,Chiba,200,129,Kanto
584204204e65fad6a770975b,Tomoe,34.92708333,139.8229167,34.875,139.625,145,245,65,Chiba,200,129,Kanto
584204204e65fad6a7709738,Torami,35.34791667,140.3979167,35.125,140.625,45,90,270,Chiba,200,129,Kanto
584204204e65fad6a7709733,Toyoumi,35.50625,140.4395833,35.125,140.625,45,125,305,Chiba,200,129,Kanto
584204204e65fad6a770972f,Yoshizakihama,35.66859,140.6182,35.375,140.875,145,140,320,Chiba,200,129,Kanto
584204204e65fad6a770987a,Azakou,30.67708333,131.0645833,30.375,131.125,65,140,320,Kagoshima,430,126,Kyushu
584204204e65fad6a770987a,Azakou,30.67708333,131.0645833,30.375,131.125,65,140,320,Kagoshima,1091,126,Kyushu
584204204e65fad6a7709888,Birabichi,28.39791667,129.64375,28.125,129.625,60,185,5,Kagoshima,430,126,Kyushu
584204204e65fad6a7709888,Birabichi,28.39791667,129.64375,28.125,129.625,60,185,5,Kagoshima,1091,126,Kyushu
584204204e65fad6a7709872,Bontan,31.90208333,130.21875,31.875,129.875,135,270,90,Kagoshima,430,126,Kyushu
584204204e65fad6a7709872,Bontan,31.90208333,130.21875,31.875,129.875,135,270,90,Kagoshima,1091,126,Kyushu
584204204e65fad6a7709879,Chinbotsu,30.76458333,131.0729167,30.875,131.375,70,80,260,Kagoshima,430,126,Kyushu
584204204e65fad6a7709879,Chinbotsu,30.76458333,131.0729167,30.875,131.375,70,80,260,Kagoshima,1091,126,Kyushu
584204204e65fad6a7709871,Eguchihama,31.64375,130.31875,31.625,130.125,130,250,70,Kagoshima,430,126,Kyushu
584204204e65fad6a7709871,Eguchihama,31.64375,130.31875,31.625,130.125,130,250,70,Kagoshima,1091,126,Kyushu
584204204e65fad6a77098a3,Gamou,28.5009,129.6448,28.625,129.625,60,255,75,Kagoshima,430,126,Kyushu
584204204e65fad6a77098a3,Gamou,28.5009,129.6448,28.625,129.625,60,255,75,Kagoshima,1091,126,Kyushu
584204204e65fad6a7709899,Gongen,28.472,129.6242,28.625,129.625,60,50,230,Kagoshima,430,126,Kyushu
584204204e65fad6a7709899,Gongen,28.472,129.6242,28.625,129.625,60,50,230,Kagoshima,1091,126,Kyushu
584204204e65fad6a770988b,Gusuku,28.29375,129.46875,28.125,129.625,60,160,340,Kagoshima,430,126,Kyushu
584204204e65fad6a770988b,Gusuku,28.29375,129.46875,28.125,129.625,60,160,340,Kagoshima,1091,126,Kyushu
584204204e65fad6a7709898,Hatohama,28.40208333,129.50625,28.625,129.375,60,0,180,Kagoshima,430,126,Kyushu
584204204e65fad6a7709898,Hatohama,28.40208333,129.50625,28.625,129.375,60,0,180,Kagoshima,1091,126,Kyushu
584204204e65fad6a770988d,Hienhama,28.34791667,129.3104167,28.375,129.125,60,340,160,Kagoshima,430,126,Kyushu
584204204e65fad6a770988d,Hienhama,28.34791667,129.3104167,28.375,129.125,60,340,160,Kagoshima,1091,126,Kyushu
584204204e65fad6a7709877,Hishidagawa,31.442853,131.056809,31.125,131.375,70,145,325,Kagoshima,430,126,Kyushu
584204204e65fad6a7709877,Hishidagawa,31.442853,131.056809,31.125,131.375,70,145,325,Kagoshima,1091,126,Kyushu
584204204e65fad6a7709976,Hotelmae,30.37291667,130.9479167,30.125,130.875,65,195,15,Kagoshima,430,126,Kyushu
584204204e65fad6a7709976,Hotelmae,30.37291667,130.9479167,30.125,130.875,65,195,15,Kagoshima,1091,126,Kyushu
584204204e65fad6a770987b,Hungry,30.64791667,131.05625,30.625,131.375,65,95,275,Kagoshima,430,126,Kyushu
584204204e65fad6a770987b,Hungry,30.64791667,131.05625,30.625,131.375,65,95,275,Kagoshima,1091,126,Kyushu
584204204e65fad6a770987d,Injyo,30.58541667,131.0354167,30.375,131.125,65,130,310,Kagoshima,430,126,Kyushu
584204204e65fad6a770987d,Injyo,30.58541667,131.0354167,30.375,131.125,65,130,310,Kagoshima,1091,126,Kyushu
584204204e65fad6a7709876,Irino,31.20208333,130.5104167,31.125,130.375,100,235,55,Kagoshima,430,126,Kyushu
584204204e65fad6a7709876,Irino,31.20208333,130.5104167,31.125,130.375,100,235,55,Kagoshima,1091,126,Kyushu
584204204e65fad6a770987c,Kanehama,30.65208333,131.05625,30.625,131.375,65,85,265,Kagoshima,430,126,Kyushu
584204204e65fad6a770987c,Kanehama,30.65208333,131.05625,30.625,131.375,65,85,265,Kagoshima,1091,126,Kyushu
584204204e65fad6a770988a,Katoku,28.18541667,129.40625,27.875,129.625,60,0,180,Kagoshima,430,126,Kyushu
584204204e65fad6a770988a,Katoku,28.18541667,129.40625,27.875,129.625,60,0,180,Kagoshima,1091,126,Kyushu
584204204e65fad6a7709878,Kazamoto,30.68125,131.06875,30.625,131.375,65,125,305,Kagoshima,430,126,Kyushu
584204204e65fad6a7709878,Kazamoto,30.68125,131.06875,30.625,131.375,65,125,305,Kagoshima,1091,126,Kyushu
584204204e65fad6a7709883,Nagahama,30.55208333,130.93125,30.625,130.625,70,295,115,Kagoshima,430,126,Kyushu
584204204e65fad6a7709883,Nagahama,30.55208333,130.93125,30.625,130.625,70,295,115,Kagoshima,1091,126,Kyushu
584204204e65fad6a7709880,Nakayama,30.53958333,131.0020833,30.375,131.125,65,130,310,Kagoshima,430,126,Kyushu
584204204e65fad6a7709880,Nakayama,30.53958333,131.0020833,30.375,131.125,65,130,310,Kagoshima,1091,126,Kyushu
584204204e65fad6a770986f,Nishikata,31.91041667,130.2229167,31.875,129.875,135,295,115,Kagoshima,430,126,Kyushu
584204204e65fad6a770986f,Nishikata,31.91041667,130.2229167,31.875,129.875,135,295,115,Kagoshima,1091,126,Kyushu
584204204e65fad6a7709874,Oniguchi,31.21875,130.4979167,31.125,130.375,100,235,55,Kagoshima,430,126,Kyushu
584204204e65fad6a7709874,Oniguchi,31.21875,130.4979167,31.125,130.375,100,235,55,Kagoshima,1091,126,Kyushu
584204204e65fad6a770988f,Oohamakaihinkouen,28.4038,129.4529,28.625,129.375,60,335,155,Kagoshima,430,126,Kyushu
584204204e65fad6a770988f,Oohamakaihinkouen,28.4038,129.4529,28.625,129.375,60,335,155,Kagoshima,1091,126,Kyushu
584204204e65fad6a770986e,Origuchi,32.06458333,130.20625,32.125,129.875,350,220,40,Kagoshima,430,126,Kyushu
584204204e65fad6a770986e,Origuchi,32.06458333,130.20625,32.125,129.875,350,220,40,Kagoshima,1091,126,Kyushu
584204204e65fad6a770987e,Rock,30.64791667,131.05625,30.625,131.375,65,95,275,Kagoshima,430,126,Kyushu
584204204e65fad6a770987e,Rock,30.64791667,131.05625,30.625,131.375,65,95,275,Kagoshima,1091,126,Kyushu
584204204e65fad6a7709885,Sumiyoshi,30.66041667,130.9395833,30.875,130.875,70,280,100,Kagoshima,430,126,Kyushu
584204204e65fad6a7709885,Sumiyoshi,30.66041667,130.9395833,30.875,130.875,70,280,100,Kagoshima,1091,126,Kyushu
584204204e65fad6a7709881,Takezaki,30.37291667,130.9479167,30.125,130.875,65,195,15,Kagoshima,430,126,Kyushu
584204204e65fad6a7709881,Takezaki,30.37291667,130.9479167,30.125,130.875,65,195,15,Kagoshima,1091,126,Kyushu
584204204e65fad6a7709889,Tebiro,28.39791667,129.6229167,28.125,129.625,60,130,310,Kagoshima,430,126,Kyushu
584204204e65fad6a7709889,Tebiro,28.39791667,129.6229167,28.125,129.625,60,130,310,Kagoshima,1091,126,Kyushu
584204204e65fad6a7709873,Terushima,31.70208333,130.2770833,31.625,130.125,130,235,55,Kagoshima,430,126,Kyushu
584204204e65fad6a7709873,Terushima,31.70208333,130.2770833,31.625,130.125,130,235,55,Kagoshima,1091,126,Kyushu
584204204e65fad6a770987f,Toudaishita,30.37708333,130.96875,30.375,131.125,65,135,315,Kagoshima,430,126,Kyushu
584204204e65fad6a770987f,Toudaishita,30.37708333,130.96875,30.375,131.125,65,135,315,Kagoshima,1091,126,Kyushu
584204204e65fad6a7709887,Villa Reef,28.40208333,129.6270833,28.125,129.625,60,200,20,Kagoshima,430,126,Kyushu
584204204e65fad6a7709887,Villa Reef,28.40208333,129.6270833,28.125,129.625,60,200,20,Kagoshima,1091,126,Kyushu
584204204e65fad6a7709870,Wakimoto,32.07291667,130.1979167,31.875,129.875,135,200,20,Kagoshima,430,126,Kyushu
584204204e65fad6a7709870,Wakimoto,32.07291667,130.1979167,31.875,129.875,135,200,20,Kagoshima,1091,126,Kyushu
584204204e65fad6a770988e,Yagishima,28.4009,129.5059,28.625,129.375,60,290,110,Kagoshima,430,126,Kyushu
584204204e65fad6a770988e,Yagishima,28.4009,129.5059,28.625,129.375,60,290,110,Kagoshima,1091,126,Kyushu
584204204e65fad6a7709884,Yakutsu,30.50625,130.9020833,30.625,130.625,70,325,145,Kagoshima,430,126,Kyushu
584204204e65fad6a7709884,Yakutsu,30.50625,130.9020833,30.625,130.625,70,325,145,Kagoshima,1091,126,Kyushu
584204204e65fad6a7709886,Yokino,30.69375,130.95625,30.875,130.875,70,315,135,Kagoshima,430,126,Kyushu
584204204e65fad6a7709886,Yokino,30.69375,130.95625,30.875,130.875,70,315,135,Kagoshima,1091,126,Kyushu
584204204e65fad6a770978a,Banyu,35.3142,139.3759,35.125,139.375,145,180,0,Kanagawa,433,129,Kanto
584204204e65fad6a770977f,Chipar,35.31458333,139.4229167,35.125,139.375,145,185,5,Kanagawa,433,129,Kanto
584204204e65fad6a77090db,Chisan - Shonan,35.31458333,139.43125,35.125,139.375,145,180,0,Kanagawa,433,129,Kanto
584204204e65fad6a770977c,Daini chushajo mae,35.31458333,139.44375,35.125,139.375,145,180,0,Kanagawa,433,129,Kanto
584204204e65fad6a7709772,Dairoku,35.30208333,139.4770833,35.125,139.375,145,210,30,Kanagawa,433,129,Kanto
584204204e65fad6a7709776,Funamae,35.31576,139.4622,35.125,139.375,145,215,35,Kanagawa,433,129,Kanto
584204204e65fad6a7709793,Genji,35.30794,139.3192,35.125,139.375,145,160,340,Kanagawa,433,129,Kanto
584204204e65fad6a7709768,Henoji,35.3036,139.5127,35.125,139.625,145,200,20,Kanagawa,433,129,Kanto
584204204e65fad6a7709766,Ianmuragasaki,35.3028,139.522,35.125,139.625,145,135,315,Kanagawa,433,129,Kanto
584204204e65fad6a770976e,Ipponmatsu,35.30474,139.4945,35.125,139.375,145,165,345,Kanagawa,433,129,Kanto
584204204e65fad6a7709790,Isokoumae,35.30625,139.3270833,35.125,139.375,145,175,355,Kanagawa,433,129,Kanto
584204214e65fad6a7709ccd,Jyougashimaoki,35.091,139.54,35.125,139.625,145,30,210,Kanagawa,433,129,Kanto
584204204e65fad6a7709788,Kabocha,35.31611,139.399,35.125,139.375,145,180,0,Kanagawa,433,129,Kanto
584204204e65fad6a7709761,Kabune,35.2937,139.5529,35.125,139.375,145,215,35,Kanagawa,433,129,Kanto
584204204e65fad6a770976d,Keifuen mae,35.30602,139.4978,35.125,139.375,145,160,340,Kanagawa,433,129,Kanto
584204204e65fad6a7709aff,Koiso,35.29,139.557,35.125,139.375,145,305,125,Kanagawa,433,129,Kanto
584204204e65fad6a770976b,Kojiki,35.30551,139.5027,35.125,139.625,145,175,355,Kanagawa,433,129,Kanto
584204204e65fad6a770976f,Koshigoe gyoko,35.30208333,139.49375,35.125,139.375,145,165,345,Kanagawa,433,129,Kanto
584204204e65fad6a770977d,Kusoshita,35.31458333,139.4354167,35.125,139.375,145,170,350,Kanagawa,433,129,Kanto
584204204e65fad6a7709778,Matsunami chikado mae,35.31458333,139.4604167,35.125,139.375,145,215,35,Kanagawa,433,129,Kanto
584204204e65fad6a7709773,McDonalds mae,35.31041667,139.46875,35.125,139.375,145,200,20,Kanagawa,433,129,Kanto
584204204e65fad6a770976a,Minegahara,35.3052,139.5057,35.125,139.625,145,165,345,Kanagawa,433,129,Kanto
584204204e65fad6a770978c,Namakon,35.31429,139.3603,35.125,139.375,145,180,0,Kanagawa,433,129,Kanto
584204204e65fad6a770978e,Nijigahama,35.31336,139.3405,35.125,139.375,145,175,355,Kanagawa,433,129,Kanto
584204204e65fad6a7709787,Nishihama,35.31567,139.3894,35.125,139.375,145,180,0,Kanagawa,433,129,Kanto
584204204e65fad6a77098f5,Odawara,35.24299,139.17635,35.125,139.375,145,160,340,Kanagawa,433,129,Kanto
584204204e65fad6a7709791,Ooiso,35.30625,139.3229167,35.125,139.375,145,170,350,Kanagawa,433,129,Kanto
584204204e65fad6a7709760,Osaki,35.29,139.557,35.125,139.375,145,305,125,Kanagawa,433,129,Kanto
584204204e65fad6a7709780,Park,35.31458333,139.41875,35.125,139.375,145,175,355,Kanagawa,433,129,Kanto
584204204e65fad6a770978b,Pool shita,35.31385,139.346,35.125,139.375,145,195,15,Kanagawa,433,129,Kanto
584204204e65fad6a7709769,Roa,35.3047,139.5097,35.125,139.625,145,210,30,Kanagawa,433,129,Kanto
584204204e65fad6a7709771,Shinsuizokukanmae,35.30625,139.4729167,35.125,139.375,145,215,35,Kanagawa,433,129,Kanto
584204204e65fad6a7709784,Shirakaba,35.31458333,139.40625,35.125,139.375,145,175,355,Kanagawa,433,129,Kanto
584204204e65fad6a7709786,Shop shita,35.31458333,139.4020833,35.125,139.375,145,180,0,Kanagawa,433,129,Kanto
584204204e65fad6a7709783,Shoumen,35.31458333,139.40625,35.125,139.375,145,175,355,Kanagawa,433,129,Kanto
584204204e65fad6a770977a,Shoyouchu mae,35.31458333,139.45625,35.125,139.375,145,180,0,Kanagawa,433,129,Kanto
584204204e65fad6a7709777,Skatepark mae,35.31458333,139.4645833,35.125,139.375,145,220,40,Kanagawa,433,129,Kanto
584204204e65fad6a770978d,Sodegahama,35.31395,139.3496,35.125,139.375,145,200,20,Kanagawa,433,129,Kanto
584204204e65fad6a7709782,T-Bar hidari,35.31563,139.415,35.125,139.375,145,180,0,Kanagawa,433,129,Kanto
584204204e65fad6a7709762,Tamaishi,35.2996,139.5502,35.125,139.375,145,200,20,Kanagawa,433,129,Kanto
584204204e65fad6a770978f,Togahara,35.31041667,139.33125,35.125,139.375,145,160,340,Kanagawa,433,129,Kanto
584204204e65fad6a770977b,Tsujido hashishita,35.31458333,139.4479167,35.125,139.375,145,195,15,Kanagawa,433,129,Kanto
584204204e65fad6a7709779,Tsujido shomen,35.31458333,139.4520833,35.125,139.375,145,205,25,Kanagawa,433,129,Kanto
584204204e65fad6a7709765,Ubagaya,35.3029,139.518,35.125,139.625,145,185,5,Kanagawa,433,129,Kanto
584204204e65fad6a7709781,Ura park,35.31585,139.4132,35.125,139.375,145,180,0,Kanagawa,433,129,Kanto
584204204e65fad6a7709789,Yanagishima,35.31551,139.3841,35.125,139.375,145,180,0,Kanagawa,433,129,Kanto
584204204e65fad6a77090e0,Yoshihama,35.147,139.12,35.125,139.375,145,125,305,Kanagawa,433,129,Kanto
584204204e65fad6a7709785,Youth Hostel Mae,35.31458333,139.4020833,35.125,139.375,145,180,0,Kanagawa,433,129,Kanto
5842041f4e65fad6a7708d95,Yuigahama - Shonan,35.30625,139.5479167,35.125,139.375,145,180,0,Kanagawa,433,129,Kanto
584204204e65fad6a7709763,Zaimokuza,35.30208333,139.5520833,35.125,139.375,145,220,40,Kanagawa,433,129,Kanto
584204204e65fad6a77097e3,Bikonshita,35.63958333,135.9770833,35.875,135.625,360,340,160,Fukui,1060,91,Chubu
584204204e65fad6a77097df,Chanman,35.64375,135.9770833,35.875,135.625,360,315,135,Fukui,1060,91,Chubu
584204204e65fad6a77097dc,Era,35.70625,136.0770833,36.125,135.875,355,305,125,Fukui,1060,91,Chubu
584204204e65fad6a77097e0,Fukui/Takahama,35.49375,135.54375,35.875,135.625,360,20,200,Fukui,1060,91,Chubu
584204204e65fad6a770990e,Katano,36.32708333,136.2770833,36.375,136.125,270,310,130,Fukui,1060,91,Chubu
584204204e65fad6a77097e2,Kurosaki,35.63541667,135.95625,35.875,135.875,350,330,150,Fukui,1060,91,Chubu
584204204e65fad6a77097d9,Mikuni,36.22291667,136.13125,36.125,135.875,355,270,90,Fukui,1060,91,Chubu
584204204e65fad6a77097de,Nobiru,35.65625,135.9645833,35.875,135.875,350,290,110,Fukui,1060,91,Chubu
584204204e65fad6a77097d6,Oshima,36.2511,136.1153,36.375,136.125,270,260,80,Fukui,1060,91,Chubu
584204204e65fad6a77097e1,Rainbow,35.62291667,135.9104167,35.875,135.875,350,20,200,Fukui,1060,91,Chubu
584204204e65fad6a7709909,Shioya,36.303263,136.252313,36.375,136.125,270,330,150,Fukui,1060,91,Chubu
584204204e65fad6a77097db,Suishouhama,35.68958333,135.9729167,35.875,135.625,360,290,110,Fukui,1060,91,Chubu
584204204e65fad6a77097da,Takasu/Itsuki,36.13958333,136.0729167,36.125,135.875,355,275,95,Fukui,1060,91,Chubu
584204204e65fad6a77097d8,Takasu/Shinkou,36.15625,136.0895833,36.125,135.875,355,310,130,Fukui,1060,91,Chubu
584204204e65fad6a77090ea,Toriihama,35.49375,135.5604167,35.875,135.625,360,5,185,Fukui,1060,91,Chubu
584204204e65fad6a77097e5,Wada,35.49375,135.56875,35.875,135.625,360,15,195,Fukui,1060,91,Chubu
584204204e65fad6a77097dd,Zundachi,35.65208333,135.96875,35.875,135.625,360,230,50,Fukui,1060,91,Chubu
584204204e65fad6a7709814,Center,34.41875,131.03125,34.625,130.875,25,350,170,Yamaguchi,1092,90,Chugoku
584204204e65fad6a7709816,Chanzu,34.41875,131.0145833,34.625,130.875,25,350,170,Yamaguchi,1092,90,Chugoku
584204204e65fad6a770981b,Doigahama,34.30625,130.88125,34.625,130.875,25,305,125,Yamaguchi,1092,90,Chugoku
584204204e65fad6a770981c,Futami,34.24791667,130.90625,34.625,130.375,220,245,65,Yamaguchi,1092,90,Chugoku
584204204e65fad6a7709813,Gakeshita,34.41458333,131.0395833,34.625,130.875,25,345,165,Yamaguchi,1092,90,Chugoku
584204204e65fad6a7709819,Iruka,34.40625,130.95625,34.625,130.875,25,190,10,Yamaguchi,1092,90,Chugoku
584204204e65fad6a7709818,Katsunohama,34.41458333,130.95625,34.625,130.875,25,335,155,Yamaguchi,1092,90,Chugoku
584204204e65fad6a770980d,Kiwado,34.38541667,131.1479167,35.125,131.375,30,355,175,Yamaguchi,1092,90,Chugoku
584204204e65fad6a7709817,Kohama,34.42291667,131.00625,34.875,131.125,30,50,230,Yamaguchi,1092,90,Chugoku
584204204e65fad6a7709811,Niinohama,34.41458333,131.1104167,34.875,131.125,30,335,155,Yamaguchi,1092,90,Chugoku
584204204e65fad6a770980f,Ooi,34.47708333,131.4354167,34.875,131.125,30,300,120,Yamaguchi,1092,90,Chugoku
584204204e65fad6a770981a,Shimado,34.35625,130.89375,34.625,130.875,25,5,185,Yamaguchi,1092,90,Chugoku
584204204e65fad6a7709812,Tateishi,34.41458333,131.04375,34.625,130.875,25,25,205,Yamaguchi,1092,90,Chugoku
584204204e65fad6a770992c,Tonzu,34.41875,131.0104167,34.875,131.125,30,60,240,Yamaguchi,1092,90,Chugoku
584204204e65fad6a770992d,Tsunoshima,34.36041667,130.85625,34.625,130.875,25,280,100,Yamaguchi,1092,90,Chugoku
584204204e65fad6a7709815,Yamaguchi/Oohama,34.41875,131.0104167,34.875,131.125,30,60,240,Yamaguchi,1092,90,Chugoku
584204204e65fad6a7709853,Chijiwa,32.7864,130.1894,32.375,129.875,345,225,45,Nagasaki,1087,126,Kyushu
584204204e65fad6a7709850,Kounoura,32.87708333,129.6770833,32.625,129.625,190,260,80,Nagasaki,1087,126,Kyushu
584204204e65fad6a7709851,Kurosaki,32.83125,129.7104167,32.625,129.625,190,200,20,Nagasaki,1087,126,Kyushu
584204204e65fad6a7709854,Minamikushi,32.67708333,130.1270833,32.375,129.875,345,295,115,Nagasaki,1087,126,Kyushu
584204204e65fad6a7709852,Wakimisaki,32.57708333,129.7729167,32.375,129.625,190,230,50,Nagasaki,1087,126,Kyushu
584204204e65fad6a77097ad,Chikin,34.63125,137.2854167,34.375,137.375,140,165,345,Aichi,431,91,Chubu
584204204e65fad6a77097ae,Dodo,34.63541667,137.3104167,34.375,137.375,140,150,330,Aichi,431,91,Chubu
584204204e65fad6a77097b6,Horikiri,34.587,137.0763,34.375,137.125,140,185,5,Aichi,431,91,Chubu
584204204e65fad6a77097aa,Ikobe,34.6594,137.4004,34.625,137.625,145,165,345,Aichi,431,91,Chubu
584204204e65fad6a77097b9,Irago sentan,34.5832,137.0178,34.375,137.125,140,25,205,Aichi,431,91,Chubu
584204204e65fad6a77097b7,Koijigahama,34.58,137.025,34.375,137.125,140,285,105,Aichi,431,91,Chubu
584204204e65fad6a77097a9,Kumihara,34.64375,137.3354167,34.375,137.375,140,155,335,Aichi,431,91,Chubu
584204204e65fad6a77097b1,Loko,34.6044,137.1921,34.375,137.125,140,180,0,Aichi,431,91,Chubu
584204204e65fad6a77097b3,Longbeach,34.61458333,137.21875,34.375,137.125,140,155,335,Aichi,431,91,Chubu
584204204e65fad6a77097b2,Minato-teibo migi,34.604278,137.18678,34.375,137.125,140,170,350,Aichi,431,91,Chubu
584204204e65fad6a77097b0,Mirror,34.61458333,137.23125,34.375,137.125,140,140,320,Aichi,431,91,Chubu
584204204e65fad6a77097ab,Mutsuren,34.63958333,137.3270833,34.375,137.375,140,165,345,Aichi,431,91,Chubu
584204204e65fad6a77097af,Sarimano,34.61875,137.2395833,34.375,137.125,140,150,330,Aichi,431,91,Chubu
584204204e65fad6a77097b8,Sarimira,34.6185,137.2373,34.375,137.125,140,175,355,Aichi,431,91,Chubu
584204204e65fad6a77097ba,Sekimon,34.5802,137.0444,34.375,137.125,140,180,0,Aichi,431,91,Chubu
584204204e65fad6a77097b5,Shinnihon,34.59791667,137.1729167,34.375,137.125,140,145,325,Aichi,431,91,Chubu
584204204e65fad6a77097ac,Tanpopo,34.63125,137.29375,34.375,137.375,140,180,0,Aichi,431,91,Chubu
584204204e65fad6a77097b4,Zennihon,34.6014,137.1769,34.375,137.125,140,160,340,Aichi,431,91,Chubu
584204204e65fad6a77098d0,Esan Park,41.78541667,141.1229167,41.625,141.375,80,165,345,Hokkaido,1100,89,Hokkaido
584204204e65fad6a77096e1,Kadonohama,41.75208333,140.7270833,41.625,140.875,230,120,300,Hokkaido,1100,89,Hokkaido
584204204e65fad6a77096df,Senmaru,41.75208333,140.7270833,41.625,140.875,230,120,300,Hokkaido,1100,89,Hokkaido
584204204e65fad6a77098d5,Sumiyoshigyoko,41.75208333,140.7270833,41.625,140.875,230,120,300,Hokkaido,1100,89,Hokkaido
584204204e65fad6a77096e2,Yonezaki,41.75208333,140.7270833,41.625,140.875,230,120,300,Hokkaido,1100,89,Hokkaido
584204204e65fad6a77098cc,Shikatty,42.62708333,141.6729167,42.375,141.625,150,185,5,Hokkaido,1100,89,Hokkaido
584204204e65fad6a77096ca,Shiraoi,42.5288,141.326133,42.375,141.375,130,155,335,Hokkaido,1100,89,Hokkaido
584204204e65fad6a77098cb,Yasosuke,43.42291667,141.4229167,43.625,140.875,20,280,100,Hokkaido,1100,89,Hokkaido
584204204e65fad6a77098fc,Fushiki,36.81041667,137.0520833,37.125,137.375,5,40,220,Toyama,1098,91,Chubu
584204204e65fad6a77097c8,Goutsujyouganjikakou,36.7579,137.2932,37.125,137.375,5,355,175,Toyama,1098,91,Chubu
584204204e65fad6a77097c9,Iwasehama,36.76875,137.2395833,37.125,137.375,5,15,195,Toyama,1098,91,Chubu
584204204e65fad6a77098fb,Kourai,36.76237,137.294126,37.125,137.375,5,35,215,Toyama,1098,91,Chubu
584204204e65fad6a77097cc,Shougawakakou,36.7901,137.0813,37.125,137.375,5,5,185,Toyama,1098,91,Chubu
584204204e65fad6a77097ca,Sunbeach,36.76458333,137.26875,37.125,137.375,5,0,180,Toyama,1098,91,Chubu
584204204e65fad6a77097e6,Hacchouhama,35.69375,135.0270833,35.875,135.125,20,15,195,Kyoto,1095,128,Kansai
584204204e65fad6a7709910,Hei,35.76041667,135.1604167,35.875,135.125,20,325,145,Kyoto,1095,128,Kansai
584204204e65fad6a77097e9,Kotobikihama,35.70208333,135.0354167,35.875,135.125,20,330,150,Kyoto,1095,128,Kansai
584204204e65fad6a77097e8,Nabae,35.50625,135.51875,35.875,135.875,350,95,275,Kyoto,1095,128,Kansai
584204204e65fad6a7709913,Hakoishi,35.65625,134.9395833,35.875,134.875,20,345,165,Hyogo,1096,128,Kansai
584204204e65fad6a7709912,Hamazume,35.66875,134.9645833,35.875,134.875,20,315,135,Hyogo,1096,128,Kansai
584204204e65fad6a7709914,Hamazume Kako,35.66458333,134.9604167,35.875,134.875,20,300,120,Hyogo,1096,128,Kansai
584204204e65fad6a7709916,Kazuranohama,35.64791667,134.91875,35.875,134.875,20,65,245,Hyogo,1096,128,Kansai
584204204e65fad6a7709915,Shoutenkyou,35.647044,134.905393,35.875,134.875,20,345,165,Hyogo,1096,128,Kansai
584204204e65fad6a77098df,Hamanaka,38.83125,139.7729167,38.875,139.625,260,295,115,Yamagata,1079,92,Tohoku
584204204e65fad6a77098df,Hamanaka,38.83125,139.7729167,38.875,139.625,260,295,115,Yamagata,1080,92,Tohoku
584204204e65fad6a77096f9,Kosagawa,39.13541667,139.8770833,39.125,139.625,245,320,140,Yamagata,1079,92,Tohoku
584204204e65fad6a77096f9,Kosagawa,39.13541667,139.8770833,39.125,139.625,245,320,140,Yamagata,1080,92,Tohoku
584204204e65fad6a77098dd,Miyanoura,38.90625,139.8020833,38.875,139.625,260,290,110,Yamagata,1079,92,Tohoku
584204204e65fad6a77098dd,Miyanoura,38.90625,139.8020833,38.875,139.625,260,290,110,Yamagata,1080,92,Tohoku
584204204e65fad6a77096f7,Nishime,39.34791667,139.99375,39.375,139.875,245,295,115,Yamagata,1079,92,Tohoku
584204204e65fad6a77096f7,Nishime,39.34791667,139.99375,39.375,139.875,245,295,115,Yamagata,1080,92,Tohoku
584204204e65fad6a77096f8,Ryozenji,39.30625,139.96875,39.375,139.875,245,300,120,Yamagata,1079,92,Tohoku
584204204e65fad6a77096f8,Ryozenji,39.30625,139.96875,39.375,139.875,245,300,120,Yamagata,1080,92,Tohoku
584204204e65fad6a77096fc,Yunohama/Kaizanmae,38.78125,139.74375,38.875,139.625,260,305,125,Yamagata,1079,92,Tohoku
584204204e65fad6a77096fc,Yunohama/Kaizanmae,38.78125,139.74375,38.875,139.625,260,305,125,Yamagata,1080,92,Tohoku
584204204e65fad6a7709838,Hatsugyokou,33.88541667,130.5729167,34.625,130.625,30,15,195,Fukuoka,356,126,Kyushu
584204204e65fad6a7709838,Hatsugyokou,33.88541667,130.5729167,34.625,130.625,30,15,195,Fukuoka,1085,126,Kyushu
584204204e65fad6a7709840,Hutamigaura,33.64375,130.1979167,34.125,129.625,205,320,140,Fukuoka,356,126,Kyushu
584204204e65fad6a7709840,Hutamigaura,33.64375,130.1979167,34.125,129.625,205,320,140,Fukuoka,1085,126,Kyushu
584204204e65fad6a7709836,Iwaya,33.92708333,130.68125,34.625,130.625,30,270,90,Fukuoka,356,126,Kyushu
584204204e65fad6a7709836,Iwaya,33.92708333,130.68125,34.625,130.625,30,270,90,Fukuoka,1085,126,Kyushu
584204204e65fad6a770983a,Kanezaki,33.88958333,130.5354167,34.625,130.625,30,15,195,Fukuoka,356,126,Kyushu
584204204e65fad6a770983a,Kanezaki,33.88958333,130.5354167,34.625,130.625,30,15,195,Fukuoka,1085,126,Kyushu
584204204e65fad6a7709845,Keya,33.59375,130.1270833,34.125,129.625,205,345,165,Fukuoka,356,126,Kyushu
584204204e65fad6a7709845,Keya,33.59375,130.1270833,34.125,129.625,205,345,165,Fukuoka,1085,126,Kyushu
584204204e65fad6a7709843,Mashouji,33.63125,130.1729167,34.125,129.625,205,345,165,Fukuoka,356,126,Kyushu
584204204e65fad6a7709843,Mashouji,33.63125,130.1729167,34.125,129.625,205,345,165,Fukuoka,1085,126,Kyushu
584204204e65fad6a770983d,Mitoma,33.70625,130.4145833,34.375,129.875,210,315,135,Fukuoka,356,126,Kyushu
584204204e65fad6a770983d,Mitoma,33.70625,130.4145833,34.375,129.875,210,315,135,Fukuoka,1085,126,Kyushu
584204204e65fad6a7709841,Nishinoura,33.64791667,130.2020833,34.125,129.625,205,305,125,Fukuoka,356,126,Kyushu
584204204e65fad6a7709841,Nishinoura,33.64791667,130.2020833,34.125,129.625,205,305,125,Fukuoka,1085,126,Kyushu
584204204e65fad6a7709844,Nokita,33.61041667,130.15625,34.125,129.625,205,255,75,Fukuoka,356,126,Kyushu
584204204e65fad6a7709844,Nokita,33.61041667,130.15625,34.125,129.625,205,255,75,Fukuoka,1085,126,Kyushu
584204204e65fad6a7709842,Ooguchi,33.63541667,130.1854167,34.125,129.625,205,320,140,Fukuoka,356,126,Kyushu
584204204e65fad6a7709842,Ooguchi,33.63541667,130.1854167,34.125,129.625,205,320,140,Fukuoka,1085,126,Kyushu
584204204e65fad6a7709834,Same,33.91875,130.66875,34.625,130.625,30,300,120,Fukuoka,356,126,Kyushu
584204204e65fad6a7709834,Same,33.91875,130.66875,34.625,130.625,30,300,120,Fukuoka,1085,126,Kyushu
584204204e65fad6a7709837,Satsukimatsubara,33.86041667,130.5104167,34.625,130.625,30,350,170,Fukuoka,356,126,Kyushu
584204204e65fad6a7709837,Satsukimatsubara,33.86041667,130.5104167,34.625,130.625,30,350,170,Fukuoka,1085,126,Kyushu
584204204e65fad6a770983e,Shigashimabichi,33.66458333,130.34375,34.375,129.875,210,265,85,Fukuoka,356,126,Kyushu
584204204e65fad6a770983e,Shigashimabichi,33.66458333,130.34375,34.375,129.875,210,265,85,Fukuoka,1085,126,Kyushu
584204204e65fad6a770983f,Shigashimalifu,33.66875,130.31875,34.125,129.625,205,20,200,Fukuoka,356,126,Kyushu
584204204e65fad6a770983f,Shigashimalifu,33.66875,130.31875,34.125,129.625,205,20,200,Fukuoka,1085,126,Kyushu
584204204e65fad6a770983c,Shingu,33.71875,130.43125,34.375,129.875,210,355,175,Fukuoka,356,126,Kyushu
584204204e65fad6a770983c,Shingu,33.71875,130.43125,34.375,129.875,210,355,175,Fukuoka,1085,126,Kyushu
584204204e65fad6a7709835,Sioirigawakakou,33.88125,130.6020833,34.625,130.625,30,10,190,Fukuoka,356,126,Kyushu
584204204e65fad6a7709835,Sioirigawakakou,33.88125,130.6020833,34.625,130.625,30,10,190,Fukuoka,1085,126,Kyushu
584204204e65fad6a7709839,Tsurikawakakou,33.85625,130.4979167,34.625,130.375,220,340,160,Fukuoka,356,126,Kyushu
584204204e65fad6a7709839,Tsurikawakakou,33.85625,130.4979167,34.625,130.375,220,340,160,Fukuoka,1085,126,Kyushu
584204204e65fad6a770983b,Tsuyazaki,33.80208333,130.4479167,34.375,129.875,210,270,90,Fukuoka,356,126,Kyushu
584204204e65fad6a770983b,Tsuyazaki,33.80208333,130.4479167,34.375,129.875,210,270,90,Fukuoka,1085,126,Kyushu
584204204e65fad6a7709833,Waita,33.93958333,130.7270833,34.625,130.625,30,300,120,Fukuoka,356,126,Kyushu
584204204e65fad6a7709833,Waita,33.93958333,130.7270833,34.625,130.625,30,300,120,Fukuoka,1085,126,Kyushu
584204204e65fad6a77097f0,Ichigonohama,34.31041667,136.8895833,34.375,137.125,140,70,250,Mie,1059,128,Kansai
584204204e65fad6a77097ef,Jyan,34.29791667,136.7354167,34.125,136.625,140,230,50,Mie,1059,128,Kansai
584204204e65fad6a77097ed,Kowaretasuimonmae,34.33125,136.88125,34.375,137.125,140,60,240,Mie,1059,128,Kansai
584204204e65fad6a77097ec,Matsubayashi,34.32291667,136.8854167,34.375,137.125,140,80,260,Mie,1059,128,Kansai
584204204e65fad6a77097f1,Nanbari,34.29791667,136.71875,34.125,136.625,140,150,330,Mie,1059,128,Kansai
584204204e65fad6a77097eb,Rasutamae,34.33541667,136.88125,34.375,137.125,140,65,245,Mie,1059,128,Kansai
584204204e65fad6a77097ee,Sankaku,34.33541667,136.88125,34.375,137.125,140,65,245,Mie,1059,128,Kansai
584204204e65fad6a77097ea,Tetoramae,34.33958333,136.8854167,34.375,137.125,140,65,245,Mie,1059,128,Kansai
584204204e65fad6a77090e8,Isonoura,34.25625,135.09375,33.875,134.875,120,185,5,Wakayama,1082,128,Kansai
584204204e65fad6a77097f4,Nishiiso,34.25625,135.0895833,33.875,134.875,120,200,20,Wakayama,1082,128,Kansai
584204204e65fad6a77097f6,Okuiso,34.2603,135.0854,33.875,134.875,120,205,25,Wakayama,1082,128,Kansai
584204204e65fad6a77097f2,Tetoragawa,34.25625,135.09375,33.875,134.875,120,185,5,Wakayama,1082,128,Kansai
584204204e65fad6a7709855,KDDmae,32.49791667,130.0395833,32.375,129.875,345,280,100,Kumamoto,1088,126,Kyushu
584204204e65fad6a7709857,Kadennmae,32.49375,130.04375,32.375,129.875,345,250,70,Kumamoto,1088,126,Kyushu
584204204e65fad6a7709856,Kasoubashita,32.50625,130.0395833,32.375,129.875,345,270,90,Kumamoto,1088,126,Kyushu
584204204e65fad6a7709858,Tororo,32.47708333,130.0354167,32.375,129.875,345,290,110,Kumamoto,1088,126,Kyushu
584204204e65fad6a77096d9,Kadonohama,40.45208333,141.6895833,40.375,142.125,55,60,240,Aomori,1076,92,Tohoku
584204204e65fad6a77096d6,Kanehama,40.48541667,141.64375,40.875,141.875,60,130,310,Aomori,1076,92,Tohoku
584204204e65fad6a77096d7,Kawajiri,40.42708333,141.7104167,40.375,142.125,55,115,295,Aomori,1076,92,Tohoku
584204204e65fad6a77098cf,Momoishi,40.63958333,141.4520833,40.875,141.875,60,340,160,Aomori,1076,92,Tohoku
584204204e65fad6a77096d8,Ohama,40.36041667,141.75625,40.375,142.125,55,120,300,Aomori,1076,92,Tohoku
584204204e65fad6a77098db,Osuga,40.53125,141.5895833,40.875,141.875,60,0,180,Aomori,1076,92,Tohoku
584204204e65fad6a77098cd,Takahoko,40.920809,141.394815,41.125,141.625,65,85,265,Aomori,1076,92,Tohoku
584204204e65fad6a77098d1,Tanesashi,40.51041667,141.61875,40.875,141.875,60,40,220,Aomori,1076,92,Tohoku
584204204e65fad6a77096db,Uke,40.32708333,141.7770833,40.375,142.125,55,345,165,Aomori,1076,92,Tohoku
584204204e65fad6a770998a,Kamiyoshinocho,34.09375,134.55625,33.625,135.125,115,15,195,Tokushima,1083,127,Shikoku
584204204e65fad6a770992e,Komatsu Kaigan,34.08958333,134.6104167,33.875,134.875,120,90,270,Tokushima,1083,127,Shikoku
584204204e65fad6a770992b,Naruto,34.22291,134.642344,33.875,134.875,120,140,320,Tokushima,1083,127,Shikoku
584204204e65fad6a770992f,Tainohama,33.76875,134.5854167,33.625,134.625,115,220,40,Tokushima,1083,127,Shikoku
584204204e65fad6a770981d,Uchizuma,33.65625,134.4020833,33.375,134.375,105,195,15,Tokushima,1083,127,Shikoku
584204204e65fad6a7709701,Buta shita,37.70208333,141.0145833,37.375,141.375,50,90,270,Fukushima,1036,92,Tohoku
584204204e65fad6a7709702,Migitahama,37.69375,141.0145833,37.375,141.375,50,85,265,Fukushima,1036,92,Tohoku
584204204e65fad6a7709703,Karasu,37.68541667,141.01875,37.375,141.375,50,90,270,Fukushima,1036,92,Tohoku
584204204e65fad6a7709704,Kitaizumi,37.66041667,141.0229167,37.375,141.375,50,55,235,Fukushima,1036,92,Tohoku
584204204e65fad6a7709705,Chickenshita,37.61458333,141.03125,37.375,141.375,50,90,270,Fukushima,1036,92,Tohoku
584204204e65fad6a7709706,Ukedo,37.47708333,141.04375,37.375,141.375,50,100,280,Fukushima,1036,92,Tohoku
584204204e65fad6a7709707,Iwasawa,37.24375,141.01875,37.125,141.375,50,105,285,Fukushima,1036,92,Tohoku
584204204e65fad6a7709708,Toyoma,36.98958333,140.9770833,36.875,141.125,145,120,300,Fukushima,1036,92,Tohoku
584204204e65fad6a7709709,Yotsukura,37.10208333,140.99375,36.875,141.125,145,115,295,Fukushima,1036,92,Tohoku
584204204e65fad6a770970a,Hutamigaura,36.97708333,140.9729167,36.875,141.125,145,135,315,Fukushima,1036,92,Tohoku
584204204e65fad6a770970c,Sakashita,37.67708333,141.01875,37.375,141.375,50,85,265,Fukushima,1036,92,Tohoku
584204204e65fad6a7709792,Shizunami beniomae,34.7308,138.2329,34.625,138.375,145,150,330,Shizuoka,432,91,Chubu
584204204e65fad6a7709794,Katsumatagawakakou,34.7263,138.2291,34.625,138.375,145,155,335,Shizuoka,432,91,Chubu
584204204e65fad6a7709795,Kashima,34.7246,138.2265,34.625,138.375,145,160,340,Shizuoka,432,91,Chubu
584204204e65fad6a7709796,Katahama,34.71458333,138.21875,34.625,138.375,145,90,270,Shizuoka,432,91,Chubu
584204204e65fad6a7709797,Sagara,34.68125,138.20625,34.625,138.375,145,90,270,Shizuoka,432,91,Chubu
584204204e65fad6a7709799,Meronmae,34.59375,138.2229167,34.375,138.125,145,195,15,Shizuoka,432,91,Chubu
584204204e65fad6a770979b,Samejima,34.65625,137.8520833,34.625,137.875,145,165,345,Shizuoka,432,91,Chubu
584204204e65fad6a770979c,Fukuda?Nishihama,34.65625,137.8770833,34.625,137.875,145,175,355,Shizuoka,432,91,Chubu
584204204e65fad6a770979d,Toyohama,34.66458333,137.9145833,34.625,137.875,145,180,0,Shizuoka,432,91,Chubu
584204204e65fad6a770979e,Nakatajima,34.660017,137.727172,34.625,137.625,145,195,15,Shizuoka,432,91,Chubu
584204204e65fad6a770979f,Sakashita,34.6,138.2038,34.375,138.125,145,205,25,Shizuoka,432,91,Chubu
584204204e65fad6a77097a0,Ichijo,34.66041667,137.71875,34.625,137.625,145,185,5,Shizuoka,432,91,Chubu
584204204e65fad6a77097a1,Maisaka main,34.6755,137.6026,34.625,137.625,145,175,355,Shizuoka,432,91,Chubu
584204204e65fad6a77097a2,Maisakatodai mae,34.6752,137.6123,34.625,137.625,145,180,0,Shizuoka,432,91,Chubu
584204204e65fad6a77097a3,Goto,34.6556,137.748,34.625,137.625,145,185,5,Shizuoka,432,91,Chubu
584204204e65fad6a77097a4,Komaba,34.6472,137.8128,34.625,137.875,145,160,340,Shizuoka,432,91,Chubu
584204204e65fad6a77097a5,Araihama,34.67708333,137.5854167,34.625,137.625,145,170,350,Shizuoka,432,91,Chubu
584204204e65fad6a77097a6,Okurado,34.67291667,137.5354167,34.625,137.625,145,175,355,Shizuoka,432,91,Chubu
584204204e65fad6a77097a7,Terasawa,34.66041667,137.43125,34.625,137.625,145,180,0,Shizuoka,432,91,Chubu
584204204e65fad6a77097a8,Kojima,34.66458333,137.4479167,34.375,137.375,140,180,0,Shizuoka,432,91,Chubu
584204204e65fad6a77097bb,Higashiko,38.01875,139.2645833,38.375,139.125,260,335,155,Niigata,1099,91,Chubu
584204204e65fad6a77097bc,Shimami,37.98125,139.1854167,38.125,138.875,255,330,150,Niigata,1099,91,Chubu
584204204e65fad6a77097bd,Igarashihama,37.87708333,138.93125,37.875,138.875,355,345,165,Niigata,1099,91,Chubu
584204204e65fad6a77097be,Kobari,37.90625,138.9895833,37.875,138.875,355,325,145,Niigata,1099,91,Chubu
584204204e65fad6a77097bf,Maze,37.73541667,138.79375,37.625,138.625,340,305,125,Niigata,1099,91,Chubu
584204204e65fad6a77097c0,Makigyokou,37.80625,138.83125,37.875,138.625,15,325,145,Niigata,1099,91,Chubu
584204204e65fad6a77097c1,Gyuchan,37.71041667,138.7854167,37.625,138.625,340,275,95,Niigata,1099,91,Chubu
584204204e65fad6a77097c2,Ochimizu,37.58125,138.7270833,37.625,138.625,340,315,135,Niigata,1099,91,Chubu
584204204e65fad6a77097c3,Teradomari,37.65041,138.7683,37.625,138.625,340,275,95,Niigata,1099,91,Chubu
584204204e65fad6a77097c4,Niigata/Takahama,37.46041667,138.60625,37.625,138.375,10,305,125,Niigata,1099,91,Chubu
584204204e65fad6a77097c5,Oominato,37.45208333,138.6020833,37.625,138.625,340,300,120,Niigata,1099,91,Chubu
584204204e65fad6a77097c6,Niigata/Arahama,37.41875,138.58125,37.625,138.625,340,310,130,Niigata,1099,91,Chubu
584204204e65fad6a77097c7,Yoneyama,37.35208333,138.4854167,37.625,138.375,10,345,165,Niigata,1099,91,Chubu
584204204e65fad6a7709846,Kushizaki,33.49791667,130.0520833,34.125,129.625,205,335,155,Saga Prefecture,1086,126,Kyushu
584204204e65fad6a7709847,Higashinohama,33.44791667,130.0020833,34.125,129.625,205,55,235,Saga Prefecture,1086,126,Kyushu
584204204e65fad6a7709848,Ouga Outsde,33.513,129.9706,34.125,129.625,205,60,240,Saga Prefecture,1086,126,Kyushu
584204204e65fad6a7709849,Ouga Inside,33.5116,129.9698,34.125,129.625,205,55,235,Saga Prefecture,1086,126,Kyushu
584204204e65fad6a770984a,Kitahama,33.51458333,129.9645833,34.125,129.625,205,65,245,Saga Prefecture,1086,126,Kyushu
584204204e65fad6a770984b,Tategami Inside,33.53125,129.9479167,33.875,129.375,35,10,190,Saga Prefecture,1086,126,Kyushu
584204204e65fad6a770984c,Number Four,33.54375,129.93125,33.875,129.375,35,35,215,Saga Prefecture,1086,126,Kyushu
584204204e65fad6a770984d,Number Five,33.55208333,129.9270833,33.875,129.375,35,55,235,Saga Prefecture,1086,126,Kyushu
584204204e65fad6a770984e,Otomo,33.54791667,129.9145833,33.875,129.375,35,0,180,Saga Prefecture,1086,126,Kyushu
584204204e65fad6a770984f,Hadomisaki,33.5557,129.8526,33.875,129.375,35,45,225,Saga Prefecture,1086,126,Kyushu
584204204e65fad6a770989a,Koguchimisaki,34.79375,139.3854167,34.875,139.375,145,0,180,Shizuoka,432,91,Chubu
584204204e65fad6a770989c,Hudeshima,34.7013,139.4463,34.625,139.625,55,115,295,Shizuoka,432,91,Chubu
584204204e65fad6a770989d,Sanohama,34.69375,139.38125,34.625,139.375,60,200,20,Shizuoka,432,91,Chubu
584204204e65fad6a770989e,Jyunkame,34.69791667,139.36875,34.625,139.375,60,215,35,Shizuoka,432,91,Chubu
584204204e65fad6a770989f,Jibikihama,34.74375,139.3520833,34.625,139.125,65,285,105,Shizuoka,432,91,Chubu
584204204e65fad6a77098a0,Motomachimae,34.75111,139.3478,34.625,139.375,60,285,105,Shizuoka,432,91,Chubu
584204204e65fad6a77098a2,Izumihama,34.76667,139.349,34.625,139.125,65,275,95,Shizuoka,432,91,Chubu
584204204e65fad6a77098a4,Naganehama,34.75717,139.35,34.625,139.125,65,255,75,Shizuoka,432,91,Chubu
584204204e65fad6a77098a5,Awaiura,34.41458333,139.29375,34.125,139.375,50,70,250,Shizuoka,432,91,Chubu
584204204e65fad6a77098a6,Habushiiso,34.38541667,139.2854167,34.125,139.375,50,120,300,Shizuoka,432,91,Chubu
584204204e65fad6a77098a7,Shikuretto,34.34791667,139.28125,34.375,139.375,55,70,250,Shizuoka,432,91,Chubu
584204204e65fad6a77098a8,Habushiura,34.37708333,139.28125,34.375,139.375,55,90,270,Shizuoka,432,91,Chubu
584204204e65fad6a77098a9,Helishita,34.3665,139.2763,34.375,139.375,55,85,265,Shizuoka,432,91,Chubu
584204204e65fad6a77098aa,Mamashita,34.36041667,139.24375,34.375,139.125,60,325,145,Shizuoka,432,91,Chubu
584204204e65fad6a77098ab,Kurone,34.37291667,139.24375,34.375,139.125,60,290,110,Shizuoka,432,91,Chubu
584204204e65fad6a77098ac,Okunoiso,34.42708333,139.2770833,34.375,139.125,60,20,200,Shizuoka,432,91,Chubu
584204204e65fad6a77098ad,Wadahama,34.39791667,139.25625,34.375,139.125,60,270,90,Shizuoka,432,91,Chubu
584204204e65fad6a77098ae,Bitei,34.37708333,139.2479167,34.375,139.125,60,335,155,Shizuoka,432,91,Chubu
584204204e65fad6a77098af,Takouwan,34.20208333,139.1604167,34.125,139.375,50,165,345,Shizuoka,432,91,Chubu
584204204e65fad6a77098b0,Kayasuhama,34.24375,139.15625,34.375,139.125,60,5,185,Shizuoka,432,91,Chubu
584204204e65fad6a77098b1,Maehamanagasawa,34.20625,139.1270833,34.125,138.875,60,245,65,Shizuoka,432,91,Chubu
584204204e65fad6a77098b2,Maehamatsumari,34.20208333,139.1270833,34.125,138.875,60,245,65,Shizuoka,432,91,Chubu
584204204e65fad6a77098b3,Maehamamouri,34.20625,139.1270833,34.125,138.875,60,245,65,Shizuoka,432,91,Chubu
584204204e65fad6a77098b4,Sawajiriwan,34.21875,139.13125,34.125,138.875,60,275,95,Shizuoka,432,91,Chubu
584204204e65fad6a77098b5,Nagahama,34.21875,139.13125,34.125,138.875,60,275,95,Shizuoka,432,91,Chubu
584204204e65fad6a77098c0,Usami,35.00208333,139.0854167,34.875,139.375,145,145,325,Shizuoka,432,91,Chubu
584204204e65fad6a77098c1,Imaihama,34.74791667,139.00625,34.625,139.125,65,145,325,Shizuoka,432,91,Chubu
584204204e65fad6a77098c2,Kawazu,34.74375,139.00625,34.375,139.125,60,125,305,Shizuoka,432,91,Chubu
584204204e65fad6a77098c3,Princemae,34.68958333,138.9770833,34.625,139.125,65,110,290,Shizuoka,432,91,Chubu
584204204e65fad6a77098c5,Tatatohama,34.65625,138.9354167,34.375,138.875,65,140,320,Shizuoka,432,91,Chubu
584204204e65fad6a77098c6,Iritahama,34.65208333,138.9270833,34.625,139.125,65,120,300,Shizuoka,432,91,Chubu
584204204e65fad6a77098c7,Ohama-Maiiso,34.64791667,138.9229167,34.625,139.125,65,145,325,Shizuoka,432,91,Chubu
584204204e65fad6a77098c8,Ohama-Main,34.64791667,138.9229167,34.625,139.125,65,145,325,Shizuoka,432,91,Chubu
584204204e65fad6a77098c9,Toji,34.63958333,138.91875,34.625,139.125,65,65,245,Shizuoka,432,91,Chubu
584204204e65fad6a77098f8,Atagawa,34.81041667,139.0729167,34.625,139.125,65,135,315,Shizuoka,432,91,Chubu
584204204e65fad6a77098f9,Urahama,37.710256,138.784747,37.625,138.625,340,280,100,Niigata,1099,91,Chubu
584204204e65fad6a77098fa,Shibata,38.031597,139.275141,38.375,139.125,260,310,130,Niigata,1099,91,Chubu