[
  {
    "grid": {
      "agency": "NOAA",
      "model": "GFS",
      "grid": "0p25"
    },
    "lat": -33.75,
    "lon": 151.25,
    "offshoreDirection": null,
    "optimalSwellDirection": null,
    "breakingWaveHeightAlgorithm": "",
    "breakingWaveHeightIntercept": null,
    "breakingWaveHeightCoefficient": null,
    "spectralRefractionMatrix": null
  },
  {
    "grid": {
      "agency": "NOAA",
      "model": "WW3",
      "grid": "at_10m"
    },
    "lat": -33.75,
    "lon": 151.25,
    "offshoreDirection": 274,
    "optimalSwellDirection": 110,
    "breakingWaveHeightAlgorithm": "POLYNOMIAL",
    "breakingWaveHeightIntercept": 0,
    "breakingWaveHeightCoefficient": 0,
    "spectralRefractionMatrix": null
  },
  {
    "grid": {
      "agency": "NOAA",
      "model": "WW3",
      "grid": "at_4m"
    },
    "lat": -33.75,
    "lon": 151.25,
    "offshoreDirection": 274,
    "optimalSwellDirection": 110,
    "breakingWaveHeightAlgorithm": "POLYNOMIAL",
    "breakingWaveHeightIntercept": 0,
    "breakingWaveHeightCoefficient": 0,
    "spectralRefractionMatrix": null
  },
  {
    "grid": {
      "agency": "Wavetrak",
      "model": "Proteus-WW3",
      "grid": "BRA_4m"
    },
    "lat": -33.75,
    "lon": 151.303662,
    "offshoreDirection": 274,
    "optimalSwellDirection": 110,
    "breakingWaveHeightAlgorithm": "POLYNOMIAL",
    "breakingWaveHeightIntercept": 0,
    "breakingWaveHeightCoefficient": 0,
    "spectralRefractionMatrix": null
  },
  {
    "grid": {
      "agency": "Wavetrak",
      "model": "Proteus-WW3",
      "grid": "FR_4m"
    },
    "lat": -33.75,
    "lon": 151.25,
    "offshoreDirection": 274,
    "optimalSwellDirection": 110,
    "breakingWaveHeightAlgorithm": "POLYNOMIAL",
    "breakingWaveHeightIntercept": 0,
    "breakingWaveHeightCoefficient": 0,
    "spectralRefractionMatrix": null
  },
  {
    "grid": {
      "agency": "Wavetrak",
      "model": "Proteus-WW3",
      "grid": "SAF_10m"
    },
    "lat": -33.75,
    "lon": 189.25,
    "offshoreDirection": 274,
    "optimalSwellDirection": 110,
    "breakingWaveHeightAlgorithm": "POLYNOMIAL",
    "breakingWaveHeightIntercept": 0,
    "breakingWaveHeightCoefficient": 0,
    "spectralRefractionMatrix": null
  }
]
