{
  "imageName": "services/onboarding-api",
  "compose": "onboarding-api",
  "serviceName": "sl-onboarding-api",
  "cluster": "sl-core-svc",
  "secrets": {
    "common": {
      "prefix": "/{env}/common/",
      "secrets": [
        "CONSOLE_LOG_LEVEL",
        "EXPRESS_PORT",
        "LOGSENE_KEY",
        "LOGSENE_LEVEL",
        "NEW_RELIC_ATTRIBUTES_EXCLUDE",
        "NEW_RELIC_ENABLED",
        "NEW_RELIC_IGNORING_RULES",
        "NEW_RELIC_LICENSE_KEY",
        "NEW_RELIC_LOG_LEVEL",
        "NODE_ENV",
        "SEARCH_API",
        "SPOTS_API"
      ]
    },
    "service": {
      "prefix": "/{env}/services/onboarding-api/",
      "secrets": [
        "GEOTARGET_API",
        "MONGO_CONNECTION_STRING",
        "PUBLIC_PROXY_URL"
      ]
    }
  },
  "taskRoleArn": {
    "sandbox": "arn:aws:iam::665294954271:role/onboarding_api_task_role_sandbox",
    "staging": "arn:aws:iam::665294954271:role/onboarding_api_task_role_staging",
    "prod": "arn:aws:iam::833713747344:role/onboarding_api_task_role_prod"
  },
  "newRelic": {
    "applicationId": {
      "prod": 42125337
    }
  }
}
