Name,SpotId
Maverick's,5842041f4e65fad6a7708801
Nazare,58bdfa7882d034001252e3d8
Peahi (Jaws),5842041f4e65fad6a7708de9
Teahupoo,5842041f4e65fad6a7708dbf
Waimea Bay,5842041f4e65fad6a7708895
Waimea Bay Overview,584204214e65fad6a7709cf0
Wedge,5842041f4e65fad6a7708d00
