{
  "Records": [
    {
      "EventSource": "aws:sns",
      "EventVersion": "1.0",
      "EventSubscriptionArn": "arn:aws:sns:eu-west-1:111111111111111:sample-alert:ff1e3698-7f85-4da2-a90e-13ad2afe30e0",
      "Sns": {
        "Type": "Notification",
        "MessageId": "0d7a65e4-435e-5ff1-8e80-37e6fba3ef4f",
        "TopicArn": "arn:aws:sns:eu-west-1:111111111111111:Sample-alert",
        "Subject": "S3 Bucket",
        "Message": "{\"Records\":[{\"eventVersion\":\"2.0\",\"eventTime\":\"2018-03-10T22:54:09.700Z\",\"requestParameters\":{\"sourceIPAddress\":\"34.207.165.13\"},\"s3\":{\"configurationId\":\"7df17ca9-535e-41c9-82f9-a439249b8e70\",\"object\":{\"eTag\":\"43370103d41aad3a2e446ac0dab43682-7\",\"sequencer\":\"005AA46211008D24CE\",\"key\":\"live/wc-hbpierns.stream.20190210T170303928.mp4\",\"size\":11860852},\"bucket\":{\"arn\":\"arn:aws:s3:::sl-live-cam-archive-prod\",\"name\":\"sl-live-cam-archive-prod\",\"ownerIdentity\":{\"principalId\":\"A3CFJSV23JFR6Z\"}},\"s3SchemaVersion\":\"1.0\"},\"responseElements\":{\"x-amz-id-2\":\"R4V7jwYRcaEpSUG16w4E6GSaG5uo6cO7h/ChqxJ5ciS6Qfm2Wq2m8tyiQOHqKmgS/ugA5KG8gwY=\",\"x-amz-request-id\":\"84EDD9C73FFE5D02\"},\"awsRegion\":\"us-west-1\",\"eventName\":\"ObjectCreated:CompleteMultipartUpload\",\"userIdentity\":{\"principalId\":\"AWS:AIDAJ3HLUG335YHQCQC6G\"},\"eventSource\":\"aws:s3\"}]}",
        "Timestamp": "2017-08-07T18:51:41.652Z",
        "SignatureVersion": "1",
        "Signature": "test",
        "SigningCertUrl": "https://sns.eu-west-1.amazonaws.com/SimpleNotificationService-b95095beb82e8f6a0463n12jnkndswea.pem",
        "UnsubscribeUrl": "https://sns.eu-west-1.amazonaws.com/?Action=Unsubscribe&SubscriptionArn=arn:aws:sns:eu-west-1:111111111111111:Sample-alert:ff1e3698-7f85-4da2-a90e-13ad2afe30e0",
        "MessageAttributes": {}
      }
    }
  ]
}
