{
  "imageName": "services/geo-target-service",
  "compose": "geo-target-service",
  "serviceName": "sl-geo-target-service",
  "cluster": "sl-core-svc",
  "secrets": {
    "common": {
      "prefix": "/{env}/common/",
      "secrets": [
        "EXPRESS_PORT",
        "LOGSENE_KEY",
        "LOGSENE_LEVEL",
        "MONGO_BASINS_COLLECTION",
        "NEW_RELIC_ATTRIBUTES_EXCLUDE",
        "NEW_RELIC_ENABLED",
        "NEW_RELIC_IGNORING_RULES",
        "NEW_RELIC_LICENSE_KEY",
        "NEW_RELIC_LOG_LEVEL",
        "NODE_ENV"
      ]
    },
    "service": {
      "prefix": "/{env}/services/geo-target-service/",
      "secrets": [
        "MONGO_CONNECTION_STRING_KBYG",
        "MONGO_WATERWAYS_COLLECTION"
      ]
    }
  },
  "taskRoleArn": {
    "sandbox": "arn:aws:iam::665294954271:role/geo_target_service_task_role_sandbox",
    "staging": "arn:aws:iam::665294954271:role/geo_target_service_task_role_staging",
    "prod": "arn:aws:iam::833713747344:role/geo_target_service_task_role_prod"
  },
  "newRelic": {
    "applicationId": {
      "development": 17646765,
      "sandbox": 377378676,
      "prod": 413540537
    }
  }
}
