{
  "id": 1054,
  "date": "2017-01-25T16:26:55",
  "date_gmt": "2017-01-26T00:26:55",
  "guid": {
    "rendered": "http://dev.surfline.com/?p=1054"
  },
  "modified": "2017-04-28T22:57:27",
  "modified_gmt": "2017-04-29T05:57:27",
  "slug": "day-tree-of-da-hui-backdoor-shootout",
  "type": "post",
  "link": "http://localhost:8080/surf-news/day-tree-of-da-hui-backdoor-shootout/1054",
  "title": {
    "rendered": "Day T&#8217;ree of Da Hui Backdoor Shootout"
  },
  "content": {
    "rendered": "<p>Cheesecake bear claw wafer candy canes donut. Tart jelly-o chocolate bar topping biscuit tootsie roll. Ice cream liquorice jujubes pastry chocolate cake gingerbread bonbon chupa chups apple pie. Marshmallow dragée macaroon muffin sesame snaps cookie cookie macaroon. Halvah chocolate sweet roll. Sugar plum pie sesame snaps powder marshmallow dessert sweet jelly powder. Sesame snaps dessert [&hellip;]</p>\n",
    "protected": false
  },
  "author": 1,
  "featured_media": 275,
  "comment_status": "open",
  "ping_status": "open",
  "sticky": false,
  "template": "",
  "format": "standard",
  "meta": [],
  "acf": {
    "subtitle": "Gummies lollipop lemon drops lollipop pastry",
    "summary": "This is the travel article summary",
    "dynlocationtravel": "58f7f26edadb30820bb9f676",
    "select_posts": [
      {
        "ID": 303,
        "post_author": "1",
        "post_date": "2017-01-25 16:26:55",
        "post_date_gmt": "2017-01-26 00:26:55",
        "post_content": "<div class=\"copy\">\r\n\r\nCheesecake bear claw wafer candy canes donut. Tart jelly-o chocolate bar topping biscuit tootsie roll. Ice cream liquorice jujubes pastry chocolate cake gingerbread bonbon chupa chups apple pie. Marshmallow dragée macaroon muffin sesame snaps cookie cookie macaroon. Halvah chocolate sweet roll. Sugar plum pie sesame snaps powder marshmallow dessert sweet jelly powder. Sesame snaps dessert apple pie icing gingerbread pastry. Sweet roll wafer wafer gummies chocolate cake caramels cheesecake. Tiramisu candy dessert jelly-o soufflé lemon drops jelly beans liquorice jujubes.\r\n\r\n[caption id=\"attachment_356\" align=\"alignnone\" width=\"480\"]<img class=\"size-full wp-image-356\" src=\"https://new.sandbox.surfline.com/wp-content/uploads/2017/01/hero03-small.jpg\" alt=\"\" width=\"480\" height=\"512\" /> Test Caption[/caption]\r\n\r\nGummies lollipop lemon drops lollipop pastry. Danish chocolate bar marshmallow marshmallow cupcake danish. Chocolate gummi bears apple pie macaroon oat cake. Tart ice cream chocolate gummies cotton candy. Jelly icing gummi bears gummies gingerbread dragée lemon drops biscuit. Soufflé liquorice bear claw. Oat cake carrot cake donut muffin. Lollipop jelly icing candy canes. Candy canes biscuit jelly dragée chocolate bar apple pie. Liquorice chocolate cake topping. Powder sweet roll icing gingerbread jujubes jelly-o chupa chups lollipop ice cream. Topping tiramisu macaroon.\r\n\r\n</div>",
        "post_title": "Day T'ree of Da Hui Backdoor Shootout",
        "post_excerpt": "",
        "post_status": "publish",
        "comment_status": "open",
        "ping_status": "open",
        "post_password": "",
        "post_name": "day-tree-of-da-hui-backdoor-shootout",
        "to_ping": "",
        "pinged": "",
        "post_modified": "2017-05-30 12:17:23",
        "post_modified_gmt": "2017-05-30 19:17:23",
        "post_content_filtered": "",
        "post_parent": 0,
        "guid": "http://dev.surfline.com/?p=303",
        "menu_order": 3,
        "post_type": "post",
        "post_mime_type": "",
        "comment_count": "0",
        "filter": "raw"
      }
    ]
  },
  "_links": {
    "self": [
      {
        "href": "http://localhost:8080/wp-json/wp/v2/posts/1054"
      }
    ],
    "collection": [
      {
        "href": "http://localhost:8080/wp-json/wp/v2/posts"
      }
    ],
    "about": [
      {
        "href": "http://localhost:8080/wp-json/wp/v2/types/post"
      }
    ],
    "author": [
      {
        "embeddable": true,
        "href": "http://localhost:8080/wp-json/wp/v2/users/1"
      }
    ],
    "replies": [
      {
        "embeddable": true,
        "href": "http://localhost:8080/wp-json/wp/v2/comments?post=1054"
      }
    ],
    "version-history": [
      {
        "href": "http://localhost:8080/wp-json/wp/v2/posts/1054/revisions"
      }
    ],
    "wp:featuredmedia": [
      {
        "embeddable": true,
        "href": "http://localhost:8080/wp-json/wp/v2/media/275"
      }
    ],
    "wp:attachment": [
      {
        "href": "http://localhost:8080/wp-json/wp/v2/media?parent=1054"
      }
    ],
    "wp:term": [
      {
        "taxonomy": "category",
        "embeddable": true,
        "href": "http://localhost:8080/wp-json/wp/v2/categories?post=1054"
      },
      {
        "taxonomy": "post_tag",
        "embeddable": true,
        "href": "http://localhost:8080/wp-json/wp/v2/tags?post=1054"
      }
    ],
    "curies": [
      {
        "name": "wp",
        "href": "https://api.w.org/{rel}",
        "templated": true
      }
    ]
  },
  "metadata": {
    "us_homepage_order": ["0"],
    "au_homepage_order": ["0"]
  }
}
