{
  "startTimestamp": 1584552236000,
  "endTimestamp": 1584552242000,
  "visibility": "PUBLIC",
  "waveCount": 1,
  "speedMax": 1.101,
  "distancePaddled": 0,
  "deviceType": "vivoactive3",
  "distanceLongestWave": 49.55,
  "distanceWaves": 49.55,
  "events": [
    {
      "_id": "6033854b84236d6ecdae1aa3",
      "startTimestamp": 1584552236000,
      "endTimestamp": 1584552242000,
      "type": "WAVE",
      "distance": 49.55,
      "speedAverage": 1,
      "speedMax": 1.101,
      "positions": [
        {
          "timestamp": 1584552236000,
          "latitude": 33.6542122811079,
          "longitude": -118.00564521923661
        },
        {
          "timestamp": 1584552237000,
          "latitude": 33.65435108542442,
          "longitude": -118.00561512820423
        },
        {
          "timestamp": 1584552238000,
          "latitude": 33.65431856364012,
          "longitude": -118.00563323311508
        },
        {
          "timestamp": 1584552239000,
          "latitude": 33.65425813011825,
          "longitude": -118.005654187873
        },
        {
          "timestamp": 1584552240000,
          "latitude": 33.65423114039004,
          "longitude": -118.00567908212543
        },
        {
          "timestamp": 1584552241000,
          "latitude": 33.654229547828436,
          "longitude": -118.00566826947033
        },
        {
          "timestamp": 1584552242000,
          "latitude": 33.654229464009404,
          "longitude": -118.00565745681524
        }
      ]
    }
  ],
  "user": "5aabfbc0ffd66500117e554d",
  "clientId": "5af1ce73b5acf7c6dd2592ee"
}
