{
  "source": "mockoon:1.16.0",
  "data": [
    {
      "type": "environment",
      "item": {
        "uuid": "a1caff7a-c3f7-4aa4-84a9-f9654a75cc04",
        "lastMigration": 18,
        "name": "spots-api-mocks",
        "endpointPrefix": "",
        "latency": 0,
        "port": 3005,
        "hostname": "0.0.0.0",
        "routes": [
          {
            "uuid": "98e8b05e-8d1b-46f6-bd24-ed4c969d5f66",
            "documentation": "",
            "method": "get",
            "endpoint": "",
            "responses": [
              {
                "uuid": "9de08349-e886-46b6-85fc-d3e3e60ab31a",
                "body": "{\n  \"Message\": \"OK\"\n}",
                "latency": 0,
                "statusCode": 200,
                "label": "",
                "headers": [],
                "filePath": "",
                "sendFileAsBody": false,
                "rules": [],
                "rulesOperator": "OR",
                "disableTemplating": false,
                "fallbackTo404": false
              }
            ],
            "enabled": true,
            "randomResponse": false,
            "sequentialResponse": false
          },
          {
            "uuid": "fa455d49-0a35-4c88-bba2-e84eb9ed5978",
            "documentation": "Will return 400 camera not found",
            "method": "get",
            "endpoint": "cameras/615f128d3578c0244c01396e",
            "responses": [
              {
                "uuid": "caf2820f-e54b-45fe-bbe5-13266e6e2c6c",
                "body": "{\n  \"message\": \"Camera not found\"\n}",
                "latency": 0,
                "statusCode": 400,
                "label": "",
                "headers": [
                  {
                    "key": "conte",
                    "value": ""
                  }
                ],
                "filePath": "",
                "sendFileAsBody": false,
                "rules": [],
                "rulesOperator": "OR",
                "disableTemplating": false,
                "fallbackTo404": false
              }
            ],
            "enabled": true,
            "randomResponse": false,
            "sequentialResponse": false
          },
          {
            "uuid": "e4888651-4bfc-4f81-9e6f-84a3953ee523",
            "documentation": "Will return 200 with a camera object",
            "method": "get",
            "endpoint": "cameras/:cameraId",
            "responses": [
              {
                "uuid": "aa8b8a6e-70a3-416f-afed-b2aec79bc759",
                "body": "{\n  \"_id\": \"{{urlParam 'cameraId'}}\",\n  \"name\": \"My camera\"\n}",
                "latency": 0,
                "statusCode": 200,
                "label": "",
                "headers": [],
                "filePath": "",
                "sendFileAsBody": false,
                "rules": [],
                "rulesOperator": "OR",
                "disableTemplating": false,
                "fallbackTo404": false
              }
            ],
            "enabled": true,
            "randomResponse": false,
            "sequentialResponse": false
          }
        ],
        "proxyMode": false,
        "proxyHost": "",
        "proxyRemovePrefix": false,
        "https": false,
        "cors": true,
        "headers": [
          {
            "key": "Content-Type",
            "value": "application/json"
          }
        ],
        "proxyReqHeaders": [
          {
            "key": "",
            "value": ""
          }
        ],
        "proxyResHeaders": [
          {
            "key": "",
            "value": ""
          }
        ]
      }
    }
  ]
}
