{
  "family": "sl-jobs",
  "containerDefinitions": [
    {
      "environment": [],
      "name": "sl-receipt-jobs",
      "image": "665294954271.dkr.ecr.us-west-1.amazonaws.com/sl-receipt-jobs:latest-staging",
      "memory": 500,
      "essential": true,
      "logConfiguration": {
        "logDriver": "awslogs",
        "options": {
          "awslogs-group": "sl-logs-admin-tools-staging",
          "awslogs-region": "us-west-1",
          "awslogs-stream-prefix": "awslogs-sl-receipt-jobs"
        }
      }
    }
  ]
}