[
  {
    "id": "4f5knFgNsA6oOi2oESgoY",
    "contentType": "FORECAST",
    "createdAt": 1518655715,
    "updatedAt": 1552351665,
    "premium": true,
    "promoted": [
      "REGIONAL"
    ],
    "externalSource": null,
    "externalLink": null,
    "newWindow": false,
    "content": {
      "title": "Oregon Forecast Analysis: Large WNW Swell Imminent, Reinforcements Inbound",
      "displayTitle": null,
      "subtitle": null,
      "body": "<p>We have moved to a new format for our Premium Analysis product as shown below. Please <a href=\"mailto:forecast_feedback@surfline.com?Subject=Premium%20Analysis%20Feedback\" target=\"_top\">send us any and all feedback</a>!</p><p><strong>The Bottom Line</strong></p><ul><li><strong>Best Surf Next 7 Days:</strong> Wednesday the 13th for advanced surfers. Swell will be declining, but plenty of large surf still on tap with favorable winds.</li><li><strong>Tides:</strong> Low tide in early mornings, pushing to midday-early afternoon highs. </li><li><strong>Beginners:</strong> Spots sheltered from the significant WNW energy that will be on tap for the next several days. Know your limits.</li><li><strong>Water Temps:</strong> Mid to upper 40s.</li><li><strong>Also Watch Out For:</strong> WNW reinforcements late week into the weekend. Potential WSW swell next week.</li></ul><p><img src=\"https://images.ctfassets.net/kl4m5s78bekv/6QXqozzw7TcXlBKYJAVLxG/9d21ce2d60afc6dd8be55a584b46197e/Screen_Shot_2019-03-11_at_5.28.06_PM.png\" alt=\"Screen Shot 2019-03-11 at 5.28.06 PM\"><em><center>Some long lines making their way in Monday night.</center></em></p><p><strong>Tuesday, March 12th: Solid 10-15’+ surf first thing in the morning, quickly building with 15-18’+ sets by the afternoon. Steady NW winds on tap for the entire day, blowing out conditions.</strong> Long period energy is already popping up on the buoys Monday evening, with new long period WNW swell (295-290) building through the day Tuesday, which will have most exposures seeing consistent triple overhead+ surf by the afternoon. Big wave magnets can expect to see 20’+ faces, but a ridge slowly pushing towards the coast is poised to blow out conditions with steady NW flow on Tuesday.</p><p><strong>Wednesday, March 13th: Large 12-15’+ surf lingers in the morning. Light/variable winds likely by mid morning.</strong> WNW swell that peaked overnight Tuesday into Wednesday, slowly trends down, with plenty of double overhead surf on tap for the region. Standouts continue to push triple overhead, while the big wave magnets see 20’ faces, albeit less consistently than Tuesday. The good news is that winds/conditions are looking much better for Wednesday with light onshore flow first thing in the morning expected to trend light/variable by mid-late morning, where it should persist through the day. </p><p><strong>Long Term Forecast Analysis (Thursday, March 14th, and beyond):</strong></p>"
    },
    "permalink": "undefined/surf-news/local/oregon-forecast-analysis-large-wnw-swell-imminent-reinforcements-inbound/4f5knFgNsA6oOi2oESgoY",
    "media": null,
    "author": {
      "name": "Matt Kibby",
      "iconUrl": "https://www.gravatar.com/avatar/b91972b222ed7d8c68ba88ea155c520a?d=mm"
    },
    "tags": [],
    "keywords": [
      "shorttermforecast"
    ],
    "menuOrder": null,
    "feedSuperheader": null,
    "sponsoredArticle": {
      "attributionText": null,
      "dfpCode": null,
      "showAttributionInFeed": false,
      "sponsorName": null
    },
    "nextPageStart": "1552351665753,4f5knFgNsA6oOi2oESgoY"
  },
  {
    "id": "4lfoiQFlAk5j8HKlwArWVy",
    "contentType": "FORECAST",
    "createdAt": 1552090296,
    "updatedAt": 1552090385,
    "premium": false,
    "promoted": [],
    "externalSource": null,
    "externalLink": null,
    "newWindow": false,
    "content": {
      "title": "International Women's Day Snow Trip",
      "displayTitle": null,
      "subtitle": null,
      "body": "<p>For over a century, International Women’s Day, celebrated on March 8, emphasizes the unity, respect, strength, success, and appreciation of women around the world. These values come through in the mountains, where our best selves shine.</p><p>“Here’s to this trip, to the next trip, and to all the trips after.” - My Ikon: My Girls<br><Br></p><center><iframe width=\"560\" height=\"315\" src=\"https://www.youtube.com/embed/BtX_kbXWq78\" frameborder=\"0\" allow=\"accelerometer; autoplay; encrypted-media; gyroscope; picture-in-picture\" allowfullscreen></iframe></center>"
    },
    "permalink": "undefined/surf-news/local/international-women-s-day-snow-trip/4lfoiQFlAk5j8HKlwArWVy",
    "media": null,
    "author": {
      "name": "Surfline Editorial Team",
      "iconUrl": "https://www.gravatar.com/avatar/2ae86346a97256e6737a37247ebb11e6?d=mm"
    },
    "tags": [],
    "keywords": [],
    "menuOrder": null,
    "feedSuperheader": null,
    "sponsoredArticle": {
      "attributionText": null,
      "dfpCode": null,
      "showAttributionInFeed": false,
      "sponsorName": null
    },
    "nextPageStart": "1552090385959,4lfoiQFlAk5j8HKlwArWVy"
  },
  {
    "id": "5OBkNsCsHtEOz2tXRTb1wF",
    "contentType": "FORECAST",
    "createdAt": 1551898603,
    "updatedAt": 1551898967,
    "premium": false,
    "promoted": [],
    "externalSource": null,
    "externalLink": null,
    "newWindow": false,
    "content": {
      "title": "Surfrider Drops Into DC to Oppose New Offshore Drilling",
      "displayTitle": null,
      "subtitle": null,
      "body": "<p><img src=\"https://images.ctfassets.net/kl4m5s78bekv/2X5q5KFvpJ3v3ZwNGbT42W/a93153f9c0dad23e34548f51e9232e12/Group-Capitol.jpg\" alt=\"Group-Capitol\"></p><p>FOR IMMEDIATE RELEASE </p><p>San Clemente, Calif., March 4, 2019 - On Thursday, February 28, the Surfrider Foundation and leaders of the coastal recreation and tourism industry presented Department of Interior and White House officials with a surfboard and letter signed by more than a thousand coastal businesses and elected officials in opposition to new offshore oil drilling in U.S. waters. From Florida to Maine and California to Washington state, businesses, including restaurants, retailers, surf shops and hotels, are joining together to stop new offshore oil and gas development off our nation’s coasts. </p><p><img src=\"https://images.ctfassets.net/kl4m5s78bekv/18hbIGXJ0P13buhG9vrf7v/ecddd6d7c96760cb2e95f2682ce067a8/IMG_0872.jpg\" alt=\"IMG 0872\"></p><p>&quot;New offshore oil drilling threatens U.S. businesses and jobs that depend on a clean coastal environment,” said President of the Surf Industry Manufacturers Association,  Shannan North. “That&#39;s why the surfing industry is opposed to the federal government&#39;s plans to expand oil drilling in the Atlantic, Pacific and Gulf of Mexico. Clean beaches and healthy oceans are critical drivers of our coastal economies and the surfing industry is one of many U.S. industries that would be negatively impacted by expanded offshore drilling.&quot;</p><p>Ocean recreation and tourism provide more than two million jobs and contribute $115 billion annually to our nation’s GDP. As a result, businesses that are dependent on a clean coastal environment are taking action to stop new oil and gas development. On the East Coast, the Business Alliance for Protecting the Atlantic Coast consists of 46,000 businesses and 500,000 fishing families that are opposed to offshore oil drilling. The Business Alliance for Protecting the Pacific Coast is now made up of more than 2,200 members after launching just last year.</p><p><img src=\"https://images.ctfassets.net/kl4m5s78bekv/42RJuyanoi2yi6aLzTom2G/49ac887c0dae5768ba01831235065975/IMG_1476-Chad.jpg\" alt=\"IMG 1476-Chad\"></p><p>Opposition to offshore drilling also includes bipartisan representation. Republicans and Democrats have called for the administration to reverse its position on new drilling, including:</p><p>●    Governors from New Jersey, Delaware, Maryland, Virginia, North Carolina, South Carolina, Georgia, Florida, Maine, Rhode Island, Massachusetts, New Hampshire, New York, Connecticut, California, Oregon, and Washington all announced their opposition to drilling for oil off their shores.<br>●    More than 330 municipalities on the East and West coasts have passed resolutions against offshore oil drilling and seismic airgun blasting.<br>●    37 senators, most of whom represent coastal states affected by the proposal, sent a letter to the Secretary of Interior expressing strong opposition to the department&#39;s plans to expand offshore drilling to new areas.<br>●    12 state attorneys general from both the East and West coasts sent a letter to the Department of Interior in opposition to new offshore drilling. <br>●    Florida’s entire federal delegation of 29 lawmakers sent a letter to Acting Interior Secretary Bernhardt, expressing opposition to expanded offshore drilling.<br>●    16 federal lawmakers from the Pacific Northwest sent a letter to Secretary Zinke opposing offshore drilling off Oregon and Washington.<br>●    The California Senate, California State Lands Commission, California Fish &amp; Game Commission and California Coastal Commission have all passed resolutions against offshore drilling.   <br><br>“Offshore drilling and exploration pose numerous risks to our pristine beaches, marine life, the health of our coastal ecosystems, and by extension our beach tourism and fishing industries,” said New Jersey Congressman Chris Smith (R-4th Dist.) “I am unalterably opposed to oil and gas drilling and exploration off our coastlines. Not here, not now, not ever.”</p><p>Even when there is not a spill and everything goes ‘right,’ the process of oil drilling releases thousands of gallons of polluted water into the ocean, called drilling muds. These fluids contain toxic substances such as benzene, zinc, arsenic, radioactive materials and other contaminants. </p><p><img src=\"https://images.ctfassets.net/kl4m5s78bekv/2l9En2vyfrEFlOyWfUnzxL/8740682757250683af6221fb2b688980/IMG_2369-CA.jpg\" alt=\"IMG 2369-CA\"></p><p>“Because even the exploration for offshore oil includes drilling test wells, the entire process of developing offshore oil threatens our coastal tourism economies and must be stopped,” said President and CEO of the South Carolina Small Business Chamber of Commerce and Co-Founder and former President and CEO of the Business Alliance for Protecting the Atlantic Coast, Frank Knapp Jr.</p><p>&quot;Our nation’s coastal tourism, recreation and fishing industries, which are built around clean water and healthy beaches, provide 12 times the number of jobs in comparison to offshore drilling,” said Surfrider’s CEO, Dr. Chad Nelsen. “We will continue to work together with the many businesses, communities and elected officials that have already demonstrated opposition against the expansion of destructive new oil drilling to fight for the protection of our ocean, coasts and communities for the future.&quot; </p><p>To learn more and get involved, visit <a href=\"http://www.Surfrider.org\"target=\"_blank\">www.Surfrider.org</a>.  </p>"
    },
    "permalink": "undefined/surf-news/local/surfrider-drops-into-dc-to-oppose-new-offshore-drilling/5OBkNsCsHtEOz2tXRTb1wF",
    "media": null,
    "author": {
      "name": "Surfline Editorial Team",
      "iconUrl": "https://www.gravatar.com/avatar/2ae86346a97256e6737a37247ebb11e6?d=mm"
    },
    "tags": [],
    "keywords": [],
    "menuOrder": null,
    "feedSuperheader": null,
    "sponsoredArticle": {
      "attributionText": null,
      "dfpCode": null,
      "showAttributionInFeed": false,
      "sponsorName": null
    },
    "nextPageStart": "1551898967725,5OBkNsCsHtEOz2tXRTb1wF"
  }
]
