[
  {
    "took": 41,
    "timed_out": false,
    "_shards": {
      "total": 5,
      "successful": 5,
      "failed": 0
    },
    "hits": {
      "total": 0,
      "max_score": 0,
      "hits": []
    },
    "suggest": {
      "spot-suggest": [
        {
          "text": "hun",
          "offset": 0,
          "length": 3,
          "options": [
            {
              "text": "Huahua",
              "_index": "spots2",
              "_type": "spot",
              "_id": "AVsV_g20JT5FUSljG2q2",
              "_score": 2,
              "_source": {
                "timezone": "America/Mexico_City",
                "name": "Huahua",
                "cams": [],
                "location": {
                  "lon": -103.011,
                  "lat": 18.175
                }
              },
              "contexts": {
                "location": [
                  "9enx"
                ]
              }
            },
            {
              "text": "Hudson Avenue, Harvey Cedars",
              "_index": "spots2",
              "_type": "spot",
              "_id": "AVsV_eUuJT5FUSljG2RT",
              "_score": 2,
              "_source": {
                "timezone": "America/New_York",
                "name": "Hudson Avenue, Harvey Cedars",
                "cams": [
                  "58349a553421b20545c4b541"
                ],
                "location": {
                  "lon": -74.140682,
                  "lat": 39.692364
                }
              },
              "contexts": {
                "location": [
                  "dr53"
                ]
              }
            },
            {
              "text": "Huguenot Park (North Jetty)",
              "_index": "spots2",
              "_type": "spot",
              "_id": "AVsV_eeGJT5FUSljG2S5",
              "_score": 2,
              "_source": {
                "timezone": "America/New_York",
                "name": "Huguenot Park (North Jetty)",
                "cams": [],
                "location": {
                  "lon": -81.40074116169004,
                  "lat": 30.40517712722211
                }
              },
              "contexts": {
                "location": [
                  "djqh"
                ]
              }
            },
            {
              "text": "Hull Bay",
              "_index": "spots2",
              "_type": "spot",
              "_id": "AVsV_h6_JT5FUSljG21V",
              "_score": 2,
              "_source": {
                "timezone": "America/St_Thomas",
                "name": "Hull Bay",
                "cams": [],
                "location": {
                  "lon": -64.955,
                  "lat": 18.371
                }
              },
              "contexts": {
                "location": [
                  "de3b"
                ]
              }
            },
            {
              "text": "Hultin\u0027s",
              "_index": "spots2",
              "_type": "spot",
              "_id": "AVsV_eB8JT5FUSljG2OK",
              "_score": 2,
              "_source": {
                "timezone": "Pacific/Honolulu",
                "name": "Hultin\u0027s",
                "cams": [],
                "location": {
                  "lon": -158.087,
                  "lat": 21.622
                }
              },
              "contexts": {
                "location": [
                  "87ze"
                ]
              }
            }
          ]
        }
      ]
    },
    "status": 200
  },
  {
    "took": 3,
    "timed_out": false,
    "_shards": {
      "total": 5,
      "successful": 5,
      "failed": 0
    },
    "hits": {
      "total": 0,
      "max_score": 0,
      "hits": []
    },
    "suggest": {
      "geoname-suggest": [
        {
          "text": "hun",
          "offset": 0,
          "length": 3,
          "options": [
            {
              "text": "Huntington Beach",
              "_index": "taxonomy",
              "_type": "geoname",
              "_id": "AVscIFTWJT5FUSljG3Lv",
              "_score": 17,
              "_source": {
                "name": "Huntington Beach",
                "location": {
                  "lon": "-117.99923",
                  "lat": "33.6603"
                }
              },
              "contexts": {
                "location": [
                  "geoname"
                ]
              }
            }
          ]
        }
      ]
    },
    "status": 200
  },
  {
    "took": 3,
    "timed_out": false,
    "_shards": {
      "total": 5,
      "successful": 5,
      "failed": 0
    },
    "hits": {
      "total": 0,
      "max_score": 0,
      "hits": []
    },
    "suggest": {
      "travel-suggest": [
        {
          "text": "hun",
          "offset": 0,
          "length": 3,
          "options": [
            {
              "text": "Huntington Beach",
              "_index": "taxonomy",
              "_type": "travel",
              "_id": "AVscIFTWJT5FUSljG3Lv",
              "_score": 17,
              "_source": {
                "name": "Huntington Beach",
                "location": {
                  "lon": "-117.99923",
                  "lat": "33.6603"
                }
              },
              "contexts": {
                "location": [
                  "travel"
                ]
              }
            }
          ]
        }
      ]
    },
    "status": 200
  }
]
