<?xml version="1.0" encoding="UTF-8" standalone="no"?>
<svg width="38px" height="19px" viewBox="0 0 38 19" version="1.1" xmlns="http://www.w3.org/2000/svg" xmlns:xlink="http://www.w3.org/1999/xlink">
    <!-- Generator: Sketch 39.1 (31720) - http://www.bohemiancoding.com/sketch -->
    <title>Fill 1</title>
    <desc>Created with Sketch.</desc>
    <defs></defs>
    <g id="web-color" stroke="none" stroke-width="1" fill="none" fill-rule="evenodd">
        <g id="sign-in-desktop" transform="translate(-701.000000, -589.000000)" fill="#FFFFFF">
            <path d="M725.020943,599.062827 C723.892443,599.299238 723.650425,599.394758 722.771806,599.953948 C721.519249,600.75134 720.830156,601.055611 720.252536,602.177971 C719.497188,601.379185 719.229612,600.381798 718.493137,599.672562 C717.619827,598.83736 716.421532,598.379262 715.117662,597.86425 C713.621317,597.277599 712.282255,596.581497 710.947517,596.0436 C709.524112,594.375584 707.363053,593.564659 705.832106,592.020619 C705.605816,592.050867 705.576129,591.847091 705.317203,591.911766 C704.280123,590.973482 703.09677,590.201163 701.898475,589.450934 C701.865446,589.557399 702.007983,589.819481 701.851291,589.818088 C701.603768,589.506654 701.426432,589.107659 701,589 C702.025481,592.29305 704.0847,593.731819 706.148047,595.580727 C706.963359,596.31026 707.617064,597.357398 708.539132,597.749029 C709.536105,598.172103 710.616438,598.399958 711.57527,598.849897 C713.665356,599.827782 715.770383,601.032925 715.693905,604.109065 C715.186079,604.305279 714.554198,604.746661 714.615341,605.210729 C714.61829,605.164561 714.62006,605.123766 714.681203,605.13292 C714.698308,605.761162 713.78666,606.167122 712.802466,606.143839 C712.649116,606.277368 712.47119,606.895859 712.791653,607.021428 C712.894476,606.221648 714.03379,606.339456 714.749621,606.077174 C715.112353,607.053268 715.752886,608.091849 716.963566,607.820612 C717.151912,607.598727 716.94253,607.338037 717.057543,607.158738 C718.282772,607.260427 719.154313,606.925908 720.053967,606.57945 C720.663043,606.343038 721.185221,605.871408 721.727845,605.728327 C722.096868,605.635195 722.483193,605.846135 722.799134,605.580669 C722.672915,605.571714 722.446625,605.677184 722.50305,605.455697 C723.565295,605.055708 724.65074,605.002376 725.802833,605.147646 C727.695726,605.384057 729.813533,605.670021 731.645479,606.077175 C730.204772,605.237196 727.676262,605.404753 725.998256,604.840987 C728.644335,604.950238 731.314793,604.790804 733.541715,604.59459 C730.818764,604.17868 727.144058,605.13292 724.803894,604.270255 C724.55755,603.886981 725.159155,602.495574 725.316241,602.259361 C725.844513,601.447243 726.568405,600.439906 727.477693,600.13066 C727.678818,600.065189 727.932436,600.134441 728.125107,600.084691 C728.360834,600.0232 728.580046,599.804499 728.823637,599.744202 C729.505456,599.572067 730.201037,599.584405 730.813455,599.309984 C731.067662,599.271179 730.547255,599.132078 730.799889,599.091284 C731.165177,599.071782 731.537937,599.057056 731.72235,598.880145 C731.645478,598.889498 731.537937,598.858255 731.645478,598.81348 C732.407315,598.732089 732.77103,598.297871 733.556262,598.237574 C733.775081,598.072603 733.345504,598.107826 733.541713,598.020266 C734.861116,597.745248 735.325295,597.028849 736.635457,596.849749 C736.66534,596.614332 736.372402,596.769751 736.544823,596.563786 C736.927609,596.5809 737.16078,596.466674 737.474558,596.424088 C737.742135,595.953653 738.968937,595.965991 739,595.514062 C737.096687,596.349065 734.568374,596.797412 732.049104,597.32317 C729.58508,597.837584 727.163129,598.615475 725.020943,599.062827 Z" id="Fill-1" transform="translate(720.000000, 598.432200) scale(-1, 1) translate(-720.000000, -598.432200) "></path>
        </g>
    </g>
</svg>