{
  "AWSTemplateFormatVersion": "2010-09-09",
  "Description": "Bestmodels ElastiCache Parameter Group (1.0.0)",
  "Metadata": {
    "AWS::CloudFormation::Interface": {
      "ParameterGroups": [
        {
          "Label": {
            "default": "Application"
          },
          "Parameters": [
            "ApplicationName",
            "CompanyName",
            "EnvironmentName"
          ]
        },
        {
          "Label": {
            "default": "ElastiCache Settings"
          },
          "Parameters": [
            "CacheParameterGroupFamily",
            "Databases"
          ]
        }
      ]
    }
  },
  "Parameters": {
    "ApplicationName": {
      "Description": "Name of application cache will be used for",
      "Type": "String"
    },
    "CompanyName": {
      "Description": "Company (Surfline, Buoy Weather)",
      "Type": "String",
      "Default": "sl",
      "AllowedValues": [
        "bw",
        "ft",
        "sl"
      ]
    },
    "EnvironmentName": {
      "Description": "Name of environment",
      "Type": "String",
      "Default": "prod",
      "AllowedValues": [
        "common",
        "dev",
        "prod",
        "qa",
        "sbox",
        "staging",
        "testing"
      ]
    },
    "CacheParameterGroupFamily": {
      "Description": "Name of environment",
      "Type": "String",
      "Default": "redis2.8"
    },
    "Databases": {
      "Description": "Parameter databases to 'Set the number of databases'",
      "Type": "String",
      "Default": "24"
    }
  },
  "Resources": {
    "CacheParameterGroup": {
      "Type": "AWS::ElastiCache::ParameterGroup",
      "Properties": {
        "CacheParameterGroupFamily": { "Ref": "CacheParameterGroupFamily"},
        "Description": { "Fn::Join": [ "-", [ "elasticache-parameter-group", { "Ref": "CompanyName" }, { "Ref": "ApplicationName" }, { "Ref": "EnvironmentName" } ] ] },
        "Properties": {
          "databases": { "Ref": "Databases"}
        }
      }
    }
  },
  "Outputs": {
    "CacheParameterGroup": {
      "Description": "Physical ID of the ElastiCache Parameter Group",
      "Value": { "Ref": "CacheParameterGroup" }
    }
  }
}
