{
  "imageName": "account/gifts",
  "module": "gifts",
  "bucket": "s3://sl-product-cdn-{environment}",
  "destinationPath": "gifts/{brand}",
  "appType": "account",
  "secrets": {
    "common": {
      "prefix": "/{env}/common/",
      "secrets": [
        "NEW_RELIC_ENABLED",
        "NEW_RELIC_LICENSE_KEY",
        "NEW_RELIC_APPLICATION_ID",
        "SEGMENT_WRITE_KEY",
        "SPLIT_AUTHORIZATION_KEY",
        "STRIPE_PUBLIC_KEY"
      ]
    }
  },
  "service": {
    "prefix": "/{env}/services/gifts-next/",
    "secrets": []
  },
  "newRelic": {
    "applicationId": {}
  },
  "requireEnvironmentContainers": true,
  "noCacheFiles": ["**/index.html"]
}
