<svg width="25" height="25" viewBox="0 0 25 25" fill="none" xmlns="http://www.w3.org/2000/svg">
<path d="M12.6774 9.49353C13.499 10.2719 13.9882 11.1427 14.1749 12.0844C14.2282 12.3577 15.7349 12.0369 16.7949 12.7835C17.2807 13.131 18.0274 13.6169 18.6182 14.6935C19.2849 13.8602 19.8099 12.8219 19.8099 11.6552C19.8099 9.07186 17.8099 6.98853 15.1424 6.98853C13.7265 6.98853 12.419 7.68603 11.5857 8.68686C11.919 8.85269 12.1274 9.02103 12.6774 9.49353V9.49353Z" fill="#EFC319"/>
<path d="M22.0592 5.32108C22.0592 5.48775 21.975 5.73775 21.8925 5.82108C21.4759 6.23775 21.0592 6.73775 20.5584 7.15441C20.3084 7.40441 19.9759 7.48775 19.6417 7.32108C19.1417 7.07108 19.0584 6.48775 19.475 6.07108C19.8084 5.73775 20.0584 5.48775 20.3925 5.15441C20.5584 4.98775 20.6425 4.90441 20.8092 4.73775C21.0592 4.48775 21.3092 4.48775 21.6425 4.57108C21.8925 4.73858 22.0592 4.98775 22.0592 5.32108V5.32108Z" fill="#EFC319"/>
<path d="M22.975 10.821H23.8917C24.3083 10.821 24.6417 11.1544 24.6417 11.571C24.6417 11.9877 24.3083 12.321 23.8917 12.321H21.975C21.5583 12.321 21.2258 11.9877 21.2258 11.571C21.2258 11.1544 21.5583 10.821 21.975 10.821H22.975Z" fill="#EFC319"/>
<path d="M14.2251 3.57096V2.6543C14.2251 2.23763 14.5584 1.9043 14.9751 1.9043C15.3918 1.9043 15.7243 2.1543 15.7243 2.57096V4.57096C15.7243 4.98763 15.3918 5.32096 14.9751 5.32096C14.5584 5.32096 14.2251 4.98763 14.2251 4.57096V3.57096V3.57096Z" fill="#EFC319"/>
<path d="M8.64082 4.48755C8.88998 4.48755 9.05748 4.57088 9.22332 4.73755C9.39082 4.90422 9.64165 5.07088 9.80748 5.32088C10.1408 5.65422 10.1408 6.15422 9.80748 6.40422C9.55832 6.65422 9.05748 6.65422 8.72332 6.40422C8.47248 6.23755 8.30665 5.98755 8.14082 5.73755C7.88998 5.48755 7.88998 5.23755 8.05582 4.90422C8.14165 4.65422 8.38998 4.48755 8.64082 4.48755Z" fill="#EFC319"/>
<path d="M21.3082 18.6544C21.1415 18.6544 20.9749 18.571 20.8082 18.4877C20.6415 18.321 20.4749 18.1544 20.2249 17.9877C19.8915 17.6544 19.8082 17.1544 20.1407 16.821C20.474 16.4877 20.974 16.4877 21.3074 16.821L21.8907 17.4044C22.1407 17.6544 22.1407 17.9044 22.0574 18.1544C21.8924 18.4044 21.6424 18.6544 21.3082 18.6544V18.6544Z" fill="#EFC319"/>
<path fill-rule="evenodd" clip-rule="evenodd" d="M9.6859 21.4217C8.0584 21.4217 6.43173 21.4225 4.80506 21.4217C4.2159 21.4217 3.6409 21.3417 3.08506 21.1325C1.91089 20.69 1.03256 19.9192 0.504228 18.7775C-0.144939 17.3734 -0.133272 15.965 0.609228 14.6042C1.23506 13.4559 2.19756 12.6967 3.4759 12.365C3.6084 12.33 3.66173 12.2709 3.6934 12.14C3.8859 11.3417 4.23423 10.6159 4.76756 9.98504C5.5884 9.0142 6.60673 8.3567 7.86089 8.1017C9.2059 7.82754 10.5051 7.97587 11.7126 8.65254C13.0709 9.4142 13.9909 10.5375 14.3967 12.0567C14.4292 12.1759 14.4809 12.2025 14.5917 12.1992C15.3309 12.1834 16.0401 12.305 16.7117 12.6267C17.4026 12.9567 17.9709 13.4359 18.4359 14.0384C19.1759 14.9942 19.4467 16.085 19.3292 17.2759C19.1234 19.3609 17.5167 21.0525 15.4584 21.3584C15.1717 21.4009 14.8801 21.4159 14.5901 21.4175C12.9567 21.4242 11.3217 21.4217 9.6859 21.4217V21.4217Z" fill="#7F7F7F"/>
<path fill-rule="evenodd" clip-rule="evenodd" d="M13.8241 18.0041C13.8066 18.0274 13.7941 18.0541 13.7741 18.0733C13.3349 18.5133 12.8949 18.9533 12.4541 19.3924C12.2299 19.6158 11.8958 19.5641 11.7566 19.2883C11.6824 19.1433 11.7016 18.9633 11.8149 18.8491C12.1791 18.4816 12.5449 18.1191 12.9091 17.7549C13.0224 17.6416 13.1341 17.5274 13.2608 17.3999H13.1658H11.2724C11.0641 17.3999 10.8949 17.2708 10.8508 17.0808C10.8049 16.8891 10.8941 16.6824 11.0724 16.5999C11.1441 16.5674 11.2308 16.5549 11.3108 16.5541C11.9233 16.5508 12.5358 16.5533 13.1483 16.5533H13.2516C13.2183 16.5174 13.1999 16.4983 13.1808 16.4791C12.7358 16.0341 12.2958 15.5849 11.8441 15.1449C11.6033 14.9099 11.7224 14.5116 12.0408 14.4324C12.1708 14.3999 12.2941 14.4258 12.4008 14.5124C12.4249 14.5324 12.4483 14.5558 12.4724 14.5791C12.9083 15.0158 13.3449 15.4524 13.7808 15.8883C13.7983 15.9058 13.8183 15.9216 13.8483 15.9499V15.8599C13.8483 15.2316 13.8474 14.6024 13.8483 13.9716C13.8483 13.6674 14.1349 13.4566 14.4158 13.5566C14.5808 13.6166 14.6708 13.7441 14.6916 13.9183C14.6966 13.9549 14.6941 13.9933 14.6941 14.0316C14.6949 14.6441 14.6941 15.2566 14.6941 15.8691V15.9658C14.7258 15.9374 14.7458 15.9199 14.7633 15.9016C15.2016 15.4616 15.6408 15.0199 16.0791 14.5783C16.1716 14.4866 16.2758 14.4199 16.4141 14.4216C16.6583 14.4233 16.8424 14.6266 16.8216 14.8716C16.8116 14.9933 16.7641 15.0916 16.6783 15.1758C16.2416 15.6099 15.8074 16.0458 15.3724 16.4791C15.3549 16.4974 15.3374 16.5174 15.3041 16.5533H15.4008C16.0174 16.5533 16.6341 16.5516 17.2524 16.5533C17.4674 16.5533 17.6266 16.6574 17.6891 16.8341C17.7874 17.1183 17.5874 17.3991 17.2833 17.3999C16.6541 17.4008 16.0249 17.3999 15.3966 17.3999H15.2974C15.3258 17.4316 15.3424 17.4508 15.3591 17.4674C15.8041 17.9124 16.2491 18.3558 16.6933 18.8024C16.9058 19.0149 16.8508 19.3683 16.5883 19.4924C16.4366 19.5633 16.2899 19.5449 16.1558 19.4433C16.1308 19.4224 16.1066 19.3991 16.0841 19.3758C15.6458 18.9374 15.2074 18.4983 14.7716 18.0591C14.7516 18.0399 14.7391 18.0124 14.7224 17.9891C14.7124 17.9941 14.7033 17.9991 14.6933 18.0049V18.0841C14.6933 18.7108 14.6924 19.3374 14.6941 19.9641C14.6958 20.1383 14.6349 20.2783 14.4808 20.3674C14.2049 20.5266 13.8516 20.3233 13.8474 19.9983C13.8441 19.6858 13.8474 19.3716 13.8474 19.0591V18.0983V18.0216C13.8399 18.0158 13.8324 18.0099 13.8241 18.0041V18.0041Z" fill="white"/>
<path fill-rule="evenodd" clip-rule="evenodd" d="M7.47172 18.955C7.46172 18.9692 7.45338 18.985 7.44172 18.9967C7.17505 19.2642 6.90838 19.5308 6.64088 19.7975C6.50505 19.9325 6.30172 19.9017 6.21755 19.7342C6.17255 19.6467 6.18338 19.5375 6.25255 19.4683C6.47338 19.2442 6.69588 19.025 6.91672 18.8033C6.98588 18.735 7.05338 18.665 7.13005 18.5883H7.07255H5.92338C5.79672 18.5883 5.69422 18.5092 5.66755 18.395C5.64005 18.2783 5.69338 18.1533 5.80172 18.1025C5.84505 18.0833 5.89838 18.0758 5.94672 18.075C6.31838 18.0733 6.69005 18.075 7.06172 18.075H7.12422C7.10422 18.0533 7.09255 18.0408 7.08088 18.0292C6.81088 17.7592 6.54338 17.4867 6.27005 17.2192C6.12422 17.0767 6.19672 16.835 6.39005 16.7867C6.46922 16.7675 6.54338 16.7825 6.60838 16.835C6.62338 16.8483 6.63755 16.8608 6.65172 16.8758C6.91672 17.1408 7.18088 17.4058 7.44588 17.6708C7.45672 17.6817 7.46838 17.6908 7.48672 17.7083V17.6542V16.5075C7.48672 16.3225 7.66005 16.195 7.83088 16.2558C7.93088 16.2925 7.98588 16.3692 7.99838 16.475C8.00172 16.4975 8.00005 16.5208 8.00005 16.5442V17.6592V17.7175C8.01838 17.7 8.03088 17.69 8.04172 17.6783C8.30755 17.4117 8.57505 17.1433 8.84005 16.8758C8.89672 16.82 8.96088 16.7792 9.04338 16.78C9.19172 16.7817 9.30338 16.9042 9.29088 17.0533C9.28588 17.1275 9.25672 17.1867 9.20422 17.2383C8.93922 17.5017 8.67505 17.7667 8.41172 18.0292C8.40088 18.0408 8.39088 18.0525 8.36922 18.075H8.42838C8.80255 18.075 9.17672 18.0733 9.55255 18.075C9.68255 18.075 9.77922 18.1375 9.81755 18.245C9.87672 18.4175 9.75588 18.5875 9.57088 18.5883H8.42588H8.36588C8.38338 18.6075 8.39255 18.6192 8.40338 18.6292C8.67338 18.8992 8.94338 19.1683 9.21338 19.44C9.34172 19.5683 9.30838 19.7833 9.14922 19.8583C9.05838 19.9017 8.96838 19.8908 8.88755 19.8292C8.87255 19.8158 8.85838 19.8025 8.84422 19.7883C8.57838 19.5217 8.31172 19.255 8.04755 18.9892C8.03422 18.9767 8.02838 18.9608 8.01838 18.9458C8.01172 18.9492 8.00588 18.9517 8.00088 18.9558V19.0042C8.00088 19.3842 8.00005 19.7642 8.00088 20.145C8.00255 20.2508 7.96505 20.3358 7.87172 20.39C7.70422 20.4867 7.49005 20.3633 7.48755 20.165C7.48588 19.975 7.48755 19.785 7.48755 19.595V19.0117V18.965C7.48172 18.9608 7.47672 18.9583 7.47172 18.955V18.955Z" fill="white"/>
</svg>
