<svg width="25" height="25" viewBox="0 0 25 25" fill="none" xmlns="http://www.w3.org/2000/svg">
<path d="M12.8856 7.82678C13.7073 8.60511 14.1964 9.47594 14.3831 10.4176C14.4364 10.6909 15.9431 10.3701 17.0031 11.1168C17.4889 11.4643 18.2356 11.9501 18.8264 13.0268C19.4931 12.1934 20.0181 11.1551 20.0181 9.98844C20.0181 7.40511 18.0181 5.32178 15.3506 5.32178C13.9348 5.32178 12.6273 6.01928 11.7939 7.02011C12.1273 7.18594 12.3356 7.35428 12.8856 7.82678V7.82678Z" fill="#EFC319"/>
<path d="M22.2675 3.65433C22.2675 3.821 22.1833 4.071 22.1008 4.15433C21.6841 4.571 21.2675 5.071 20.7666 5.48767C20.5166 5.73767 20.1841 5.821 19.85 5.65433C19.35 5.40433 19.2666 4.821 19.6833 4.40433C20.0166 4.071 20.2666 3.821 20.6008 3.48767C20.7666 3.321 20.8508 3.23767 21.0175 3.071C21.2675 2.821 21.5175 2.821 21.8508 2.90433C22.1008 3.07183 22.2675 3.321 22.2675 3.65433V3.65433Z" fill="#EFC319"/>
<path d="M23.1832 9.1543H24.0999C24.5166 9.1543 24.8499 9.48763 24.8499 9.9043C24.8499 10.321 24.5166 10.6543 24.0999 10.6543H22.1832C21.7666 10.6543 21.4341 10.321 21.4341 9.9043C21.4341 9.48763 21.7666 9.1543 22.1832 9.1543H23.1832Z" fill="#EFC319"/>
<path d="M14.4331 1.90422V0.987549C14.4331 0.570882 14.7664 0.237549 15.1831 0.237549C15.5998 0.237549 15.9323 0.487549 15.9323 0.904216V2.90422C15.9323 3.32088 15.5998 3.65422 15.1831 3.65422C14.7664 3.65422 14.4331 3.32088 14.4331 2.90422V1.90422Z" fill="#EFC319"/>
<path d="M8.84907 2.8208C9.09824 2.8208 9.26574 2.90413 9.43157 3.0708C9.59907 3.23747 9.8499 3.40413 10.0157 3.65413C10.3491 3.98747 10.3491 4.48747 10.0157 4.73747C9.76657 4.98747 9.26574 4.98747 8.93157 4.73747C8.68074 4.5708 8.5149 4.3208 8.34907 4.0708C8.09824 3.8208 8.09824 3.5708 8.26407 3.23747C8.3499 2.98747 8.59824 2.8208 8.84907 2.8208Z" fill="#EFC319"/>
<path d="M21.5165 16.9876C21.3498 16.9876 21.1831 16.9043 21.0165 16.821C20.8498 16.6543 20.6831 16.4876 20.4331 16.321C20.0998 15.9876 20.0165 15.4876 20.349 15.1543C20.6823 14.821 21.1823 14.821 21.5156 15.1543L22.099 15.7376C22.349 15.9876 22.349 16.2376 22.2656 16.4876C22.1006 16.7376 21.8506 16.9876 21.5165 16.9876V16.9876Z" fill="#EFC319"/>
<path fill-rule="evenodd" clip-rule="evenodd" d="M9.82579 18.7825C8.19829 18.7825 6.57162 18.7834 4.94495 18.7825C4.35579 18.7825 3.78079 18.7025 3.22495 18.4934C2.05079 18.0509 1.17245 17.28 0.644121 16.1384C-0.00504597 14.7342 0.0066207 13.3259 0.749121 11.965C1.37495 10.8167 2.33745 10.0575 3.61579 9.72588C3.74829 9.69088 3.80162 9.63171 3.83329 9.50088C4.02579 8.70254 4.37495 7.97671 4.90745 7.34587C5.72912 6.37504 6.74662 5.71754 8.00162 5.46254C9.34662 5.18838 10.6458 5.33671 11.8533 6.01338C13.2116 6.77504 14.1316 7.89838 14.5366 9.41754C14.5691 9.53671 14.6216 9.56338 14.7316 9.56004C15.4708 9.54421 16.18 9.66588 16.8525 9.98754C17.5425 10.3175 18.1108 10.7967 18.5758 11.3992C19.3166 12.355 19.5866 13.4459 19.4691 14.6367C19.2641 16.7217 17.6575 18.4134 15.5983 18.7192C15.3116 18.7617 15.0208 18.7767 14.7308 18.7784C13.0958 18.785 11.4608 18.7825 9.82579 18.7825Z" fill="#7F7F7F"/>
<path d="M12.0176 22.9524C12.5377 22.9524 12.9593 22.5308 12.9593 22.0108C12.9593 21.4907 12.5377 21.0691 12.0176 21.0691C11.4975 21.0691 11.0759 21.4907 11.0759 22.0108C11.0759 22.5308 11.4975 22.9524 12.0176 22.9524Z" fill="#CECECE"/>
<path d="M8.82668 24.1558C9.34674 24.1558 9.76834 23.7342 9.76834 23.2141C9.76834 22.6941 9.34674 22.2725 8.82668 22.2725C8.30661 22.2725 7.88501 22.6941 7.88501 23.2141C7.88501 23.7342 8.30661 24.1558 8.82668 24.1558Z" fill="#CECECE"/>
<path d="M7.0818 22.0259C7.60187 22.0259 8.02347 21.6043 8.02347 21.0842C8.02347 20.5642 7.60187 20.1426 7.0818 20.1426C6.56174 20.1426 6.14014 20.5642 6.14014 21.0842C6.14014 21.6043 6.56174 22.0259 7.0818 22.0259Z" fill="#CECECE"/>
<path d="M3.80177 23.1292C4.32184 23.1292 4.74344 22.7076 4.74344 22.1875C4.74344 21.6674 4.32184 21.2458 3.80177 21.2458C3.28171 21.2458 2.86011 21.6674 2.86011 22.1875C2.86011 22.7076 3.28171 23.1292 3.80177 23.1292Z" fill="#CECECE"/>
<path d="M13.47 19.7984C13.9901 19.7984 14.4117 19.3768 14.4117 18.8567C14.4117 18.3366 13.9901 17.915 13.47 17.915C12.9499 17.915 12.5283 18.3366 12.5283 18.8567C12.5283 19.3768 12.9499 19.7984 13.47 19.7984Z" fill="#CECECE"/>
<path d="M10.2783 21.0025C10.7984 21.0025 11.22 20.5809 11.22 20.0608C11.22 19.5407 10.7984 19.1191 10.2783 19.1191C9.75827 19.1191 9.33667 19.5407 9.33667 20.0608C9.33667 20.5809 9.75827 21.0025 10.2783 21.0025Z" fill="#CECECE"/>
<path d="M8.5342 18.8716C9.05426 18.8716 9.47586 18.45 9.47586 17.9299C9.47586 17.4099 9.05426 16.9883 8.5342 16.9883C8.01413 16.9883 7.59253 17.4099 7.59253 17.9299C7.59253 18.45 8.01413 18.8716 8.5342 18.8716Z" fill="#CECECE"/>
<path d="M5.25417 19.9751C5.77423 19.9751 6.19583 19.5535 6.19583 19.0335C6.19583 18.5134 5.77423 18.0918 5.25417 18.0918C4.7341 18.0918 4.3125 18.5134 4.3125 19.0335C4.3125 19.5535 4.7341 19.9751 5.25417 19.9751Z" fill="#CECECE"/>
<path d="M14.9475 16.3584C15.4676 16.3584 15.8892 15.9368 15.8892 15.4168C15.8892 14.8967 15.4676 14.4751 14.9475 14.4751C14.4275 14.4751 14.0059 14.8967 14.0059 15.4168C14.0059 15.9368 14.4275 16.3584 14.9475 16.3584Z" fill="#CECECE"/>
<path d="M11.7569 17.5618C12.2769 17.5618 12.6985 17.1402 12.6985 16.6201C12.6985 16.1001 12.2769 15.6785 11.7569 15.6785C11.2368 15.6785 10.8152 16.1001 10.8152 16.6201C10.8152 17.1402 11.2368 17.5618 11.7569 17.5618Z" fill="#CECECE"/>
<path d="M10.0117 15.4317C10.5318 15.4317 10.9534 15.0101 10.9534 14.49C10.9534 13.9699 10.5318 13.5483 10.0117 13.5483C9.49167 13.5483 9.07007 13.9699 9.07007 14.49C9.07007 15.0101 9.49167 15.4317 10.0117 15.4317Z" fill="#CECECE"/>
<path d="M6.73268 16.5349C7.25275 16.5349 7.67435 16.1133 7.67435 15.5933C7.67435 15.0732 7.25275 14.6516 6.73268 14.6516C6.21261 14.6516 5.79102 15.0732 5.79102 15.5933C5.79102 16.1133 6.21261 16.5349 6.73268 16.5349Z" fill="#CECECE"/>
</svg>
