<?xml version="1.0" encoding="UTF-8" standalone="no"?>
<svg width="32px" height="32px" viewBox="0 0 32 32" version="1.1" xmlns="http://www.w3.org/2000/svg" xmlns:xlink="http://www.w3.org/1999/xlink">
    <!-- Generator: Sketch 43.2 (39069) - http://www.bohemiancoding.com/sketch -->
    <title>CLEAR_NO_RAIN</title>
    <desc>Created with Sketch.</desc>
    <defs></defs>
    <g id="DAY-WEATHER" stroke="none" stroke-width="1" fill="none" fill-rule="evenodd">
        <g id="CLEAR_NO_RAIN" fill="#FFE217">
            <g id="hazy" transform="translate(-7.000000, -7.000000)">
                <g id="partly-sunny">
                    <circle id="Oval-1" cx="23" cy="23" r="9"></circle>
                    <path d="M23.8947051,8.78941011 C23.4005731,7.8011462 22.5952702,7.80945969 22.1052949,8.78941011 L21,11 L25,11 L23.8947051,8.78941011 Z" id="Shape"></path>
                    <path d="M23.6548748,37.6902504 C23.2931974,38.4136051 22.7048931,38.4097862 22.3451252,37.6902504 L21,35 L25,35 L23.6548748,37.6902504 Z" id="Shape"></path>
                    <path d="M37.6902504,23.6548748 C38.4136051,23.2931974 38.4097862,22.7048931 37.6902504,22.3451252 L35,21 L35,25 L37.6902504,23.6548748 Z" id="Shape"></path>
                    <path d="M8.3097496,23.6548748 C7.58639487,23.2931974 7.59021378,22.7048931 8.3097496,22.3451252 L11,21 L11,25 L8.3097496,23.6548748 Z" id="Shape"></path>
                    <g id="Group" transform="translate(23.000000, 23.000000) rotate(-45.000000) translate(-23.000000, -23.000000) translate(7.000000, 7.000000)">
                        <path d="M16.8947051,1.78941011 C16.4005731,0.801146197 15.5952702,0.809459686 15.1052949,1.78941011 L14,4 L18,4 L16.8947051,1.78941011 Z" id="Shape-Copy-4"></path>
                        <path d="M16.6548748,30.6902504 C16.2931974,31.4136051 15.7048931,31.4097862 15.3451252,30.6902504 L14,28 L18,28 L16.6548748,30.6902504 Z" id="Shape-Copy"></path>
                        <path d="M30.6902504,16.6548748 C31.4136051,16.2931974 31.4097862,15.7048931 30.6902504,15.3451252 L28,14 L28,18 L30.6902504,16.6548748 Z" id="Shape-Copy-2"></path>
                        <path d="M1.3097496,16.6548748 C0.586394871,16.2931974 0.590213776,15.7048931 1.3097496,15.3451252 L4,14 L4,18 L1.3097496,16.6548748 Z" id="Shape-Copy-3"></path>
                    </g>
                </g>
            </g>
        </g>
    </g>
</svg>