<svg width="25" height="25" viewBox="0 0 25 25" fill="none" xmlns="http://www.w3.org/2000/svg">
<path fill-rule="evenodd" clip-rule="evenodd" d="M12.1168 17.0467H7.23597C6.6468 17.0467 6.0718 16.9667 5.51597 16.7567C4.3418 16.3142 3.46347 15.5442 2.93514 14.4025C2.28597 12.9984 2.29764 11.5909 3.04014 10.2284C3.66597 9.08003 4.62847 8.32087 5.9068 7.9892C6.0393 7.9542 6.09264 7.89504 6.1243 7.7642C6.31764 6.9667 6.66597 6.24087 7.1993 5.61003C8.02014 4.6392 9.03847 3.9817 10.2926 3.7267C11.6385 3.45254 12.9368 3.60087 14.1443 4.27754C15.5035 5.0392 16.4226 6.16253 16.8285 7.68253C16.861 7.8017 16.9135 7.82754 17.0235 7.82504C17.7626 7.8092 18.4718 7.9317 19.1443 8.25253C19.8343 8.58253 20.4026 9.0617 20.8676 9.6642C21.6085 10.62 21.8785 11.7109 21.761 12.9025C21.556 14.9875 19.9493 16.6784 17.8901 16.9842C17.6035 17.0267 17.3126 17.0417 17.0226 17.0434C15.3876 17.0492 13.7535 17.0467 12.1168 17.0467V17.0467Z" fill="#7F7F7F"/>
<path fill-rule="evenodd" clip-rule="evenodd" d="M16.1392 14.8291C16.7526 14.8291 17.3359 14.8275 17.9159 14.8325C17.9884 14.8325 18.0592 14.8666 18.1292 14.8858C18.1051 14.9558 18.0917 15.0341 18.0517 15.0933C16.5809 17.2733 15.1059 19.45 13.6376 21.6325C13.5467 21.7675 13.4517 21.8241 13.2817 21.7691C13.9834 19.935 14.6859 18.1025 15.3976 16.245C15.3117 16.24 15.2526 16.235 15.1959 16.235C14.6909 16.2341 14.1867 16.235 13.6826 16.235C13.3817 16.2341 13.3567 16.1991 13.4609 15.9225C13.9151 14.7116 14.3709 13.5008 14.8267 12.2908C14.9626 11.9283 15.1034 11.5683 15.2317 11.2025C15.2851 11.0558 15.3734 10.9941 15.5292 10.9941C16.3267 10.9975 17.1251 10.995 17.9234 10.9966C18.1642 10.9975 18.1867 11.0408 18.0692 11.2591C17.4559 12.3916 16.8401 13.525 16.2259 14.6575C16.1992 14.705 16.1767 14.7541 16.1392 14.8291V14.8291Z" fill="#EFC319"/>
<path fill-rule="evenodd" clip-rule="evenodd" d="M10.3225 14.5684C11.1208 15.3775 11.8992 16.1784 12.3033 17.2575C12.7467 18.4392 12.0158 19.6342 10.9417 19.96C9.75917 20.3209 8.53501 19.6217 8.25251 18.4442C8.12417 17.9034 8.22334 17.3909 8.47084 16.9042C8.92667 16.0092 9.58751 15.2759 10.3225 14.5684V14.5684Z" fill="#3DBAE7"/>
<path fill-rule="evenodd" clip-rule="evenodd" d="M6.78665 12.1401C7.20415 12.5018 7.49999 12.9535 7.74999 13.436C7.84749 13.6201 7.93749 13.8135 7.99582 14.0118C8.24249 14.851 7.57249 15.6501 6.70332 15.5668C6.01832 15.501 5.57499 15.0901 5.48749 14.4318C5.44999 14.1476 5.55915 13.8926 5.67832 13.646C5.95332 13.0768 6.35082 12.5976 6.78665 12.1401V12.1401Z" fill="#3DBAE7"/>
<path fill-rule="evenodd" clip-rule="evenodd" d="M10.4625 10.415C10.7042 10.7792 10.9658 11.1042 11.1517 11.4684C11.42 11.9984 11.1808 12.5492 10.6567 12.6917C10.3 12.79 9.98417 12.7017 9.74 12.4175C9.51417 12.1584 9.48417 11.8667 9.6225 11.5534C9.80917 11.1309 10.0767 10.7684 10.4625 10.415V10.415Z" fill="#3DBAE7"/>
</svg>
