<?xml version="1.0" encoding="UTF-8" standalone="no"?>
<svg width="32px" height="32px" viewBox="0 0 32 32" version="1.1" xmlns="http://www.w3.org/2000/svg" xmlns:xlink="http://www.w3.org/1999/xlink">
    <!-- Generator: Sketch 43.2 (39069) - http://www.bohemiancoding.com/sketch -->
    <title>MOSTLY_CLEAR_SNOW</title>
    <desc>Created with Sketch.</desc>
    <defs>
        <path d="M-1.0658141e-13,12 C-1.0658141e-13,5.372583 5.372583,0 12,0 C18.627417,0 24,5.372583 24,12 L-1.07913678e-13,12 Z" id="path-1"></path>
    </defs>
    <g id="DAY-WEATHER" stroke="none" stroke-width="1" fill="none" fill-rule="evenodd">
        <g id="MOSTLY_CLEAR_SNOW">
            <path d="M22,22.4847712 L20.4825212,20.9672924 C20.0703836,20.5551548 19.3879613,20.5511235 18.9695424,20.9695424 C18.5482063,21.3908784 18.5501161,22.0653449 18.9672924,22.4825212 L20.4847712,24 L18.9672924,25.5174788 C18.5551548,25.9296164 18.5511235,26.6120387 18.9695424,27.0304576 C19.3908784,27.4517937 20.0653449,27.4498839 20.4825212,27.0327076 L22,25.5152288 L23.5174788,27.0327076 C23.9296164,27.4448452 24.6120387,27.4488765 25.0304576,27.0304576 C25.4517937,26.6091216 25.4498839,25.9346551 25.0327076,25.5174788 L23.5152288,24 L25.0327076,22.4825212 C25.4448452,22.0703836 25.4488765,21.3879613 25.0304576,20.9695424 C24.6091216,20.5482063 23.9346551,20.5501161 23.5174788,20.9672924 L22,22.4847712 Z M17,23.2857143 L18.4285714,23.2857143 L18.4285714,24.7142857 L17,24.7142857 L17,23.2857143 Z M25.5714286,23.2857143 L27,23.2857143 L27,24.7142857 L25.5714286,24.7142857 L25.5714286,23.2857143 Z M21.2857143,27.5714286 L22.7142857,27.5714286 L22.7142857,29 L21.2857143,29 L21.2857143,27.5714286 Z M21.2857143,19 L22.7142857,19 L22.7142857,20.4285714 L21.2857143,20.4285714 L21.2857143,19 Z" id="Rectangle-1-Copy-3" fill="#DDDDDD"></path>
            <path d="M11,18.4847712 L9.48252117,16.9672924 C9.07038361,16.5551548 8.38796125,16.5511235 7.96954237,16.9695424 C7.54820634,17.3908784 7.55011612,18.0653449 7.96729236,18.4825212 L9.48477118,20 L7.96729236,21.5174788 C7.55515479,21.9296164 7.55112348,22.6120387 7.96954237,23.0304576 C8.39087839,23.4517937 9.06534494,23.4498839 9.48252117,23.0327076 L11,21.5152288 L12.5174788,23.0327076 C12.9296164,23.4448452 13.6120387,23.4488765 14.0304576,23.0304576 C14.4517937,22.6091216 14.4498839,21.9346551 14.0327076,21.5174788 L12.5152288,20 L14.0327076,18.4825212 C14.4448452,18.0703836 14.4488765,17.3879613 14.0304576,16.9695424 C13.6091216,16.5482063 12.9346551,16.5501161 12.5174788,16.9672924 L11,18.4847712 Z M6,19.2857143 L7.42857143,19.2857143 L7.42857143,20.7142857 L6,20.7142857 L6,19.2857143 Z M14.5714286,19.2857143 L16,19.2857143 L16,20.7142857 L14.5714286,20.7142857 L14.5714286,19.2857143 Z M10.2857143,23.5714286 L11.7142857,23.5714286 L11.7142857,25 L10.2857143,25 L10.2857143,23.5714286 Z M10.2857143,15 L11.7142857,15 L11.7142857,16.4285714 L10.2857143,16.4285714 L10.2857143,15 Z" id="Rectangle-1-Copy-3" fill="#DDDDDD"></path>
            <g id="Rectangle" transform="translate(4.000000, 1.000000)">
                <mask id="mask-2" fill="white">
                    <use xlink:href="#path-1"></use>
                </mask>
                <use id="Combined-Shape" fill="#FFE217" xlink:href="#path-1"></use>
            </g>
        </g>
    </g>
</svg>