<?xml version="1.0" encoding="UTF-8" standalone="no"?>
<svg width="32px" height="32px" viewBox="0 0 32 32" version="1.1" xmlns="http://www.w3.org/2000/svg" xmlns:xlink="http://www.w3.org/1999/xlink">
    <!-- Generator: Sketch 43.2 (39069) - http://www.bohemiancoding.com/sketch -->
    <title>MOSTLY_CLEAR_FREEZING_RAIN</title>
    <desc>Created with Sketch.</desc>
    <defs>
        <path d="M-1.0658141e-13,12 C-1.0658141e-13,5.372583 5.372583,0 12,0 C18.627417,0 24,5.372583 24,12 L-1.07913678e-13,12 Z" id="path-1"></path>
    </defs>
    <g id="DAY-WEATHER" stroke="none" stroke-width="1" fill="none" fill-rule="evenodd">
        <g id="MOSTLY_CLEAR_FREEZING_RAIN">
            <g id="Group-2" transform="translate(3.000000, 1.000000)">
                <g id="Rectangle" transform="translate(1.000000, 0.000000)">
                    <mask id="mask-2" fill="white">
                        <use xlink:href="#path-1"></use>
                    </mask>
                    <use id="Combined-Shape" fill="#FFE217" xlink:href="#path-1"></use>
                </g>
                <g id="Group" transform="translate(0.000000, 14.000000)">
                    <path d="M6,7 C5.58821683,6.12611865 4.00010465,4 4,4 C4.00010465,4 2.41167853,6.12611865 2,7 C2.06739221,7.06809696 2,7.39275766 2,8.5 C2,8.98607242 2.89545835,10 4,10 C5.1046463,10 6,8.98607242 6,8.5 C6,7.39275766 5.93260779,7.06809696 6,7 L6,7 Z" id="Fill-1-Copy-5" fill="#21B8D3"></path>
                    <path d="M15,13 C14.5882168,12.1261187 13.0001046,10 13,10 C13.0001046,10 11.4116785,12.1261187 11,13 C11.0673922,13.068097 11,13.3927577 11,14.5 C11,14.9860724 11.8954584,16 13,16 C14.1046463,16 15,14.9860724 15,14.5 C15,13.3927577 14.9326078,13.068097 15,13 L15,13 Z" id="Fill-1-Copy-5" fill="#21B8D3"></path>
                    <path d="M24,10 C23.5882168,9.12611865 22.0001046,7 22,7 C22.0001046,7 20.4116785,9.12611865 20,10 C20.0673922,10.068097 20,10.3927577 20,11.5 C20,11.9860724 20.8954584,13 22,13 C23.1046463,13 24,11.9860724 24,11.5 C24,10.3927577 23.9326078,10.068097 24,10 L24,10 Z" id="Fill-1-Copy-5" fill="#21B8D3"></path>
                    <polygon id="Triangle-13" fill="#0FF7EA" transform="translate(13.000000, 4.000000) scale(-1, -1) translate(-13.000000, -4.000000) " points="13 0 17 8 9 8"></polygon>
                    <polygon id="Triangle-13-Copy" fill="#0FF7EA" transform="translate(22.000000, 3.000000) scale(-1, -1) translate(-22.000000, -3.000000) " points="22 0 26 6 18 6"></polygon>
                    <polygon id="Triangle-13-Copy" fill="#0FF7EA" transform="translate(4.000000, 1.500000) scale(-1, -1) translate(-4.000000, -1.500000) " points="4 0 8 3 0 3"></polygon>
                </g>
            </g>
        </g>
    </g>
</svg>