<?xml version="1.0" encoding="UTF-8" standalone="no"?>
<svg width="32px" height="32px" viewBox="0 0 32 32" version="1.1" xmlns="http://www.w3.org/2000/svg" xmlns:xlink="http://www.w3.org/1999/xlink">
    <!-- Generator: Sketch 43.2 (39069) - http://www.bohemiancoding.com/sketch -->
    <title>MOSTLY_CLEAR_RAIN</title>
    <desc>Created with Sketch.</desc>
    <defs>
        <path d="M-1.0658141e-13,12 C-1.0658141e-13,5.372583 5.372583,0 12,0 C18.627417,0 24,5.372583 24,12 L-1.07913678e-13,12 Z" id="path-1"></path>
    </defs>
    <g id="DAY-WEATHER" stroke="none" stroke-width="1" fill="none" fill-rule="evenodd">
        <g id="MOSTLY_CLEAR_RAIN">
            <g id="Group-2" transform="translate(4.000000, 1.000000)">
                <g id="Rectangle">
                    <mask id="mask-2" fill="white">
                        <use xlink:href="#path-1"></use>
                    </mask>
                    <use id="Combined-Shape" fill="#FFE217" xlink:href="#path-1"></use>
                </g>
                <g id="Group" transform="translate(1.000000, 14.000000)" fill="#21B8D3">
                    <path d="M4,3 C3.58821683,2.12611865 2.00010465,0 2,0 C2.00010465,0 0.411678527,2.12611865 0,3 C0.0673922143,3.06809696 0,3.39275766 0,4.5 C0,4.98607242 0.895458351,6 2,6 C3.1046463,6 4,4.98607242 4,4.5 C4,3.39275766 3.93260779,3.06809696 4,3 L4,3 Z" id="Fill-1-Copy-5"></path>
                    <path d="M9,11 C8.58821683,10.1261187 7.00010465,8 7,8 C7.00010465,8 5.41167853,10.1261187 5,11 C5.06739221,11.068097 5,11.3927577 5,12.5 C5,12.9860724 5.89545835,14 7,14 C8.1046463,14 9,12.9860724 9,12.5 C9,11.3927577 8.93260779,11.068097 9,11 L9,11 Z" id="Fill-1-Copy-6"></path>
                    <path d="M13,3 C12.5882168,2.12611865 11.0001046,0 11,0 C11.0001046,0 9.41167853,2.12611865 9,3 C9.06739221,3.06809696 9,3.39275766 9,4.5 C9,4.98607242 9.89545835,6 11,6 C12.1046463,6 13,4.98607242 13,4.5 C13,3.39275766 12.9326078,3.06809696 13,3 L13,3 Z" id="Fill-1-Copy-5"></path>
                    <path d="M18,11 C17.5882168,10.1261187 16.0001046,8 16,8 C16.0001046,8 14.4116785,10.1261187 14,11 C14.0673922,11.068097 14,11.3927577 14,12.5 C14,12.9860724 14.8954584,14 16,14 C17.1046463,14 18,12.9860724 18,12.5 C18,11.3927577 17.9326078,11.068097 18,11 L18,11 Z" id="Fill-1-Copy-7"></path>
                    <path d="M22,3 C21.5882168,2.12611865 20.0001046,0 20,0 C20.0001046,0 18.4116785,2.12611865 18,3 C18.0673922,3.06809696 18,3.39275766 18,4.5 C18,4.98607242 18.8954584,6 20,6 C21.1046463,6 22,4.98607242 22,4.5 C22,3.39275766 21.9326078,3.06809696 22,3 L22,3 Z" id="Fill-1-Copy-5"></path>
                </g>
            </g>
        </g>
    </g>
</svg>