<?xml version="1.0" encoding="UTF-8" standalone="no"?>
<svg width="32px" height="32px" viewBox="0 0 32 32" version="1.1" xmlns="http://www.w3.org/2000/svg" xmlns:xlink="http://www.w3.org/1999/xlink">
    <!-- Generator: Sketch 43.2 (39069) - http://www.bohemiancoding.com/sketch -->
    <title>NIGHT_MOSTLY_CLOUDY_SNOW</title>
    <desc>Created with Sketch.</desc>
    <defs>
        <polyline id="path-1" points="0 0.0426774194 26.9216129 0.0426774194 26.9216129 21.7741935 0 21.7741935"></polyline>
        <polyline id="path-3" points="0 0.0426774194 26.9216129 0.0426774194 26.9216129 21.7741935 0 21.7741935"></polyline>
    </defs>
    <g id="NIGHT-WEATHER" stroke="none" stroke-width="1" fill="none" fill-rule="evenodd">
        <g id="NIGHT_MOSTLY_CLOUDY_SNOW">
            <g id="Page-1" transform="translate(3.000000, 0.000000)">
                <g id="Group-3">
                    <mask id="mask-2" fill="white">
                        <use xlink:href="#path-1"></use>
                    </mask>
                    <g id="Clip-2"></g>
                    <path d="M22.4215839,11.8434194 C22.4215839,8.23587097 19.4968742,5.31116129 15.8893258,5.31116129 C13.4436484,5.31116129 11.3158742,6.65767742 10.1958097,8.64696774 C9.58003548,8.43270968 8.9207129,8.31077419 8.23177742,8.31077419 C4.9247129,8.31077419 2.24387419,10.9916129 2.24387419,14.2986774 C2.24387419,17.6057419 4.9247129,20.2865806 8.23177742,20.2865806 C9.12800323,20.2865806 9.97458387,20.0836452 10.7384226,19.7309032 C11.7766161,20.979 13.3408742,21.7741935 15.0906484,21.7741935 C16.8517452,21.7741935 18.4247129,20.9702903 19.4629065,19.709129 C20.2554871,20.4067742 21.283229,20.843129 22.4215839,20.843129 C24.9073258,20.843129 26.9218742,18.8285806 26.9218742,16.3437097 C26.9218742,13.8579677 24.9073258,11.8434194 22.4215839,11.8434194" id="Fill-1" fill="#DDDDDD" mask="url(#mask-2)"></path>
                </g>
                <g id="Group-6">
                    <mask id="mask-4" fill="white">
                        <use xlink:href="#path-3"></use>
                    </mask>
                    <g id="Clip-5"></g>
                    <path d="M1.61085484,10.3302871 C2.96433871,8.08144839 5.42133871,6.56857742 8.23195161,6.56857742 C8.63608065,6.56857742 9.04020968,6.60080323 9.43998387,6.66525484 C10.9964032,4.72909355 13.3645645,3.56896452 15.8895,3.56896452 C15.9208548,3.56896452 15.9504677,3.57331935 15.9818226,3.57331935 C15.2266935,2.68319032 14.1127258,2.10573871 12.8541774,2.10573871 C12.380371,2.10573871 11.9265968,2.18935161 11.5033065,2.33654516 C10.733371,0.968254839 9.26927419,0.042416129 7.58743548,0.042416129 C5.10604839,0.042416129 3.09498387,2.05435161 3.09498387,4.53573871 C1.38527419,4.53573871 -0.000435483871,5.92057742 -0.000435483871,7.6302871 C-0.000435483871,8.79825484 0.655403226,9.80335161 1.61085484,10.3302871" id="Fill-4" fill="#B2B2B2" mask="url(#mask-4)"></path>
                </g>
            </g>
            <path d="M25,25.4847712 L23.4825212,23.9672924 C23.0703836,23.5551548 22.3879613,23.5511235 21.9695424,23.9695424 C21.5482063,24.3908784 21.5501161,25.0653449 21.9672924,25.4825212 L23.4847712,27 L21.9672924,28.5174788 C21.5551548,28.9296164 21.5511235,29.6120387 21.9695424,30.0304576 C22.3908784,30.4517937 23.0653449,30.4498839 23.4825212,30.0327076 L25,28.5152288 L26.5174788,30.0327076 C26.9296164,30.4448452 27.6120387,30.4488765 28.0304576,30.0304576 C28.4517937,29.6091216 28.4498839,28.9346551 28.0327076,28.5174788 L26.5152288,27 L28.0327076,25.4825212 C28.4448452,25.0703836 28.4488765,24.3879613 28.0304576,23.9695424 C27.6091216,23.5482063 26.9346551,23.5501161 26.5174788,23.9672924 L25,25.4847712 Z M20,26.2857143 L21.4285714,26.2857143 L21.4285714,27.7142857 L20,27.7142857 L20,26.2857143 Z M28.5714286,26.2857143 L30,26.2857143 L30,27.7142857 L28.5714286,27.7142857 L28.5714286,26.2857143 Z M24.2857143,30.5714286 L25.7142857,30.5714286 L25.7142857,32 L24.2857143,32 L24.2857143,30.5714286 Z M24.2857143,22 L25.7142857,22 L25.7142857,23.4285714 L24.2857143,23.4285714 L24.2857143,22 Z" id="Rectangle-1-Copy-3" fill="#DDDDDD"></path>
            <path d="M13,25.4847712 L11.4825212,23.9672924 C11.0703836,23.5551548 10.3879613,23.5511235 9.96954237,23.9695424 C9.54820634,24.3908784 9.55011612,25.0653449 9.96729236,25.4825212 L11.4847712,27 L9.96729236,28.5174788 C9.55515479,28.9296164 9.55112348,29.6120387 9.96954237,30.0304576 C10.3908784,30.4517937 11.0653449,30.4498839 11.4825212,30.0327076 L13,28.5152288 L14.5174788,30.0327076 C14.9296164,30.4448452 15.6120387,30.4488765 16.0304576,30.0304576 C16.4517937,29.6091216 16.4498839,28.9346551 16.0327076,28.5174788 L14.5152288,27 L16.0327076,25.4825212 C16.4448452,25.0703836 16.4488765,24.3879613 16.0304576,23.9695424 C15.6091216,23.5482063 14.9346551,23.5501161 14.5174788,23.9672924 L13,25.4847712 Z M8,26.2857143 L9.42857143,26.2857143 L9.42857143,27.7142857 L8,27.7142857 L8,26.2857143 Z M16.5714286,26.2857143 L18,26.2857143 L18,27.7142857 L16.5714286,27.7142857 L16.5714286,26.2857143 Z M12.2857143,30.5714286 L13.7142857,30.5714286 L13.7142857,32 L12.2857143,32 L12.2857143,30.5714286 Z M12.2857143,22 L13.7142857,22 L13.7142857,23.4285714 L12.2857143,23.4285714 L12.2857143,22 Z" id="Rectangle-1-Copy-3" fill="#DDDDDD"></path>
        </g>
    </g>
</svg>