<?xml version="1.0" encoding="UTF-8" standalone="no"?>
<svg width="32px" height="32px" viewBox="0 0 32 32" version="1.1" xmlns="http://www.w3.org/2000/svg" xmlns:xlink="http://www.w3.org/1999/xlink">
    <!-- Generator: Sketch 43.2 (39069) - http://www.bohemiancoding.com/sketch -->
    <title>NIGHT_PARTLY_CLOUDY_FREEZING_RAIN</title>
    <desc>Created with Sketch.</desc>
    <defs>
        <path d="M7.12845714,7.72543571 C7.63452857,7.72543571 8.12945714,7.77929286 8.62531429,7.88793571 C10.0413857,5.81907857 12.1715286,4.62772143 14.5904571,4.54415 C13.1966714,2.30722143 10.7220286,0.814078571 7.89267143,0.814078571 C3.53395714,0.814078571 -0.000185714286,4.34729286 -0.000185714286,8.70693571 C-0.000185714286,9.78965 0.218957143,10.8212929 0.6136,11.7610071 C1.8161,9.37179286 4.28145714,7.72543571 7.12845714,7.72543571" id="path-1"></path>
    </defs>
    <g id="NIGHT-WEATHER" stroke="none" stroke-width="1" fill="none" fill-rule="evenodd">
        <g id="NIGHT_PARTLY_CLOUDY_FREEZING_RAIN">
            <g id="Page-1" transform="translate(3.000000, 0.000000)">
                <path d="M21.5974571,12.4986429 C21.5974571,8.96914286 18.7365286,6.10821429 15.2070286,6.10821429 C12.8141,6.10821429 10.7322429,7.42492857 9.63652857,9.37121429 C9.03388571,9.16135714 8.38945714,9.0425 7.71531429,9.0425 C4.48017143,9.0425 1.85695714,11.6647857 1.85695714,14.9008571 C1.85695714,18.136 4.48017143,20.7582857 7.71531429,20.7582857 C8.59188571,20.7582857 9.42017143,20.5605 10.1667429,20.216 C11.1835286,21.4361429 12.7128857,22.2142857 14.4251714,22.2142857 C16.1486,22.2142857 17.6872429,21.4277857 18.7031,20.1946429 C19.4784571,20.8762143 20.4831714,21.3033571 21.5974571,21.3033571 C24.0293857,21.3033571 25.9998143,19.3329286 25.9998143,16.901 C25.9998143,14.47 24.0293857,12.4986429 21.5974571,12.4986429" id="Fill-4" fill="#DDDDDD"></path>
                <g id="Group-3">
                    <path d="M7.12845714,7.72543571 C7.63452857,7.72543571 8.12945714,7.77929286 8.62531429,7.88793571 C10.0413857,5.81907857 12.1715286,4.62772143 14.5904571,4.54415 C13.1966714,2.30722143 10.7220286,0.814078571 7.89267143,0.814078571 C3.53395714,0.814078571 -0.000185714286,4.34729286 -0.000185714286,8.70693571 C-0.000185714286,9.78965 0.218957143,10.8212929 0.6136,11.7610071 C1.8161,9.37179286 4.28145714,7.72543571 7.12845714,7.72543571" id="Fill-1" fill="#E4E5CC"></path>
                    <g id="Fill-1">
                        <mask id="mask-2" fill="white">
                            <use xlink:href="#path-1"></use>
                        </mask>
                        <use id="Mask" fill="#9C9D88" xlink:href="#path-1"></use>
                        <path d="M9.81712643,8.50767542 C10.3720874,8.50767542 10.914829,8.56762821 11.4585889,8.68856745 C13.0114612,6.38555338 15.3473885,5.05935631 18,4.96632612 C16.4715663,2.47621799 13.7578582,0.814078571 10.6551684,0.814078571 C5.87537636,0.814078571 1.99981429,4.74718834 1.99981429,9.60026333 C1.99981429,10.8055211 2.24012765,11.9539272 2.67289535,13 C3.991564,10.3403702 6.6950893,8.50767542 9.81712643,8.50767542" fill="#E0E2C4" mask="url(#mask-2)"></path>
                    </g>
                </g>
            </g>
            <path d="M9,26 C8.58821683,25.1261187 7.00010465,23 7,23 C7.00010465,23 5.41167853,25.1261187 5,26 C5.06739221,26.068097 5,26.3927577 5,27.5 C5,27.9860724 5.89545835,29 7,29 C8.1046463,29 9,27.9860724 9,27.5 C9,26.3927577 8.93260779,26.068097 9,26 L9,26 Z" id="Fill-1-Copy-5" fill="#21B8D3"></path>
            <polygon id="Triangle-13-Copy" fill="#0FF7EA" transform="translate(24.000000, 27.000000) scale(-1, -1) translate(-24.000000, -27.000000) " points="24 23 28 31 20 31"></polygon>
            <polygon id="Triangle-13-Copy" fill="#0FF7EA" transform="translate(15.000000, 27.000000) scale(-1, -1) translate(-15.000000, -27.000000) " points="15 24 19 30 11 30"></polygon>
        </g>
    </g>
</svg>