<svg width="25" height="25" viewBox="0 0 25 25" fill="none" xmlns="http://www.w3.org/2000/svg">
<path fill-rule="evenodd" clip-rule="evenodd" d="M12.5333 19.7199H7.65247C7.06331 19.7199 6.48831 19.6399 5.93247 19.4299C4.75831 18.9874 3.87997 18.2174 3.35164 17.0757C2.70247 15.6716 2.71414 14.2641 3.45664 12.9016C4.08247 11.7532 5.04497 10.9941 6.32331 10.6624C6.45581 10.6274 6.50914 10.5682 6.54081 10.4374C6.73331 9.63907 7.08164 8.91323 7.61497 8.2824C8.43581 7.31157 9.45414 6.65407 10.7083 6.39907C12.0541 6.1249 13.3525 6.27323 14.5608 6.9499C15.9191 7.71157 16.8391 8.8349 17.245 10.3549C17.2775 10.4741 17.3291 10.4999 17.44 10.4974C18.1791 10.4816 18.8883 10.6041 19.56 10.9249C20.2508 11.2549 20.8191 11.7341 21.2841 12.3366C22.0241 13.2924 22.295 14.3832 22.1775 15.5749C21.9716 17.6599 20.365 19.3507 18.3066 19.6566C18.02 19.6991 17.7283 19.7141 17.4383 19.7157C15.8041 19.7224 14.1691 19.7199 12.5333 19.7199V19.7199Z" fill="#7F7F7F"/>
<path fill-rule="evenodd" clip-rule="evenodd" d="M16.8099 16.4067C16.7924 16.43 16.7799 16.4567 16.7599 16.4759C16.3208 16.9159 15.8808 17.3559 15.4399 17.795C15.2158 18.0184 14.8816 17.9667 14.7424 17.6909C14.6683 17.5459 14.6874 17.3659 14.8008 17.2517C15.1649 16.8842 15.5308 16.5217 15.8949 16.1575C16.0083 16.0442 16.1199 15.93 16.2466 15.8025H16.1516H14.2583C14.0499 15.8025 13.8808 15.6734 13.8366 15.4834C13.7908 15.2917 13.8799 15.085 14.0583 15.0025C14.1299 14.97 14.2166 14.9575 14.2966 14.9567C14.9091 14.9534 15.5216 14.9559 16.1341 14.9559H16.2374C16.2041 14.92 16.1858 14.9009 16.1666 14.8817C15.7216 14.4367 15.2816 13.9875 14.8299 13.5475C14.5891 13.3125 14.7083 12.9142 15.0266 12.835C15.1566 12.8025 15.2799 12.8284 15.3866 12.915C15.4108 12.935 15.4341 12.9584 15.4583 12.9817C15.8941 13.4184 16.3308 13.855 16.7666 14.2909C16.7841 14.3084 16.8041 14.3242 16.8341 14.3525V14.2625C16.8341 13.6342 16.8333 13.005 16.8341 12.3742C16.8341 12.07 17.1208 11.8592 17.4016 11.9592C17.5666 12.0192 17.6566 12.1467 17.6774 12.3209C17.6824 12.3575 17.6799 12.3959 17.6799 12.4342C17.6808 13.0467 17.6799 13.6592 17.6799 14.2717V14.3684C17.7116 14.34 17.7316 14.3225 17.7491 14.3042C18.1874 13.8642 18.6266 13.4225 19.0649 12.9809C19.1574 12.8892 19.2616 12.8225 19.3999 12.8242C19.6441 12.8259 19.8283 13.0292 19.8074 13.2742C19.7974 13.3959 19.7499 13.4942 19.6641 13.5784C19.2274 14.0125 18.7933 14.4484 18.3583 14.8817C18.3408 14.9 18.3233 14.92 18.2899 14.9559H18.3866C19.0033 14.9559 19.6199 14.9542 20.2383 14.9559C20.4533 14.9559 20.6124 15.06 20.6749 15.2367C20.7733 15.5209 20.5733 15.8017 20.2691 15.8025C19.6399 15.8034 19.0108 15.8025 18.3824 15.8025H18.2833C18.3116 15.8342 18.3283 15.8534 18.3449 15.87C18.7899 16.315 19.2349 16.7584 19.6791 17.205C19.8916 17.4175 19.8366 17.7709 19.5741 17.895C19.4224 17.9659 19.2758 17.9475 19.1416 17.8459C19.1166 17.825 19.0924 17.8017 19.0699 17.7784C18.6316 17.34 18.1933 16.9009 17.7574 16.4617C17.7374 16.4425 17.7249 16.415 17.7083 16.3917C17.6983 16.3967 17.6891 16.4017 17.6791 16.4075V16.4867C17.6791 17.1134 17.6783 17.74 17.6799 18.3667C17.6816 18.5409 17.6208 18.6809 17.4666 18.77C17.1908 18.9292 16.8374 18.7259 16.8333 18.4009C16.8299 18.0884 16.8333 17.7742 16.8333 17.4617V16.5009V16.4242C16.8258 16.4184 16.8183 16.4125 16.8099 16.4067V16.4067Z" fill="white"/>
<path fill-rule="evenodd" clip-rule="evenodd" d="M10.4573 17.3576C10.4473 17.3717 10.439 17.3876 10.4273 17.3992C10.1606 17.6667 9.89398 17.9334 9.62648 18.2001C9.49065 18.3351 9.28731 18.3042 9.20315 18.1367C9.15815 18.0492 9.16898 17.9401 9.23815 17.8709C9.45898 17.6467 9.68148 17.4276 9.90231 17.2059C9.97148 17.1376 10.039 17.0676 10.1156 16.9909H10.0581H8.90898C8.78231 16.9909 8.67981 16.9117 8.65315 16.7976C8.62565 16.6809 8.67898 16.5559 8.78731 16.5051C8.83065 16.4859 8.88398 16.4784 8.93231 16.4776C9.30398 16.4759 9.67565 16.4776 10.0473 16.4776H10.1098C10.0898 16.4559 10.0781 16.4434 10.0665 16.4317C9.79648 16.1617 9.52898 15.8892 9.25565 15.6217C9.10981 15.4792 9.18231 15.2376 9.37565 15.1892C9.45481 15.1701 9.52898 15.1851 9.59398 15.2376C9.60898 15.2509 9.62315 15.2634 9.63731 15.2784C9.90231 15.5434 10.1665 15.8084 10.4315 16.0734C10.4423 16.0842 10.454 16.0934 10.4723 16.1109V16.0567V14.9101C10.4723 14.7251 10.6456 14.5976 10.8165 14.6584C10.9165 14.6951 10.9715 14.7717 10.984 14.8776C10.9873 14.9001 10.9856 14.9234 10.9856 14.9467V16.0617V16.1201C11.0048 16.1026 11.0165 16.0926 11.0273 16.0809C11.2931 15.8142 11.5598 15.5459 11.8256 15.2784C11.8815 15.2226 11.9456 15.1817 12.029 15.1826C12.1773 15.1842 12.289 15.3067 12.2765 15.4559C12.2706 15.5301 12.2415 15.5892 12.1898 15.6409C11.9248 15.9042 11.6615 16.1692 11.3965 16.4317C11.3865 16.4434 11.3756 16.4551 11.3548 16.4776H11.414C11.7881 16.4776 12.1623 16.4759 12.5381 16.4776C12.6681 16.4776 12.7648 16.5401 12.8031 16.6476C12.8631 16.8201 12.7415 16.9901 12.5573 16.9909H11.4123H11.3523C11.3698 17.0101 11.379 17.0217 11.3898 17.0317C11.6598 17.3017 11.9298 17.5709 12.1998 17.8426C12.3281 17.9709 12.2956 18.1859 12.1356 18.2609C12.044 18.3042 11.954 18.2934 11.8731 18.2317C11.8581 18.2184 11.844 18.2051 11.8298 18.1909C11.5631 17.9242 11.2973 17.6576 11.0331 17.3917C11.0206 17.3792 11.0131 17.3634 11.0031 17.3484C10.9973 17.3517 10.9915 17.3542 10.9856 17.3584V17.4067V18.5476C10.9865 18.6534 10.9498 18.7384 10.8565 18.7926C10.689 18.8892 10.4748 18.7659 10.4723 18.5676C10.4706 18.3776 10.4723 18.1876 10.4723 17.9976V17.4142V17.3676L10.4573 17.3576Z" fill="white"/>
</svg>
