<svg width="25" height="25" viewBox="0 0 25 25" fill="none" xmlns="http://www.w3.org/2000/svg">
<path d="M21.5001 7.75008C19.1667 7.75008 17.2501 5.83341 17.2501 3.50008C17.2501 2.75008 17.4167 2.00008 17.7501 1.41675C15.4167 1.41675 13.4167 3.00008 12.6667 5.08341C13.0834 5.16675 13.5834 5.33341 14.0001 5.58341C15.3342 6.33341 16.2501 7.41675 16.6667 8.91675C16.6667 9.00008 16.7501 9.08341 16.8334 9.08341C17.5826 9.08341 18.2501 9.16675 18.9167 9.50008C19.5834 9.83341 20.1667 10.3334 20.5834 10.9167C20.6667 11.0001 20.6667 11.0834 20.7501 11.0834C21.9167 10.2501 22.7501 9.00008 23.0001 7.50008C22.5001 7.58341 22.0001 7.75008 21.5001 7.75008Z" fill="#BFBFBF"/>
<path fill-rule="evenodd" clip-rule="evenodd" d="M12.0126 18.2266C10.3851 18.2266 8.75839 18.2275 7.13172 18.2266C6.54255 18.2266 5.96755 18.1466 5.41172 17.9375C4.23755 17.495 3.35922 16.7241 2.83089 15.5825C2.18172 14.1783 2.19339 12.77 2.93589 11.4091C3.56172 10.2608 4.52422 9.50163 5.80255 9.16997C5.93505 9.13497 5.98839 9.0758 6.02005 8.94497C6.21255 8.14663 6.56089 7.4208 7.09422 6.78997C7.91505 5.81913 8.93339 5.16163 10.1876 4.90663C11.5334 4.63247 12.8317 4.7808 14.0401 5.45747C15.3984 6.21913 16.3184 7.34247 16.7242 8.86163C16.7567 8.9808 16.8084 9.00747 16.9192 9.00413C17.6584 8.9883 18.3676 9.10997 19.0392 9.43163C19.7301 9.76163 20.2984 10.2408 20.7634 10.8433C21.5034 11.7991 21.7742 12.89 21.6567 14.0808C21.4509 16.1658 19.8442 17.8575 17.7859 18.1633C17.4992 18.2058 17.2076 18.2208 16.9176 18.2225C15.2834 18.2291 13.6484 18.2266 12.0126 18.2266Z" fill="#7F7F7F"/>
<path d="M14.1311 22.0608C14.6512 22.0608 15.0728 21.6392 15.0728 21.1192C15.0728 20.5991 14.6512 20.1775 14.1311 20.1775C13.6111 20.1775 13.1895 20.5991 13.1895 21.1192C13.1895 21.6392 13.6111 22.0608 14.1311 22.0608Z" fill="#CECECE"/>
<path d="M10.9395 23.2642C11.4595 23.2642 11.8811 22.8426 11.8811 22.3225C11.8811 21.8025 11.4595 21.3809 10.9395 21.3809C10.4194 21.3809 9.9978 21.8025 9.9978 22.3225C9.9978 22.8426 10.4194 23.2642 10.9395 23.2642Z" fill="#CECECE"/>
<path d="M9.19435 21.1343C9.71442 21.1343 10.136 20.7127 10.136 20.1926C10.136 19.6726 9.71442 19.251 9.19435 19.251C8.67428 19.251 8.25269 19.6726 8.25269 20.1926C8.25269 20.7127 8.67428 21.1343 9.19435 21.1343Z" fill="#CECECE"/>
<path d="M5.91516 22.2375C6.43568 22.2375 6.85766 21.8156 6.85766 21.295C6.85766 20.7745 6.43568 20.3525 5.91516 20.3525C5.39463 20.3525 4.97266 20.7745 4.97266 21.295C4.97266 21.8156 5.39463 22.2375 5.91516 22.2375Z" fill="#CECECE"/>
<path d="M15.5825 18.9068C16.1026 18.9068 16.5242 18.4852 16.5242 17.9651C16.5242 17.445 16.1026 17.0234 15.5825 17.0234C15.0625 17.0234 14.6409 17.445 14.6409 17.9651C14.6409 18.4852 15.0625 18.9068 15.5825 18.9068Z" fill="#CECECE"/>
<path d="M12.3919 20.1101C12.9119 20.1101 13.3335 19.6885 13.3335 19.1685C13.3335 18.6484 12.9119 18.2268 12.3919 18.2268C11.8718 18.2268 11.4502 18.6484 11.4502 19.1685C11.4502 19.6885 11.8718 20.1101 12.3919 20.1101Z" fill="#CECECE"/>
<path d="M10.6467 17.98C11.1668 17.98 11.5884 17.5584 11.5884 17.0383C11.5884 16.5183 11.1668 16.0967 10.6467 16.0967C10.1267 16.0967 9.70508 16.5183 9.70508 17.0383C9.70508 17.5584 10.1267 17.98 10.6467 17.98Z" fill="#CECECE"/>
<path d="M7.36769 19.0835C7.88776 19.0835 8.30936 18.6619 8.30936 18.1419C8.30936 17.6218 7.88776 17.2002 7.36769 17.2002C6.84762 17.2002 6.42603 17.6218 6.42603 18.1419C6.42603 18.6619 6.84762 19.0835 7.36769 19.0835Z" fill="#CECECE"/>
<path d="M17.0603 15.4659C17.5804 15.4659 18.002 15.0443 18.002 14.5242C18.002 14.0041 17.5804 13.5825 17.0603 13.5825C16.5403 13.5825 16.1187 14.0041 16.1187 14.5242C16.1187 15.0443 16.5403 15.4659 17.0603 15.4659Z" fill="#CECECE"/>
<path d="M13.8701 16.6702C14.3902 16.6702 14.8118 16.2486 14.8118 15.7285C14.8118 15.2085 14.3902 14.7869 13.8701 14.7869C13.3501 14.7869 12.9285 15.2085 12.9285 15.7285C12.9285 16.2486 13.3501 16.6702 13.8701 16.6702Z" fill="#CECECE"/>
<path d="M12.125 14.5401C12.6451 14.5401 13.0667 14.1185 13.0667 13.5984C13.0667 13.0783 12.6451 12.6567 12.125 12.6567C11.6049 12.6567 11.1833 13.0783 11.1833 13.5984C11.1833 14.1185 11.6049 14.5401 12.125 14.5401Z" fill="#CECECE"/>
<path d="M8.84523 15.6433C9.3653 15.6433 9.7869 15.2217 9.7869 14.7017C9.7869 14.1816 9.3653 13.76 8.84523 13.76C8.32516 13.76 7.90356 14.1816 7.90356 14.7017C7.90356 15.2217 8.32516 15.6433 8.84523 15.6433Z" fill="#CECECE"/>
</svg>
