<?xml version="1.0" encoding="UTF-8" standalone="no"?>
<svg width="32px" height="32px" viewBox="0 0 32 32" version="1.1" xmlns="http://www.w3.org/2000/svg" xmlns:xlink="http://www.w3.org/1999/xlink">
    <!-- Generator: Sketch 43.2 (39069) - http://www.bohemiancoding.com/sketch -->
    <title>NIGHT_MOSTLY_CLEAR_NO_RAIN</title>
    <desc>Created with Sketch.</desc>
    <defs></defs>
    <g id="NIGHT-WEATHER" stroke="none" stroke-width="1" fill="none" fill-rule="evenodd">
        <g id="NIGHT_MOSTLY_CLEAR_NO_RAIN">
            <g id="Page-1" transform="translate(4.000000, 4.000000)">
                <path d="M24,12 C24,18.627 18.627,24 12,24 C5.373,24 0,18.627 0,12 C0,5.373 5.373,0 12,0 C18.627,0 24,5.373 24,12" id="Fill-1" fill="#E0E2C4"></path>
                <path d="M4,12 C4,6.056 8.327,1.134 14,0.18 C13.348,0.07 12.683,0 12,0 C5.373,0 0,5.373 0,12 C0,18.627 5.373,24 12,24 C12.683,24 13.348,23.93 14,23.82 C8.327,22.866 4,17.944 4,12" id="Fill-3" fill-opacity="0.200000018" fill="#000000"></path>
            </g>
        </g>
    </g>
</svg>