<?xml version="1.0" encoding="UTF-8" standalone="no"?>
<svg width="32px" height="32px" viewBox="0 0 32 32" version="1.1" xmlns="http://www.w3.org/2000/svg" xmlns:xlink="http://www.w3.org/1999/xlink">
    <!-- Generator: Sketch 43.2 (39069) - http://www.bohemiancoding.com/sketch -->
    <title>NIGHT_CLEAR_HAIL</title>
    <desc>Created with Sketch.</desc>
    <defs></defs>
    <g id="NIGHT-WEATHER" stroke="none" stroke-width="1" fill="none" fill-rule="evenodd">
        <g id="NIGHT_CLEAR_HAIL">
            <g id="Group" transform="translate(4.000000, 1.000000)">
                <polygon id="Imported-Layers" fill="#10F6E9" points="1.5 19 1.77635684e-15 16.5 1.5 14 4.5 14 6 16.5 4.5 19"></polygon>
                <polygon id="Imported-Layers" fill="#10F6E9" transform="translate(12.000000, 16.500000) scale(-1, 1) translate(-12.000000, -16.500000) " points="10.5 19 9 16.5 10.5 14 13.5 14 15 16.5 13.5 19"></polygon>
                <polygon id="Imported-Layers" fill="#10F6E9" points="6.5 26 5 23.5 6.5 21 9.5 21 11 23.5 9.5 26"></polygon>
                <polygon id="Imported-Layers" fill="#10F6E9" transform="translate(17.000000, 23.500000) scale(-1, 1) translate(-17.000000, -23.500000) " points="15.5 26 14 23.5 15.5 21 18.5 21 20 23.5 18.5 26"></polygon>
                <polygon id="Imported-Layers" fill="#10F6E9" transform="translate(21.000000, 16.500000) scale(-1, 1) translate(-21.000000, -16.500000) " points="19.5 19 18 16.5 19.5 14 22.5 14 24 16.5 22.5 19"></polygon>
                <g id="Page-1">
                    <path d="M-3.78653235e-29,12 C-3.78653235e-29,5.373 5.373,6.66133815e-16 12,6.66133815e-16 C18.627,6.66133815e-16 24,5.373 24,12 L2.44249065e-15,12 Z" id="Combined-Shape" fill="#E0E2C4"></path>
                    <path d="M-4.4408921e-16,12 C-4.4408921e-16,5.373 5.373,0 12,0 C12.683,0 13.348,0.07 14,0.18 C8.327,1.134 4,6.056 4,12 L1.11022302e-15,12 Z" id="Combined-Shape" fill-opacity="0.200000018" fill="#000000"></path>
                </g>
            </g>
        </g>
    </g>
</svg>