<?xml version="1.0" encoding="UTF-8" standalone="no"?>
<svg width="32px" height="32px" viewBox="0 0 32 32" version="1.1" xmlns="http://www.w3.org/2000/svg" xmlns:xlink="http://www.w3.org/1999/xlink">
    <!-- Generator: Sketch 43.2 (39069) - http://www.bohemiancoding.com/sketch -->
    <title>NIGHT_PARTLY_CLOUDY_SNOW</title>
    <desc>Created with Sketch.</desc>
    <defs>
        <path d="M7.12845714,7.72543571 C7.63452857,7.72543571 8.12945714,7.77929286 8.62531429,7.88793571 C10.0413857,5.81907857 12.1715286,4.62772143 14.5904571,4.54415 C13.1966714,2.30722143 10.7220286,0.814078571 7.89267143,0.814078571 C3.53395714,0.814078571 -0.000185714286,4.34729286 -0.000185714286,8.70693571 C-0.000185714286,9.78965 0.218957143,10.8212929 0.6136,11.7610071 C1.8161,9.37179286 4.28145714,7.72543571 7.12845714,7.72543571" id="path-1"></path>
    </defs>
    <g id="NIGHT-WEATHER" stroke="none" stroke-width="1" fill="none" fill-rule="evenodd">
        <g id="NIGHT_PARTLY_CLOUDY_SNOW">
            <g id="Page-1" transform="translate(4.000000, 6.000000)" fill="#DDDDDD">
                <path d="M20.5974571,6.49864286 C20.5974571,2.96914286 17.7365286,0.108214286 14.2070286,0.108214286 C11.8141,0.108214286 9.73224286,1.42492857 8.63652857,3.37121429 C8.03388571,3.16135714 7.38945714,3.0425 6.71531429,3.0425 C3.48017143,3.0425 0.856957143,5.66478571 0.856957143,8.90085714 C0.856957143,12.136 3.48017143,14.7582857 6.71531429,14.7582857 C7.59188571,14.7582857 8.42017143,14.5605 9.16674286,14.216 C10.1835286,15.4361429 11.7128857,16.2142857 13.4251714,16.2142857 C15.1486,16.2142857 16.6872429,15.4277857 17.7031,14.1946429 C18.4784571,14.8762143 19.4831714,15.3033571 20.5974571,15.3033571 C23.0293857,15.3033571 24.9998143,13.3329286 24.9998143,10.901 C24.9998143,8.47 23.0293857,6.49864286 20.5974571,6.49864286" id="Fill-4"></path>
            </g>
            <path d="M22,25.4847712 L20.4825212,23.9672924 C20.0703836,23.5551548 19.3879613,23.5511235 18.9695424,23.9695424 C18.5482063,24.3908784 18.5501161,25.0653449 18.9672924,25.4825212 L20.4847712,27 L18.9672924,28.5174788 C18.5551548,28.9296164 18.5511235,29.6120387 18.9695424,30.0304576 C19.3908784,30.4517937 20.0653449,30.4498839 20.4825212,30.0327076 L22,28.5152288 L23.5174788,30.0327076 C23.9296164,30.4448452 24.6120387,30.4488765 25.0304576,30.0304576 C25.4517937,29.6091216 25.4498839,28.9346551 25.0327076,28.5174788 L23.5152288,27 L25.0327076,25.4825212 C25.4448452,25.0703836 25.4488765,24.3879613 25.0304576,23.9695424 C24.6091216,23.5482063 23.9346551,23.5501161 23.5174788,23.9672924 L22,25.4847712 Z M17,26.2857143 L18.4285714,26.2857143 L18.4285714,27.7142857 L17,27.7142857 L17,26.2857143 Z M25.5714286,26.2857143 L27,26.2857143 L27,27.7142857 L25.5714286,27.7142857 L25.5714286,26.2857143 Z M21.2857143,30.5714286 L22.7142857,30.5714286 L22.7142857,32 L21.2857143,32 L21.2857143,30.5714286 Z M21.2857143,22 L22.7142857,22 L22.7142857,23.4285714 L21.2857143,23.4285714 L21.2857143,22 Z" id="Rectangle-1-Copy-3" fill="#DDDDDD"></path>
            <path d="M10,25.4847712 L8.48252117,23.9672924 C8.07038361,23.5551548 7.38796125,23.5511235 6.96954237,23.9695424 C6.54820634,24.3908784 6.55011612,25.0653449 6.96729236,25.4825212 L8.48477118,27 L6.96729236,28.5174788 C6.55515479,28.9296164 6.55112348,29.6120387 6.96954237,30.0304576 C7.39087839,30.4517937 8.06534494,30.4498839 8.48252117,30.0327076 L10,28.5152288 L11.5174788,30.0327076 C11.9296164,30.4448452 12.6120387,30.4488765 13.0304576,30.0304576 C13.4517937,29.6091216 13.4498839,28.9346551 13.0327076,28.5174788 L11.5152288,27 L13.0327076,25.4825212 C13.4448452,25.0703836 13.4488765,24.3879613 13.0304576,23.9695424 C12.6091216,23.5482063 11.9346551,23.5501161 11.5174788,23.9672924 L10,25.4847712 Z M5,26.2857143 L6.42857143,26.2857143 L6.42857143,27.7142857 L5,27.7142857 L5,26.2857143 Z M13.5714286,26.2857143 L15,26.2857143 L15,27.7142857 L13.5714286,27.7142857 L13.5714286,26.2857143 Z M9.28571429,30.5714286 L10.7142857,30.5714286 L10.7142857,32 L9.28571429,32 L9.28571429,30.5714286 Z M9.28571429,22 L10.7142857,22 L10.7142857,23.4285714 L9.28571429,23.4285714 L9.28571429,22 Z" id="Rectangle-1-Copy-3" fill="#DDDDDD"></path>
            <g id="Group-3" transform="translate(3.000000, 0.000000)">
                <path d="M7.12845714,7.72543571 C7.63452857,7.72543571 8.12945714,7.77929286 8.62531429,7.88793571 C10.0413857,5.81907857 12.1715286,4.62772143 14.5904571,4.54415 C13.1966714,2.30722143 10.7220286,0.814078571 7.89267143,0.814078571 C3.53395714,0.814078571 -0.000185714286,4.34729286 -0.000185714286,8.70693571 C-0.000185714286,9.78965 0.218957143,10.8212929 0.6136,11.7610071 C1.8161,9.37179286 4.28145714,7.72543571 7.12845714,7.72543571" id="Fill-1" fill="#E4E5CC"></path>
                <g id="Fill-1">
                    <mask id="mask-2" fill="white">
                        <use xlink:href="#path-1"></use>
                    </mask>
                    <use id="Mask" fill="#9C9D88" xlink:href="#path-1"></use>
                    <path d="M9.81712643,8.50767542 C10.3720874,8.50767542 10.914829,8.56762821 11.4585889,8.68856745 C13.0114612,6.38555338 15.3473885,5.05935631 18,4.96632612 C16.4715663,2.47621799 13.7578582,0.814078571 10.6551684,0.814078571 C5.87537636,0.814078571 1.99981429,4.74718834 1.99981429,9.60026333 C1.99981429,10.8055211 2.24012765,11.9539272 2.67289535,13 C3.991564,10.3403702 6.6950893,8.50767542 9.81712643,8.50767542" fill="#E0E2C4" mask="url(#mask-2)"></path>
                </g>
            </g>
        </g>
    </g>
</svg>