<svg width="25" height="25" viewBox="0 0 25 25" fill="none" xmlns="http://www.w3.org/2000/svg">
<path d="M21.2501 9.08333C18.9167 9.08333 17.0001 7.16667 17.0001 4.83333C17.0001 4.08333 17.1667 3.33333 17.5001 2.75C15.1667 2.75 13.1667 4.33333 12.4167 6.41667C12.8334 6.5 13.3334 6.66667 13.7501 6.91667C15.0834 7.66667 16.0001 8.75 16.4167 10.25C16.4167 10.3333 16.5001 10.4167 16.5834 10.4167C17.3326 10.4167 17.9992 10.5 18.6667 10.8333C19.3334 11.1667 19.9167 11.6667 20.3334 12.25C20.4167 12.3333 20.4167 12.4167 20.4992 12.4167C21.6659 11.5833 22.4992 10.3333 22.7492 8.83333C22.2501 9 21.7501 9.08333 21.2501 9.08333V9.08333Z" fill="#BFBFBF"/>
<path fill-rule="evenodd" clip-rule="evenodd" d="M11.735 19.5118C10.1075 19.5118 8.4808 19.5126 6.85413 19.5118C6.26497 19.5118 5.68997 19.4318 5.13413 19.2226C3.95997 18.7801 3.08163 18.0093 2.5533 16.8676C1.90413 15.4635 1.9158 14.0551 2.6583 12.6943C3.28413 11.546 4.24663 10.7868 5.52497 10.4551C5.65747 10.4201 5.7108 10.361 5.74247 10.2301C5.93497 9.43179 6.2833 8.70596 6.81663 8.07512C7.63747 7.10429 8.6558 6.44679 9.90997 6.19179C11.2558 5.91762 12.5541 6.06596 13.7625 6.74262C15.1208 7.50429 16.0408 8.62762 16.4466 10.1468C16.4791 10.266 16.5308 10.2926 16.6416 10.2893C17.3808 10.2735 18.09 10.3951 18.7616 10.7168C19.4525 11.0468 20.0208 11.526 20.4858 12.1285C21.2258 13.0843 21.4966 14.1751 21.3791 15.366C21.1733 17.451 19.5666 19.1426 17.5083 19.4485C17.2216 19.491 16.93 19.506 16.64 19.5076C15.0058 19.5143 13.3708 19.5118 11.735 19.5118Z" fill="#7F7F7F"/>
<path fill-rule="evenodd" clip-rule="evenodd" d="M12.8225 16.9651C13.6208 17.7743 14.3992 18.5751 14.8025 19.6543C15.2467 20.8359 14.5158 22.0309 13.4417 22.3568C12.2592 22.7176 11.035 22.0184 10.7525 20.8409C10.6242 20.3001 10.7233 19.7876 10.9708 19.3009C11.4267 18.4051 12.0875 17.6726 12.8225 16.9651V16.9651Z" fill="#3DBAE7"/>
<path fill-rule="evenodd" clip-rule="evenodd" d="M9.28665 14.5369C9.70415 14.8985 9.99915 15.3502 10.25 15.8327C10.3475 16.0169 10.4375 16.2102 10.4958 16.4085C10.7425 17.2477 10.0725 18.0469 9.20332 17.9635C8.51832 17.8977 8.07499 17.4869 7.98749 16.8285C7.94999 16.5444 8.05915 16.2894 8.17832 16.0427C8.45332 15.4735 8.85082 14.9944 9.28665 14.5369V14.5369Z" fill="#3DBAE7"/>
<path fill-rule="evenodd" clip-rule="evenodd" d="M12.9624 12.8118C13.2041 13.1759 13.4666 13.5009 13.6524 13.8651C13.9207 14.3951 13.6816 14.9459 13.1574 15.0884C12.8007 15.1868 12.4849 15.0984 12.2407 14.8143C12.0149 14.5551 11.9849 14.2634 12.1232 13.9501C12.3091 13.5276 12.5766 13.1643 12.9624 12.8118V12.8118Z" fill="#3DBAE7"/>
</svg>
