<?xml version="1.0" encoding="UTF-8" standalone="no"?>
<svg width="32px" height="32px" viewBox="0 0 32 32" version="1.1" xmlns="http://www.w3.org/2000/svg" xmlns:xlink="http://www.w3.org/1999/xlink">
    <!-- Generator: Sketch 43.2 (39069) - http://www.bohemiancoding.com/sketch -->
    <title>OVERCAST_SNOW</title>
    <desc>Created with Sketch.</desc>
    <defs></defs>
    <g id="DAY-WEATHER" stroke="none" stroke-width="1" fill="none" fill-rule="evenodd">
        <g id="OVERCAST_SNOW">
            <path d="M30.3313,13.911 C30.3193,10.911 28.0133,8.588 25.1663,8.588 C25.1663,4.446 21.8093,1 17.6663,1 C14.8593,1 12.4153,2.501 11.1303,4.785 C10.4223,4.539 9.6663,4.377 8.8753,4.377 C5.0783,4.377 2.0003,7.621 2.0003,11.418 C2.0003,12.236 2.1503,12.911 2.4123,13.911 L30.3313,13.911 Z" id="Fill-1" fill="#B2B2B2"></path>
            <path d="M26,19.4847712 L24.4825212,17.9672924 C24.0703836,17.5551548 23.3879613,17.5511235 22.9695424,17.9695424 C22.5482063,18.3908784 22.5501161,19.0653449 22.9672924,19.4825212 L24.4847712,21 L22.9672924,22.5174788 C22.5551548,22.9296164 22.5511235,23.6120387 22.9695424,24.0304576 C23.3908784,24.4517937 24.0653449,24.4498839 24.4825212,24.0327076 L26,22.5152288 L27.5174788,24.0327076 C27.9296164,24.4448452 28.6120387,24.4488765 29.0304576,24.0304576 C29.4517937,23.6091216 29.4498839,22.9346551 29.0327076,22.5174788 L27.5152288,21 L29.0327076,19.4825212 C29.4448452,19.0703836 29.4488765,18.3879613 29.0304576,17.9695424 C28.6091216,17.5482063 27.9346551,17.5501161 27.5174788,17.9672924 L26,19.4847712 Z M21,20.2857143 L22.4285714,20.2857143 L22.4285714,21.7142857 L21,21.7142857 L21,20.2857143 Z M29.5714286,20.2857143 L31,20.2857143 L31,21.7142857 L29.5714286,21.7142857 L29.5714286,20.2857143 Z M25.2857143,24.5714286 L26.7142857,24.5714286 L26.7142857,26 L25.2857143,26 L25.2857143,24.5714286 Z M25.2857143,16 L26.7142857,16 L26.7142857,17.4285714 L25.2857143,17.4285714 L25.2857143,16 Z" id="Rectangle-1-Copy-3" fill="#DDDDDD"></path>
            <path d="M6,19.4847712 L4.48252117,17.9672924 C4.07038361,17.5551548 3.38796125,17.5511235 2.96954237,17.9695424 C2.54820634,18.3908784 2.55011612,19.0653449 2.96729236,19.4825212 L4.48477118,21 L2.96729236,22.5174788 C2.55515479,22.9296164 2.55112348,23.6120387 2.96954237,24.0304576 C3.39087839,24.4517937 4.06534494,24.4498839 4.48252117,24.0327076 L6,22.5152288 L7.51747883,24.0327076 C7.92961639,24.4448452 8.61203875,24.4488765 9.03045763,24.0304576 C9.45179366,23.6091216 9.44988388,22.9346551 9.03270764,22.5174788 L7.51522882,21 L9.03270764,19.4825212 C9.44484521,19.0703836 9.44887652,18.3879613 9.03045763,17.9695424 C8.60912161,17.5482063 7.93465506,17.5501161 7.51747883,17.9672924 L6,19.4847712 Z M1,20.2857143 L2.42857143,20.2857143 L2.42857143,21.7142857 L1,21.7142857 L1,20.2857143 Z M9.57142857,20.2857143 L11,20.2857143 L11,21.7142857 L9.57142857,21.7142857 L9.57142857,20.2857143 Z M5.28571429,24.5714286 L6.71428571,24.5714286 L6.71428571,26 L5.28571429,26 L5.28571429,24.5714286 Z M5.28571429,16 L6.71428571,16 L6.71428571,17.4285714 L5.28571429,17.4285714 L5.28571429,16 Z" id="Rectangle-1-Copy-3" fill="#DDDDDD"></path>
            <path d="M16,22.4847712 L14.4825212,20.9672924 C14.0703836,20.5551548 13.3879613,20.5511235 12.9695424,20.9695424 C12.5482063,21.3908784 12.5501161,22.0653449 12.9672924,22.4825212 L14.4847712,24 L12.9672924,25.5174788 C12.5551548,25.9296164 12.5511235,26.6120387 12.9695424,27.0304576 C13.3908784,27.4517937 14.0653449,27.4498839 14.4825212,27.0327076 L16,25.5152288 L17.5174788,27.0327076 C17.9296164,27.4448452 18.6120387,27.4488765 19.0304576,27.0304576 C19.4517937,26.6091216 19.4498839,25.9346551 19.0327076,25.5174788 L17.5152288,24 L19.0327076,22.4825212 C19.4448452,22.0703836 19.4488765,21.3879613 19.0304576,20.9695424 C18.6091216,20.5482063 17.9346551,20.5501161 17.5174788,20.9672924 L16,22.4847712 Z M11,23.2857143 L12.4285714,23.2857143 L12.4285714,24.7142857 L11,24.7142857 L11,23.2857143 Z M19.5714286,23.2857143 L21,23.2857143 L21,24.7142857 L19.5714286,24.7142857 L19.5714286,23.2857143 Z M15.2857143,27.5714286 L16.7142857,27.5714286 L16.7142857,29 L15.2857143,29 L15.2857143,27.5714286 Z M15.2857143,19 L16.7142857,19 L16.7142857,20.4285714 L15.2857143,20.4285714 L15.2857143,19 Z" id="Rectangle-1-Copy-3" fill="#DDDDDD"></path>
        </g>
    </g>
</svg>