<?xml version="1.0" encoding="UTF-8" standalone="no"?>
<svg width="32px" height="32px" viewBox="0 0 32 32" version="1.1" xmlns="http://www.w3.org/2000/svg" xmlns:xlink="http://www.w3.org/1999/xlink">
    <!-- Generator: Sketch 43.2 (39069) - http://www.bohemiancoding.com/sketch -->
    <title>OVERCAST_HAIL</title>
    <desc>Created with Sketch.</desc>
    <defs></defs>
    <g id="DAY-WEATHER" stroke="none" stroke-width="1" fill="none" fill-rule="evenodd">
        <g id="OVERCAST_HAIL">
            <polygon id="Imported-Layers" fill="#10F6E9" points="5.5 22 4 19.5 5.5 17 8.5 17 10 19.5 8.5 22"></polygon>
            <polygon id="Imported-Layers" fill="#10F6E9" transform="translate(16.000000, 19.500000) scale(-1, 1) translate(-16.000000, -19.500000) " points="14.5 22 13 19.5 14.5 17 17.5 17 19 19.5 17.5 22"></polygon>
            <polygon id="Imported-Layers" fill="#10F6E9" points="10.5 29 9 26.5 10.5 24 13.5 24 15 26.5 13.5 29"></polygon>
            <polygon id="Imported-Layers" fill="#10F6E9" transform="translate(21.000000, 26.500000) scale(-1, 1) translate(-21.000000, -26.500000) " points="19.5 29 18 26.5 19.5 24 22.5 24 24 26.5 22.5 29"></polygon>
            <polygon id="Imported-Layers" fill="#10F6E9" transform="translate(25.000000, 19.500000) scale(-1, 1) translate(-25.000000, -19.500000) " points="23.5 22 22 19.5 23.5 17 26.5 17 28 19.5 26.5 22"></polygon>
            <path d="M30.3313,13.911 C30.3193,10.911 28.0133,8.588 25.1663,8.588 C25.1663,4.446 21.8093,1 17.6663,1 C14.8593,1 12.4153,2.501 11.1303,4.785 C10.4223,4.539 9.6663,4.377 8.8753,4.377 C5.0783,4.377 2.0003,7.621 2.0003,11.418 C2.0003,12.236 2.1503,12.911 2.4123,13.911 L30.3313,13.911 Z" id="Fill-1" fill="#B2B2B2"></path>
        </g>
    </g>
</svg>