<?xml version="1.0" encoding="UTF-8" standalone="no"?>
<svg width="32px" height="32px" viewBox="0 0 32 32" version="1.1" xmlns="http://www.w3.org/2000/svg" xmlns:xlink="http://www.w3.org/1999/xlink">
    <!-- Generator: Sketch 43.2 (39069) - http://www.bohemiancoding.com/sketch -->
    <title>PARTLY_CLOUDY_HAIL</title>
    <desc>Created with Sketch.</desc>
    <defs></defs>
    <g id="DAY-WEATHER" stroke="none" stroke-width="1" fill="none" fill-rule="evenodd">
        <g id="PARTLY_CLOUDY_HAIL">
            <g id="Page-1" transform="translate(3.000000, 0.000000)">
                <g id="Group-3" fill="#FFE217">
                    <path d="M7.12845714,7.72543571 C7.63452857,7.72543571 8.12945714,7.77929286 8.62531429,7.88793571 C10.0413857,5.81907857 12.1715286,4.62772143 14.5904571,4.54415 C13.1966714,2.30722143 10.7220286,0.814078571 7.89267143,0.814078571 C3.53395714,0.814078571 -0.000185714286,4.34729286 -0.000185714286,8.70693571 C-0.000185714286,9.78965 0.218957143,10.8212929 0.6136,11.7610071 C1.8161,9.37179286 4.28145714,7.72543571 7.12845714,7.72543571" id="Fill-1"></path>
                </g>
                <path d="M21.5974571,12.4986429 C21.5974571,8.96914286 18.7365286,6.10821429 15.2070286,6.10821429 C12.8141,6.10821429 10.7322429,7.42492857 9.63652857,9.37121429 C9.03388571,9.16135714 8.38945714,9.0425 7.71531429,9.0425 C4.48017143,9.0425 1.85695714,11.6647857 1.85695714,14.9008571 C1.85695714,18.136 4.48017143,20.7582857 7.71531429,20.7582857 C8.59188571,20.7582857 9.42017143,20.5605 10.1667429,20.216 C11.1835286,21.4361429 12.7128857,22.2142857 14.4251714,22.2142857 C16.1486,22.2142857 17.6872429,21.4277857 18.7031,20.1946429 C19.4784571,20.8762143 20.4831714,21.3033571 21.5974571,21.3033571 C24.0293857,21.3033571 25.9998143,19.3329286 25.9998143,16.901 C25.9998143,14.47 24.0293857,12.4986429 21.5974571,12.4986429" id="Fill-4" fill="#DDDDDD"></path>
            </g>
            <polygon id="Imported-Layers" fill="#10F6E9" points="6.5 29 5 26.5 6.5 24 9.5 24 11 26.5 9.5 29"></polygon>
            <polygon id="Imported-Layers" fill="#10F6E9" transform="translate(16.000000, 26.500000) scale(-1, 1) translate(-16.000000, -26.500000) " points="14.5 29 13 26.5 14.5 24 17.5 24 19 26.5 17.5 29"></polygon>
            <polygon id="Imported-Layers" fill="#10F6E9" transform="translate(24.000000, 26.500000) scale(-1, 1) translate(-24.000000, -26.500000) " points="22.5 29 21 26.5 22.5 24 25.5 24 27 26.5 25.5 29"></polygon>
        </g>
    </g>
</svg>