<svg width="25" height="25" viewBox="0 0 25 25" fill="none" xmlns="http://www.w3.org/2000/svg">
<path d="M12.9899 7.61853C13.8115 8.39686 14.3007 9.26769 14.4874 10.2094C14.5407 10.4827 16.0474 10.1619 17.1074 10.9085C17.5932 11.256 18.3399 11.7419 18.9307 12.8185C19.5974 11.9852 20.1224 10.9469 20.1224 9.78019C20.1224 7.19686 18.1224 5.11353 15.4549 5.11353C14.039 5.11353 12.7315 5.81103 11.8982 6.81186C12.2315 6.97769 12.4399 7.14603 12.9899 7.61853V7.61853Z" fill="#EFC319"/>
<path d="M22.3717 3.44608C22.3717 3.61275 22.2875 3.86275 22.205 3.94608C21.7884 4.36275 21.3717 4.86275 20.8709 5.27941C20.6209 5.52941 20.2884 5.61275 19.9542 5.44608C19.4542 5.19608 19.3709 4.61275 19.7875 4.19608C20.1209 3.86275 20.3709 3.61275 20.705 3.27941C20.8709 3.11275 20.955 3.02941 21.1217 2.86275C21.3717 2.61275 21.6217 2.61275 21.955 2.69608C22.205 2.86358 22.3717 3.11275 22.3717 3.44608V3.44608Z" fill="#EFC319"/>
<path d="M23.2875 8.94604H24.2042C24.6208 8.94604 24.9542 9.27938 24.9542 9.69605C24.9542 10.1127 24.6208 10.446 24.2042 10.446H22.2875C21.8708 10.446 21.5383 10.1127 21.5383 9.69605C21.5383 9.27938 21.8708 8.94604 22.2875 8.94604H23.2875Z" fill="#EFC319"/>
<path d="M14.5376 1.69596V0.779297C14.5376 0.36263 14.8709 0.0292969 15.2876 0.0292969C15.7043 0.0292969 16.0368 0.279297 16.0368 0.695964V2.69596C16.0368 3.11263 15.7043 3.44596 15.2876 3.44596C14.8709 3.44596 14.5376 3.11263 14.5376 2.69596V1.69596Z" fill="#EFC319"/>
<path d="M8.95332 2.61255C9.20248 2.61255 9.36998 2.69588 9.53582 2.86255C9.70332 3.02922 9.95415 3.19588 10.12 3.44588C10.4533 3.77922 10.4533 4.27922 10.12 4.52922C9.87082 4.77922 9.36998 4.77922 9.03582 4.52922C8.78498 4.36255 8.61915 4.11255 8.45332 3.86255C8.20248 3.61255 8.20248 3.36255 8.36832 3.02922C8.45415 2.77922 8.70248 2.61255 8.95332 2.61255Z" fill="#EFC319"/>
<path d="M21.6207 16.7794C21.454 16.7794 21.2874 16.696 21.1207 16.6127C20.954 16.446 20.7874 16.2794 20.5374 16.1127C20.204 15.7794 20.1207 15.2794 20.4532 14.946C20.7865 14.6127 21.2865 14.6127 21.6199 14.946L22.2032 15.5294C22.4532 15.7794 22.4532 16.0294 22.3699 16.2794C22.2049 16.5294 21.9549 16.7794 21.6207 16.7794V16.7794Z" fill="#EFC319"/>
<path fill-rule="evenodd" clip-rule="evenodd" d="M9.82579 19.4417C8.19829 19.4417 6.57162 19.4426 4.94495 19.4417C4.35579 19.4417 3.78079 19.3617 3.22495 19.1526C2.05079 18.7101 1.17245 17.9392 0.644121 16.7976C-0.00504596 15.3934 0.00662071 13.9851 0.749121 12.6242C1.37495 11.4759 2.33745 10.7167 3.61579 10.3851C3.74829 10.3501 3.80162 10.2909 3.83329 10.1601C4.02579 9.36172 4.37412 8.63589 4.90745 8.00505C5.72829 7.03422 6.74662 6.37672 8.00079 6.12172C9.34579 5.84755 10.645 5.99589 11.8525 6.67255C13.2108 7.43422 14.1308 8.55755 14.5358 10.0767C14.5683 10.1959 14.6208 10.2226 14.7308 10.2192C15.47 10.2034 16.1791 10.3251 16.8516 10.6467C17.5416 10.9767 18.11 11.4559 18.575 12.0584C19.3158 13.0142 19.5858 14.1051 19.4683 15.2959C19.2633 17.3809 17.6566 19.0726 15.5975 19.3784C15.3108 19.4209 15.02 19.4359 14.73 19.4376C13.0958 19.4442 11.4608 19.4417 9.82579 19.4417V19.4417Z" fill="#7F7F7F"/>
<path fill-rule="evenodd" clip-rule="evenodd" d="M13.8133 17.1908C14.4266 17.1908 15.01 17.1891 15.59 17.1941C15.6625 17.1941 15.7333 17.2283 15.8033 17.2474C15.7791 17.3174 15.7658 17.3958 15.7258 17.4558C14.255 19.6358 12.78 21.8124 11.3116 23.9941C11.2208 24.1291 11.1266 24.1866 10.9558 24.1316C11.6575 22.2966 12.36 20.4641 13.0708 18.6074C12.9858 18.6024 12.9266 18.5974 12.8691 18.5974H11.3558C11.0541 18.5974 11.03 18.5624 11.1341 18.2849C11.5883 17.0741 12.0433 15.8633 12.4991 14.6533C12.6358 14.2908 12.7758 13.9308 12.905 13.5658C12.9583 13.4183 13.0466 13.3574 13.2025 13.3574C14.0008 13.3608 14.7991 13.3574 15.5975 13.3591C15.8383 13.3591 15.8608 13.4033 15.7433 13.6216C15.13 14.7549 14.5141 15.8874 13.9 17.0208C13.8733 17.0666 13.8508 17.1158 13.8133 17.1908Z" fill="#EFC319"/>
<path fill-rule="evenodd" clip-rule="evenodd" d="M6.98915 16.9651C7.78832 17.7743 8.56665 18.5751 8.96999 19.6543C9.41415 20.8359 8.68332 22.0309 7.60915 22.3568C6.42582 22.7176 5.20165 22.0184 4.91999 20.8409C4.79165 20.3001 4.89082 19.7876 5.13832 19.3009C5.59415 18.4051 6.25499 17.6726 6.98915 16.9651Z" fill="#3DBAE7"/>
<path fill-rule="evenodd" clip-rule="evenodd" d="M3.45413 14.5369C3.8708 14.8985 4.16663 15.3502 4.41747 15.8327C4.51497 16.0169 4.60497 16.2102 4.6633 16.4085C4.90913 17.2477 4.23997 18.0469 3.3708 17.9635C2.6858 17.8977 2.24163 17.4869 2.15497 16.8285C2.11747 16.5444 2.22663 16.2894 2.3458 16.0427C2.6208 15.4735 3.01747 14.9944 3.45413 14.5369V14.5369Z" fill="#3DBAE7"/>
<path fill-rule="evenodd" clip-rule="evenodd" d="M7.12915 12.8118C7.37165 13.1759 7.63332 13.5009 7.81915 13.8651C8.08749 14.3951 7.84832 14.9459 7.32415 15.0884C6.96748 15.1868 6.65165 15.0984 6.40749 14.8143C6.18165 14.5551 6.15165 14.2634 6.28999 13.9501C6.47582 13.5276 6.74332 13.1643 7.12915 12.8118V12.8118Z" fill="#3DBAE7"/>
</svg>
