[
    [
        0.000,
        0.000,
        0.000,
        0.000,
        0.000,
        0.000,
        0.000,
        0.000,
        0.000,
        0.000,
        0.000,
        0.000,
        0.000,
        0.000,
        0.000,
        0.000,
        0.000,
        0.000
    ],
    [
        0.000,
        0.000,
        0.000,
        0.000,
        0.000,
        0.000,
        0.000,
        0.000,
        0.000,
        0.000,
        0.000,
        0.000,
        0.000,
        0.000,
        0.000,
        0.000,
        0.000,
        0.000
    ],
    [
        0.000,
        0.000,
        0.000,
        0.000,
        0.000,
        0.000,
        0.000,
        0.000,
        0.000,
        0.000,
        0.000,
        0.000,
        0.000,
        0.000,
        0.000,
        0.000,
        0.000,
        0.000
    ],
    [
        0.000,
        0.000,
        0.000,
        0.000,
        0.936,
        0.000,
        0.000,
        0.000,
        0.000,
        0.000,
        0.000,
        0.000,
        0.000,
        0.000,
        0.000,
        0.000,
        0.000,
        0.000
    ],
    [
        0.768,
        0.000,
        0.000,
        0.000,
        0.000,
        0.000,
        0.000,
        0.000,
        0.000,
        0.000,
        0.234,
        0.000,
        0.000,
        0.000,
        0.000,
        0.000,
        0.000,
        0.000
    ],
    [
        0.180,
        0.162,
        0.047,
        0.027,
        0.004,
        0.000,
        0.000,
        0.000,
        0.007,
        0.012,
        0.005,
        0.006,
        0.005,
        0.000,
        0.000,
        0.000,
        0.000,
        0.000
    ],
    [
        0.792,
        0.701,
        0.638,
        0.480,
        0.428,
        0.317,
        0.225,
        0.125,
        0.088,
        0.081,
        0.070,
        0.095,
        0.029,
        0.051,
        0.026,
        0.000,
        0.000,
        0.000
    ],
    [
        7.065,
        4.236,
        1.845,
        0.730,
        0.502,
        0.400,
        0.356,
        0.345,
        0.324,
        0.329,
        0.233,
        0.258,
        0.155,
        0.064,
        0.082,
        0.059,
        0.039,
        0.017
    ],
    [
        3.450,
        4.491,
        5.216,
        4.868,
        3.597,
        2.116,
        0.867,
        0.547,
        0.432,
        0.343,
        0.388,
        0.453,
        0.491,
        0.336,
        0.199,
        0.188,
        0.145,
        0.133
    ],
    [
        4.052,
        2.992,
        2.224,
        1.696,
        1.889,
        2.185,
        2.438,
        1.904,
        1.219,
        0.602,
        0.496,
        0.415,
        0.453,
        0.562,
        0.595,
        0.405,
        0.337,
        0.329
    ],
    [
        0.767,
        1.283,
        1.642,
        1.822,
        1.822,
        1.914,
        1.846,
        1.556,
        1.415,
        1.455,
        1.161,
        0.922,
        0.635,
        0.507,
        0.460,
        0.591,
        0.604,
        0.584
    ],
    [
        1.618,
        1.270,
        0.951,
        0.764,
        0.612,
        0.347,
        0.380,
        0.521,
        0.770,
        0.991,
        1.013,
        0.992,
        1.054,
        0.948,
        0.816,
        0.761,
        0.721,
        0.693
    ],
    [
        3.588,
        2.890,
        2.437,
        2.085,
        1.869,
        1.909,
        1.907,
        1.876,
        1.726,
        1.575,
        1.470,
        1.250,
        1.132,
        1.037,
        0.959,
        0.851,
        0.839,
        0.803
    ],
    [
        7.191,
        6.303,
        5.436,
        4.605,
        3.830,
        3.108,
        2.447,
        1.992,
        1.656,
        1.310,
        1.168,
        1.189,
        1.134,
        1.112,
        1.026,
        1.006,
        0.914,
        0.872
    ],
    [
        1.013,
        0.730,
        0.489,
        0.261,
        0.170,
        0.074,
        0.113,
        0.525,
        1.096,
        1.353,
        1.266,
        1.119,
        1.068,
        0.997,
        0.967,
        0.874,
        0.886,
        0.880
    ],
    [
        0.200,
        0.278,
        0.482,
        0.955,
        1.682,
        2.553,
        2.999,
        2.371,
        1.512,
        1.039,
        0.919,
        0.868,
        0.832,
        0.837,
        0.841,
        0.891,
        0.847,
        0.850
    ],
    [
        4.416,
        4.784,
        4.954,
        4.843,
        3.873,
        2.546,
        1.419,
        1.120,
        1.239,
        1.195,
        1.077,
        0.944,
        0.855,
        0.802,
        0.750,
        0.775,
        0.788,
        0.782
    ],
    [
        5.345,
        3.971,
        2.865,
        1.820,
        1.340,
        1.259,
        1.182,
        1.063,
        0.886,
        1.042,
        1.120,
        1.050,
        0.906,
        0.813,
        0.760,
        0.625,
        0.585,
        0.578
    ],
    [
        1.625,
        1.704,
        1.714,
        1.463,
        1.561,
        1.393,
        1.384,
        1.274,
        0.927,
        0.529,
        0.306,
        0.103,
        0.037,
        0.045,
        0.044,
        0.062,
        0.006,
        0.026
    ],
    [
        2.320,
        2.012,
        1.898,
        1.536,
        0.923,
        0.564,
        0.269,
        0.077,
        0.054,
        0.052,
        0.000,
        0.000,
        0.000,
        0.000,
        0.000,
        0.000,
        0.000,
        0.000
    ],
    [
        2.544,
        2.084,
        1.185,
        0.524,
        0.072,
        0.000,
        0.000,
        0.000,
        0.000,
        0.000,
        0.000,
        0.000,
        0.000,
        0.000,
        0.000,
        0.000,
        0.000,
        0.000
    ],
    [
        1.730,
        0.514,
        0.134,
        0.067,
        0.000,
        0.000,
        0.000,
        0.000,
        0.000,
        0.000,
        0.000,
        0.000,
        0.000,
        0.000,
        0.000,
        0.000,
        0.000,
        0.000
    ],
    [
        0.032,
        0.012,
        0.025,
        0.000,
        0.000,
        0.000,
        0.000,
        0.000,
        0.000,
        0.000,
        0.000,
        0.000,
        0.000,
        0.000,
        0.000,
        0.000,
        0.000,
        0.000
    ],
    [
        0.012,
        0.000,
        0.023,
        0.000,
        0.000,
        0.000,
        0.000,
        0.000,
        0.000,
        0.000,
        0.000,
        0.000,
        0.000,
        0.000,
        0.000,
        0.000,
        0.000,
        0.000
    ]
]
