{
    "client_id" : your_stitch_client_id,
    "token": "your-stitch-token-here",
    "small_batch_url": "https://api.stitchdata.com/v2/import/batch",
    "big_batch_url": "https://api.stitchdata.com/v2/import/batch",
    "batch_size_preferences": {}
  }
