{
  "imageName": "account/cancel",
  "module": "cancel",
  "bucket": "s3://sl-product-cdn-{environment}",
  "buildArtifactPath": "/opt/app/build",
  "destinationPath": "cancel/{brand}",
  "appType": "account",
  "requireEnvironmentContainers": true,
  "noCacheFiles": ["**/index.html"],
  "newRelic": {
    "applicationId": {}
  }
}
