<?xml version="1.0" encoding="UTF-8"?>
<svg width="18px" height="34px" viewBox="0 0 18 34" version="1.1" xmlns="http://www.w3.org/2000/svg"
     xmlns:xlink="http://www.w3.org/1999/xlink">
    <!-- Generator: Sketch 42 (36781) - http://www.bohemiancoding.com/sketch -->
    <title>left-arrow</title>
    <desc>Created with Sketch.</desc>
    <defs></defs>
    <g id="News-Index" stroke="none" stroke-width="1" fill="none" fill-rule="evenodd">
        <g id="card-layout-desktop" transform="translate(-25.000000, -483.000000)"
           fill-rule="nonzero" fill="#FFFFFF">
            <path d="M25.3209915,500.856451 C25.751673,501.291455 26.4538826,501.287073 26.8834182,500.853226 L42.6758162,484.902322 C43.106159,484.46766 43.104997,483.754477 42.6790085,483.324213 C42.248327,482.889209 41.5461174,482.893591 41.1165818,483.327438 L25.3241838,499.278342 C24.893841,499.713004 24.895003,500.426187 25.3209915,500.856451 Z M41.860842,484.079168 C41.8813785,484.058425 41.9171829,484.058202 41.9347483,484.075944 C41.9502405,484.091591 41.9503058,484.131654 41.9315559,484.150592 L26.139158,500.101496 C26.1186215,500.122239 26.0828171,500.122462 26.0652517,500.10472 C26.0497595,500.089073 26.0496942,500.04901 26.0684441,500.030072 L41.860842,484.079168 Z M42.6790085,516.677264 C43.1096901,516.24226 43.1053518,515.533003 42.6758162,515.099156 L26.8834182,499.148251 C26.4530754,498.713589 25.7469799,498.714763 25.3209915,499.145027 C24.8903099,499.580031 24.8946482,500.289289 25.3241838,500.723136 L41.1165818,516.67404 C41.5469246,517.108702 42.2530201,517.107528 42.6790085,516.677264 Z M26.0684441,499.971405 C26.0479075,499.950663 26.0476863,499.914499 26.0652517,499.896757 C26.080744,499.88111 26.1204081,499.881044 26.139158,499.899982 L41.9315559,515.850886 C41.9520925,515.871629 41.9523137,515.907792 41.9347483,515.925534 C41.919256,515.941182 41.8795919,515.941248 41.860842,515.92231 L26.0684441,499.971405 Z"
                  id="left-arrow"></path>
        </g>
    </g>
</svg>
