{
  "imageName": "web/travel",
  "compose": "travel",
  "serviceName": "sl-travel",
  "cluster": "sl-core-svc",
  "requireEnvironmentContainers": true,
  "secrets": {
    "common": {
      "prefix": "/{env}/common/",
      "secrets": [
        "APP_ENV",
        "BACKPLANE_HOST",
        "FB_ACCESS_TOKEN",
        "FB_APP_ID",
        "NEW_RELIC_ENABLED",
        "NEW_RELIC_IGNORING_RULES",
        "NEW_RELIC_LICENSE_KEY",
        "NEW_RELIC_LOG_LEVEL",
        "NODE_ENV",
        "SERVER_PORT",
        "SPLITIO_AUTHORIZATION_KEY",
        "WEB_CLIENT_ID",
        "WEB_CLIENT_SECRET"
      ]
    },
    "service": {
      "prefix": "/{env}/services/travel/",
      "secrets": [
        "CONSOLE_LOG_LEVEL",
        "LOGSENE_KEY",
        "LOGSENE_LEVEL",
        "SURFNETWORK_API_KEY",
        "SURFNETWORK_CUSTOMER"
      ]
    }
  },
  "taskRoleArn": {
    "sandbox": "arn:aws:iam::665294954271:role/travel_task_role_sandbox",
    "integration": "arn:aws:iam::665294954271:role/travel_task_role_integration",
    "staging": "arn:aws:iam::665294954271:role/travel_task_role_staging",
    "prod": "arn:aws:iam::833713747344:role/travel_task_role_prod"
  },
  "cdnArtifactPath": "/opt/app/build/public",
  "newRelic": {
    "applicationId": {
      "prod": 50637653
    }
  }
}
