{
  "permalink": "http://localhost:8080/surf-news/day-tree-of-da-hui-backdoor-shootout/303",
  "premium": false,
  "tags": [],
  "targetTaxonomy": [],
  "media": {
    "feed1x": "https://d1542niisbwnmf.cloudfront.net/wp-content/uploads/2017/01/10220245/img06.jpg",
    "promobox1x": "https://d1542niisbwnmf.cloudfront.net/wp-content/uploads/2017/01/10220245/img06.jpg",
    "promobox2x": "https://d1542niisbwnmf.cloudfront.net/wp-content/uploads/2017/01/10220245/img06.jpg",
    "feed2x": "https://d1542niisbwnmf.cloudfront.net/wp-content/uploads/2017/01/10220245/img06.jpg",
    "type": "image"
  },
  "author": "",
  "content": {
    "body": "<p>Cheesecake bear claw wafer candy canes donut. Tart jelly-o chocolate bar topping biscuit tootsie roll. Ice cream liquorice jujubes pastry chocolate cake gingerbread bonbon chupa chups apple pie. Marshmallow dragée macaroon muffin sesame snaps cookie cookie macaroon. Halvah chocolate sweet roll. Sugar plum pie sesame snaps powder marshmallow dessert sweet jelly powder. Sesame snaps dessert […]</p>\n",
    "subtitle": "Gummies lollipop lemon drops lollipop pastry",
    "title": "Day T’ree of Da Hui Backdoor Shootout"
  },
  "articleId": 303,
  "updatedAt": "2017-04-29T05:57:27",
  "promoted": [],
  "createdAt": "2017-01-26T00:26:55",
  "externalLink": "Wordpress URL",
  "externalSource": null,
  "newWindow": false
}
