{
  "_id": "5842041f4e65fad6a77088ed",
  "legacyRegionId": 2143,
  "location": {
    "type": "Point",
    "coordinates": [-118.0032588192, 33.654213041213]
  },
  "lat": 33.654213041213,
  "lon": -118.0032588192,
  "name": "HB Pier, Southside",
  "timezone": "America/Los_Angeles",
  "cameras": [{
    "title": "HB Pier, Southside",
    "streamUrl": "http://livestream.cdn-surfline.com/cdn-live/_definst_/surfline/secure/live/wc-hbpiersscam.smil/playlist.m3u8",
    "stillUrl": "http://camstills.cdn-surfline.com/hbpiersscam/latest_small.jpg",
    "pixelatedStillUrl": "http://camstills.cdn-surfline.com/hbpiersscam/latest_small_pixelated.jpg",
    "rewindBaseUrl": "https://camrewinds.cdn-surfline.com/hbpiersscam/hbpiersscam",
    "alias": "wc-hbpierss",
    "_id": "58a1075574fbf700121e9fc1",
    "status": {
      "isDown": false,
      "message": "",
      "altMessage": ""
    }
  }],
  "conditions": {
    "human": true,
    "value": "POOR"
  },
  "wind": {
    "speed": 2.09,
    "direction": 249.88
  },
  "waveHeight": {
    "human": false,
    "min": 7,
    "max": 10,
    "occasional": null,
    "plus": false
  },
  "swells": [{
    "height": 1.3,
    "direction": 265.78,
    "period": 11,
    "_id": "5a65c633908c020001169dcb"
  },
  {
    "height": 0.5,
    "direction": 268.59,
    "period": 8,
    "_id": "5a65c633908c020001169dca"
  },
  {
    "height": 0,
    "direction": 0,
    "period": 0,
    "_id": "5a65c633908c020001169dc9"
  },
  {
    "height": 0,
    "direction": 0,
    "period": 0,
    "_id": "5a65c633908c020001169dc8"
  },
  {
    "height": 0.3,
    "direction": 188.44,
    "period": 14,
    "_id": "5a65c633908c020001169dc7"
  },
  {
    "height": 0,
    "direction": 0,
    "period": 0,
    "_id": "5a65c633908c020001169dc6"
  }],
  "__v": 163,
  "tide": {
    "previous": {
      "type": "LOW",
      "height": -0.62,
      "timestamp": 1486945280,
      "utcOffset": -8
    },
    "current": {
      "type": "NORMAL",
      "height": 1.62,
      "timestamp": 1486955280,
      "utcOffset": -8
    },
    "next": {
      "type": "HIGH",
      "height": 4.59,
      "timestamp": 1486968170,
      "utcOffset": -8
    }
  },
  "waterTemp": {
    "min": 60,
    "max": 65
  },
  "weather": {
    "temperature": 73.8,
    "condition": "CLEAR_NO_RAIN"
  },
  "createdAt": "2017-01-10T21:07:12.994+0000",
  "updatedAt": "2017-02-13T01:09:41.381+0000",
  "legacyId": 4874,
  "rank": 10,
  "subregionId": "58581a836630e24c44878fd6",
  "thumbnail": "https://s3-us-west-1.amazonaws.com/sl-tmp-kbyg-cdn/nocam/nocam-img%402x.jpg"
}
