[
  {
    "_id": "5842041f4e65fad6a77088ed",
    "name": "HB Pier, Southside",
    "lat": 33.654213041213,
    "lon": -118.0032588192,
    "waveHeight": {
      "human": true,
      "min": 2.2,
      "max": 3.3,
      "occasional": null
    },
    "swells": [{
      "height": 1.3,
      "direction": 265.78,
      "period": 11,
      "_id": "5a65c633908c020001169dcb"
    },
    {
      "height": 0.5,
      "direction": 268.59,
      "period": 8,
      "_id": "5a65c633908c020001169dca"
    },
    {
      "height": 0,
      "direction": 0,
      "period": 0,
      "_id": "5a65c633908c020001169dc9"
    },
    {
      "height": 0,
      "direction": 0,
      "period": 0,
      "_id": "5a65c633908c020001169dc8"
    },
    {
      "height": 0.3,
      "direction": 188.44,
      "period": 14,
      "_id": "5a65c633908c020001169dc7"
    },
    {
      "height": 0,
      "direction": 0,
      "period": 0,
      "_id": "5a65c633908c020001169dc6"
    }],
    "windSpeed": {
      "speed": 4,
      "direction": 345.23
    },
    "tide": {
      "previous": {
        "type": "HIGH",
        "height": 19.58,
        "timestamp": 1473841815,
        "utcOffset": -8
      },
      "current": {
        "type": "NORMAL",
        "height": 8.75,
        "timestamp": 1473851815,
        "utcOffset": -8
      },
      "next": {
        "type": "LOW",
        "height": 5.77,
        "timestamp": 1473863720,
        "utcOffset": -8
      }
    },
    "waterTemp": {
      "min": 60,
      "max": 65
    }
  },
  {
    "_id": "5842041f4e65fad6a7708827",
    "name": "HB Pier, Northside",
    "lat": 33.656781041213,
    "lon": -118.0064678192,
    "waveHeight": {
      "human": true,
      "min": 2.5,
      "max": 3.4,
      "occasional": null
    },
    "windSpeed": {
      "speed": 4,
      "direction": 345.23
    },
    "tide": {
      "previous": {
        "type": "HIGH",
        "height": 19.48,
        "timestamp": 1473841815,
        "utcOffset": -8
      },
      "current": {
        "type": "LOW",
        "height": 5.47,
        "timestamp": 1473863720,
        "utcOffset": -8
      },
      "next": {
        "type": "LOW",
        "height": 5.47,
        "timestamp": 1473863720,
        "utcOffset": -8
      }
    },
    "waterTemp": {
      "min": 60,
      "max": 65
    }
  }
]
