{
  "took": 12,
  "timed_out": false,
  "_shards": {
    "total": 5,
    "successful": 5,
    "failed": 0
  },
  "hits": {
    "total": 1,
    "max_score": 23.297,
    "hits": []
  },
  "suggest": {
    "spot-suggest": [
      {
        "text": "Gold Beach South Jetty",
        "offset": 0,
        "length": 22,
        "options": [
          {
          "text": "Gold Beach South Jetty",
          "_index": "spots",
          "_type": "spot",
          "_id": "5842041f4e65fad6a77089b3",
          "_score": 22,
          "_source": {
          "name": "Gold Beach South Jetty",
            "location": {
              "lon": -124.4294524088355,
              "lat": 42.41812540774362
            },
          "cams": [
          "583499913421b20545c4b53c"
          ]
        },
            "contexts": {
              "type": [
              "spot"
              ]
            }
          }
        ]
      }
    ]
    }
  }