[
  [
    {
      "name": "United States",
      "geonameId": 6252001,
      "fcode": "PCLI"
    }
  ],
  [
    {
      "name": "California",
      "geonameId": 5332921,
      "fcode": "ADM1"
    }
  ],
  [
    {
      "name": "Orange County",
      "geonameId": 5379524,
      "fcode": "ADM2"
    }
  ]
]
