{
    "_id": "58e9692586fd4b596bc8f3e4",
    "spot": "5842041f4e65fad6a7708827",
    "type": "spot",
    "liesIn": [
        "58e95ab686fd4b596bc71919",
        "58e95ab686fd4b596bc7192b"
    ],
    "location": {
        "type": "Point",
        "coordinates": [
            -118.0064678192,
            33.656781041213
        ]
    },
    "name": "HB Pier, Northside",
    "category": "surfline",
    "associated": {
        "links": [
            {
                "key": "taxonomy",
                "href": "//spots-api/taxonomy?id=5842041f4e65fad6a7708827&type=spot"
            },
            {
                "key": "api",
                "href": "//spots-api/admin/spots/5842041f4e65fad6a7708827"
            },
            {
                "key": "www",
                "href": "https://www.surfline.com/surf-report/hb-pier-northside/5842041f4e65fad6a7708827"
            }
        ]
    },
    "in": [
        {
            "_id": "58e5c41986fd4b596b896473",
            "geonameId": 6295630,
            "type": "geoname",
            "liesIn": [
                null
            ],
            "geonames": {
                "population": 6814400000,
                "fcode": "AREA",
                "fcl": "L",
                "lat": "0",
                "adminName1": "",
                "fcodeName": "area",
                "toponymName": "Earth",
                "fclName": "parks,area, ...",
                "name": "Earth",
                "geonameId": 6295630,
                "lng": "0"
            },
            "location": {
                "coordinates": [
                    0,
                    0
                ],
                "type": "Point"
            },
            "enumeratedPath": ",Earth",
            "name": "Earth",
            "category": "geonames",
            "depth": 6,
            "associated": {
                "links": [
                    {
                        "key": "taxonomy",
                        "href": "//spots-api/taxonomy?id=6295630&type=geoname"
                    },
                    null
                ]
            }
        },
        {
            "_id": "58e5c41986fd4b596b89647a",
            "geonameId": 6255149,
            "type": "geoname",
            "liesIn": [
                "58e5c41986fd4b596b896473"
            ],
            "geonames": {
                "population": 0,
                "fcode": "CONT",
                "fcl": "L",
                "lat": "46.07323",
                "adminName1": "",
                "fcodeName": "continent",
                "toponymName": "North America",
                "fclName": "parks,area, ...",
                "name": "North America",
                "geonameId": 6255149,
                "lng": "-100.54688"
            },
            "location": {
                "coordinates": [
                    -100.54688,
                    46.07323
                ],
                "type": "Point"
            },
            "enumeratedPath": ",Earth,North America",
            "name": "North America",
            "category": "geonames",
            "depth": 5,
            "associated": {
                "links": [
                    {
                        "key": "taxonomy",
                        "href": "//spots-api/taxonomy?id=6255149&type=geoname"
                    },
                    null
                ]
            }
        },
        {
            "_id": "58e5c41986fd4b596b896481",
            "geonameId": 6252001,
            "type": "geoname",
            "liesIn": [
                "58e5c41986fd4b596b89647a"
            ],
            "geonames": {
                "fcode": "PCLI",
                "lat": "39.76",
                "adminName1": "",
                "fcodeName": "independent political entity",
                "countryName": "United States",
                "fclName": "country, state, region,...",
                "name": "United States",
                "countryCode": "US",
                "population": 310232863,
                "fcl": "A",
                "countryId": "6252001",
                "toponymName": "United States",
                "geonameId": 6252001,
                "lng": "-98.5",
                "adminCode1": "00"
            },
            "location": {
                "coordinates": [
                    -98.5,
                    39.76
                ],
                "type": "Point"
            },
            "enumeratedPath": ",Earth,North America,US",
            "name": "United States",
            "category": "geonames",
            "depth": 4,
            "associated": {
                "links": [
                    {
                        "key": "taxonomy",
                        "href": "//spots-api/taxonomy?id=6252001&type=geoname"
                    },
                    {
                        "key": "www",
                        "href": "https://www.surfline.com/surf-reports-forecasts-cams/us/6252001"
                    }
                ]
            }
        },
        {
            "_id": "58e5c41986fd4b596b896488",
            "geonameId": 5332921,
            "type": "geoname",
            "liesIn": [
                "58e5c41986fd4b596b896481"
            ],
            "geonames": {
                "fcode": "ADM1",
                "lat": "37.25022",
                "adminName1": "California",
                "fcodeName": "first-order administrative division",
                "countryName": "United States",
                "fclName": "country, state, region,...",
                "name": "California",
                "countryCode": "US",
                "population": 37691912,
                "fcl": "A",
                "countryId": "6252001",
                "toponymName": "California",
                "geonameId": 5332921,
                "lng": "-119.75126",
                "adminCode1": "CA"
            },
            "location": {
                "coordinates": [
                    -119.75126,
                    37.25022
                ],
                "type": "Point"
            },
            "enumeratedPath": ",Earth,North America,US,CA",
            "name": "California",
            "category": "geonames",
            "depth": 3,
            "associated": {
                "links": [
                    {
                        "key": "taxonomy",
                        "href": "//spots-api/taxonomy?id=5332921&type=geoname"
                    },
                    {
                        "key": "www",
                        "href": "https://www.surfline.com/surf-reports-forecasts-cams/us/ca/5332921"
                    }
                ]
            }
        },
        {
            "_id": "58ebd6cd86fd4b596be595d5",
            "region": "58dee4f9871eb600127a0a7f",
            "type": "region",
            "name": "Pacific Northwest",
            "category": "surfline",
            "depth": 2,
            "associated": {
                "links": [
                    {
                        "key": "taxonomy",
                        "href": "//spots-api/taxonomy?id=58dee4f9871eb600127a0a7f&type=region"
                    },
                    {
                        "key": "api",
                        "href": "//spots-api/admin/regions/58dee4f9871eb600127a0a7f"
                    }
                ]
            }
        },
        {
            "_id": "58e5c41986fd4b596b8964ac",
            "region": "58dbfe044bfa680012082307",
            "type": "region",
            "name": "Southern California",
            "category": "surfline",
            "depth": 2,
            "associated": {
                "links": [
                    {
                        "key": "taxonomy",
                        "href": "//spots-api/taxonomy?id=58dbfe044bfa680012082307&type=region"
                    },
                    {
                        "key": "api",
                        "href": "//spots-api/admin/regions/58dbfe044bfa680012082307"
                    }
                ]
            }
        },
        {
            "_id": "58e95ab686fd4b596bc71911",
            "geonameId": 5379524,
            "type": "geoname",
            "liesIn": [
                "58e5c41986fd4b596b896488"
            ],
            "geonames": {
                "fcode": "ADM2",
                "lat": "33.67691",
                "adminName1": "California",
                "fcodeName": "second-order administrative division",
                "countryName": "United States",
                "fclName": "country, state, region,...",
                "name": "Orange County",
                "countryCode": "US",
                "population": 3010232,
                "fcl": "A",
                "countryId": "6252001",
                "toponymName": "Orange County",
                "geonameId": 5379524,
                "lng": "-117.77617",
                "adminCode1": "CA"
            },
            "location": {
                "coordinates": [
                    -117.77617,
                    33.67691
                ],
                "type": "Point"
            },
            "enumeratedPath": ",Earth,North America,US,CA,Orange County",
            "name": "Orange County",
            "category": "geonames",
            "depth": 2,
            "associated": {
                "links": [
                    {
                        "key": "taxonomy",
                        "href": "//spots-api/taxonomy?id=5379524&type=geoname"
                    },
                    {
                        "key": "www",
                        "href": "https://www.surfline.com/surf-reports-forecasts-cams/us/ca/orange-county/5379524"
                    }
                ]
            }
        },
        {
            "_id": "58e95ab686fd4b596bc71919",
            "geonameId": 5358705,
            "type": "geoname",
            "liesIn": [
                "58e95ab686fd4b596bc71911"
            ],
            "geonames": {
                "fcode": "PPL",
                "lat": "33.6603",
                "adminName1": "California",
                "fcodeName": "populated place",
                "countryName": "United States",
                "fclName": "city, village,...",
                "name": "Huntington Beach",
                "countryCode": "US",
                "population": 201899,
                "fcl": "P",
                "countryId": "6252001",
                "toponymName": "Huntington Beach",
                "geonameId": 5358705,
                "lng": "-117.99923",
                "adminCode1": "CA"
            },
            "location": {
                "coordinates": [
                    -117.99923,
                    33.6603
                ],
                "type": "Point"
            },
            "enumeratedPath": ",Earth,North America,US,CA,Orange County,Huntington Beach",
            "name": "Huntington Beach",
            "category": "geonames",
            "depth": 1,
            "associated": {
                "links": [
                    {
                        "key": "taxonomy",
                        "href": "//spots-api/taxonomy?id=5358705&type=geoname"
                    },
                    {
                        "key": "www",
                        "href": "https://www.surfline.com/surf-reports-forecasts-cams/us/ca/orange-county/huntington-beach/5358705"
                    }
                ]
            }
        },
        {
            "_id": "58e95ab686fd4b596bc7192b",
            "subregion": "58581a836630e24c44878fd6",
            "type": "subregion",
            "liesIn": [
                "58e5c41986fd4b596b8964ac",
                "58ebd6cd86fd4b596be595d5"
            ],
            "name": "North Orange County",
            "category": "surfline",
            "depth": 1,
            "associated": {
                "links": [
                    {
                        "key": "taxonomy",
                        "href": "//spots-api/taxonomy?id=58581a836630e24c44878fd6&type=subregion"
                    },
                    {
                        "key": "api",
                        "href": "//spots-api/admin/subregions/58581a836630e24c44878fd6"
                    },
                    {
                        "key": "www",
                        "href": "//spots-api/surf-forecasts/north-orange-county/58581a836630e24c44878fd6"
                    }
                ]
            }
        }
    ],
    "contains": []
}
