{
  "variables": {
    "aws_region": "us-west-1",
    "aws_source_ami": "ami-de347abe",
    "sl_brand": "surfline",
    "wowza_licensekey": "",
    "wowza_password": "",
    "wowza_username": "",
    "wowza_version": ""
  },
  "builders": [
    {
      "type": "amazon-ebs",
      "region": "{{user `aws_region`}}",
      "source_ami": "{{user `aws_source_ami`}}",
      "instance_type": "t2.large",
      "ssh_username": "ec2-user",
      "ami_name": "{{user `sl_brand`}}-wowza-{{user `wowza_version`}}-{{timestamp}}",
      "ami_users": ["665294954271", "833713747344", "094422976157"],
      "launch_block_device_mappings": [
        {
          "device_name": "/dev/xvda",
          "volume_size": "60",
          "volume_type": "gp2"
        }
      ],
      "tags": {
        "Application": "wowza",
        "wowza_version": "{{user `wowza_version`}}"
      }
    }
  ],
  "provisioners": [
    {
      "type": "shell",
      "inline": [
        "WOWZA_VERSION_DASH=$(echo {{user `wowza_version`}} | sed -e 's/\\./-/g')",
        "wget -nv https://www.wowza.com/downloads/WowzaStreamingEngine-${WOWZA_VERSION_DASH}/WowzaStreamingEngine-{{user `wowza_version`}}-linux-x64-installer.run",
        "chmod +x WowzaStreamingEngine-{{user `wowza_version`}}-linux-x64-installer.run",
        "sudo ./WowzaStreamingEngine-{{user `wowza_version`}}-linux-x64-installer.run \\",
        "  --mode unattended\\",
        "  --licensekey {{user `wowza_licensekey`}}\\",
        "  --username {{user `wowza_username`}}\\",
        "  --password {{user `wowza_password`}}\\",
        "  --prefix /usr/local",
        "rm WowzaStreamingEngine-{{user `wowza_version`}}-linux-x64-installer.run"
      ]
    }
  ]
}
