{
  "sign-in-background": "sign-in-hawaii.jpg",
  "create-account-background": [
  	"sign-in-hawaii.jpg",
  	"sign-in-hawaii-again.jpg"
  ],
  "funnel-desktop-ad-free": [
  	"funnel/ios-report-ala-moana-bowls-hi.jpg",
  	"funnel/ios-report-hawaii-pipeline.jpg"
  ]
}