{
  "sign-in-background": [
  	"background-klein-pasquales.jpg",
  	"sign-in-LA-malibu.jpg",
  	"sign-in-san-franciscom-miah.jpg",
  	"sign-in-orange-county-miah.jpg",
  	"sign-in-ventura-county-miah.jpg"
  ],
  "create-account-background": [
  	"sign-in-LA-malibu.jpg",
  	"sign-in-ventura-county-miah.jpg"
  ],
  "funnel-desktop-ad-free": [
    "funnel/ios-report-san-diego-uppers.jpg",
    "funnel/ios-report-orangecounty.jpg",
    "funnel/ios-report-la-malibu.jpg"
  ]
}