{
  "sign-in-background": [
  	"sign-in-NC-obx-pullen.jpg",
  	"sign-in-NJ-pat-nolan.jpg"
  ],
  "create-account-background": [
  	"sign-in-NC-obx-pullen.jpg",
  	"sign-in-NJ-pat-nolan.jpg"
  ],
  "funnel-desktop-ad-free": [
  	"funnel/ios-report-cape-hatteras-lighthouse.jpg",
  	"funnel/ios-report-va-1st-jetty.jpg"
  ]
}