@startuml Basic Service Build Pipeline

!includeurl https://raw.githubusercontent.com/RicardoNiepel/C4-PlantUML/master/C4_Container.puml
skinparam ResponseMessageBelowArrow true

start
  :Checkout source code;
  :Install dependencies;
  :Build service;
  :Run tests;
  :Measure test coverage;
  :Update PR with test results;
  :Build container image;
  :Push container image to ECR;
  if (Preview environment exists?) then (yes)
    :Update preview environment;
  else (no)
    :Create preview environment;
  endif
stop

@enduml
