{
  "Records": [
    {
      "cf": {
        "config": {
          "distributionId": "EXAMPLE"
        },
        "request": {
          "uri": "/test",
          "method": "GET",
          "querystring": "foo=bar",
          "headers": {
            "authorization": [
              {
                "key": "Authorization",
                "value": "Basic a2pkdXdvZDpOV1o5MkxMYQ=="
              }
            ],
            "host": [
              {
                "key": "Host",
                "value": "d123.cf.net"
              }
            ]
          }
        }
      }
    }
  ]
}
