{
  "Version": "2012-10-17",
  "Statement": [
    {
      "Effect": "Allow",
      "Action": [
        "s3:List*",
        "s3:Get*"
      ],
      "Resource": "arn:aws:s3:::${bucket_name}"
    }
  ]
}
