{
  "Version": "2012-10-17",
  "Statement": [
    {
      "Effect": "Allow",
      "Action": [
        "s3:PutObject",
        "s3:ListBucket"
      ],
      "Resource": [
        "${s3_bucket}",
        "${s3_bucket}/*"
      ]
    }
  ]
}
