{
  "Version": "2012-10-17",
  "Statement": [
    {
      "Action": "s3:GetObject",
      "Principal": {
        "AWS": "${iam_arn}"
      },
      "Effect": "Allow",
      "Sid": "",
      "Resource": "arn:aws:s3:::${bucket_name}/*"
    }
  ]
}
