{
  "associated": {
    "timezone": "UTC"
  },
  "data": {
    "images": [
      {
        "url": "https://slcharts01.cdn-surfline.com/charts/socal/norange/nearshorewinds/norange_large_1.png",
        "timestamp": 1529470800
      },
      {
        "url": "https://slcharts01.cdn-surfline.com/charts/socal/norange/nearshorewinds/norange_large_2.png",
        "timestamp": 1529492400
      },
      {
        "url": "https://slcharts01.cdn-surfline.com/charts/socal/norange/nearshorewinds/norange_large_3.png",
        "timestamp": 1529514000
      },
      {
        "url": "https://slcharts01.cdn-surfline.com/charts/socal/norange/nearshorewinds/norange_large_4.png",
        "timestamp": 1529535600
      },
      {
        "url": "https://slcharts01.cdn-surfline.com/charts/socal/norange/nearshorewinds/norange_large_5.png",
        "timestamp": 1529557200
      },
      {
        "url": "https://slcharts01.cdn-surfline.com/charts/socal/norange/nearshorewinds/norange_large_6.png",
        "timestamp": 1529578800
      },
      {
        "url": "https://slcharts01.cdn-surfline.com/charts/socal/norange/nearshorewinds/norange_large_7.png",
        "timestamp": 1529600400
      },
      {
        "url": "https://slcharts01.cdn-surfline.com/charts/socal/norange/nearshorewinds/norange_large_8.png",
        "timestamp": 1529622000
      },
      {
        "url": "https://slcharts01.cdn-surfline.com/charts/socal/norange/nearshorewinds/norange_large_9.png",
        "timestamp": 1529643600
      },
      {
        "url": null,
        "timestamp": 1529665200
      },
      {
        "url": null,
        "timestamp": 1529686800
      },
      {
        "url": null,
        "timestamp": 1529708400
      },
      {
        "url": null,
        "timestamp": 1529730000
      },
      {
        "url": null,
        "timestamp": 1529751600
      },
      {
        "url": null,
        "timestamp": 1529773200
      },
      {
        "url": null,
        "timestamp": 1529794800
      },
      {
        "url": null,
        "timestamp": 1529816400
      },
      {
        "url": null,
        "timestamp": 1529838000
      },
      {
        "url": null,
        "timestamp": 1529859600
      },
      {
        "url": null,
        "timestamp": 1529881200
      },
      {
        "url": null,
        "timestamp": 1529902800
      },
      {
        "url": null,
        "timestamp": 1529924400
      },
      {
        "url": null,
        "timestamp": 1529946000
      },
      {
        "url": null,
        "timestamp": 1529967600
      },
      {
        "url": null,
        "timestamp": 1529989200
      },
      {
        "url": null,
        "timestamp": 1530010800
      },
      {
        "url": null,
        "timestamp": 1530032400
      },
      {
        "url": null,
        "timestamp": 1530054000
      },
      {
        "url": null,
        "timestamp": 1530075600
      },
      {
        "url": null,
        "timestamp": 1530097200
      }
    ]
  }
}
